year_month,last_name,first_name,employee_number,team,census,team_volume,avg_per_cons,team_new_volume,fi_gross,team_front_gross,team_sfe,store_front_gross,store_sfe,store_volume,fi_pay,team_front_gross_pay,store_front_gross_pay,team_volume_bonus,team_new_volume_bonus,store_volume_bonus,pto_pay,total_earned,guarantee,draw,due_at_month_end,last_updated
201710,Aubol,Thomas,17534,team aubol,6,43.5,7.25,22.0,51378.66,33489.57,8950.00,177460.88,58500.00,335,3596.51,954.89,589.90,1087.50,660.00,0.00,0.00,6888.80,10000.00,500.00,9500.00,2017-11-01 07:52:15.398187-05
201710,Eden,Corey,137220,team eden,5,41.0,8.20,20.0,51171.14,13831.41,8700.00,177460.88,58500.00,335,3581.98,506.96,589.90,1025.00,600.00,0.00,0.00,6303.84,0.00,500.00,5803.84,2017-11-01 07:52:15.398187-05
201710,Langenstein,Jared,184625,team a-z,5,39.0,7.80,11.0,22515.19,17371.80,5800.00,177460.88,58500.00,335,1576.06,521.37,589.90,975.00,330.00,0.00,0.00,3992.33,0.00,0.00,3992.33,2017-11-01 07:52:15.398187-05
201710,Stout,Rick,1132700,team stout,5,50.0,10.00,27.5,72859.98,7968.12,9150.00,177460.88,58500.00,335,5100.20,385.16,589.90,1250.00,825.00,0.00,0.00,8150.26,12000.00,3500.00,8500.00,2017-11-01 07:52:15.398187-05
201710,Michael,Anthony,195460,team anthony,6,64.5,10.75,36.5,37910.96,60248.64,15000.00,177460.88,58500.00,335,2653.77,1693.09,589.90,1612.50,1095.00,0.00,0.00,7644.26,0.00,500.00,7144.26,2017-11-01 07:52:15.398187-05
