year_month,last_name,first_name,employee_number,team,census,team_volume,avg_per_cons,team_new_volume,fi_gross,team_front_gross,team_sfe,store_front_gross,store_sfe,store_volume,fi_pay,team_front_gross_pay,store_front_gross_pay,team_volume_bonus,team_new_volume_bonus,store_volume_bonus,pto_pay,total_earned,guarantee,draw,due_at_month_end,last_updated
201709,Michael,Anthony,195460,team anthony,4,47.5,11.88,25.5,31972.05,27350.51,8400.00,261794.80,39200.00,310,2238.04,804.39,752.49,1187.50,765.00,0.00,1277.44,7024.86,0.00,500.00,6524.86,2017-10-01 15:48:02.721792-05
201709,Aubol,Thomas,17534,team aubol,4,35.5,8.88,18.5,57868.67,30981.79,4900.00,261794.80,39200.00,310,4050.81,807.34,752.49,887.50,555.00,0.00,0.00,7053.14,10000.00,500.00,9500.00,2017-10-01 15:48:02.721792-05
201709,Langenstein,Jared,184625,team a-z,1,6.0,6.00,5.0,28384.22,4874.14,0.00,261794.80,39200.00,310,1986.90,109.67,752.49,150.00,150.00,0.00,0.00,3149.06,0.00,0.00,3149.06,2017-10-01 15:48:02.721792-05
201709,Eden,Corey,137220,team eden,3,24.0,8.00,9.0,51992.16,27312.40,1400.00,261794.80,39200.00,310,3639.45,646.03,752.49,600.00,270.00,0.00,0.00,5907.97,0.00,500.00,5407.97,2017-10-01 15:48:02.721792-05
201709,Stout,Rick,1132700,team stout,4,36.0,9.00,20.0,60320.04,25635.61,6300.00,261794.80,39200.00,310,4222.40,718.55,752.49,900.00,600.00,0.00,0.00,7193.44,12000.00,3500.00,8500.00,2017-10-01 15:48:02.721792-05
