total,psc_last_name,stock_number,unit_count,sale_type,vehicle_type,make,odometer_at_sale,total_care,service_contract,gap
2,Annan,31820RA,1,Retail,Used,FORD,59787,0,0,0
2,Annan,31890B,1,Retail,Used,CHEVROLET,99596,0,0,1
16,Barker,30609C,1,Retail,Used,DODGE,139946,0,0,0
16,Barker,30610B,1,Retail,Used,RAM,62806,0,0,0
16,Barker,31252A,1,Retail,Used,FORD,115779,0,1,0
16,Barker,31264RA,1,Retail,Used,CHEVROLET,51998,0,0,0
16,Barker,31460B,1,Retail,Used,NISSAN,112107,0,1,1
16,Barker,31469R,1,Lease,New,CHEVROLET,3195,0,0,0
16,Barker,31968A,1,Retail,Used,CHEVROLET,83421,0,0,0
16,Barker,32074XXA,1,Retail,Used,CHEVROLET,113374,0,0,0
16,Barker,32097XX,1,Retail,Used,CHEVROLET,11290,1,1,0
16,Barker,32175A,1,Retail,Used,CHEVROLET,61818,0,0,0
16,Barker,32191XXA,1,Retail,Used,NISSAN,23363,0,0,0
16,Barker,32196,1,Lease,New,CHEVROLET,125,0,0,0
16,Barker,32374A,1,Retail,Used,GMC,53753,0,1,0
16,Barker,32429XXA,1,Retail,Used,BUICK,71194,0,0,0
16,Barker,32462XXA,1,Retail,Used,PONTIAC,81158,0,0,0
16,Barker,32693XXA,1,Retail,Used,CHEVROLET,39035,0,0,0
7,Bedney,31827A,1,Retail,Used,CHEVROLET,78690,0,0,1
7,Bedney,32307,1,Lease,New,CHEVROLET,12,0,0,0
7,Bedney,32431XXB,1,Retail,Used,CHEVROLET,66408,0,0,0
7,Bedney,32548XX,1,Retail,Used,BUICK,18880,0,0,1
7,Bedney,32600,1,Retail,New,BUICK,22,1,1,0
7,Bedney,32782XX,1,Retail,Used,CHEVROLET,13121,0,1,1
7,Bedney,32810XX,1,Retail,Used,GMC,10641,0,1,0
7,Bedney,32835X,-1,Retail,Used,GMC,126072,0,0,-1
7,Bedney,32842A,1,Retail,Used,CHEVROLET,92597,0,0,0
5,Belgarde,31331A,1,Retail,Used,FORD,100590,0,0,0
5,Belgarde,31895XX,1,Retail,Used,CHEVROLET,27017,0,1,1
5,Belgarde,32160,1,Lease,New,GMC,109,0,0,0
5,Belgarde,32513A,1,Retail,Used,CHEVROLET,85369,0,0,0
5,Belgarde,32767XXA,1,Retail,Used,PONTIAC,135329,0,0,0
8,Bjarnason,30177XXC,1,Retail,Used,TOYOTA,70840,0,0,0
8,Bjarnason,31654XXA,1,Retail,Used,BUICK,82085,0,1,1
8,Bjarnason,31885XX,1,Retail,Used,CHEVROLET,14743,0,1,0
8,Bjarnason,32038PA,1,Retail,Used,CHEVROLET,10530,0,0,0
8,Bjarnason,32175,1,Retail,New,GMC,10,0,1,0
8,Bjarnason,32472,1,Lease,New,CHEVROLET,22,0,0,0
8,Bjarnason,32648XX,1,Retail,Used,CHEVROLET,51712,1,1,0
8,Bjarnason,32759,1,Retail,New,CHEVROLET,9,0,0,0
14,Chavez,31116,1,Retail,New,GMC,41,0,0,0
14,Chavez,31711R,1,Retail,New,CHEVROLET,2755,0,0,0
14,Chavez,31997,1,Lease,New,CHEVROLET,26,0,0,0
14,Chavez,32136,1,Retail,New,CHEVROLET,18,0,0,0
14,Chavez,32270A,1,Retail,Used,CHEVROLET,91680,0,0,0
14,Chavez,32634XX,1,Retail,Used,CHEVROLET,12572,0,0,0
14,Chavez,32731,1,Lease,New,CHEVROLET,12,0,0,0
14,Chavez,32767XX,1,Retail,Used,CHEVROLET,13820,0,1,0
14,Chavez,32813A,1,Retail,Used,CHEVROLET,53444,1,1,0
14,Chavez,32838,1,Retail,New,CHEVROLET,16,1,1,1
14,Chavez,32900XX,1,Retail,Used,GMC,26670,1,1,1
14,Chavez,32901,1,Fleet,New,CHEVROLET,339,0,1,0
14,Chavez,32925,1,Lease,New,GMC,400,0,0,0
14,Chavez,33037,1,Lease,New,CHEVROLET,249,0,0,0
18,Croaker,28628XXZ,1,Retail,Used,CHEVROLET,41418,1,1,0
18,Croaker,30189A,1,Retail,Used,BUICK,77085,0,0,0
18,Croaker,30369RB,1,Retail,Used,CHEVROLET,44798,0,1,1
18,Croaker,31418R,1,Retail,New,BUICK,2497,0,0,0
18,Croaker,31646A,1,Retail,Used,BUICK,40627,1,1,0
18,Croaker,31661XXA,1,Retail,Used,BUICK,50120,0,0,0
18,Croaker,31667A,1,Retail,Used,CHEVROLET,5179,0,0,0
18,Croaker,31675R,1,Retail,New,GMC,5154,0,1,0
18,Croaker,31741R,1,Retail,New,CHEVROLET,3226,0,0,0
18,Croaker,31744R,1,Retail,New,CHEVROLET,2857,0,1,0
18,Croaker,31866A,1,Retail,Used,CHEVROLET,66042,0,0,0
18,Croaker,32018,1,Lease,New,CHEVROLET,22,0,0,0
18,Croaker,32059,1,Lease,New,CHEVROLET,14,0,0,0
18,Croaker,32259A,-1,Retail,Used,RAM,13166,0,0,0
18,Croaker,32344,1,Lease,New,CHEVROLET,20,0,0,0
18,Croaker,32370,-1,Lease,New,CHEVROLET,17,0,0,0
18,Croaker,32514,1,Retail,New,CHEVROLET,36,0,0,0
18,Croaker,32701XXA,1,Retail,Used,HYUNDAI,80745,0,0,0
18,Croaker,32751XX,1,Retail,Used,GMC,19975,0,0,0
18,Croaker,32771XX,1,Retail,Used,CHEVROLET,24141,0,0,0
18,Croaker,32905XX,1,Retail,Used,CHEVROLET,9214,1,1,0
18,Croaker,32973,1,Retail,New,GMC,21,0,0,0
13.0,Decouteau,29596RA,1,Retail,Used,DODGE,66232,0,0,0
13.0,Decouteau,29707A,1,Retail,Used,TOYOTA,124533,0,0,0
13.0,Decouteau,29739A,1,Retail,Used,CHEVROLET,26094,0,1,0
13.0,Decouteau,31676,1,Retail,New,GMC,24,0,0,0
13.0,Decouteau,31941,1,Lease,New,CHEVROLET,28,0,0,0
13.0,Decouteau,31994L,1,Retail,Used,GMC,44766,0,0,0
13.0,Decouteau,32003A,1,Retail,Used,CHEVROLET,34882,0,0,0
13.0,Decouteau,32215,1,Retail,New,CHEVROLET,12,0,1,0
13.0,Decouteau,32302A,0.5,Retail,Used,CHEVROLET,85069,0,1,1
13.0,Decouteau,32338,1,Lease,New,CHEVROLET,42,0,0,0
13.0,Decouteau,32444,1,Lease,New,CHEVROLET,25,0,0,0
13.0,Decouteau,32546XX,1,Retail,Used,GMC,46162,0,0,1
13.0,Decouteau,32701XX,0.5,Retail,Used,BUICK,20222,0,1,0
13.0,Decouteau,32993,1,Retail,New,GMC,206,0,0,0
10,Eastman,31910L,1,Retail,Used,CHEVROLET,35318,0,0,0
10,Eastman,31937,1,Retail,New,CHEVROLET,8,0,1,0
10,Eastman,32131,1,Retail,New,CHEVROLET,9,0,0,0
10,Eastman,32158,1,Retail,New,CHEVROLET,9,0,1,0
10,Eastman,32167XX,1,Retail,Used,CHEVROLET,29908,0,1,0
10,Eastman,32573A,1,Retail,Used,CHEVROLET,50208,0,0,0
10,Eastman,32774XX,1,Retail,Used,CHEVROLET,27060,0,0,1
10,Eastman,32908XX,1,Retail,Used,CHEVROLET,17489,0,1,0
10,Eastman,33057,1,Retail,New,GMC,986,0,1,0
10,Eastman,33125,1,Retail,New,CHEVROLET,23,0,0,0
1.5,Flaat,31698,1,Fleet,New,CHEVROLET,10,0,0,0
1.5,Flaat,32886,0.5,Retail,New,CHEVROLET,12,1,1,0
10,Foster,31263R,1,Retail,New,CHEVROLET,3895,0,1,0
10,Foster,31967,1,Lease,New,CHEVROLET,15,0,0,0
10,Foster,32208ABB,1,Retail,Used,FORD,20125,0,0,0
10,Foster,32323XXA,1,Retail,Used,CHEVROLET,36666,0,1,1
10,Foster,32431XXA,1,Retail,Used,FORD,75355,0,1,1
10,Foster,32654A,1,Retail,Used,CHEVROLET,45903,0,0,1
10,Foster,32654B,1,Retail,Used,GMC,98721,0,0,0
10,Foster,32784XX,1,Retail,Used,CHEVROLET,15395,0,1,1
10,Foster,32994,1,Retail,New,CHEVROLET,347,0,1,0
10,Foster,33041X,1,Retail,Used,CHEVROLET,60701,0,0,0
8,Haley,32025,1,Lease,New,CHEVROLET,31,0,0,0
8,Haley,32120,1,Lease,New,CHEVROLET,15,0,0,0
8,Haley,32258A,1,Retail,Used,CHEVROLET,98269,1,1,1
8,Haley,32465,1,Retail,New,CHEVROLET,15,1,1,0
8,Haley,32593,1,Lease,New,GMC,99,0,0,0
8,Haley,32765XXA,1,Retail,Used,CHEVROLET,51625,0,0,0
8,Haley,32989X,1,Retail,Used,NISSAN,103812,0,0,0
8,Haley,33062X,1,Retail,Used,DODGE,114839,0,0,0
1,Hill Defender,31836A,1,Retail,Used,CHEVROLET,41327,0,0,0
13,Holland,28946RA,1,Retail,Used,BUICK,10447,1,1,1
13,Holland,30663XXB,1,Retail,Used,CHEVROLET,95249,0,0,1
13,Holland,31500XXA,1,Retail,Used,CADILLAC,41601,0,1,0
13,Holland,31607A,1,Retail,Used,CHEVROLET,143415,0,0,0
13,Holland,31705A,1,Retail,Used,CHEVROLET,83755,0,0,0
13,Holland,31793,1,Lease,New,CHEVROLET,28,0,0,0
13,Holland,32519,1,Retail,New,CHEVROLET,12,0,0,0
13,Holland,32639,1,Lease,New,CHEVROLET,15,0,0,0
13,Holland,32703A,1,Retail,Used,CHEVROLET,50023,0,1,1
13,Holland,32818P,1,Retail,Used,BUICK,49736,0,1,0
13,Holland,32846XA,1,Retail,Used,BUICK,151900,0,0,0
13,Holland,33004X,1,Retail,Used,GMC,16005,1,1,1
13,Holland,33020,1,Retail,New,GMC,179,0,0,0
12,Janzen,29415,1,Retail,New,BUICK,65,0,0,0
12,Janzen,31890A,1,Retail,Used,GMC,33870,1,1,0
12,Janzen,32137A,1,Retail,Used,TOYOTA,37032,0,0,0
12,Janzen,32227XX,1,Retail,Used,CHEVROLET,15511,1,1,1
12,Janzen,32296A,1,Retail,Used,GMC,47010,0,0,0
12,Janzen,32372A,1,Retail,Used,CHEVROLET,40380,0,1,0
12,Janzen,32489XX,1,Retail,Used,BUICK,17489,0,1,0
12,Janzen,32682XX,1,Retail,Used,CHEVROLET,22378,0,0,1
12,Janzen,32835X,1,Retail,Used,GMC,126428,0,0,1
12,Janzen,32928XX,1,Retail,Used,CHEVROLET,25424,1,1,1
12,Janzen,33015X,1,Retail,Used,TOYOTA,81255,0,1,1
12,Janzen,33061X,1,Retail,Used,GMC,64705,0,0,1
2.0,Longoria,30609D,0.5,Retail,Used,CHEVROLET,118258,0,0,1
2.0,Longoria,32336PA,1,Retail,Used,CHEVROLET,26750,0,0,0
2.0,Longoria,32806A,0.5,Retail,Used,GMC,93623,0,0,1
12,Loven,30639RB,1,Retail,Used,GMC,103456,0,0,0
12,Loven,31741RA,1,Retail,Used,GMC,44175,0,0,0
12,Loven,31807R,1,Retail,New,CHEVROLET,3120,1,1,0
12,Loven,32020A,1,Retail,Used,GMC,47923,0,0,0
12,Loven,32047XX,1,Retail,Used,BUICK,732,0,0,0
12,Loven,32178B,1,Retail,Used,CHEVROLET,80266,0,0,0
12,Loven,32547XX,1,Retail,Used,BUICK,15214,0,0,0
12,Loven,32622XX,1,Retail,Used,BUICK,21530,1,1,0
12,Loven,32730,1,Retail,New,CHEVROLET,22,0,0,0
12,Loven,32742XX,1,Retail,Used,CHEVROLET,20470,1,1,1
12,Loven,32813B,1,Retail,Used,TOYOTA,57606,0,0,0
12,Loven,32821,1,Retail,New,CHEVROLET,2,0,0,0
9.5,Mulhern,31930XX,1,Retail,Used,CHEVROLET,45668,0,0,0
9.5,Mulhern,31933RA,1,Retail,Used,CHEVROLET,98820,0,0,0
9.5,Mulhern,32034,1,Lease,New,GMC,28,0,0,0
9.5,Mulhern,32130A,1,Retail,Used,GMC,80812,0,1,0
9.5,Mulhern,32248A,1,Retail,Used,CHEVROLET,67398,0,0,0
9.5,Mulhern,32557XX,1,Retail,Used,CHEVROLET,14605,0,0,0
9.5,Mulhern,32849,1,Fleet,New,CHEVROLET,136,0,0,0
9.5,Mulhern,32880,1,Lease,New,CHEVROLET,64,0,0,0
9.5,Mulhern,32886,0.5,Retail,New,CHEVROLET,12,1,1,0
9.5,Mulhern,32903X,1,Retail,Used,JEEP,74215,0,1,1
4.0,Schneider,30621R,1,Retail,New,CHEVROLET,2958,0,0,1
4.0,Schneider,32674A,1,Retail,Used,CHEVROLET,25398,0,0,0
4.0,Schneider,32701XX,0.5,Retail,Used,BUICK,20222,0,1,0
4.0,Schneider,32858,1,Retail,New,CHEVROLET,294,0,0,0
4.0,Schneider,33030,0.5,Retail,New,GMC,12,1,1,0
15.5,Seay,30609D,0.5,Retail,Used,CHEVROLET,118258,0,0,1
15.5,Seay,30724A,1,Retail,Used,BUICK,66950,0,0,0
15.5,Seay,31252B,1,Retail,Used,FORD,107302,0,0,0
15.5,Seay,31480,1,Retail,New,CHEVROLET,52,0,1,1
15.5,Seay,31946AA,1,Retail,Used,CHEVROLET,5924,0,0,0
15.5,Seay,31951XX,1,Retail,Used,CHEVROLET,21419,0,1,1
15.5,Seay,32035AA,1,Retail,Used,CADILLAC,21538,0,1,0
15.5,Seay,32302A,0.5,Retail,Used,CHEVROLET,85069,0,1,1
15.5,Seay,32469AA,1,Retail,Used,CHEVROLET,15932,0,1,0
15.5,Seay,32517AA,1,Retail,Used,CHEVROLET,25735,0,0,0
15.5,Seay,32623XX,1,Retail,Used,CHEVROLET,31584,0,1,1
15.5,Seay,32693XX,1,Retail,Used,CHEVROLET,11283,0,1,1
15.5,Seay,32738P,1,Retail,Used,FORD,111090,0,0,1
15.5,Seay,32806A,0.5,Retail,Used,GMC,93623,0,0,1
15.5,Seay,32887L,1,Retail,Used,CHEVROLET,15601,0,1,0
15.5,Seay,33075X,1,Retail,Used,CHEVROLET,45275,0,1,0
15.5,Seay,33122X,1,Retail,Used,FORD,78082,0,0,0
13,Stadstad,31919XX,1,Retail,Used,CHEVROLET,24338,0,0,0
13,Stadstad,31919XXA,1,Retail,Used,FORD,11415,0,0,0
13,Stadstad,31974R,1,Retail,New,GMC,2875,0,1,0
13,Stadstad,32135,1,Lease,New,CHEVROLET,46,0,0,0
13,Stadstad,32233,1,Lease,New,CHEVROLET,23,0,0,0
13,Stadstad,32468,1,Lease,New,CHEVROLET,16,0,0,0
13,Stadstad,32750XX,1,Retail,Used,CHEVROLET,24357,0,0,0
13,Stadstad,32804,1,Lease,New,CHEVROLET,42,0,0,0
13,Stadstad,32830A,1,Retail,Used,CHEVROLET,71070,0,1,0
13,Stadstad,33019,1,Retail,New,CHEVROLET,20,0,0,0
13,Stadstad,H10742,1,Lease,New,NISSAN,124,0,0,0
13,Stadstad,H10841,1,Lease,New,HONDA,10,0,0,0
13,Stadstad,H10943,1,Retail,New,HONDA,227,0,0,0
6,Tarr,31067AB,1,Retail,Used,CHEVROLET,79697,0,1,1
6,Tarr,31499XXA,1,Retail,Used,CADILLAC,37216,0,0,0
6,Tarr,31753A,1,Retail,Used,CHEVROLET,53514,1,1,1
6,Tarr,32400A,1,Retail,Used,BUICK,65388,0,0,0
6,Tarr,32433XX,1,Retail,Used,CADILLAC,19912,0,0,0
6,Tarr,32718,1,Lease,New,GMC,23,0,0,0
1,Vanyo,32132,1,Lease,New,CHEVROLET,11,0,0,0
12.5,Warmack,30450RB,1,Retail,Used,FORD,71260,0,0,0
12.5,Warmack,31961K,1,Retail,Used,CADILLAC,31316,1,1,0
12.5,Warmack,32343,1,Lease,New,CHEVROLET,15,0,0,0
12.5,Warmack,32485XX,1,Retail,Used,CHEVROLET,20651,0,0,0
12.5,Warmack,32523,1,Lease,New,CHEVROLET,23,0,0,0
12.5,Warmack,32603XX,1,Retail,Used,CHEVROLET,18380,0,1,0
12.5,Warmack,32629,1,Fleet,New,CHEVROLET,164,0,0,0
12.5,Warmack,32658A,1,Retail,Used,CHEVROLET,43335,0,1,0
12.5,Warmack,32869XX,1,Retail,Used,CHEVROLET,11610,0,1,0
12.5,Warmack,32881L,1,Retail,Used,GMC,16473,1,1,1
12.5,Warmack,32956,1,Retail,New,GMC,13,1,1,0
12.5,Warmack,33030,0.5,Retail,New,GMC,12,1,1,0
12.5,Warmack,33095,1,Retail,New,GMC,509,1,1,1
15,Weber,29601RB,1,Retail,Used,BUICK,94977,0,0,0
15,Weber,31470,1,Retail,New,CHEVROLET,45,0,0,0
15,Weber,31974RA,1,Retail,Used,CHEVROLET,172495,0,0,0
15,Weber,32073XXB,1,Retail,Used,FORD,121177,0,0,0
15,Weber,32325XXA,1,Retail,Used,CHEVROLET,51130,0,0,0
15,Weber,32510,1,Retail,New,CHEVROLET,10,0,0,1
15,Weber,32549XXA,1,Retail,Used,CHRYSLER,99742,0,1,0
15,Weber,32652,1,Retail,New,CHEVROLET,12,0,1,0
15,Weber,32680XX,1,Retail,Used,BUICK,13448,0,0,0
15,Weber,32746A,1,Retail,Used,GMC,20640,0,1,1
15,Weber,32762,1,Lease,New,GMC,112,0,0,0
15,Weber,32765XX,1,Retail,Used,CHEVROLET,17640,0,1,0
15,Weber,32842,1,Retail,New,CHEVROLET,12,0,0,0
15,Weber,32893,1,Retail,New,GMC,14,0,1,0
15,Weber,33063,1,Retail,New,CHEVROLET,12,0,0,0
