year_month,team,last_name,first_name,employee_number,payplan,unit_count,unit_pay,fi_pay,total_care,service_contract,gap,lease,new_cadillac,hourly_pay,overtime_pay,pto_pay,total_earned,draw,guarantee,due_at_month_end
201802,team foster,Anderson,Cody,195632,standard,1,280,113.65,25,25,15,0,0,0,0,0,458.65,500,0,-41.35
201802,team knudson,Annan,Papa Kwesi,12654,hourly,7,1960,110.57,25,50,0,0,0,0,0,0,0,500,3000,2500.00
201802,team eden,Barker,Joshua,110052,executive,16,4060,3292.52,25,225,60,0,0,0,0,0,7662.52,500,3000,7162.52
201802,team anthony,Bedney,Tyler,112589,standard,1,280,79.44,0,25,15,0,0,0,0,0,399.44,500,3000,2500.00
201802,team stout,Belgarde,Ross,12242,standard,13,3640,780.02,100,175,75,25,0,0,0,0,4795.02,500,3000,4295.02
201802,team stout,Bjarnason,Justin,147741,standard,8,2240,422.98,75,75,30,50,0,0,0,0,2892.98,500,3000,2500.00
201802,team anthony,Chavez,Jesse,124120,standard,9,2520,536.8,50,125,45,0,0,0,0,0,3276.8,500,3000,2776.80
201802,team aubol,Croaker,Craig,128530,standard,23,7590,1145.36,100,325,105,50,0,0,0,0,9315.36,500,3000,8815.36
201802,team anthony,Decouteau,Frank,15552,executive,10,2530,1292.09,0,75,0,25,0,0,0,0,3922.09,500,3000,3422.09
201802,team stout,Eastman,Donovan,1212688,standard,7,1960,250.1,0,50,15,50,0,0,0,0,2325.1,500,3000,2500.00
201802,team foster,Flaat,Stephen,145840,standard,16,4480,201.8,0,50,0,75,0,0,0,0,4806.8,500,3000,4306.80
201802,team eden,Foster,Samuel,148080,executive,14,3530,2471.79,25,75,60,0,0,0,0,0,6161.79,500,3000,5661.79
201802,team anthony,Haley,Dylanger,163700,standard,19,5320,548.53,50,125,15,125,0,0,0,168.72,6352.25,500,3000,5852.25
201802,team knudson,Hill Defender,Ryan,186593,hourly,5,1400,312.08,50,50,30,0,0,0,0,0,0,500,3000,2500.00
201802,team anthony,Holland,Nikolai,111232,standard,14,3920,307.93,0,125,15,50,0,0,0,0,4417.93,500,3000,3917.93
201802,team foster,Longoria,Brandon,187594,hourly,4,1120,251.6,25,50,15,0,0,0,0,0,0,250,3000,2750.00
201802,team knudson,Loven,Arden,189100,standard,11,3080,343.17,0,50,60,25,0,0,0,0,3558.17,500,3000,3058.17
201802,team foster,Mulhern,Alan,151702,standard,10,2800,114.86,0,25,15,50,0,0,0,0,3004.86,500,3000,2504.86
201802,team aubol,Schneider,Brian,1566882,standard,3,840,3.5,0,0,0,25,0,0,0,0,868.5,500,3000,2500.00
201802,team eden,Seay,Bryn,1124625,executive,14,3500,1976.98,0,150,45,50,0,0,0,0,5721.98,500,3000,5221.98
201802,team knudson,Stadstad,Larry,1130690,standard,12,3360,185.16,25,100,0,75,0,0,0,0,3745.16,500,5000,4500.00
201802,team foster,Tarr,Jeff,1135518,standard,17,4760,288.45,0,75,60,25,0,0,0,0,5208.45,500,3000,4708.45
201802,team eden,Vanyo,David,178543,hourly,4,1120,41.95,0,0,0,0,0,0,0,0,0,500,3000,2500.00
201802,team knudson,Warmack,James,1147250,standard,19,6270,408.57,25,50,30,175,0,0,0,1453.32,8411.89,500,3000,7911.89
201802,team eden,Weber,James,1147810,executive,21,5310,1928.01,25,125,30,50,0,0,0,0,7468.01,500,3000,6968.01
