amount,vin,stock_number,account
700,1GKKNULS1JZ190097,32890,1623012
700,1GKKNULS7JZ205430,G33266,1623012
700,1GKKNXLS2JZ140147,32139,1623012
700,1GKKNXLS4JZ182819,32719,1623012
700,1GKKNXLS4JZ193125,32962,1623012
700,1GKKNXLS5JZ120572,31975R,1623012
700,1GKKNXLS7JZ193166,32963,1623012
700,1GKKNXLS8JZ181382,32717,1623012
700,1GKKNXLSXJZ190603,32958,1623012
700,1GKKNXLSXJZ190746,32957,1623012
700,1GKS2CKJ2JR248889,G33112,1631012
700,1GT12TEG7JF191582,G33269,1629312
700,1GT12UEY5JF207700,G33243,1629312
700,1GT12UEY5JF215084,G33240,1640012
700,1GT12UEYXJF204548,33083,1629312
700,1GT12UEYXJF215050,G33239,1640012
700,1GTG6DEN0J1196199,G33348,1628012
700,1GTG6EEN3J1150307,32313,1628012
700,1GTG6EEN9J1122592,32026,1628012
700,1GTV2MEC1JZ175414,32398,1629012
700,1GTV2MEC4JZ147204,32162,1629012
700,1GTV2MEC6JZ177014,32409,1629012
700,1GTV2MEC8JZ175779,32397,1629012
1400,3GKALTEV1JL194578,32241,1624012
1400,3GKALTEV3JL230626,32610,1624012
1400,3GKALTEV3JL260273,32861,1624012
1400,3GKALTEV3JL268423,32953,1624012
1400,3GKALTEV4JL233146,32630,1624012
1400,3GKALTEV7JL220357,32524,1624012
1400,3GKALTEV8JL265162,32952,1624012
1400,3GKALTEVXJL235421,32632,1624012
1400,3GKALTEX3JL127837,31522R,1624012
1400,3GKALVEV0JL264292,32954,1624012
1400,3GKALVEV3JL274170,33070,1624012
1400,3GKALVEV5JL222572,G33393,1624012
1400,3GKALVEV9JL247166,G33425,1624012
1400,3GKALVEX2JL254803,G33420,1624012
700,3GTU2NEC0JG293178,G33161,1629312
700,3GTU2NEC1JG158985,32556R,1629312
700,3GTU2NEC1JG296946,G33215,1629312
700,3GTU2NEC7JG297213,G33217,1629312
700,3GTU2NEC8JG241720,G33128,1629312
700,3GTU2NEC9JG175484,G33192,1629312
700,3GTU2NECXJG286626,33079,1629312
800,5GAEVAKW0JJ182830,32897,1625004
800,5GAEVBKW9JJ185683,32982,1640004
800,5GAEVCKW5JJ170474,32723,1625004
800,KL4CJASB2HB127177,31863,1626004
800,KL4CJBSB1JB546942,32238,1626004
