,,,,,,,15-Apr,17-Apr,,30-Apr,1-May,,14-May,15-May,,29-May,,31-May,12-Jun,,15-Jun,17-Jun,26-Jun,,30-Jun,2-Jul,10-Jul,,15-Jul,24-Jul,,31-Jul,5-Aug,7-Aug,,14-Aug
store,emp_number,employee_name,hire_date,term_date,H/C/S,B/S,Total Wages,Wages/Hr,Total Wages,Total Wages,Wages/Hr,Total Wages,Total Wages,Wages/Hr,Total Wages,Wages/Hr,Total Wages,Total Wages,Wages/Hr,Total Wages,Total Wages,Total Wages,Wages/Hr,Total Wages,Total Wages,Total Wages,Wages/Hr,Total Wages,Total Wages,Wages/Hr,Total Wages,Total Wages,Total Wages,hr_0807,Total Wages,Total Wages
RY1,168573,"AAMODT, MATTHEW",8/4/2019,,H,B,,17,1415.42,,17,1307.47,,17,1356.43,17,1530.94,,17,1206.15,,,17,1512.66,,,17,1473.56,,17,1324.13,,,17,1496.85,
RY1,143769,"AANENSON, AMANDA",6/3/2019,,H,B,,15,964.65,,15,1370.2,,15,1159.5,15,1188,,15.25,1413.55,,,15.25,1240.59,,,15.25,1466.83,,15.25,1223.06,,,15.25,1434.35,
RY1,159876,"AANENSON, GENE",10/31/2019,,H,B,,10,,,10,200,,10,100,10,100,,10,100,,,10,40,,,10,,,10,,,,10,,
RY1,154785,"AANSTAD, TANNER",4/20/2020,,H,B,,,,,12,330,,12,775.92,12,603.24,,12,505.56,,,14,1211.62,,,14,793.84,,14,903.14,,,14,921.45,
RY1,193457,"AAS, SCOTT",3/16/2020,,H,B,,14,1505.35,,14,1522.36,,14,1543.15,14,1730.89,,14,1547.84,,,14,1707.37,,,14,1740.2,,14,1606.15,,,14,1663.48,
RY1,11660,"ADAM, PATRICK",4/25/2016,,C,B,,,2538.5,,,4257.17,,,2538.45,,2538.45,,,2738.45,,,,2538.45,,,,3133.29,,,2541.72,,,,3182.29,
RY1,197642,"ADHIKARI, OM",6/17/2019,,H,B,,13,1072.37,,13,801.97,,13,1079,13,1072.57,,13,1068.15,,,13,1067.17,,,13,1145.95,,13,1093.63,,,13,1113.13,
RY1,11732,"AGUILAR, ANNA",9/8/2015,,H,B,,18,1505.61,,18,1419.84,,18,1586.34,18,1521,,18,1480.5,,,18,1326,,,18,1808.1,,18,1562.58,,,18,1621.44,
RY1,10568,"AKER, CADEN",11/6/2017,,H,B,,15,1946.5,,15,1943.63,,15,1720.95,15,720.3,,15,420.45,,,15,1110.56,,,15,1039.38,,15,1209.44,,,15,1519.92,
RY1,175398,"ALLARD, BROCK",10/9/2019,6/15/2020,H,B,,12,432,,12,432,,12,432,12,432,,12,432,,,12,,,,12,,,12,,,,12,,
RY1,168575,"ALOISIO, MADYSON",12/17/2019,,H,B,,12,595.44,,12,613.44,,12,264.84,12,330.24,,12,339.84,,,12,498.6,,,12,470.88,,12,474.12,,,12,198.48,
RY1,12725,"ALSLEBEN, DEVIN R",8/18/2017,4/7/2020,H,B,,14,997,,14,,,14,,14,,,14,,,,14,,,,14,,,14,,,,14,,
RY1,147832,"ALTEPETER, GRAYSON",7/11/2019,,H,B,,12,762.36,,12,744.48,,12,894.66,12,906.18,,12,1052.7,,,12,660.6,,,12,950.28,,12,962.22,,,12,896.64,
RY1,165873,"ANDERSON, NICHOLAS",7/6/2020,,H,B,,14,,,14,,,14,,14,,,14,,,,14,,,,14,,,14,1017.25,,,14,1041.6,
RY1,13725,"ANDERSON, SHAWN W",2/2/2015,,C,B,,,5217.5,,,5217.71,,,5217.71,,5217.71,,,5217.71,,,,5904.4,,,,5948.84,,,6337.42,,,,5937.38,
RY1,13815,"ANDERSON, STEVEN L",3/10/2014,,H,B,,10,,,10,1040,,10,570,10,540,,10,520,,,10,305,,,10,1489,,10,673.5,,,10,640,
RY1,16425,"ANDREWS, JON",4/11/2006,,S,B,,,3269.24,,,3469.24,,,3269.24,,3269.24,,,3469.24,,,,3269.24,,,,3469.24,,,3269.24,,,,3469.24,
RY1,123578,"ATWELL, TREVOR",2/24/2020,,H,B,,12,858.24,,12,855.72,,12,841.68,12,927.6,,12,895.92,,,12,878.04,,,12,994.56,,12,737.88,,,12,950.1,
RY1,17534,"AUBOL, THOMAS B",11/9/1998,,C,S,850,,,10067.43,,,850,,,,,8966,,,850,,,,14750.76,,,,850,,,14031.33,,,,750
RY1,18005,"AXTMAN, DALE M",5/1/2001,,C,B,,,3260,,,3259.78,,,3259.78,,3259.78,,,3259.78,,,,3505.5,,,,3789.45,,,3464.68,,,,3517.94,
RY1,196575,"BACH, CASPER",3/24/2020,,C,S,500,,,2585,,,500,,,,,2575,,,500,,,,2500,,,,500,,,3225,,,,500
RY1,166873,"BAILLY, BRODY",3/5/2020,,H,B,,12,220,,12,168,,12,188.88,12,320.4,,12,288.96,,,12,381.18,,,12,554.38,,12,610.47,,,12,643.63,
RY1,165826,"BAKKEN, BRAYDON",6/29/2020,,H,B,,,,,,,,,,,,,,,,,,,,,12,173.04,,12,401.76,,,12,621,
RY1,174738,"BARBEAU, LUKE",11/19/2019,,H,B,,12,513.5,,12,515.04,,12,514.56,12,517.32,,12,832.44,,,12,895.7,,,12,781.63,,12,838.44,,,12,591.5,
RY1,111210,"BEAR, JEFFERY L",10/14/2014,,C,B,,,1982,,,1982.02,,,1982.02,,1982.02,,,2119.15,,,,1995.92,,,,1913.08,,,2144.37,,,,2008.17,
RY1,112589,"BEDNEY, TYLER",6/5/2017,,C,S,1200,,,4361,,,1200,,,,,6500,,,1700,,,,8100,,,,1200,,,8000,,,,1200
RY1,187564,"BEHM, PAUL",4/23/2018,6/12/2020,H,B,,14,1019,,14,991.42,,14,513.94,14,1021.86,,14,1346.36,,,14,1869.7,,,14,,,14,,,,14,,
RY1,185628,"BEISNER, EVAN",5/4/2020,5/4/2020,H,B,,,,,,,,12,24,12,,,12,,,,12,,,,12,,,12,,,,12,,
RY1,111250,"BEISWENGER, LYLE W",11/13/2012,,H,B,,10,,,10,520,,10,160,10,160,,10,360,,,10,,,,10,280,,10,90,,,10,200,
RY1,197523,"BEITER, GABRIELLE",8/12/2019,,H,B,,14,868.56,,14,977.34,,14,1008.14,14,926.38,,14,1223.95,,,14,1353.73,,,14,1102.99,,14,1016.96,,,14,1169.84,
RY1,156398,"BERG, ETHAN",10/9/2019,,H,B,,12,,,12,623.04,,12,570.24,12,534.12,,12,553.68,,,12,362.28,,,12,439.08,,12,460.08,,,12,492,
RY1,195359,"BERGE, THOMAS",10/8/2019,,H,B,,14,1036,,14,1036,,14,1044.68,14,1289.5,,14,1052.52,,,14,1039.35,,,14,1060.11,,14,1078.19,,,14,1580.37,
RY1,113085,"BERGH, STEVEN",6/30/2014,,S,B,,,1846.16,,,1946.16,,,1846.16,,1846.16,,,1946.16,,,,1846.16,,,,1946.16,,,1846.16,,,,1946.16,
RY1,196485,"BICKER, AUSTIN",3/24/2020,,H,B,,12,233,,12,,,12,244.08,12,444.24,,12,637.24,,,12,520.65,,,12,493.5,,12,420.37,,,12,693.82,
RY1,157953,"BIES II, DAVID",1/28/2019,,C,B,,,3091.4,,,3001.87,,,2901.87,,2901.87,,,3001.87,,,,2901.87,,,,4003.2,,,2540.2,,,,3454,
RY1,147741,"BJARNASON, JUSTIN",6/5/2017,,C,S,625,,,2223,,,625,,,,,2275,,,625,,,,4595.96,,,,625,,,1951.88,,,,625
RY1,115255,"BJORNSETH, MARK L",9/25/1989,,S,B,,,2500,,,2500,,,3100,,2500,,,2700,,,,2500,,,,2700,,,2500,,,,2700,
RY1,149852,"BLEWITT, ALEXIS",10/2/2019,,H,B,,14,560.7,,14,563.92,,14,569.38,14,574.56,,14,673.4,,,14,716.66,,,14,664.86,,14,737.8,,,14,368.06,
RY1,160930,"BLUMHAGEN, KATHERINE M",8/19/2002,,H,B,,10,2373,,10,2373.15,,10,2373.15,10,2373.15,,10,2373.15,,,10,2373.15,,,10,2527.92,,10,2268.93,,,10,2535.11,
RY1,165785,"BOEHMER, LARRY",3/24/2020,4/6/2020,H,B,,12,66,,12,,,12,,12,,,12,,,,12,,,,12,,,12,,,,12,,
RY1,116185,"BOHM, DOUGLAS",3/1/1993,,H,B,,19,1909.12,,19,1216,,19,1216,19,2700,,19,1548.5,,,19,76,,,19,1867.32,,19,1752.47,,,19,1994.62,
RY1,169843,"BOOKER, JEREMIAH",6/24/2019,6/19/2020,H,B,,14,1096.62,,14,894.6,,14,566.93,14,1117.9,,14,1192.03,,,14,1144.71,,,14,,,14,,,,14,,
RY1,118010,"BRAATEN, DEAN T",4/24/2017,,H,B,,15,1301.1,,15,1481.48,,15,1562.03,15,1442.33,,15,1581.68,,,15,1273.13,,,15,1446,,15,1345.13,,,15,1249.5,
RY1,195436,"BRAATEN, LOGAN",8/26/2019,,H,B,,14,431,,14,431.2,,14,665.98,14,448,,14,,,,14,,,,14,,,14,,,,14,,
RY1,165876,"BRIONES-BURNETT, KATRINA",4/6/2020,,H,B,,12,140.4,,12,455.88,,12,408.96,12,441.12,,12,492.84,,,12,375.84,,,12,431.88,,12,588.48,,,12,635.76,
RY1,165823,"BRODEN, MARK",8/19/2019,,H,B,,14,903.98,,14,931.84,,14,1136.73,14,1145.62,,14,1021.16,,,14,1015.91,,,14,1252.58,,14,833.14,,,14,1216.11,
RY1,118520,"BROOKS JR, DREW",4/2/2017,,H,B,,14,2098.5,,14,2098.5,,14,2058.95,14,1918.53,,14,2201.12,,,14,1745.9,,,14,2176.39,,14,2071.49,,,14,2474.24,
RY1,121063,"BRORBY, BO",11/23/2015,,H,B,,21.5,2261.16,,21.5,2178.3,,21.5,2051.21,21.5,2202.46,,21.5,2164,,,21.5,2144.41,,,21.5,2428.02,,21.5,2399.89,,,21.5,2370.19,
RY1,123211,"BRUGGEMAN, AFTON",8/1/2016,,S,B,,,2500,,,2800,,,2500,,2500,,,2800,,,,2500,,,,2800,,,2500,,,,2800,
RY1,158763,"BRUNK, JUSTIN",2/26/2018,8/3/2020,C,S,500,,,2150,,,500,,,,,2009,,,500,,,,3300,,,,500,,,3663,,,,
RY1,169345,"BRUNNER, ARIEL",7/27/2020,,H,B,,,,,,,,,,,,,,,,,,,,,,,,,,,,12,472.8,
RY1,145789,"BUCHANAN, KYLE",5/8/2017,,C,B,,,2297.62,,,2721.67,,,2471.67,,2471.67,,,2721.67,,,,2471.67,,,,3162.11,,,2879.5,,,,2967.47,
RY1,155477,"BUCKHOLZ, ZACHARY",4/10/2017,,H,B,,14,1323,,14,1325.8,,14,1318.17,14,1342.81,,14,1308.37,,,14,829.65,,,14,922.34,,14,821.28,,,14,997.57,
RY1,175873,"BUDEAU, KAYLA",3/27/2018,,H,B,,14,1591.3,,14,1671.43,,14,1337.14,14,1337.14,,14,1435.92,,,14,1120.28,,,14,1730,,14,1108.45,,,14,1750.76,
RY1,159375,"BUSHEE, BRYCE",11/19/2019,,H,B,,12,,,12,,,12,,12,,,12,,,,12,338,,,12,500.5,,12,901.19,,,12,927.71,
RY1,146982,"BUSSE, JORDAN",6/15/2020,,H,B,,,,,,,,,,,,,,,,,12,377.04,,,12,605.04,,12,809.64,,,13,684.58,
RY1,123100,"CAHALAN, BENJAMIN C",8/3/2011,,S,B,,,10576.93,,,4516.5,,,4166.5,,4166.5,,,4516.5,,,,4166.5,,,,4516.5,,,4166.5,,,,4516.5,
RY1,123946,"CANFIELD, EMILY",5/4/2020,,H,B,,,,,,,,12,393,12,1217.94,,12,1230.9,,,12,1140.72,,,12,,,12,,,,12,,
RY1,185462,"CARABALLO, CHRISTOPHER",10/7/2019,,C,S,500,,,2946,,,500,,,,,2946,,,500,,,,4625,,,,500,,,5400,,,,500
RY1,123525,"CARLSON, KENNETH A",1/1/2010,,H,B,,15,470.7,,15,889.85,,15,749.85,15,788.55,,15,882.5,,,15,343.35,,,15,855.95,,15,800.55,,,15,891.95,
RY1,123538,"CARLSON, ROBERT",4/1/1997,,C,S,6400,,,6000,,,6400,,,,,6000,,,6400,,,,6000,,,,6400,,,6000,,,,6400
RY1,169856,"CASTRO, DONOVAN",6/29/2020,,H,B,,,,,,,,,,,,,,,,,,,,,12,36,,12,448.32,,,12,,
RY1,124101,"CHAMPAGNE, LESLIE",8/25/2014,,H,B,,13.5,1029.51,,13.5,1017.36,,13.5,1134.27,13.5,1100.05,,13.5,1253.68,,,13.5,1097.56,,,13.5,1124.89,,13.5,1057.86,,,13.5,1201.5,
RY1,135987,"CLARK, ADAM",2/1/2018,,H,B,,14,,,14,398.58,,14,925.54,14,837.9,,14,990.5,,,14,1308.63,,,14,1108.96,,14,662.08,,,14,916.95,
RY1,125028,"CLARK, JOHNNY",5/18/2020,7/24/2020,H,B,,14,,,14,,,14,,14,373.24,,14,1159.83,,,14,1249.1,,,14,1406.11,,14,1272.26,,,14,245.4,
RY1,165980,"CLASEMAN, JAMIE",12/3/2018,,H,B,,12,822.84,,12,825,,12,934.92,12,951.96,,12,1042.98,,,12,923.16,,,12,956.16,,12,950.16,,,12,877.32,
RY1,162983,"CLOSE, PRESTON",9/12/2019,,C,S,600,,,2664,,,600,,,,,2864,,,600,,,,6075,,,,600,,,5725,,,,600
RY1,126200,"COCHRAN, MICHELLE C",1/24/2011,,S,B,,,2076.93,,,2101.93,,,2076.93,,2076.93,,,2101.93,,,,2076.93,,,,2101.93,,,2076.93,,,,2101.93,
RY1,169964,"COOK, COURTNIE",6/1/2020,,H,B,,,,,,,,,,,,,14,401.38,,,14,1175.51,,,14,1273.09,,14,1218.98,,,14,1264.9,
RY1,158963,"COOK, MATTHEW",6/3/2019,,H,B,,14,656.04,,14,926.24,,14,1055.6,14,1069.6,,14,1180.55,,,14,918.54,,,14,1514.87,,14,1423.03,,,14,1001.84,
RY1,196325,"COOLEY, CONNOR",1/28/2020,,H,B,,12,334,,12,336,,12,476.88,12,355.68,,12,342.96,,,12,365.56,,,12,341.5,,12,367.84,,,14,159.6,
RY1,186724,"CORY, CLAIRE",5/24/2019,,H,B,,12,493.56,,12,773.36,,12,654.6,12,458.52,,12,683.24,,,12,330.96,,,12,532.4,,12,493.8,,,12,596.96,
RY1,128530,"CROAKER, CRAIG R",1/30/2007,,C,S,800,,,8067,,,800,,,,,8017,,,800,,,,9169.56,,,,800,,,10650,,,,800
RY1,143298,"DAHLEY, SHELBY",7/11/2019,,H,B,,13,252.59,,13,375.44,,13,413.92,13,796.97,,13,1016.99,,,13,880.36,,,13,1097.98,,13,1051.83,,,13,919.88,
RY1,131370,"DAVID, GORDON",6/7/1995,,C,B,,,1886,,,1958.21,,,1885.81,,2089.6,,,1885.81,,,,1841.23,,,,2580.17,,,2276.84,,,,2383.73,
RY1,131315,"DAVIS, ERIC A",8/11/2014,,C,B,,,2062.2,,,2091.5,,,1991.5,,1991.5,,,2091.5,,,,2114,,,,2237.1,,,1990.1,,,,1931.9,
RY1,196314,"DEAN, VANDER",5/11/2020,,H,B,,,,,,,,14,,14,688.66,,14,1082.74,,,14,1500.85,,,14,1439.84,,14,1127.48,,,14,1515.3,
RY1,15552,"DECOUTEAU, FRANK A",9/25/2017,,C,S,1100,,,5294.4,,,975,,,,,5194,,,725,,,,8293.9,,,,725,,,6049.49,,,,725
RY1,132500,"DELOHERY, MICHAEL J",5/3/2010,,S,B,,,2538.47,,,2863.47,,,2538.47,,2538.47,,,2863.47,,,,2538.47,,,,2863.47,,,2538.47,,,,2863.47,
RY1,132489,"DEMANT, COLTEN",6/1/2020,,H,B,,,,,,,,,,,,,12,391.56,,,12,1067.25,,,12,912.88,,12,736.06,,,12,886.6,
RY1,154983,"DEVIER, RYLIE",12/3/2018,,H,B,,13,102.18,,13,330.88,,13,186.81,13,172.9,,13,271.47,,,13,74.23,,,13,115.47,,13,,,,13,,
RY1,154225,"DEZIEL, DYLAN",2/21/2019,,H,B,,14,1079.68,,14,1470.53,,14,1353.73,14,1357.09,,14,1602.48,,,14,1094.03,,,14,1402.84,,14,1209.25,,,14,1111.22,
RY1,15648,"DIBI, ANDREW",10/23/2017,4/24/2020,H,B,,17.75,1344.74,,17.75,1811.25,,17.75,,17.75,,,17.75,,,,17.75,,,,17.75,,,17.75,,,,17.75,,
RY1,138945,"DOCKENDORF, BEN",4/20/2020,,H,B,,,,,12,229.68,,12,348.96,12,383.76,,12,471,,,12,362.52,,,12,358.8,,12,453.48,,,12,559.2,
RY1,133017,"DOCKENDORF, NATE J",5/18/2015,,C,S,800,,,4674,,,800,,,,,5000,,,800,,,,7500,,,,800,,,8500,,,,800
RY1,135770,"DRISCOLL, TERRANCE",11/4/2002,,C,B,,,3146,,,3146.12,,,3146.12,,3146.12,,,3146.12,,,,3146.12,,,,3541.63,,,3064.69,,,,2757.54,
RY1,169645,"DUBOIS, DYLAN",8/3/2020,,C,S,,,,,,,,,,,,,,,,,,,,,,,,,,,,,,500
RY1,136170,"DUCKSTAD, JARED J",9/30/2002,,C,B,,,2761.5,,,2761.49,,,2761.49,,2761.49,,,2761.49,,,,3697.93,,,,3436.08,,,3082.62,,,,3024.73,
RY1,137495,"DUKES, JAYDA",5/18/2020,,H,B,,,,,,,,,,12,299.64,,12,493.92,,,12,564.84,,,12,542.28,,12,908.4,,,12,350.52,
RY1,137101,"EBERLE, MARCUS M",8/15/2016,,C,B,,,1725.5,,,1725.38,,,1725.38,,1725.38,,,1725.38,,,,1725.38,,,,2566.48,,,2089.48,,,,2100.6,
RY1,138380,"EICHHORST, NOEL E",8/30/1978,,H,B,,15,1069.2,,15,1144.9,,15,993.6,15,998.25,,15,1070.1,,,15,1008.15,,,15,998.7,,15,1082.1,,,15,973.8,
RY1,153835,"ELLINGSON, DANE",1/13/2020,,H,B,,13,,,13,,,13,,13,,,13,620.49,,,13,553.54,,,13,428.61,,13,553.67,,,13,571.61,
RY1,132963,"ERICKSON, DENNIS",4/3/2019,,H,B,,10,,,10,80,,10,40,10,40,,10,70,,,10,,,,10,70,,10,,,,10,,
RY1,175393,"ERICKSON, JUSTIN",11/19/2019,,C,B,,,1040,,,1040,,,1040,,1840.8,,,1101.1,,,,2433.8,,,,2835.95,,,2326.35,,,,2585.05,
RY1,189432,"ERICKSON, REED",5/4/2020,,H,B,,,,,,,,12,24,12,321.84,,12,421.44,,,12,413.76,,,12,346.8,,12,418.32,,,12,243.24,
RY1,140500,"ERICKSON, RONALD J",10/12/2009,,C,S,900,,,4673,,,900,,,,,5950,,,900,,,,6200,,,,900,,,3185,3000,,,800
RY1,140790,"ESPELUND, KENNETH M",9/19/2005,,S,B,,,2769.24,,,3169.24,,,2769.24,,2769.24,,,2869.24,,,,2769.24,,,,2869.24,,,2769.24,,,,2869.24,
RY1,141060,"EULISS, NED",11/2/2004,,H,B,,8,3220.03,,8,2371.24,,8,2123.16,8,2125.28,,8,2236.12,,,8,1822.52,,,8,4444.07,,8,1806.6,,,8,3311.79,
RY1,141069,"EVAVOLD, DANIEL J",1/23/2007,,H,B,,11,2588,,11,2962.88,,11,2587.88,11,2587.88,,11,2962.88,,,11,2587.88,,,11,3084,,11,2479.2,,,11,3135.3,
RY1,195628,"EVENSON, JOSHUA",10/7/2019,,H,B,,8,1476.92,,8,1566.44,,8,1489.72,8,1681.88,,8,1701.16,,,8,1846.4,,,8,1761.54,,8,1846.56,,,8,1850.46,
RY1,154624,"EVERETT, JONAH",7/15/2020,,H,B,,,,,,,,,,,,,,,,,,,,,,,,12,221.88,,,12,433.44,
RY1,169846,"FARLEY, ETHAN",7/27/2020,,H,B,,,,,,,,,,,,,,,,,,,,,,,,,,,,12,132,
RY1,157939,"FEATHERSTONE, GARRETT",1/13/2020,,H,B,,12,860,,12,854.52,,12,752.28,14,917,,14,861.14,,,14,1141.2,,,14,1141.88,,14,738.9,,,14,1049.4,
RY1,159863,"FERRY, CARTER",2/12/2018,6/6/2020,C,B,,,1946.5,,,1973.99,,,2251.16,,1946.5,,,3662.98,,,,,,,,,,,,,,,,
RY1,145801,"FLAAT, GAVIN",4/11/2016,,C,B,,,2673,,,2672.81,,,2679.37,,1002.36,,,1754.12,,,,2884.93,,,,3344.1,,,3229.57,,,,2654.12,
RY1,183923,"FLORES, JOSHUA",10/9/2019,,H,B,,12,432,,12,432,,12,432,12,408,,12,432,,,12,,,,12,,,12,,,,12,,
RY1,169753,"FONTEYNE, MICHAEL",6/1/2020,,H,B,,,,,,,,,,,,,12,484.86,,,12,502.08,,,12,334.68,,12,573.36,,,12,496.32,
RY1,148050,"FOSTER, BENJAMIN F",10/21/2013,,S,B,,,4808,,,5108,,,4808,,4808,,,5108,,,,4808,,,,5108,,,4808,,,,5108,
RY1,148075,"FOSTER, KEVIN B",6/5/2006,,S,B,,,8846.16,,,4266.5,,,4166.5,,4166.5,,,4266.5,,,,4166.5,,,,4266.5,,,4166.5,,,,4266.5,
RY1,148080,"FOSTER, SAMUEL T",11/17/2014,,C,S,600,,,3300.76,,,600,,,,,4553.09,,,600,,,,6535.69,,,,600,,,3772.03,,,,600
RY1,165783,"FREITAG, TALON",5/21/2018,,H,B,,14,1022.42,,14,1276.98,,14,1087.8,14,,,14,,,,14,,,,14,,,14,,,,14,,
RY1,154328,"FREKING, NICOLAS",10/8/2018,,H,B,,12.6,802.62,,12.6,936.43,,12.6,934.54,12.6,1101.36,,12.6,1088.77,,,12.6,1029.04,,,12.6,1090.78,,12.6,479.05,,,12.6,1101.81,
RY1,155214,"GAGNON, ANASTASIA",5/27/2018,,H,B,,15,961.2,,15,1106.78,,15,1054.2,15,970.5,,15,1004.4,,,15,974.25,,,15,1063.2,,15,878.45,,,15,1062.55,
RY1,157995,"GAGNON, JUNE",2/11/2008,,S,B,,,1923.08,,,2173.08,,,1923.08,,1923.08,,,2173.08,,,,1923.08,,,,2173.08,,,1923.08,,,,2023.08,
RY1,149878,"GAGNON, TRACI L",10/30/2008,,H,B,,15,1221.08,,15,1479.9,,15,1365.6,15,1369.43,,15,1336.8,,,15,1258.58,,,15,1590.22,,15,1151.85,,,15,1569.41,
RY1,157394,"GAJMER, JOHN",10/9/2019,,H,B,,12,587.88,,12,579.36,,12,553.68,12,603.96,,12,603.6,,,12,777.42,,,12,816.26,,12,1000.4,,,12,195.65,
RY1,150105,"GARDNER, CHAD A",4/4/2011,,C,B,,,2701.5,,,2901.67,,,2701.67,,2701.67,,,2901.67,,,,2701.67,,,,4370.52,,,3112.2,,,,3068.98,
RY1,150120,"GARDNER, JOHN T",6/1/2014,,S,B,,,2169.23,,,2369.23,,,2169.23,,2169.23,,,2369.23,,,,2169.23,,,,2369.23,,,2169.23,,,,4369.23,
RY1,150126,"GEHRTZ, CLAYTON J",12/29/2014,,C,B,,,5343.5,,,5543.25,,,5343.25,,5343.25,,,5543.25,,,,5325.07,,,,5797.84,,,6099.29,,,,5249.36,
RY1,132584,"GERSZEWSKI, JOSEPH",8/5/2019,,H,B,,13,1161.5,,13,1264.61,,13,1182.94,13,1175.72,,13,1222.94,,,13,812.56,,,13,1174.48,,13,1124.76,,,14,1172.2,
RY1,174123,"GEST, ALEXIS",8/26/2019,,H,B,,12,,,12,,,12,,12,,,12,,,,12,749.44,,,12,473.52,,12,569.16,,,12,1120.56,
RY1,156988,"GIESLER, MEGAN",7/17/2017,5/15/2020,H,B,,14,695.1,,14,619.08,,14,618.8,14,307.86,,14,,,,14,,,,14,,,14,,,,14,,
RY1,152235,"GIRODAT, JEFF S",5/5/1986,,C,B,,,3612.5,,,3712.56,,,3864.89,,3612.56,,,3712.56,,,,4629.81,,,,4574.35,,,4243.41,,,,5345.81,
RY1,152480,"GOETZ, DUANE E",10/1/2012,,C,S,4500,,,4500,,,4500,,,,,4500,,,4500,,,,4500,,,,4500,,,4500,,,,4500
RY1,152490,"GONZALEZ, ANTHONY J",1/14/2019,4/1/2020,H,B,,12,103.92,,12,,,12,,12,,,12,,,,12,,,,12,,,12,,,,12,,
RY1,159857,"GONZALEZ, DANIEL",12/17/2019,,H,B,,13,804.31,,13,700.18,,13,1081.73,13,997.82,,13,1027.13,,,13,1211.41,,,13,1116.7,,13,922.09,,,13,1166.1,
RY1,153865,"GOODOIEN, DEREK",7/11/2019,,C,B,,14,1307.05,,14,1308.79,,14,1323.07,14,1323.49,,14,1317.61,,,16.5,1386,,,,1316.76,,,1934.21,,,,1802.53,
RY1,156987,"GORDON III, DOUGLAS",2/13/2020,5/21/2020,H,B,,12,1096.5,,12,,,12,,12,85.44,,12,,,,12,,,,12,,,12,,,,12,,
RY1,152499,"GOTHBERG, CONNER J",9/1/2015,,H,B,,15,1736.19,,15,1841.7,,15,2015.15,15,1857.3,,15,2092.55,,,15,2229.88,,,15,2193.5,,15,2399.08,,,15,2749.99,
RY1,175342,"GOULET, JENNIFER",8/26/2019,5/28/2020,H,B,,13,1166.17,,13,1089.73,,13,1040.26,13,966.42,,13,706.04,,,13,0,,,13,,,13,,,,13,,
RY1,152510,"GOULET, SHANE A",3/31/2014,,H,B,,14.5,1233.73,,14.5,1175.67,,14.5,1134.63,14.5,1155.36,,14.5,1258.89,,,14.5,1124.91,,,14.5,1220.03,,14.5,1125.64,,,14.5,1142.31,
RY1,149857,"GRAESSER, EVAN",6/29/2020,,H,B,,,,,,,,,,,,,,,,,,,,,14,681.5,,14,1374.72,,,14,1512.98,
RY1,152525,"GRANT, DESIREE L",5/19/2014,,C,B,,,1423,,,1423.19,,,1423.19,,1423.19,,,1503.6,,,,1423.88,,,,1436.07,,,1506.01,,,,1541.6,
RY1,152410,"GRAY, NATHAN J",8/22/2011,,C,B,,,2497.5,,,2497.51,,,2497.51,,2497.51,,,2497.51,,,,2252.05,,,,3160.96,,,2761.85,,,,2693.5,
RY1,198531,"GROVE, ALEXANDER",5/18/2020,,H,B,,12,,,12,,,12,,12,,,12,231,,,12,735.8,,,12,672.5,,12,578.58,,,12,449.28,
RY1,122558,"GRYSKIEWICZ, JONATHAN",5/22/2017,,C,B,,,1840.5,,,1940.45,,,1840.45,,1840.45,,,1940.45,,,,1840.45,,,,2168.56,,,2650.6,,,,2043.72,
RY1,137837,"GULLEKSON, ASHLEY",11/18/2019,,H,B,,14,1141,,14,1143.45,,14,1578.68,14,1080.8,,14,1565.69,,,14,1151.36,,,14,2210.96,,14,1006.32,,,14,2368.5,
RY1,196623,"GURUNG, DIWAS",6/29/2020,,H,B,,,,,,,,,,,,,,,,,,,,,12,382.5,,12,600.37,,,12,718.64,
RY1,165327,"GUST, MICAH",8/13/2018,,H,B,,12,392.16,,12,,,12,,12,,,12,,,,12,,,,12,,,12,874.08,,,12,,
RY1,145982,"HAARSTAD, BRITTANY",8/26/2019,,H,B,,16,1377.44,,16,1736.88,,16,2120.24,16,1965.44,,16,2066,,,16,772,,,16,2153.36,,16,1621.52,,,16,1594.16,
RY1,161010,"HAGA, MASON C",6/1/2015,,H,B,,14,419.5,,14,420,,14,438.9,14,597.94,,14,1021.68,,,14,1448.24,,,14,918.29,,14,456.57,,,14,1322.73,
RY1,195975,"HAGEN, TYLER",10/28/2019,,H,B,,21,1711.92,,21,1903.48,,21,2175.81,21,2046.66,,21,2076.1,,,21,2471.91,,,21,1985.07,,21,1948.07,,,21,1790.08,
RY1,164328,"HAHN, BRIDGER",12/17/2018,,H,B,,13,601.25,,13,471.38,,13,519.74,13,291.59,,13,,,,13,,,,13,,,13,,,,13,,
RY1,147852,"HALE, ELISA",2/24/2020,,H,B,,14,1080.7,,14,1259.27,,14,1711.88,14,1288.46,,14,1612.2,,,14,690.94,,,14,894.49,,14,661.96,,,14,941.33,
RY1,163700,"HALEY, DYLANGER",9/26/2016,,S,B,700,,,3192.32,,,,,,,,,,,,,,,,,,,,,,,,,,
RY1,163700,"HALEY, DYLANGER",9/26/2016,,S,B,,,,,,,,,2346.16,,1846.16,,,3946.16,,,,1846.16,,,,4446.16,,,1846.16,,,,3446.16,
RY1,178323,"HANSON, ADAM",11/19/2019,,H,B,,12,330,,12,331.2,,12,619.56,12,502.2,,12,665.52,,,12,774.67,,,12,764.94,,12,904.59,,,12,1009.8,
RY1,162428,"HARMON, TERRENCE J",10/1/2001,,H,B,,25,300,,25,250,,25,250,25,,,25,1463.25,,,25,2064.13,,,25,2301.5,,25,2429,,,25,2186.5,
RY1,175839,"HARREN, ZACHARY",11/19/2019,,H,B,,12,630.72,,12,604.56,,12,232.92,12,686.76,,12,355.68,,,12,438.72,,,12,575.04,,12,409.44,,,12,1146.36,
RY1,162800,"HARRIS, SHERIDAN",9/1/1955,,H,B,,10,,,10,320,,10,160,10,160,,10,160,,,10,255,,,10,275,,10,235,,,10,185,
RY1,163096,"HASTINGS, DAWN",1/6/1986,,H,B,,18,1431.81,,18,2069.34,,18,1697.85,18,1753.2,,18,2124.87,,,18,1513.17,,,18,1876.38,,18,1494.81,,,18,1924.62,
RY1,154760,"HATLOY, CHARTON",11/5/2018,,H,B,,12,128.28,,12,117.48,,12,79.56,12,615.6,,12,,,,12,,,,12,,,12,,,,12,,
RY1,165789,"HECK, SETH",1/14/2019,4/20/2020,C,S,500,,,4093.92,,,,,,,,,,,,,,,,,,,,,,,,,,
RY1,164015,"HEFFERNAN, JOSH",7/15/1995,,C,B,,,3006.5,,,3006.41,,,3006.41,,3006.41,,,3492.04,,,,3523.79,,,,3086.85,,,3653.97,,,,2723.29,
RY1,181876,"HENRY, JUDY",2/1/1994,,S,B,,,1923.08,,,2423.08,,,1923.08,,1923.08,,,2423.08,,,,1923.08,,,,2423.08,,,1923.08,,,,2423.08,
RY1,164920,"HEPOLA, JAMES W",11/15/2010,,C,B,,,471.9,,,571,,,728,,806,,,676,,,,598,,,,959.4,,,893.1,,,,652.6,
RY1,185600,"HIBMA, MORGAN E",8/1/2016,,S,B,,,2692.31,,,3092.31,,,2692.31,,2692.31,,,3092.31,,,,2692.31,,,,3092.31,,,3192.31,,,,4092.31,
RY1,165275,"HICKS, EMILY",9/12/2016,7/17/2020,H,B,,13.75,465.16,,13.75,320.79,,13.75,173.39,13.75,694.24,,13.75,1132,,,13.75,1051.88,,,13.75,994.4,,13.75,1067.96,,,13.75,,
RY1,165357,"HILL, BRIAN",8/28/2006,,H,B,,12,2610,,12,2810.08,,12,2610.08,12,2610.08,,12,2810.08,,,12,2610.08,,,12,3076.6,,12,2758.73,,,12,3174.31,
RY1,164329,"HINTZ, MATTHEW",6/26/2019,,H,B,,10,,,10,,,10,335.8,10,336.6,,12,953.28,,,12,1362.28,,,12,979.38,,12,798.24,,,12,807.6,
RY1,142589,"HLAVAC, TERRI",8/26/2019,6/1/2020,H,B,,18,1393.2,,18,1475.1,,18,1444.14,18,1451.25,,18,720,,,18,,,,18,,,18,,,,18,,
RY1,159873,"HOLUM, JACOB",11/4/2019,,H,B,,12,807.88,,12,688.8,,12,702,14,1797.53,,14,954.1,,,14,760.95,,,14,977.45,,14,706.82,,,14,272.55,
RY1,167812,"HOLWEGER, AMANDA J",4/25/2011,,H,B,,14,174.72,,14,325.12,,14,250.6,14,224.84,,14,322.74,,,14,148.68,,,14,342.34,,14,243.46,,,14,261.7,
RY1,167580,"HOLWERDA, KIRBY W",5/18/2011,,C,B,,,2591,,,2590.81,,,2590.81,,2599.13,,,2590.81,,,,2613.51,,,,5013.35,,,2076.78,,,,1981.63,
RY1,163245,"HOWARD, LIZ",7/27/2020,,H,B,,,,,,,,,,,,,,,,,,,,,,,,,,,,14,560,
RY1,167906,"HULL, DAVID",4/27/2015,,H,B,,15,1008.3,,15,1325.8,,15,1319.48,15,1344.9,,15,1516.3,,,15,1223.7,,,15,1423.6,,15,1207.8,,,15,1212.25,
RY1,168815,"HUNTER, JASON W",8/23/2018,,H,B,,14,,,14,,,14,,14,,,14,,,,14,,,,14,433.52,,14,216.44,,,14,504.78,
RY1,170150,"IVERSON, ARNOLD W",11/17/2017,,H,B,,10,,,10,840,,10,420,10,440,,10,530,,,10,272.5,,,10,492.5,,10,390,,,10,337.5,
RY1,171055,"JACOBSON, PETER A",12/13/2010,,C,B,,,3597.5,,,3597.72,,,3597.72,,3597.72,,,3597.64,,,,3597.72,,,,4114.96,,,3941.91,,,,4143.05,
RY1,172308,"JANKOWSKI, GARRETT",9/12/2019,,H,B,,8,1661.54,,8,2028.08,,8,2023.04,8,2028.44,,8,2015.56,,,8,2079.04,,,8,2140.92,,8,2080.48,,,8,2076.92,
RY1,172077,"JERSTAD, KENNETH",6/10/2002,,H,B,,23,1684.98,,23,1902.79,,23,1965.58,23,1910.38,,23,1864.38,,,23,2118.3,,,23,1940.28,,23,1862.89,,,23,2317.48,
RY1,184620,"JOHNSON, BENJAMIN R",1/20/2017,,H,B,,18,1659.78,,18,1486,,18,1485.79,18,1486,,18,1486,,,18,1486,,,18,1713.42,,18,1796.4,,,18,1705.95,
RY1,156844,"JOHNSON, DAVID",11/6/2017,,H,B,,19,1575.29,,19,1629.41,,19,1530.26,19,1537.86,,19,1623.99,,,19,1525.42,,,19,1759.46,,19,1522.85,,,19,1623.14,
RY1,195675,"JOHNSON, ISAIAH",6/29/2020,,H,B,,,,,,,,,,,,,,,,,,,,,13,335.79,,13,718.9,,,13,700.96,
RY1,168754,"JOHNSON, JOHNNY",4/20/2020,,H,B,,,,,18,530.82,,18,1031.94,18,1610.37,,18,1397.7,,,18,1371.06,,,18,1472.04,,18,1361.16,,,18,1590.21,
RY1,164286,"JOHNSON, LOGAN",5/17/2019,5/13/2020,H,B,,12,214.32,,12,616.32,,12,949.02,12,237.24,,12,,,,12,,,,12,,,12,,,,12,,
RY1,178050,"KIEFER, LUCAS M",5/19/2014,,C,B,,,1565,,,1565.11,,,1565.11,,1565.11,,,1565.11,,,,1715.32,,,,1716.78,,,1664.02,,,,1556.93,
RY1,178060,"KILEY, COLTON",6/6/2016,,H,B,,12,861.24,,12,629.04,,12,587.04,12,597.6,,12,836.2,,,12,366.84,,,12,160.56,,12,408.12,,,12,1178.48,
RY1,178079,"KILMER, JUSTIN",2/1/2007,,H,B,,16.5,1397.96,,16.5,2633.76,,16.5,1870.44,16.5,1876.88,,16.5,2105.43,,,16.5,1526.42,,,16.5,2148.67,,16.5,1405.64,,,16.5,2430.2,
RY1,165732,"KLOETY, HALEY",4/29/2019,,H,B,,14,1134.49,,14,1223.36,,14,1333.57,14,1358.35,,14,1412.15,,,14,1456.98,,,14,1724.07,,14,1384.95,,,14,1622.15,
RY1,132987,"KNOWLES, MAYHAYLA",12/18/2017,,H,B,,14,1158.85,,14,1888.89,,14,1384.39,14,1436.05,,14,1625.62,,,14,1087.1,,,14,2070.98,,14,1039.08,,,14,1901.98,
RY1,165288,"KNUTSON, AUSTIN",5/4/2020,,H,B,,,,,,,,12,241.32,12,123.36,,12,344.76,,,12,552.48,,,12,417.72,,12,728.79,,,12,687.99,
RY1,154219,"KOBAYASHI-DYER, NARUMI",10/1/2018,,H,B,600,,,1787,,,600,,,,,1950,16,,,,16,,,,16,,,16,,,,16,,
RY1,154219,"KOBAYASHI-DYER, NARUMI",10/1/2018,,H,B,,,,,,,,,,,,,16,723.04,,,16,2313.2,,,16,2079.36,,16,1731.92,,,16,1751.04,
RY1,179693,"KOENEN, DEBRA M",8/4/2008,,H,B,,13.5,949.46,,13.5,1338.73,,13.5,1097.42,13.5,1098.63,,13.5,1268.39,,,13.5,1074.2,,,13.5,1284.73,,13.5,1061.64,,,13.5,1317.13,
RY1,167834,"KOHLS, ADAM",4/11/2018,5/9/2020,C,S,500,,,1954,,,500,,,,,4,,,,,,,,,,,,,,,,,,
RY1,154876,"KOLLMAN, MAXWELL",2/24/2020,7/2/2020,H,B,,12,367.92,,12,329.28,,12,427.2,12,329.28,,12,268.8,,,12,405.72,,,12,215.88,,12,,,,12,,
RY1,179775,"KOLSTAD, KIRK R",3/1/1980,,H,B,,17,1251.8,,17,1561.03,,17,1503.06,17,1643.56,,17,1659.46,,,17,1431.15,,,17,1504.42,,17,1404.12,,,17,1400.8,
RY1,179790,"KOWALSKI, JASON",6/16/2014,,H,B,,16,1684.88,,16,1962.48,,16,1892.96,16,1827.92,,16,1876.88,,,16,2585.44,,,16,2005.28,,16,2093.84,,,16,2267.04,
RY1,196452,"KOZEL, KELSEY",5/18/2020,,H,B,,,,,,,,,,14,462.14,,14,908.86,,,14,1248.87,,,14,1184.3,,14,1313.39,,,14,1184.34,
RY1,198543,"KROGSTAD, LARRY",4/3/2019,,H,B,,10,,,10,80,,10,295,10,212.5,,10,100,,,10,235,,,10,70,,10,200,,,10,271.7,
RY1,184605,"LABELLE, KODI L",12/17/2018,,H,B,,13,775.32,,13,791.44,,13,1120.08,13,1130.09,,13,1229.02,,,13,766.48,,,13,891.8,,13,818.09,,,13,1019.2,
RY1,184614,"LAMONT, BRANDON",10/12/2015,,C,B,,,2731.36,,,2653.16,,,2553.16,,2553.16,,,2653.16,,,,2553.16,,,,2953.36,,,2414,,,,2204,
RY1,182713,"LARSON, CODY J",9/24/2018,,H,B,,17.85,1299.57,,17.85,1286.09,,17.85,1323.58,17.85,1190.24,,17.85,1197.56,,,17.85,1394.09,,,17.85,1285.91,,17.85,1338.93,,,17.85,1255.93,
RY1,189596,"LARSON, TYLER",10/7/2019,,H,B,,12,,,12,160.92,,12,217.32,12,205.92,,12,221.28,,,12,350.68,,,12,145.88,,12,105.06,,,12,391.3,
RY1,175738,"LARSON, WYATT",11/19/2019,6/19/2020,H,B,,12,263.4,,12,295.8,,12,294.6,12,367.56,,12,373.44,,,12,428.64,,,12,,,12,,,,12,,
RY1,184610,"LAUGHLIN, LARRY J",10/16/1998,,H,B,,25,2072.13,,25,3201.25,,25,3161.38,25,2896.63,,25,3007.88,,,25,2137.25,,,25,2530.13,,25,2250.88,,,25,2302.75,
RY1,184806,"LEAVY, PAUL M",8/25/2014,,C,B,,,2429.5,,,2629.5,,,2429.5,,2429.5,,,2629.5,,,,2104,,916,,3227,,,3439,,,,3259,
RY1,165972,"LECLAIR, AUSTIN",11/19/2018,,H,B,,14,842.94,,14,1089.56,,14,950.32,14,738.36,,14,1230.96,,,14,882,,,14,1230.68,,14,1084.86,,,14,1033.56,
RY1,140882,"LEEDAHL, GLENNA",5/7/2018,,H,B,,10,,,10,120,,10,120,10,300,,10,205,,,10,115,,,10,120,,10,,,,10,,
RY1,198435,"LEHR, CARLY",7/15/2019,6/4/2020,H,B,,12,288,,12,288,,12,288,12,288,,12,144,,,12,,,,12,,,12,,,,12,,
RY1,184920,"LENE, RYAN",1/5/2015,,C,B,,,3959.12,,,2808.65,,,2708.65,,2708.65,,,2808.65,,,,2708.65,,,,2834.49,,,2470.54,,,,3784.29,
RY1,15668,"LINDEMANN, TASHA",9/11/2017,,H,B,,14,1939,,14,1564,,14,1564,14,1588.08,,14,1711.41,,,14,1576.44,,,14,1664.15,,14,1367.66,,,14,1455.41,
RY1,186100,"LIND, KATHERINE",11/22/1983,,S,B,,,2884.62,,,3084.62,,,2884.62,,2884.62,,,3084.62,,,,2884.62,,,,3084.62,,,2884.62,,,,3084.62,
RY1,145785,"LOGAN, JAI'LA",2/24/2020,7/7/2020,H,B,,14,566.34,,14,1074.72,,14,1274.57,14,983.82,,14,1367.95,,,14,992.92,,,14,1101.49,,14,84.42,,,14,,
RY1,187675,"LONGORIA, BEVERLEY A",2/21/2005,,S,B,,,2769.24,,,2769.24,,,2769.24,,2769.24,,,2769.24,,,,2769.24,,,,2769.24,,,2769.24,,,,2769.24,
RY1,189100,"LOVEN, ARDEN",3/8/2010,,C,S,900,,,3575,,,900,,,,,3200,,,900,,,,4550,,,,900,,,5171.6,,,,900
RY1,188338,"LUEKER, DAVID C",6/16/2003,,H,B,,10,2082.5,,10,2082.68,,10,2082.68,10,2082.68,,10,2082.68,,,10,2082.68,,,10,2490.23,,10,2146.56,,,10,2221.71,
RY1,190600,"MAGNUSON, TYLER D",9/9/2019,,H,B,,18,1407.51,,18,1910.86,,18,2484.71,18,1633.05,,18,1880.74,,,18,1452.96,,,18,1930.41,,18,1526.94,,,18,1852.93,
RY1,190892,"MANGAN, RICHARD",9/23/2002,,H,B,,17,1330.42,,17,2231.59,,17,2224.45,17,2187.99,,17,2465.51,,,17,1649.94,,,17,2037.37,,17,1526.52,,,17,1610.41,
RY1,190918,"MARCOTTE, THOMAS H",7/28/1985,,H,B,,35,4126.15,,35,3498.25,,35,3630.03,35,5654.78,,35,7411.25,,,35,6160,,,35,4935,,35,2030,,,35,5207.65,
RY1,190910,"MAREK, DAYTON C",5/5/2017,,S,B,,,1846.15,,,2046.15,,,1846.15,,1846.15,,,2046.15,,,,1846.15,,,,2046.15,,,1846.15,,,,3046.15,
RY1,168351,"MARESCA, ROMAO",8/27/2018,,S,B,,,1923.08,,,1923.08,,,1923.08,,1923.08,,,1923.08,,,,1923.08,,,,1923.08,,,1923.08,,,,1923.08,
RY1,191060,"MARO, NICHOLAS",1/20/2014,,H,B,,8,3138.79,,8,3016.88,,8,2684.16,8,2739.4,,8,1675.76,,,8,2879.64,,,8,4059.58,,8,2584.68,,,8,1848.74,
RY1,191350,"MAVITY, ROBERT",1/1/2008,,C,B,,,2308.5,,,2308.35,,,2308.35,,2308.35,,,2308.35,,,,2308.35,,,,2761.55,,,2387.77,,,,2626.32,
RY1,18574,"MCLAUGHLIN, JOHN",12/11/2017,,S,B,,,4153.85,,,4353.85,,,4153.85,,4153.85,,,4353.85,,,,4153.85,,,,4353.85,,,4153.85,,,,4353.85,
RY1,198542,"MCMILLIAN, TARA",9/10/2018,,H,B,,9,1432.5,,9,1532.57,,9,1432.57,9,1432.57,,9,1532.57,,,15.5,1432.57,,,15.5,1489.11,,15.5,1076.32,,,15.5,1374.41,
RY1,194675,"MCVEIGH, DENNIS",11/13/2007,,C,B,,,2544.5,,,2544.59,,,2544.59,,2544.59,,,2544.59,,,,3202.23,,,,2845.52,,,2743.35,,,,3551.83,
RY1,198234,"MELBY, BAILEY",12/31/2019,,H,B,,14,1096.2,,14,1369.22,,14,1138.55,14,1197.56,,14,1347.68,,,14,1272.67,,,14,1509.03,,14,1161.09,,,14,1128.02,
RY1,165983,"MENARD, MICHAEL",2/12/2018,,C,S,650,,,3268.25,,,650,,,,,6574.47,,,650,,,,4917.11,,,,650,,,3762.14,,,,650
RY1,195401,"METZGER, JUSTIN",5/24/2010,,H,B,,14.5,1172.18,,14.5,1513.82,,14.5,2407.35,14.5,1525.62,,14.5,1868.49,,,14.5,1657.64,,,14.5,1914.21,,14.5,1347.35,,,14.5,1853.46,
RY1,181520,"METZGER, KAYLE M",11/20/2013,,H,B,,18.5,1460.95,,18.5,1787.85,,18.5,1687.57,18.5,1658.71,,18.5,1832.43,,,18.5,1474.09,,,18.5,1773.51,,18.5,1472.7,,,18.5,1756.77,
RY1,195460,"MICHAEL, ANTHONY E",10/25/2010,,C,S,700,,,9500,,,700,,,,,9500,,,700,,,,10000,,,,700,,,10000,,,,700
RY1,196341,"MILLER, KIM M",1/2/1985,,H,B,,20.5,1657.32,,20.5,1915.58,,20.5,1859.86,20.5,1818.97,,20.5,1951.26,,,20.5,1658.04,,,20.5,1926.15,,20.5,1691.46,,,20.5,2230.77,
RY1,134795,"MOE, BRYCE",8/26/2019,5/11/2020,H,B,,12,244.08,,12,215.64,,12,222,12,,,12,,,,12,,,,12,,,12,,,,12,,
RY1,174384,"MOGAVERO, MICHAEL",9/24/2019,,C,B,,,1535.25,,,1464.46,,,1464.46,,1464.46,,,1464.46,,,,1464.46,,,,1601.91,,,1629.44,,,,1855.3,
RY1,115883,"MONREAL, JESSIE",9/25/2017,,C,S,,,,,,,,,,,,,,,,,,,,,,,,,,,,,,700
RY1,118030,"MONSON, TAYLOR",6/30/2014,,S,B,,,2307.7,,,2307.7,,,2307.7,,2307.7,,,2307.7,,,,2307.7,,,,3307.7,,,2307.7,,,,3307.7,
RY1,118746,"MONTGOMERY, CODY",9/3/2017,5/15/2020,H,B,,14.7,1072.36,,14.7,1309.4,,14.7,1235.98,14.7,2237.49,,14.7,,,,14.7,,,,14.7,,,14.7,,,,14.7,,
RY1,165321,"MOORE, JEFFREY",6/15/2020,,H,B,,,,,,,,,,,,,,,,,14,537.88,,,14,681.03,,14,1121.12,,,14,1141.42,
RY1,185965,"MORGAN, DEVIN",12/4/2019,6/3/2020,H,B,,12,371.5,,12,622,,12,429.36,12,384.36,,12,289.92,,,12,,,,12,,,12,,,,12,,
RY1,113011,"MORLOCK, BRUCE A",8/30/2012,,H,B,,10,,,10,720,,10,360,10,360,,10,360,,,10,250,,,10,215,,10,210,,,10,171.7,
RY1,113020,"MORRIS, GREG",4/19/2010,,S,B,,,2538.46,,,2538.46,,,2538.46,,2538.46,,,2538.46,,,,2538.46,,,,2538.46,,,2538.46,,,,2538.46,
RY1,195826,"MUCKENHIRN, BENJAMIN",10/7/2019,,H,B,,12,309.5,,12,309.72,,12,315.12,12,314.04,,12,317.04,,,12,329.68,,,12,338.23,,12,435.41,,,14,365.1,
RY1,151702,"MULHERN, ALAN",1/5/2017,,H,B,,18,1413.9,,18,2330.1,,18,1880.34,18,1872,,18,1972,,,18,1872,,,18,1804.69,,18,1550.25,,,18,1754.11,
RY1,158475,"MURDOCH, KYLE",6/29/2020,,H,B,,,,,,,,,,,,,,,,,,,,,14,391.16,,14,1352.17,,,14,1419.13,
RY1,198532,"NAVARRO, ALEXANDER",4/29/2019,,H,B,,12,443.76,,12,419.28,,12,210,12,689.32,,12,427.32,,,12,435.6,,,12,71.16,,12,455.64,,,12,393.72,
RY1,145087,"NELSON, LAUREN",5/4/2020,,H,B,,,,,,,,13,279.5,13,949.26,,13,1041.43,,,13,771.94,,,13,1002.56,,13,916.63,,,13,1031.29,
RY1,1102195,"NEUMANN, ANDREW D",5/18/2014,,S,B,,,3461.54,,,3461.54,,,3461.54,,3461.54,,,3461.54,,,,3461.54,,,,3461.54,,,3461.54,,,,3461.54,
RY1,1102198,"NEUMANN, NICKOLAS J",8/3/2015,,S,B,,,2307.7,,,2307.7,,,2807.7,,2307.7,,,2807.7,,,,2307.7,,,,2807.7,,,2307.7,,,,2807.7,
RY1,1103050,"NOKELBY, RONALD J",5/5/1978,,S,B,,,3269.24,,,3369.24,,,3269.24,,3269.24,,,3369.24,,,,3269.24,,,,3369.24,,,3269.24,,,,3369.24,
RY1,187651,"NOREIKIS, TIFFANY",9/10/2018,,C,S,700,,,2554,,,700,,,,,5800,,,700,,,,5800,,,,700,,,5378.8,,,,700
RY1,168753,"NORTHAGEN, JOSHUA",3/12/2019,,C,B,,,1962,,,1962.23,,,1962.23,,1962.23,,,1953.23,,,,1728.97,,,,1725.38,,,1975.26,,,,1787.11,
RY1,148765,"NOVA ABREU, EDWIN",4/20/2020,,H,B,,,,,12,109.08,,12,170.52,12,514.32,,12,901.2,,,12,462.12,,,12,561.6,,12,441.6,,,12,544.56,
RY1,1103065,"NYGAARD, KENT A",1/26/2015,,H,B,,14.75,1132.65,,14.75,1282.45,,14.75,1303.7,14.75,1439.36,,15.5,1506.6,,,15.5,1604.9,,,15.5,1689.06,,15.5,1419.49,,,15.5,1564.6,
RY1,1106225,"OLDERBAK, JOHN",2/16/2016,,C,S,800,,,4623,,,800,,,,,6100,,,800,,,,8300,,,,800,,,8628.2,,,,800
RY1,173209,"O'LEARY, MATTHEW",12/31/2019,,H,B,,14,996.52,,14,1085.35,,14,1130.29,14,1249.57,,14,1201.9,,,14,1140.58,,,14,1146.6,,14,497.42,,,14,1179.64,
RY1,1100625,"OLSON, CODEY",8/1/2016,,C,B,,,,,,,,,,,2196.09,,,2296.09,,,,2196.09,,,,3138.66,,,3198.65,,,,2323,
RY1,1106399,"OLSON, JAY P",2/11/2002,,C,B,,,3509,,,3508.79,,,3508.79,,3508.79,,,4091.61,,,,3629.85,,,,3626.08,,,3704.8,,,,4275.79,
RY1,1106400,"OLSON, JUSTIN S",11/12/2012,,C,B,,,1874,,,2074.03,,,1874.03,,1874.03,,,2074.03,,,,1873.53,,,,2494.98,,,1810.4,,,,2773.25,
RY1,164732,"OLSON, RACHEL",4/22/2019,,H,B,,16.5,1331.39,,16.5,1425.19,,16.5,1516.52,16.5,1363.48,,17,1313.57,,,17,1339.77,,,17,1409.73,,17,1360.34,,,17,1463.53,
RY1,144788,"OLSON, WYATT",4/10/2017,5/15/2020,S,B,,,2314.5,,,2314.5,,,2314.51,,1157.69,,,,,,,,,,,,,,,,,,,
RY1,1106421,"O'NEIL, TIMOTHY J",8/11/2014,,C,B,,,2803,,,2807.79,,,2807.79,,2807.79,,,2807.79,,,,3789.38,,,,3458.3,,,3341.08,,,,3858.27,
RY1,1107950,"ORTIZ, GUADALUPE",11/12/2012,,H,B,,25,2123,,25,2586,,25,2148,25,2123,,25,2323,,,25,2123,,,25,2292.75,,25,1677.5,,,25,2312.5,
RY1,1108200,"OSTLUND, ANNE B",1/17/2011,,H,B,,10,2078,,10,2277.79,,10,2077.79,10,2077.79,,10,2277.79,,,10,2077.79,,,10,2492.83,,10,2156.49,,,10,2592.9,
RY1,157493,"OTTO, ALYSSA",9/23/2019,7/15/2020,H,B,,13,916.5,,13,1152.91,,13,986.44,13,1142.96,,13,871.26,,,14,1107.29,,,14,761.04,,14,695.1,,,14,,
RY1,187347,"OWEN, ANDREW",5/26/2020,,H,B,,,,,,,,,,14,,,14,422.8,,,14,611.38,,,14,710.68,,14,765.98,,,14,772.52,
RY1,137593,"PALACIOS, ERIC",1/13/2020,,H,B,,13,1043.58,,13,1031.55,,13,1019.2,13,1791.63,,13,1103.57,,,13,938.67,,,13,1071.72,,13,830.44,,,13,974.74,
RY1,139846,"PARKER, JOSHUA",9/12/2019,,H,B,,14,845.18,,14,1036.18,,14,983.36,14,1025.92,,14,1057.04,,,14,989.1,,,14,1195.08,,14,915.04,,,14,559.2,
RY1,1109700,"PASCHKE, MATTHEW G",8/26/2019,,H,B,,23,2135,,23,2601.13,,8,2135.08,8,2135.08,,8,2135.08,,,8,2135.08,,,8,2572.05,,8,2293.28,,,8,2501.24,
RY1,190324,"PEDE, DOUGLAS",5/4/2020,,H,B,,,,,,,,27.5,935.28,27.5,2654.16,,27.5,2425.23,,,27.5,2797.71,,,27.5,2712.05,,27.5,2187.63,,,27.5,2848.86,
RY1,185647,"PERALES, LIL CHRIS",10/21/2019,,H,B,,12,321.12,,12,295.2,,12,377.28,12,421.44,,12,453.48,,,12,276.6,,,12,438.36,,12,392.16,,,12,225.36,
RY1,123564,"PESEK, BENJAMIN",7/10/2017,,H,B,,12,,,12,374.76,,12,889.8,12,870.3,,12,1135.56,,,12,945.78,,,12,854.88,,12,856.2,,,12,318.6,
RY1,136548,"PETERSEN, BENJAMIN",7/13/2020,,H,B,,,,,,,,,,,,,,,,,,,,,,,,12,317.73,,,12,790.14,
RY1,1110425,"PETERSON, BRIAN D",3/15/1999,,C,B,,,3525,,,3524.93,,,3524.93,,3524.93,,,4640.04,,,,3524.93,,,,4898.04,,,3924.12,,,,2507.88,
RY1,1110542,"PETERSON, DOUG",12/4/1995,,S,B,,,3269.24,,,3369.24,,,3269.24,,3269.24,,,3369.24,,,,3269.24,,,,3369.24,,,3269.24,,,,3369.24,
RY1,1110660,"PETERSON, TYLER",11/23/2015,,H,B,,17,1300.5,,17,1896.72,,17,1806.76,17,1839.66,,17,1968.21,,,17,1472.2,,,17,2061.28,,17,1716.75,,,17,2129.28,
RY1,167934,"PFAFF, JONATHAN",1/6/2019,,H,B,,15,1184.33,,15,2365.5,,15,1444.45,15,1445,,15,1577,,,15,1445,,,15,1546.35,,15,1469.33,,,15,1397.55,
RY1,1110800,"PICHE, STACEY",5/11/2015,,H,B,,15,270,,15,498,,15,498,15,504,,15,510,,,15,355.64,,,15,192,,15,597.75,,,15,589.65,
RY1,193542,"PICKENS, WHITNEY",3/24/2020,,H,B,,12,967.08,,12,960.78,,12,1002.12,12,950.28,,12,1107.66,,,12,948.84,,,12,1002.36,,12,944.04,,,12,938.16,
RY1,187526,"POKHREL, CHANDRA",12/17/2018,,H,B,,13,1039.87,,13,1036.82,,13,1062.23,13,1054.04,,13,979.16,,,13,1190.68,,,13,1174.62,,13,1054.82,,,13,1099.28,
RY1,165478,"POLUM, MAXWELL",12/31/2018,,H,B,,14,493.5,,14,507.36,,14,491.68,14,501.2,,14,801.78,,,14,773.55,,,14,780.97,,14,452.09,,,14,408.3,
RY1,136942,"POPE, DEVON",5/18/2020,,H,B,,,,,,,,,,12,226.68,,12,755.64,,,12,814.06,,,12,743,,12,907.28,,,12,1051.66,
RY1,1111325,"POWELL, GAYLA R",8/29/2011,,S,B,,,1921.5,,,2221.5,,,1921.5,,1921.5,,,2358,,,,1921.5,,,,1915.39,,,1615.39,,,,3015.39,
RY1,1112411,"PRESTON, APRIL",7/20/2015,,C,B,,,1296,,,1296,,,1296,,1296,,,1296,,,,1498,,,,882,,,1149.4,,,,1113,
RY1,165985,"PUDIL, AIDEN",7/13/2020,,H,B,,,,,,,,,,,,,,,,,,,,,,,,12,166.32,,,12,447.48,
RY1,1113940,"RADKE, DUANE",5/1/1966,,H,B,,21.5,1720,,21.5,1720,,21.5,1720,21.5,1720,,21.5,1720,,,21.5,1782.57,,,21.5,1991.98,,21.5,1881.9,,,21.5,1837.07,
RY1,165473,"RAI, SANTI",4/23/2018,,H,B,,14,1205.5,,14,1408.2,,14,1225.21,14,1217.79,,14,1416.74,,,14,869.4,,,14,1187.96,,14,975.86,,,14,1509.5,
RY1,1588879,"RAUNER, VALERIE",6/19/2017,,H,B,,15,1083.9,,15,1199.55,,15,1199.4,15,1251.9,,15,1195.73,,,15,1254.08,,,15,1301.4,,15,1176.6,,,15,1211.25,
RY1,132785,"REEB, LUKE",2/24/2020,,H,B,,13,431.73,,13,156.65,,13,248.3,13,378.43,,13,553.67,,,13,584.48,,,13,676.65,,13,429.39,,,13,273.39,
RY1,1114831,"REED, DALE",12/21/2015,,H,B,,14,588.56,,14,591.78,,14,589.4,14,534.1,,14,546,,,14,598.08,,,14,581.28,,14,297.08,,,14,533.26,
RY1,1114921,"REUTER, TIMOTHY J",1/26/2015,,H,B,,23.5,1923.6,,23.5,2766.75,,23.5,2240.63,23.5,2241,,23.5,2441,,,23.5,2441,,,23.5,2953.64,,23.5,2247.31,,,23.5,2445.32,
RY1,1116800,"RICHARDSON, DARRICK J",9/29/2015,,C,B,,,156.8,,,1910.5,,,1585.5,,1585.5,,,1910.5,,,,1511.3,,,,1881.8,,,1654.8,,,,1744.6,
RY1,158582,"RISKEY, CALEB",12/4/2019,3/11/2020,H,B,,12,150.5,,12,,,12,,12,,,12,,,,12,,,,12,,,12,,,,12,,
RY1,167321,"RITCHIE, MICHAEL",5/18/2020,,H,B,,,,,,,,,,12,246,,12,491.88,,,12,553.44,,,12,335.04,,12,436.56,,,12,333.6,
RY1,195123,"RIVERA, ROLANDO",12/17/2018,,H,B,,13,1238.07,,13,936.91,,13,933.27,13,1044.94,,13,965.77,,,13,462.28,,,13,991.12,,13,941.07,,,13,832,
RY1,122332,"ROBINSON, AARON",9/25/2017,,H,B,,14.5,1082.65,,14.5,1304.59,,14.5,1241.35,14.5,1293.55,,14.5,1503.46,,,14.5,1158.12,,,14.5,1414.29,,14.5,1322.84,,,14.5,1233.32,
RY1,192348,"ROBINSON, CARSON",5/7/2018,7/2/2020,C,S,600,,,2959,,,600,,,,,2959,,,600,,,,2575,,,,3178.66,,,,,,,
RY1,1117600,"ROBLES, RUDOLPH",7/12/2000,,H,B,,15.5,2140,,15.5,2140,,15.5,2077.97,15.5,1995.36,,15.5,2090.3,,,15.5,2275.48,,,15.5,2075.7,,15.5,2206.71,,,15.5,2226.88,
RY1,1117842,"RODRIGUEZ, JUSTIN",11/23/2015,,H,B,,8,2098.61,,8,1987.4,,8,1952.08,8,1999.04,,8,2053.36,,,8,1952.96,,,8,3206.72,,8,2242.16,,,8,2725.36,
RY1,159763,"ROED, ZACHARY",2/11/2020,5/23/2020,H,B,,14,642.88,,14,662.2,,14,810.76,14,366.8,,14,,,,14,,,,14,,,14,,,,14,,
RY1,1117901,"ROGERS, MITCH A",10/13/2014,,C,B,,,819.4,,,2180,,,2551.56,,2180,,,2180,,,,3107.64,,,,2891.65,,,2458.61,,,,2274.44,
RY1,165780,"ROGERS, SARA",10/22/2018,,H,B,,13,837.85,,13,819.78,,13,941.72,13,953.03,,13,1210.63,,,13,684.32,,,13,1010.62,,13,1086.61,,,13,858.78,
RY1,1117960,"ROGNE, CRAIG A",6/13/1988,,S,B,,,1923.08,,,1923.08,,,1923.08,,1923.08,,,1923.08,,,,1923.08,,,,1923.08,,,1923.08,,,,1923.08,
RY1,175394,"ROHLOFF, KADEN",1/28/2020,,H,B,,12,353,,12,261.36,,12,272.28,12,333,,12,286.2,,,12,1173.97,,,12,1055.22,,12,1083.18,,,12,1043.04,
RY1,159875,"ROSE, BRITTANY",10/7/2019,,H,B,,14,665.14,,14,665,,14,947.51,14,662.62,,14,779.38,,,14,742.28,,,14,1448.67,,14,640.78,,,14,625.49,
RY1,1118722,"ROSE, CORY",10/23/2006,,C,B,,,190.8,,,200,,,190.8,,,,,3342.21,,,,3142.21,,,,4077.14,,,3436.69,,,,3250.43,
RY1,12236,"ROTH, LAURA",11/20/2017,,S,B,,,2496.16,,,2696.16,,,2496.16,,2496.16,,,2696.16,,,,2496.16,,,,2696.16,,,2496.16,,,,2696.16,
RY1,141082,"RUMEN, ROBERT",5/7/2018,,C,S,700,,,7849.84,,,700,,,,,8201.72,,,700,,,,14232.36,,,,700,,,10846.12,,,,700
RY1,1120110,"RYAN, ANTONIO R",3/29/2012,,S,B,,,2300,,,2000,,,2000,,2000,,,2000,,,,2000,,,,2000,,,2450,,,,2450,
RY1,1120225,"RYDELL, BRIAN L",6/28/1999,,S,B,,,9230.77,,,4166.5,,,4166.5,,4166.5,,,4166.5,,,,4166.5,,,,4166.5,,,4166.5,,,,4166.5,
RY1,1120800,"RYDELL, WESLEY D",6/1/1962,,C,S,,,,8333,,,,,,,,8333,,,,,,,8333,,,,,,,8333,,,,
RY1,1120120,"RYGG, KEN C",11/21/2012,,H,B,,17,1180.14,,17,1179.46,,17,1268.71,17,1262.76,,17,1307.98,,,17,1370.63,,,17,1602.59,,17,1437.01,,,17,1353.29,
RY1,1121240,"SALBERG, GAYLEN K",2/1/2017,,H,B,,10,,,10,860,,10,380,10,470,,10,690,,,10,260,,,10,375,,10,155,,,10,545,
RY1,1122110,"SANCHEZ, ROGELIO",7/6/2015,,S,B,,,3692.31,,,4017.31,,,3692.31,,3692.31,,,4017.31,,,,3692.31,,,,4017.31,,,3692.31,,,,4017.31,
RY1,135289,"SATHER, SAMUEL",5/18/2020,,H,B,,,,,,,,,,12,145.8,,12,218.28,,,12,223.16,,,12,247.88,,12,222.49,,,12,337.48,
RY1,1122342,"SATTLER, RANDY J",8/26/2002,,S,B,,,3692.31,0,,4092.31,,,3692.31,,3692.31,,,4092.31,,,,3692.31,,,,4092.31,,,3692.31,,,,4092.31,
RY1,1122352,"SAULS, THOMAS R",8/12/2013,,C,B,,,1657.5,,,1757.5,,,1657.5,,1657.5,,,1757.5,,,,1443.75,,,,1850.5,,,2119.05,,,,1918,
RY1,135946,"SAYERS, MELISSA",7/13/2020,,H,B,,,,,,,,,,,,,,,,,,,,,,,,13,26,,,13,878.67,
RY1,198431,"SCHADT, MICHAEL",6/25/2020,,C,B,,,,,,,,,,,,,,,,,,,,,,482.3,,,704.6,,,,656.5,
RY1,175943,"SCHILTZ, JARED",10/9/2019,,H,B,,12,,,12,,,12,,12,,,12,464.88,,,12,1084.63,,,12,794.86,,12,845.84,,,12,455.65,
RY1,1123340,"SCHMIESS PENAS, JERI L",5/12/2009,,S,B,,,5000,,,5400,,,5000,,5000,,,5400,,,,5000,,,,5400,,,5000,,,,5400,
RY1,165432,"SCHMITZ, MADISON",6/29/2020,,H,B,,,,,,,,,,,,,,,,,,,,,13,298.87,,13,555.23,,,13,529.1,
RY1,137854,"SCHNEIDER, AMANDA",8/26/2019,,H,B,,14,1514.95,,14,1083.32,,14,1125.88,14,1102.36,,14,1188.94,,,14,987.28,,,14,1309.13,,14,1146.04,,,14,1005.6,
RY1,1566882,"SCHNEIDER, BRIAN",6/5/2017,,C,B,,,1908.5,,,2108.5,,,2255.86,,2815.9,,,2872.35,,,,2537.5,,,,2808.55,,,2011.65,,,,2401.1,
RY1,198134,"SCHREIER, JUSTIN",5/4/2020,,H,B,,,,,,,,12,91.68,12,357.84,,12,252.72,,,12,398.16,,,12,177.36,,12,367.2,,,12,292.68,
RY1,1124400,"SCHUPPERT, KODEY",4/27/2015,,H,B,,17,1145.8,,17,1443.9,,17,1356.18,17,1528.73,,17,1363.4,,,17,1613.98,,,17,1538.08,,17,1764.43,,,17,1420.95,
RY1,1124436,"SCHWAN, MICHAEL",2/27/2012,,C,B,,,3854.5,,,4154.28,,,3854.28,,3854.28,,,5033.99,,,,3955.72,,,,4006.34,,,3831.42,,,,3350.27,
RY1,1124625,"SEAY, BRYN N",8/25/2014,,C,S,700,,,4727,,,600,,,,,7050,,,600,500,,,8700,,,,600,,,8500,,,,600
RY1,1124875,"SEEBA, BRADLEY F",4/11/1977,,H,B,,25,2174.75,,25,2524.38,,25,2343.5,25,2323.25,,25,2354,,,25,2027.75,,,25,2264.5,,25,2002.25,,,25,2163.25,
RY1,1125565,"SEVIGNY, SCOTT",9/29/2008,,C,B,,,2498.5,,,2498.52,,,2498.52,,2498.52,,,2498.52,,,,2498.52,,,,3178.07,,,2724.14,,,,2573.66,
RY1,168243,"SHADWICK, SHAY",8/12/2019,,H,B,,13,416,,13,551.2,,13,1109.81,13,1121.32,,13,1096.29,,,13,1213.36,,,13,1082.25,,13,1106.17,,,13,1028.24,
RY1,1126040,"SHERECK, LOREN",11/7/2016,,S,B,,,2490.5,,,2590.7,,,2490.7,,2490.7,,,2590.7,,,,2490.7,,,,2947.22,,,2635.23,,,,2932.37,
RY1,1126300,"SHIREK, NICHOLAS",2/1/2018,,C,S,2400,,,10000,,,2400,,,,,10050,,,2400,,,,10000,,,,2400,,,10000,,,,2400
RY1,197643,"SHOWER, DUSTIN",8/20/2018,,H,B,,14,1148.77,,14,1646.72,,14,1411.46,14,1351.21,,14,1414.67,,,14,1119.72,,,14,1661.76,,14,1456.56,,,14,1698.38,
RY1,1126060,"SHUMAKER, MARTIN D",7/1/2013,,H,B,,16,1562.72,,16,1567.84,,16,1543.52,16,1614.32,,16,1523.04,,,16,1527.2,,,16,1282.08,,16,1449.6,,,16,1304.48,
RY1,167932,"SLATOR, ANDREW",5/1/2019,5/15/2020,H,B,,14,955.5,,14,872.8,,14,811.16,14,,,14,,,,14,,,,14,,,14,,,,14,,
RY1,139475,"SLOMINSKI, JOSEPH",7/29/2019,,H,B,,14,1327,,14,1375.19,,14,1327,14,1352.62,,14,1415.87,,,14,1109.27,,,14,1590.98,,14,1539.39,,,14,1361.63,
RY1,146803,"SMERER, JASON",5/20/2019,,H,B,,18,1395.09,,18,1577.7,,18,1981.08,18,2812.14,,18,3811.5,,,18,3168,,,18,2618.1,,18,1861.56,,,18,2713.59,
RY1,176430,"SMITH, TANER",5/7/2018,,H,B,,12,974.88,,12,883.92,,12,996.54,12,993.66,,12,1174.14,,,12,961.44,,,12,1038.84,,12,988.44,,,12,916.2,
RY1,152964,"SOBERG, NICHOLAS",8/27/2018,,H,B,,16,1137.12,,16,1330.32,,16,1577.36,16,1649.36,,16,1343.2,,,16,1951.52,,,16,1648.96,,16,1331.44,,,16,1304.24,
RY1,1129560,"SOENKSEN, LINDSEY",1/12/2017,,H,B,,12.6,813.96,,12.6,821.48,,12.6,849.24,12.6,773.89,,12.6,1159.66,,,12.6,937.31,,,12.6,1106.11,,12.6,910.98,,,12.6,1159.98,
RY1,1130090,"SOLEM, BEN G",9/16/2013,,H,B,,16,1139.2,,16,1498.16,,16,1255.84,16,1289.76,,16,1273.44,,,16,1408,,,16,1577.68,,16,1228.48,,,16,1436,
RY1,165428,"SOLHEIM, ARIK",4/15/2019,,S,B,,,2538.47,,,2638.47,,,2538.47,,2538.47,,,2638.47,,,,2538.47,,,,2638.47,,,2538.47,,,,2638.47,
RY1,154474,"SORENSON, THOMAS",8/28/2017,,H,B,,12,140.16,,12,144.12,,12,146.64,12,141.24,,12,146.64,,,12,108.36,,,12,112.56,,12,119.4,,,12,90.12,
RY1,1130420,"SORUM, ABIGAIL",3/9/2018,,H,B,,20,1523.6,,20,1501.2,,20,1725.4,20,1745.2,,20,1564,,,20,1803.1,,,20,1679,,20,1776.4,,,20,1476.4,
RY1,1130426,"SORUM, GREG",1/1/1996,,S,B,,,16615.39,,,16666.5,,,4166.5,,4166.5,,,16666.5,,,,4166.5,,,,16666.5,,,4166.5,,,,16666.5,
RY1,154783,"SORUM, JACOB",6/3/2019,,S,B,,,3269.24,,,3269.24,,,3269.24,,3269.24,,,3269.24,,,,3269.24,,,,3269.24,,,3269.24,,,,3269.24,
RY1,1130430,"SORUM, MICHAEL J",11/4/2002,,S,B,,,2400,,,2400,,,2400,,2400,,,2400,,,,2400,,,,2400,,,2400,,,,2400,
RY1,198567,"SPIVA, NOLAN",12/17/2019,,H,B,,13,764.4,,13,772.59,,13,1080.5,13,1191.52,,13,1222.72,,,13,999.96,,,13,1015.82,,13,1048.19,,,13,959.01,
RY1,165848,"SPONHOLZ, KEEGAN",7/13/2020,,H,B,,,,,,,,,,,,,,,,,,,,,,,,12,286.37,,,12,196.04,
RY1,1130690,"STADSTAD, LARRY O",1/1/2015,,C,S,,,,3250,,,,,,,,1775,,,700,,,,3875,,,,,,,1775,,,,
RY1,1130700,"STALLMO, RICHARD D",9/16/2009,,H,B,,13,752.83,,13,842.27,,13,1046.05,13,1040.59,,13,1051.05,,,13,1032.79,,,13,1129.38,,13,1062.04,,,13,1042.34,
RY1,174836,"STEFFL, SIMON",11/18/2019,,H,B,,12,677.4,,12,568.32,,12,658.68,12,1061.34,,12,1080,,,12,1224.06,,,12,1412.76,,12,969.54,,,12,1079.22,
RY1,1132205,"STEIN, DONALD W",8/13/2012,,H,B,,15,1232.1,,15,1407.6,,15,1257.53,15,1560.68,,15,1340.25,,,15,1515.68,,,15,1341.3,,15,1217.55,,,15,1647.53,
RY1,1132700,"STOUT, RICK",8/29/2016,,C,S,3600,,,7321,,,3600,,,,,12436.09,,,3600,,,,10050,,,,3600,,,14000,,,,3600
RY1,143659,"STRAUS, TYLER",4/11/2018,,C,B,,,1175.5,,,1175,,,1425.5,,1175.5,,,1326,,,,1188.85,,,,1242.15,,,1843.66,,,,1626.3,
RY1,1133727,"STREETER, TIMOTHY",3/28/2007,,H,B,,16,1774.16,,16,1931.76,,16,2003.84,16,2042.72,,16,1973.36,,,16,1702.64,,,16,1698.24,,16,1870.64,,,16,1944.4,
RY1,16250,"STREITZ, DANIELLE M",9/12/2011,,H,B,,14,1068.62,,14,1331.02,,14,1153.6,14,1153.18,,14,1260.67,,,14,1069.67,,,14,1255.88,,14,1022.7,,,14,1456.6,
RY1,128945,"SWANSON, ZACHARY",9/11/2018,6/11/2020,H,B,,14,1704,,14,1808,,14,1709.89,14,1717.45,,14,1862.25,,,14,1460.85,,,14,,,14,,,,14,,
RY1,1135265,"SYMONS, ELIZABETH R",12/27/2012,,S,B,,,2769.24,,,2869.24,,,2769.24,,2769.24,,,2869.24,,,,2769.24,,,,2869.24,,,2769.24,,,,2869.24,
RY1,1135260,"SYMONS, STEVEN",11/22/2010,,S,B,,,2692.31,,,2792.31,,,2692.31,,2692.31,,,2792.31,,,,2692.31,,,,2792.31,,,2692.31,,,,2792.31,
RY1,1135410,"SYVERSON, JOSHUA L",6/11/2012,,C,B,,,2743,,,2743.15,,,2743.15,,2743.15,,,3193.44,,,,2813.9,,,,3546.21,,,2789.43,,,,2321.56,
RY1,175843,"TANGREN, ALEX",6/8/2020,7/29/2020,H,B,,12,0,,12,,,12,,12,,,12,,,,12,412.8,,,12,598.68,,12,203.28,,,12,306.48,
RY1,157374,"TAPPARO, GREGORY",10/9/2019,5/22/2020,H,B,,12,279.72,,12,333.36,,12,466.32,12,435.48,,12,,,,12,,,,12,,,12,,,,12,,
RY1,1135518,"TARR, JEFF D",11/1/1993,,C,S,500,,,4211,,,500,,,,,4211,,,500,,,,5675,,,,500,,,5738,,,,500
RY1,157392,"THOMPSON, COLE",11/18/2019,,H,B,,13,1265.45,,13,1478.36,,13,1060.09,13,1042.54,,13,1232.17,,,13,1104.16,,,13,1146.7,,13,1056.58,,,13,1009.61,
RY1,1137590,"THOMPSON, WYATT",5/14/2007,,C,B,,,2556,,,2655.83,,,2555.83,,2555.83,,,2655.83,,,,2386.75,,,,2814.2,,,2815.44,,,,3627.73,
RY1,197560,"TISI, CATHERINE",6/26/2019,5/18/2020,H,B,,13,537,,13,538.2,,13,538.33,13,549.64,,13,,,,13,,,,13,,,13,,,,13,,
RY1,165287,"TOMLIN, LUNDEAN",12/17/2018,3/6/2020,H,B,,13,936,,13,,,13,,13,,,13,,,,13,,,,13,,,13,,,,13,,
RY1,134956,"TORGERSON, JOSEPH",1/28/2019,,C,B,,,1122,,,872,,,1390.8,,872,,,,,,,,,,,,,,,,,,,
RY1,1140870,"TROFTGRUBEN, RODNEY",8/3/1992,,H,B,,9,3154.1,,9,2972.84,,9,3110.67,9,3152.52,,9,3421.03,,,9,2903.33,,,9,4035.41,,9,4366.73,,,9,2574.24,
RY1,195231,"TURNER, RICHARD J",12/31/2018,,C,S,500,,,3048,,,500,,,,,3023,,,500,,,,5029.48,,,,500,,,5550,,,,500
RY1,175642,"VANCAMP, KEVIN S",1/29/2018,4/10/2020,S,B,,,1538.47,0,,,,,,,,,,,,,,,,,,,,,,,,,,
RY1,1144265,"VAN HESTE II, FRED E",5/15/2007,,H,B,,19,1371.99,,19,1526.37,,19,1536.53,19,1547.93,,19,1558.57,,,19,1592.11,,,19,1861.15,,19,1501.86,,,19,1538.81,
RY1,178543,"VANYO, DAVID",12/18/2017,,C,S,800,,,6771.76,,,800,,,,,8570.08,,,800,,,,10089.16,,,,800,,,12579.97,,,,800
RY1,185393,"VARBERG, WILLIAM",11/21/2019,,H,B,,12,,,12,,,12,,12,,,12,,,,12,,,,12,,,12,77.01,,,12,157.92,
RY1,15646,"VELA, JUAN CARLOS",10/23/2017,,H,B,,14,1001,,14,1234.07,,14,1178.59,14,1196.72,,14,1248.91,,,14,1197,,,14,1300.64,,14,1268.89,,,14,1125.36,
RY1,1145660,"VIEN, NORMAN A",7/27/2007,,H,B,,21,1680,,21,226,,21,1344,21,3903.9,,21,1837.75,,,21,1386,,,21,1654,,21,1872.57,,,21,1754.7,
RY1,174934,"VITTERS, JAKE",10/9/2019,,H,B,,12,360.24,,12,515.76,,12,514.92,12,525.96,,12,533.28,,,12,481.92,,,12,661.08,,12,541.56,,,12,290.16,
RY1,1146751,"WAGENER, SAMUEL L",1/1/2014,,S,B,,,4615.39,,,4815.39,,,4615.39,,4615.39,,,4815.39,,,,4615.39,,,,4815.39,,,4615.39,,,,4815.39,
RY1,1146989,"WALDBAUER, ALEX",8/29/2007,,C,B,,,1691.5,,,1791.43,,,1691.43,,1691.43,,,1791.43,,,,1724.2,,,,1913.52,,,1667.4,,,,1797.04,
RY1,165989,"WALDECK, JAMES A",10/21/2019,,C,S,600,,,2367,,,600,,,,,2367,,,600,,,,2875,,,,600,,,2550,,,,600
RY1,1146991,"WALDEN, CHRIS W",9/6/1994,,C,B,,,2703,,,2802.83,,,2702.83,,2702.83,,,2802.83,,,,2702.83,,,,3335.02,,,2856.39,,,,3158.52,
RY1,1147062,"WALIOR, SUSAN E",3/3/1997,6/1/2020,S,B,,,723.08,,,542.31,,,542.31,,1175,,,,,,,,,,,,,,,,,,,
RY1,1147061,"WALTON, JOSHUA",12/27/2006,,C,B,,,2359.64,,,2232.54,,,2232.54,,2232.54,,,2232.54,,,,2232.54,,,,3868.59,,,2765.68,,,,2664.24,
RY1,1147250,"WARMACK, JAMES H",4/2/2011,,C,S,1000,,,5829,,,900,,,,,5829,,,900,,,,7725,,,,900,,,6075,,,,900
RY1,197530,"WATSON, BRYCE",7/29/2019,,H,B,,12,428.16,,12,393.6,,12,357.12,12,384.24,,12,380.52,,,12,371.88,,,12,393.36,,12,368.4,,,12,401.16,
RY1,1147810,"WEBER, JAMES A",10/10/2011,,C,S,800,,,7081.98,,,800,,,,,6881.15,,,800,,,,9811.31,,,,800,,,13707.52,,,,800
RY1,169873,"WETZEL, HEATHER",7/13/2020,,H,B,,,,,,,,,,,,,,,,,,,,,,,,17,642.6,,,17,1510.71,
RY1,136943,"WIBBELS, CHANTEL",5/18/2020,6/3/2020,H,B,,,,,,,,,,12,106.08,,12,362.4,,,12,,,,12,,,12,,,,12,,
RY1,162984,"WIKSTROM, ABIGAIL",9/9/2019,,H,B,,13.5,758.97,,13.5,1403.1,,13.5,1080.67,13.5,1089.72,,13.5,1081,,,13.5,1088.3,,,13.5,1182.94,,13.5,875.88,,,13.5,1159.18,
RY1,163278,"WILDE, HUNTER",6/3/2019,,C,B,,,37.68,,,750.6,,,531,,750.6,,,750.6,,,,1680,,,,732,,,909.6,,,,730.8,
RY1,1149160,"WILKENING, RONALD",1/1/2011,,H,B,,10,,,10,580,,10,240,10,320,,10,340,,,10,160,,,10,340,,10,185,,,10,100,
RY1,1149180,"WILKIE, DAVID",5/17/1978,,C,S,1175,,,6300,,,1175,,,,,6300,,,1175,,,,6300,,,,1175,,,6300,,,,1175
RY1,193287,"WILLIAMS, BRAYDON",5/4/2020,,H,B,,,,,,,,12,240,12,563.52,,12,622.2,,,12,918.69,,,12,816.38,,12,852.47,,,12,1029.66,
RY1,135614,"WILLOTT, JOEL",7/13/2020,,H,B,,,,,,,,,,,,,,,,,,,,,,,,12,24,,,12,,
RY1,1149636,"WINZER, CHRISTOPHER L",6/25/2007,,H,B,,15,1083.3,,15,1058.85,,15,1230.08,15,1302.6,,15,1428.68,,,15,1142.7,,,15,1227.3,,15,1289.33,,,15,1097.78,
RY1,139856,"WITTER, PATRICK",2/24/2020,,H,B,,16,986.56,,16,985.12,,16,1134.24,16,1233.28,,16,1110.88,,,16,1051.36,,,16,1392.8,,16,924.48,,,16,1137.12,
RY1,165982,"WOHLGAMUTH, ALEX",7/29/2019,,H,B,,12,497.04,,12,538.56,,12,522.96,12,604.92,,12,478.68,,,12,500.76,,,12,523.68,,12,517.92,,,12,641.4,
RY1,1149710,"WOINAROWICZ, EMILEE M",7/29/2013,,H,B,,15,1261.43,,15,1564.68,,15,1377.53,15,1381.8,,15,1447.75,,,15,1050.6,,,15,1658.35,,15,1093.5,,,15,1557.63,
RY1,167542,"WOLSKY, KADEN",6/2/2020,,H,B,,,,,,,,,,,,,12,105.12,,,12,437.88,,,12,357.12,,12,462.12,,,12,89.04,
RY1,115021,"WOODS, SCOTT",6/24/2019,,H,B,,13,843.57,,13,824.07,,13,1055.99,13,1023.69,,13,1054.89,,,13,1054.63,,,13,1147.32,,13,1051.12,,,13,1064.77,
RY1,165675,"WYMER, JOHN",6/29/2020,,H,B,,,,,,,,,,,,,,,,,,,,,12,587.25,,12,1234.01,,,12,816.71,
RY1,1150510,"YEM, RITHY M",4/29/2013,,S,B,,,2307.7,,,2532.7,,,2307.7,,2307.7,,,2532.7,,,,2307.7,,,,2532.7,,,2307.7,,,,2532.7,
RY1,1151450,"YUNKER, GEORGE P",9/26/2016,,C,S,700,,,2487,,,700,,,,,2487,,,700,,,,3775,,,,700,,,4361.88,,,,700
RY1,1150920,"ZACHA, CHARLES J",12/29/2014,,H,B,,14,487.62,,14,611.38,,14,700,14,700,,14,708.4,,,14,508.06,,,14,646.1,,14,846.58,,,14,738.78,
RY1,1160100,"ZOELLICK, STEVE",1/1/2013,,S,B,,,1461.54,,,1461.54,,,1461.54,,1461.54,,,1461.54,,,,1461.54,,,,1461.54,,,1461.54,,,,1461.54,
RY2,210123,"BARTA, PATRICK",1/4/2017,,H,B,,24,1521.84,,24,3229.32,,24,2323.44,24,2435.16,,24,2155.8,,,24,2575.2,,,24,2301.36,,24,1932.48,,,24,2383.32,
RY2,24665,"BATZER, CORY",11/20/2017,,H,B,,14,1694,,14,1694,,14,1694,14,1694,,14,1668.59,,,14,1279.74,,,14,1233.89,,14,1390.9,,,14,1135.26,
RY2,246783,"BEAUVAIS, ELLIOT",12/2/2019,,H,B,,14,968.16,,14,1061.25,,14,993.5,14,1273.86,,14,1351.45,,,14,1298.64,,,14,874.07,,14,1479.99,,,14,1075.76,
RY2,297632,"BECK, MADISON",2/11/2020,,H,B,,12,333.36,,12,445.92,,12,380.16,12,339.72,,12,392.16,,,12,195.48,,,12,269.76,,12,186,,,12,351.24,
RY2,266948,"BEYER, LESTAT",7/27/2020,,H,B,,,,,,,,,,,,,,,,,,,,,,,,,,,,12,557.94,
RY2,254976,"BINA, BENJAMIN",7/2/2018,,C,B,,,1151.5,,,1151.5,,,1151.5,,1151.5,,,1151.5,,,,1540.5,,,,1786.2,,,1571.5,,,,1143.9,
RY2,213520,"BINA, NOAH P",11/20/2019,,H,B,,14,370.44,,14,379.96,,14,353,14,367.22,,14,606.06,,,14,662.9,,,14,864.36,,14,672.14,,,14,692.86,
RY2,257935,"BOGER, DYLAN",11/19/2019,,H,B,,12,362.4,,12,381.6,,12,346,12,387.6,,12,303.36,,,12,393.24,,,12,378.12,,12,375.36,,,12,367.44,
RY2,258763,"BRUNK, JUSTIN",2/26/2018,,C,S,,,,,,,,,,,,,,,,,,,,,,,,,,,,,,500
RY2,24551,"BUCKHOLZ, TYLER",10/23/2017,,H,B,,14,1143,,14,1145.83,,14,1287.37,14,1143,,14,1136.24,,,14,1339.66,,,14,1322.16,,14,1006.74,,,14,1050.98,
RY2,264972,"DANGERFIELD, JAXSON",5/24/2020,,H,B,,12,,,12,,,12,,13,,,13,319.54,,,13,939.12,,,13,904.93,,13,898.56,,,13,840.52,
RY2,230601,"DANGERFIELD, JOEL",11/29/2001,,S,B,,,2307.7,,,2407.7,,,2307.7,,2307.7,,,2407.7,,,,2307.7,,,,2407.7,,,2307.7,,,,4177.7,
RY2,230810,"DOERR, ROY",4/29/2013,,H,B,,10,319.3,,10,540,,10,337,10,337,,10,574,,,10,228.4,,,10,420.5,,10,286.2,,,10,256.1,
RY2,294387,"DUNHAM, DEXTER",9/12/2019,5/25/2020,C,S,500,,,1927,,,500,,,,,1584.07,,,,,,,,,,,,,,,,,,
RY2,265421,"DURAND, TIMOTHY",7/27/2020,,H,B,,15,,,15,,,15,,15,,,15,,,,15,,,,15,,,15,,,,15,600,
RY2,269547,"EAGAN, CHASE",5/18/2020,,H,B,,,,,,,,,,12,57,,12,443.88,,,12,855.36,,,12,905.16,,12,784.68,,,12,805.44,
RY2,276431,"ENGEBRETSON, ERIK",7/2/2018,,C,B,,,1511.5,,,1777,,,1511.62,,1511.62,,,1611.62,,,,1205.1,,,,1525.54,,,1805.73,,,,1693.15,
RY2,295435,"ERICKSON, ANTHONY",8/26/2019,,H,B,,12,1323,,12,1423,,12,1323,12,1323,,12,1392.34,,,12,1172.22,,,12,1527.34,,12,1352.58,,,13,1442.84,
RY2,241085,"EVENSON, GARRETT",8/1/2018,,C,B,,,1505.5,,,1655.63,,,1505.63,,1518.1,,,1964.66,,,,1588.4,,,,1588.38,,,1368.16,,,,1594.08,
RY2,243180,"FEIST, LUDWIG",1/23/1995,,H,B,,16.5,1319.84,,16.5,1320.5,,16.5,1319.02,16.5,1316.54,,16.5,1375.86,,,16.5,1527.65,,,16.5,1591.84,,16.5,1595.47,,,16.5,1455.88,
RY2,247000,"FRASER, BRADEN",7/17/2019,,H,B,,15,1512.15,,15,1503.01,,15,1503,15,1537.65,,15,1777.18,,,15,1512.3,,,15,1401.9,,15,1743.81,,,15,1868.11,
RY2,249750,"GABRIELSON, JAMES",9/18/2017,,C,S,650,,,2369,,,650,,,,,2500,,,650,,,,2525,,,,650,,,3678.84,,,,650
RY2,269854,"GOETZ, ELIJAH",3/24/2020,,H,B,,12,866.88,,12,789.96,,12,1375.98,12,1245.66,,12,955.5,,,12,901.08,,,12,831.48,,12,833.4,,,12,711.96,
RY2,254327,"GROLLIMUND, TYLER",8/1/2018,,C,S,650,,,2584,,,650,,,,,2583,,,650,,,,2885,,,,650,,,4849.6,,,,650
RY2,263095,"HAGER, DELWYN D",3/11/2014,,H,B,,12,,,12,168,,12,84,12,84,,12,84,,,12,,,,12,,,12,,,,12,,
RY2,264110,"HEAZLETT, CURTIS F",11/17/2014,,H,B,,10,,,10,1580,,10,700,10,700,,10,800,,,10,381,,,10,843,,10,558,,,10,1803.5,
RY2,264220,"HELGESON, JEFFREY S",11/24/2009,,H,B,,15,1256.85,,15,1190.85,,15,1272.53,15,1350.08,,15,1359,,,15,1278.45,,,15,1247.1,,15,1296.53,,,15,1300.5,
RY2,211232,"HOLLAND, NIKOLAI",3/18/2019,,C,S,600,,,5847,,,600,,,,,5847,,,600,,,,5500,,,,600,,,6000,,,,600
RY2,256879,"JENSON, MARK A",2/13/2017,,H,B,,10,530.44,,10,781.3,,10,581,10,637.3,,10,768.4,,,10,604.9,,,10,477,,10,697.9,,,10,752.1,
RY2,232874,"JOHNSON, ALLYN",5/3/2018,,H,B,,11,,,11,222.75,,11,221.5,11,232.76,,11,216.37,,,11,260.26,,,11,321.2,,11,266.64,,,11,374.44,
RY2,273315,"JOHNSON, BRANDON J",3/7/2011,,C,B,,,3785.5,,,3984.29,,,3784.29,,3784.29,,,3984.29,,,,4511.74,,,,3453.54,,,3904.74,,,,4480.16,
RY2,243876,"JOHNSON, CHRISTIE",7/29/2019,,C,S,500,,,2152,,,500,,,,,2152,,,500,,,,1950,,,,500,,,1825,,,,600
RY2,274225,"JOHNSON, DUSTIN A",2/10/2014,,H,B,,21,1650.71,,21,1911.27,,21,1716.75,21,1766.94,,21,1902.98,,,21,1941.14,,,21,2152.14,,21,1734.18,,,21,1989.62,
RY2,259756,"JOHNSON, FRANCES",1/21/2020,,H,B,,14,1173.91,,14,1171.42,,14,1247,14,1616.27,,14,1241.28,,,14,1635.37,,,14,1683.51,,14,1429.81,,,14,1502.11,
RY2,295148,"KELLER, JOSIAH",6/15/2020,,C,B,,,60.88,,,,,,,,,,,0,,,,793.8,,,,1393.2,,,1267.2,,,,1114.2,
RY2,279380,"KNUDSON, BENJAMIN",8/12/2009,,C,S,3400,,,7000,,,3400,,,,,7000,,,3400,,,,7000,,,,3400,,,7000,,,,3400
RY2,279630,"KNUDSON, KENNETH",1/2/2013,,C,B,,,2476,,,2876.09,,,2476.09,,2476.09,,,2876.09,,,,2329.04,,,,3034.44,,,2180.4,,,,2906.62,
RY2,268574,"LARA III, REYES",12/17/2019,4/28/2020,H,B,,14,1015.92,,14,939.72,,14,198.24,14,,,14,,,,14,,,,14,,,14,,,,14,,
RY2,265328,"LONGORIA, MICHAEL",7/30/2018,,C,S,700,,,4727,,,700,,,,,4727,,,700,,,,5500,,,,700,,,8500,,,,700
RY2,275342,"LOUDEN, ZAKERY",5/29/2019,,H,B,,15.5,891.1,,15.5,1078.8,,15.5,977.59,15.5,1201.41,,15.5,1415.85,,,15.5,1250.46,,,15.5,1355.94,,18,1615.32,,,18,1448.91,
RY2,298432,"MASON, MYRON",4/29/2019,,H,B,,14,1166.41,,14,1016.26,,14,1013,14,1098.72,,14,1145.9,,,14,1083.74,,,14,1251.95,,14,1107.96,,,14,1105.09,
RY2,291582,"MATHISEN, GARY",11/9/2015,,H,B,,11,,,11,220,,11,242,11,220,,11,220,,,11,60.83,,,11,229.02,,11,132,,,11,184.69,
RY2,275849,"MAXWELL, WYATT",11/19/2019,6/24/2020,H,B,,12,,,12,271.8,,12,,12,,,12,,,,12,,,,12,,,12,,,,12,,
RY2,215883,"MONREAL, JESSIE",9/25/2017,8/1/2020,C,S,700,,,3097,,,700,,,,,3097,,,700,,,,3486,,,,700,,,4830,,,,
RY2,289563,"NEUMANN, NANCY",6/11/2018,,H,B,,12,1131,,12,1286,,12,1120.56,12,1208.4,,12,1341.32,,,12,1151.16,,,12,1277.24,,12,1165.02,,,12,1359.02,
RY2,2106350,"OLSON, CHAD",1/1/2010,,S,B,,,2384.62,,,2484.62,,,2384.62,,2384.62,,,2484.62,,,,2384.62,,,,2484.62,,,2384.62,,,,2484.62,
RY2,296347,"OLSON, JAMIE",8/26/2019,,H,B,,13,1039.68,,13,1091.22,,13,1089.92,13,1125.8,,13,1099.67,,,13,1053.46,,,13,1162.72,,13,1047.02,,,13,1087,
RY2,264387,"OLVERA, CHRISTIAN",11/19/2018,,H,B,,14,985.5,,14,1002.96,,14,1118.32,14,1125.6,,14,971.74,,,14,1043,,,14,1263.57,,14,889.98,,,14,1493.66,
RY2,263975,"OSOWSKI, DENISE",7/27/2020,,H,B,,,,,,,,,,,,,,,,,,,,,,,,,,,,12,438.24,
RY2,2106410,"PEDERSON, DAVID A",12/16/2011,,H,B,,10,3285.31,,10,2789,,10,2489,10,2489,,10,2928.13,,,10,907.25,,,10,1576.45,,10,2851.32,,,10,2904.39,
RY2,211201,"PROIS, JUSTIN",11/20/2017,5/29/2020,C,B,,,1545,,,1544.75,,,1544.75,,1544.75,,,544.76,,,,,,,,,,,,,,,,
RY2,2114160,"RAMBERG, GARY",11/2/1999,7/23/2020,H,B,,10,2005.96,,10,2455,,10,2155,10,2155,,10,2301.3,,,10,989,,,10,1417.63,,10,2858.13,,,10,4199.14,
RY2,267531,"RAMON JR, MICHAEL",8/26/2019,,C,S,1100,,,2194,,,600,,,,,2193,,,600,,,,1650,,,,600,,,1675,,,,600
RY2,258964,"RISBERG, REBECCA",1/7/2020,,H,B,,12,459.36,,12,589.92,,12,713.88,12,653.88,,12,1176.42,,,12,675.72,,,12,829.32,,12,779.64,,,12,904.56,
RY2,267843,"ROMIG, THOMAS",10/8/2018,,C,S,500,,,2094,,,500,,,,,2093,,,500,,,,1925,,,,500,,,350,,,,
RY2,242539,"SALDANA, DEION",6/3/2019,,C,S,700,,,2860,,,700,,,,,3150,,,700,,,,2875,,,,700,,,3625,,,,900
RY2,265478,"SCHUMACHER, BRADLEY",8/3/2020,,C,S,,,,,,,,,,,,,,,,,,,,,,,,,,,,,,500
RY2,2126055,"SHROYER, RYAN",4/1/2019,,S,B,,,1461.54,,,1461.54,,,1461.54,,1461.54,,,1461.54,,,,1461.54,,,,1461.54,,,1611.54,,,,1461.54,
RY2,2130150,"SOBOLIK, PAUL A",3/23/1992,,C,B,,,3008.5,,,3208.75,,,3008.75,,3008.75,,,3208.75,,,,2634.1,,,,3075.07,,,2848.72,,,,2651.25,
RY2,2130678,"SPENCER, FRED C",2/1/2005,,C,S,600,,,4223,,,600,,,,,4222,,,600,,,,4275,,,,600,,,6513.04,,,,600
RY2,264852,"SUMMERS, SAMANTHA G",8/5/2019,,C,B,,17.5,1094.45,,17.5,2528.61,,17.5,1658.83,17.5,1572.51,,17.5,1542.63,,,17.5,1614.73,,,17.5,1586.9,,17.5,1499.49,,,,1392.7,
RY2,256845,"SUTHERLAND, BROOKE",7/23/2017,,H,B,,15,1305.3,,15,2356.83,,15,1782.98,15,1781.18,,15,2072.98,,,15,1191.6,,,15,1883.42,,15,1296.53,,,15,2253.99,
RY2,2135031,"SYVERSON, AMANDA",2/1/2016,7/28/2020,C,S,700,,,2867.07,,,700,,,,,2867.51,,,700,,,,2348.74,,,,700,,,5340.48,,,,
RY2,2141225,"TANDESKI, JADE L",10/8/2014,,H,B,,15,960,,15,1837.8,,15,1398.9,15,1245.6,,15,1402.95,,,15,1079.85,,,15,1270.5,,15,1196.25,,,15,1228.43,
RY2,298567,"TANDESKI, JEROME",12/28/2017,,H,B,,10,,,10,640,,10,320,10,320,,10,320,,,10,,,,10,,,10,,,,10,,
RY2,259375,"THORSELL, JESSE",1/28/2020,,H,B,,12,1008,,12,1152.36,,12,1008.54,12,1183.08,,12,1039.56,,,12,730.44,,,12,879.48,,12,751.2,,,12,900,
RY2,247583,"VOELKER, JUSTIN",12/31/2019,,H,B,,13,284.96,,13,402.09,,13,449.67,13,515.97,,13,442.13,,,13,387.53,,,13,478.01,,13,370.37,,,13,426.92,
RY2,2150210,"WILDE, COREY R",8/6/2012,,C,S,700,,,5807,,,700,,,,,6050,,,950,,,,6750,,,,700,,,6619.28,,,,2691.6
RY2,256984,"ZAPZALKA, WYATT",5/21/2018,7/28/2020,C,B,,,1598,,,1621.9,,,1598.1,,1448.1,,,1714.66,,,,1761.2,,,,1847.32,,,1975.9,,,,3109.68,
RY2,211568,"ZEMAN, HUNTER",3/27/2017,,H,B,,14,1341.15,,14,1328.46,,14,1411.5,14,1411.5,,14,1452.33,,,14,1327.27,,,14,1266.58,,15,1187.83,,,15,1749.08,
RY2,2126053,"ZIDON, STEPHEN",12/21/2015,7/13/2020,H,B,,10,,,10,104.4,,10,,10,,,10,23.5,,,10,,,,10,,,10,,,,10,,
