"store","emp_number","employee_name","hire_date","term_date","H/C/S","B/S","Apr 15","hr_0417","Apr 17","Apr 30","hr_0501","May 01","May 14","hr_0515","May 15","hr_0515","May 29","May 31","hr_0612","Jun 12","Jun 15","hr_0617","Jun 26","Jun 30","Jul 02"
"RY1","168573","AAMODT, MATTHEW","2019-08-04","","H","B",,17.0000,1415.42,,17.0000,1307.47,,17.0000,1356.43,17.0000,1530.94,,17.0000,1206.15,,17.0000,1512.66,,
"RY1","143769","AANENSON, AMANDA","2019-06-03","","H","B",,15.0000,964.65,,15.0000,1370.20,,15.0000,1159.50,15.0000,1188.00,,15.2500,1413.55,,15.2500,1240.59,,
"RY1","159876","AANENSON, GENE","2019-10-31","","H","B",,10.0000,,,10.0000,200.00,,10.0000,100.00,10.0000,100.00,,10.0000,100.00,,10.0000,40.00,,
"RY1","154785","AANSTAD, TANNER","2020-04-20","","H","B",,,,,12.0000,330.00,,12.0000,775.92,12.0000,603.24,,12.0000,505.56,,14.0000,1211.62,,
"RY1","193457","AAS, SCOTT","2020-03-16","","H","B",,14.0000,1505.35,,14.0000,1522.36,,14.0000,1543.15,14.0000,1730.89,,14.0000,1547.84,,14.0000,1707.37,,
"RY1","11660","ADAM, PATRICK","2016-04-25","","C","B",,,2538.50,,,4257.17,,,2538.45,,2538.45,,,2738.45,,,2538.45,,
"RY1","197642","ADHIKARI, OM","2019-06-17","","H","B",,13.0000,1072.37,,13.0000,801.97,,13.0000,1079.00,13.0000,1072.57,,13.0000,1068.15,,13.0000,1067.17,,
"RY1","11732","AGUILAR, ANNA","2015-09-08","","H","B",,18.0000,1505.61,,18.0000,1419.84,,18.0000,1586.34,18.0000,1521.00,,18.0000,1480.50,,18.0000,1326.00,,
"RY1","10568","AKER, CADEN","2017-11-06","","H","B",,15.0000,1946.50,,15.0000,1943.63,,15.0000,1720.95,15.0000,720.30,,15.0000,420.45,,15.0000,1110.56,,
"RY1","175398","ALLARD, BROCK","2019-10-09","2020-06-15","H","B",,12.0000,432.00,,12.0000,432.00,,12.0000,432.00,12.0000,432.00,,12.0000,432.00,,12.0000,,,
"RY1","168575","ALOISIO, MADYSON","2019-12-17","","H","B",,12.0000,595.44,,12.0000,613.44,,12.0000,264.84,12.0000,330.24,,12.0000,339.84,,12.0000,498.60,,
"RY1","12725","ALSLEBEN, DEVIN R","2017-08-18","2020-04-07","H","B",,14.0000,997.00,,14.0000,,,14.0000,,14.0000,,,14.0000,,,14.0000,,,
"RY1","147832","ALTEPETER, GRAYSON","2019-07-11","","H","B",,12.0000,762.36,,12.0000,744.48,,12.0000,894.66,12.0000,906.18,,12.0000,1052.70,,12.0000,660.60,,
"RY1","165873","ANDERSON, NICHOLAS","2020-07-06","","H","B",,14.0000,,,14.0000,,,14.0000,,14.0000,,,14.0000,,,14.0000,,,
"RY1","13725","ANDERSON, SHAWN W","2015-02-02","","C","B",,,5217.50,,,5217.71,,,5217.71,,5217.71,,,5217.71,,,5904.40,,
"RY1","13815","ANDERSON, STEVEN L","2014-03-10","","H","B",,10.0000,,,10.0000,1040.00,,10.0000,570.00,10.0000,540.00,,10.0000,520.00,,10.0000,305.00,,
"RY1","16425","ANDREWS, JON","2006-04-11","","S","B",,,3269.24,,,3469.24,,,3269.24,,3269.24,,,3469.24,,,3269.24,,
"RY1","16450","APPLING, DAVID J","2015-01-27","","H","B",,13.0000,,,13.0000,,,13.0000,,13.0000,,,13.0000,,,13.0000,,,
"RY1","123578","ATWELL, TREVOR","2020-02-24","","H","B",,12.0000,858.24,,12.0000,855.72,,12.0000,841.68,12.0000,927.60,,12.0000,895.92,,12.0000,878.04,,
"RY1","17534","AUBOL, THOMAS B","1998-11-09","","C","S",850.00,,,10067.43,,,850.00,,,,,8966.00,,,850.00,,,14750.76,
"RY1","18005","AXTMAN, DALE M","2001-05-01","","C","B",,,3260.00,,,3259.78,,,3259.78,,3259.78,,,3259.78,,,3505.50,,
"RY1","196575","BACH, CASPER","2020-03-24","","C","S",500.00,,,2585.00,,,500.00,,,,,2575.00,,,500.00,,,2500.00,
"RY1","166873","BAILLY, BRODY","2020-03-05","","H","B",,12.0000,220.00,,12.0000,168.00,,12.0000,188.88,12.0000,320.40,,12.0000,288.96,,12.0000,381.18,,
"RY1","165826","BAKKEN, BRAYDEN","2020-06-29","","H","B",,,,,,,,,,,,,,,,,,,
"RY1","174738","BARBEAU, LUKE","2019-11-19","","H","B",,12.0000,513.50,,12.0000,515.04,,12.0000,514.56,12.0000,517.32,,12.0000,832.44,,12.0000,895.70,,
"RY1","111210","BEAR, JEFFERY L","2014-10-14","","C","B",,,1982.00,,,1982.02,,,1982.02,,1982.02,,,2119.15,,,1995.92,,
"RY1","112589","BEDNEY, TYLER","2017-06-05","","C","S",1200.00,,,4361.00,,,1200.00,,,,,6500.00,,,1700.00,,,8100.00,
"RY1","187564","BEHM, PAUL","2018-04-23","2020-06-12","H","B",,14.0000,1019.00,,14.0000,991.42,,14.0000,513.94,14.0000,1021.86,,14.0000,1346.36,,14.0000,1869.70,,
"RY1","185628","BEISNER, EVAN","2020-05-04","2020-05-04","H","B",,,,,,,,12.0000,24.00,12.0000,,,12.0000,,,12.0000,,,
"RY1","111250","BEISWENGER, LYLE W","2012-11-13","","H","B",,10.0000,,,10.0000,520.00,,10.0000,160.00,10.0000,160.00,,10.0000,360.00,,10.0000,,,
"RY1","197523","BEITER, GABRIELLE","2019-08-12","","H","B",,14.0000,868.56,,14.0000,977.34,,14.0000,1008.14,14.0000,926.38,,14.0000,1223.95,,14.0000,1353.73,,
"RY1","156398","BERG, ETHAN","2019-10-09","","H","B",,12.0000,,,12.0000,623.04,,12.0000,570.24,12.0000,534.12,,12.0000,553.68,,12.0000,362.28,,
"RY1","195359","BERGE, THOMAS","2019-10-08","","H","B",,14.0000,1036.00,,14.0000,1036.00,,14.0000,1044.68,14.0000,1289.50,,14.0000,1052.52,,14.0000,1039.35,,
"RY1","113085","BERGH, STEVEN","2014-06-30","","S","B",,,1846.16,,,1946.16,,,1846.16,,1846.16,,,1946.16,,,1846.16,,
"RY1","196485","BICKER, AUSTIN","2020-03-24","","H","B",,12.0000,233.00,,12.0000,,,12.0000,244.08,12.0000,444.24,,12.0000,637.24,,12.0000,520.65,,
"RY1","157953","BIES II, DAVID","2019-01-28","","C","B",,,3091.40,,,3001.87,,,2901.87,,2901.87,,,3001.87,,,2901.87,,
"RY1","147741","BJARNASON, JUSTIN","2017-06-05","","C","S",625.00,,,2223.00,,,625.00,,,,,2275.00,,,625.00,,,4595.96,
"RY1","115255","BJORNSETH, MARK L","1989-09-25","","S","B",,,2500.00,,,2500.00,,,3100.00,,2500.00,,,2700.00,,,2500.00,,
"RY1","149852","BLEWITT, ALEXIS","2019-10-02","","H","B",,14.0000,560.70,,14.0000,563.92,,14.0000,569.38,14.0000,574.56,,14.0000,673.40,,14.0000,716.66,,
"RY1","160930","BLUMHAGEN, KATHERINE M","2002-08-19","","H","B",,10.0000,2373.00,,10.0000,2373.15,,10.0000,2373.15,10.0000,2373.15,,10.0000,2373.15,,10.0000,2373.15,,
"RY1","165785","BOEHMER, LARRY","2020-03-24","2020-04-06","H","B",,12.0000,66.00,,12.0000,,,12.0000,,12.0000,,,12.0000,,,12.0000,,,
"RY1","116185","BOHM, DOUGLAS","1993-03-01","","H","B",,19.0000,1909.12,,19.0000,1216.00,,19.0000,1216.00,19.0000,2700.00,,19.0000,1548.50,,19.0000,76.00,,
"RY1","169843","BOOKER, JEREMIAH","2019-06-24","2020-06-19","H","B",,14.0000,1096.62,,14.0000,894.60,,14.0000,566.93,14.0000,1117.90,,14.0000,1192.03,,14.0000,1144.71,,
"RY1","118010","BRAATEN, DEAN T","2017-04-24","","H","B",,15.0000,1301.10,,15.0000,1481.48,,15.0000,1562.03,15.0000,1442.33,,15.0000,1581.68,,15.0000,1273.13,,
"RY1","195436","BRAATEN, LOGAN","2019-08-26","","H","B",,14.0000,431.00,,14.0000,431.20,,14.0000,665.98,14.0000,448.00,,14.0000,,,14.0000,,,
"RY1","165876","BRIONES-BURNETT, KATRINA","2020-04-06","","H","B",,12.0000,140.40,,12.0000,455.88,,12.0000,408.96,12.0000,441.12,,12.0000,492.84,,12.0000,375.84,,
"RY1","165823","BRODEN, MARK","2019-08-19","","H","B",,14.0000,903.98,,14.0000,931.84,,14.0000,1136.73,14.0000,1145.62,,14.0000,1021.16,,14.0000,1015.91,,
"RY1","118520","BROOKS JR, DREW","2017-04-02","","H","B",,14.0000,2098.50,,14.0000,2098.50,,14.0000,2058.95,14.0000,1918.53,,14.0000,2201.12,,14.0000,1745.90,,
"RY1","121063","BRORBY, BO","2015-11-23","","H","B",,21.5000,2261.16,,21.5000,2178.30,,21.5000,2051.21,21.5000,2202.46,,21.5000,2164.00,,21.5000,2144.41,,
"RY1","123211","BRUGGEMAN, AFTON","2016-08-01","","S","B",,,2500.00,,,2800.00,,,2500.00,,2500.00,,,2800.00,,,2500.00,,
"RY1","158763","BRUNK, JUSTIN","2018-02-26","","C","S",500.00,,,2150.00,,,500.00,,,,,2009.00,,,500.00,,,3300.00,
"RY1","145789","BUCHANAN, KYLE","2017-05-08","","C","B",,,2297.62,,,2721.67,,,2471.67,,2471.67,,,2721.67,,,2471.67,,
"RY1","155477","BUCKHOLZ, ZACHARY","2017-04-10","","H","B",,14.0000,1323.00,,14.0000,1325.80,,14.0000,1318.17,14.0000,1342.81,,14.0000,1308.37,,14.0000,829.65,,
"RY1","175873","BUDEAU, KAYLA","2018-03-27","","H","B",,14.0000,1591.30,,14.0000,1671.43,,14.0000,1337.14,14.0000,1337.14,,14.0000,1435.92,,14.0000,1120.28,,
"RY1","159375","BUSHEE, BRYCE","2019-11-19","","H","B",,12.0000,,,12.0000,,,12.0000,,12.0000,,,12.0000,,,12.0000,338.00,,
"RY1","146982","BUSSE, JORDAN","2020-06-15","","H","B",,,,,,,,,,,,,,,,12.0000,377.04,,
"RY1","123100","CAHALAN, BENJAMIN C","2011-08-03","","S","B",,,10576.93,,,4516.50,,,4166.50,,4166.50,,,4516.50,,,4166.50,,
"RY1","123946","CANFIELD, EMILY","2020-05-04","","H","B",,,,,,,,12.0000,393.00,12.0000,1217.94,,12.0000,1230.90,,12.0000,1140.72,,
"RY1","185462","CARABALLO, CHRISTOPHER","2019-10-07","","C","S",500.00,,,2946.00,,,500.00,,,,,2946.00,,,500.00,,,4625.00,
"RY1","123525","CARLSON, KENNETH A","2010-01-01","","H","B",,15.0000,470.70,,15.0000,889.85,,15.0000,749.85,15.0000,788.55,,15.0000,882.50,,15.0000,343.35,,
"RY1","123538","CARLSON, ROBERT","1997-04-01","","C","S",6400.00,,,6000.00,,,6400.00,,,,,6000.00,,,6400.00,,,6000.00,
"RY1","169856","CASTRO, DONOVAN","2020-06-29","","H","B",,,,,,,,,,,,,,,,,,,
"RY1","124101","CHAMPAGNE, LESLIE","2014-08-25","","H","B",,13.5000,1029.51,,13.5000,1017.36,,13.5000,1134.27,13.5000,1100.05,,13.5000,1253.68,,13.5000,1097.56,,
"RY1","135987","CLARK, ADAM","2018-02-01","","H","B",,14.0000,,,14.0000,398.58,,14.0000,925.54,14.0000,837.90,,14.0000,990.50,,14.0000,1308.63,,
"RY1","125028","CLARK, JOHNNY","2020-05-18","","H","B",,14.0000,,,14.0000,,,14.0000,,14.0000,373.24,,14.0000,1159.83,,14.0000,1249.10,,
"RY1","165980","CLASEMAN, JAMIE","2018-12-03","","H","B",,12.0000,822.84,,12.0000,825.00,,12.0000,934.92,12.0000,951.96,,12.0000,1042.98,,12.0000,923.16,,
"RY1","162983","CLOSE, PRESTON","2019-09-12","","C","S",600.00,,,2664.00,,,600.00,,,,,2864.00,,,600.00,,,6075.00,
"RY1","126200","COCHRAN, MICHELLE C","2011-01-24","","S","B",,,2076.93,,,2101.93,,,2076.93,,2076.93,,,2101.93,,,2076.93,,
"RY1","169964","COOK, COURTNIE","2020-06-01","","H","B",,,,,,,,,,,,,14.0000,401.38,,14.0000,1175.51,,
"RY1","158963","COOK, MATTHEW","2019-06-03","","H","B",,14.0000,656.04,,14.0000,926.24,,14.0000,1055.60,14.0000,1069.60,,14.0000,1180.55,,14.0000,918.54,,
"RY1","196325","COOLEY, CONNOR","2020-01-28","","H","B",,12.0000,334.00,,12.0000,336.00,,12.0000,476.88,12.0000,355.68,,12.0000,342.96,,12.0000,365.56,,
"RY1","186724","CORY, CLAIRE","2019-05-24","","H","B",,12.0000,493.56,,12.0000,773.36,,12.0000,654.60,12.0000,458.52,,12.0000,683.24,,12.0000,330.96,,
"RY1","126250","COULTER, DONALD R","2015-01-27","","H","B",,13.0000,,,13.0000,,,13.0000,,13.0000,,,13.0000,,,13.0000,,,
"RY1","128530","CROAKER, CRAIG R","2007-01-30","","C","S",800.00,,,8067.00,,,800.00,,,,,8017.00,,,800.00,,,9169.56,
"RY1","143298","DAHLEY, SHELBY","2019-07-11","","H","B",,13.0000,252.59,,13.0000,375.44,,13.0000,413.92,13.0000,796.97,,13.0000,1016.99,,13.0000,880.36,,
"RY1","131370","DAVID, GORDON","1995-06-07","","C","B",,,1886.00,,,1958.21,,,1885.81,,2089.60,,,1885.81,,,1841.23,,
"RY1","131315","DAVIS, ERIC A","2014-08-11","","C","B",,,2062.20,,,2091.50,,,1991.50,,1991.50,,,2091.50,,,2114.00,,
"RY1","196314","DEAN, VANDER","2020-05-11","","H","B",,,,,,,,14.0000,,14.0000,688.66,,14.0000,1082.74,,14.0000,1500.85,,
"RY1","15552","DECOUTEAU, FRANK A","2017-09-25","","C","S",1100.00,,,5294.40,,,975.00,,,,,5194.00,,,725.00,,,8293.90,
"RY1","132500","DELOHERY, MICHAEL J","2010-05-03","","S","B",,,2538.47,,,2863.47,,,2538.47,,2538.47,,,2863.47,,,2538.47,,
"RY1","132489","DEMANT, COLTEN","2020-06-01","","H","B",,,,,,,,,,,,,12.0000,391.56,,12.0000,1067.25,,
"RY1","154983","DEVIER, RYLIE","2018-12-03","","H","B",,13.0000,102.18,,13.0000,330.88,,13.0000,186.81,13.0000,172.90,,13.0000,271.47,,13.0000,74.23,,
"RY1","154225","DEZIEL, DYLAN","2019-02-21","","H","B",,14.0000,1079.68,,14.0000,1470.53,,14.0000,1353.73,14.0000,1357.09,,14.0000,1602.48,,14.0000,1094.03,,
"RY1","15648","DIBI, ANDREW","2017-10-23","2020-04-24","H","B",,17.7500,1344.74,,17.7500,1811.25,,17.7500,,17.7500,,,17.7500,,,17.7500,,,
"RY1","138945","DOCKENDORF, BEN","2020-04-20","","H","B",,,,,12.0000,229.68,,12.0000,348.96,12.0000,383.76,,12.0000,471.00,,12.0000,362.52,,
"RY1","133017","DOCKENDORF, NATE J","2015-05-18","","C","S",800.00,,,4674.00,,,800.00,,,,,5000.00,,,800.00,,,7500.00,
"RY1","135770","DRISCOLL, TERRANCE","2002-11-04","","C","B",,,3146.00,,,3146.12,,,3146.12,,3146.12,,,3146.12,,,3146.12,,
"RY1","136170","DUCKSTAD, JARED J","2002-09-30","","C","B",,,2761.50,,,2761.49,,,2761.49,,2761.49,,,2761.49,,,3697.93,,
"RY1","137495","DUKES, JAYDA","2020-05-18","","H","B",,,,,,,,,,12.0000,299.64,,12.0000,493.92,,12.0000,564.84,,
"RY1","137101","EBERLE, MARCUS M","2016-08-15","","C","B",,,1725.50,,,1725.38,,,1725.38,,1725.38,,,1725.38,,,1725.38,,
"RY1","138380","EICHHORST, NOEL E","1978-08-30","","H","B",,15.0000,1069.20,,15.0000,1144.90,,15.0000,993.60,15.0000,998.25,,15.0000,1070.10,,15.0000,1008.15,,
"RY1","153835","ELLINGSON, DANE","2020-01-13","","H","B",,13.0000,,,13.0000,,,13.0000,,13.0000,,,13.0000,620.49,,13.0000,553.54,,
"RY1","132963","ERICKSON, DENNIS","2019-04-03","","H","B",,10.0000,,,10.0000,80.00,,10.0000,40.00,10.0000,40.00,,10.0000,70.00,,10.0000,,,
"RY1","175393","ERICKSON, JUSTIN","2019-11-19","","C","B",,,1040.00,,,1040.00,,,1040.00,,1840.80,,,1101.10,,,2433.80,,
"RY1","189432","ERICKSON, REED","2020-05-04","","H","B",,,,,,,,12.0000,24.00,12.0000,321.84,,12.0000,421.44,,12.0000,413.76,,
"RY1","140500","ERICKSON, RONALD J","2009-10-12","","C","S",900.00,,,4673.00,,,900.00,,,,,5950.00,,,900.00,,,6200.00,
"RY1","140790","ESPELUND, KENNETH M","2005-09-19","","S","B",,,2769.24,,,3169.24,,,2769.24,,2769.24,,,2869.24,,,2769.24,,
"RY1","141060","EULISS, NED","2004-11-02","","H","B",,8.0000,3220.03,,8.0000,2371.24,,8.0000,2123.16,8.0000,2125.28,,8.0000,2236.12,,8.0000,1822.52,,
"RY1","141069","EVAVOLD, DANIEL J","2007-01-23","","H","B",,11.0000,2588.00,,11.0000,2962.88,,11.0000,2587.88,11.0000,2587.88,,11.0000,2962.88,,11.0000,2587.88,,
"RY1","195628","EVENSON, JOSHUA","2019-10-07","","H","B",,8.0000,1476.92,,8.0000,1566.44,,8.0000,1489.72,8.0000,1681.88,,8.0000,1701.16,,8.0000,1846.40,,
"RY1","157939","FEATHERSTONE, GARRETT","2020-01-13","","H","B",,12.0000,860.00,,12.0000,854.52,,12.0000,752.28,14.0000,917.00,,14.0000,861.14,,14.0000,1141.20,,
"RY1","159863","FERRY, CARTER","2018-02-12","2020-06-06","C","B",,,1946.50,,,1973.99,,,2251.16,,1946.50,,,3662.98,,,,,
"RY1","145801","FLAAT, GAVIN","2016-04-11","","C","B",,,2673.00,,,2672.81,,,2679.37,,1002.36,,,1754.12,,,2884.93,,
"RY1","183923","FLORES, JOSHUA","2019-10-09","","H","B",,12.0000,432.00,,12.0000,432.00,,12.0000,432.00,12.0000,408.00,,12.0000,432.00,,12.0000,,,
"RY1","169753","FONTEYNE, MICHAEL","2020-06-01","","H","B",,,,,,,,,,,,,12.0000,484.86,,12.0000,502.08,,
"RY1","148050","FOSTER, BENJAMIN F","2013-10-21","","S","B",,,4808.00,,,5108.00,,,4808.00,,4808.00,,,5108.00,,,4808.00,,
"RY1","148075","FOSTER, KEVIN B","2006-06-05","","S","B",,,8846.16,,,4266.50,,,4166.50,,4166.50,,,4266.50,,,4166.50,,
"RY1","148080","FOSTER, SAMUEL T","2014-11-17","","C","S",600.00,,,3300.76,,,600.00,,,,,4553.09,,,600.00,,,6535.69,
"RY1","165783","FREITAG, TALON","2018-05-21","","H","B",,14.0000,1022.42,,14.0000,1276.98,,14.0000,1087.80,14.0000,,,14.0000,,,14.0000,,,
"RY1","154328","FREKING, NICOLAS","2018-10-08","","H","B",,12.6000,802.62,,12.6000,936.43,,12.6000,934.54,12.6000,1101.36,,12.6000,1088.77,,12.6000,1029.04,,
"RY1","155214","GAGNON, ANASTASIA","2018-05-27","","H","B",,15.0000,961.20,,15.0000,1106.78,,15.0000,1054.20,15.0000,970.50,,15.0000,1004.40,,15.0000,974.25,,
"RY1","157995","GAGNON, JUNE","2008-02-11","","S","B",,,1923.08,,,2173.08,,,1923.08,,1923.08,,,2173.08,,,1923.08,,
"RY1","149878","GAGNON, TRACI L","2008-10-30","","H","B",,15.0000,1221.08,,15.0000,1479.90,,15.0000,1365.60,15.0000,1369.43,,15.0000,1336.80,,15.0000,1258.58,,
"RY1","157394","GAJMER, JOHN","2019-10-09","","H","B",,12.0000,587.88,,12.0000,579.36,,12.0000,553.68,12.0000,603.96,,12.0000,603.60,,12.0000,777.42,,
"RY1","159823","GALLETTA, ALEXIUS","2019-12-31","2020-04-27","H","B",,12.0000,,,12.0000,,,12.0000,,12.0000,,,12.0000,,,12.0000,,,
"RY1","150105","GARDNER, CHAD A","2011-04-04","","C","B",,,2701.50,,,2901.67,,,2701.67,,2701.67,,,2901.67,,,2701.67,,
"RY1","150120","GARDNER, JOHN T","2014-06-01","","S","B",,,2169.23,,,2369.23,,,2169.23,,2169.23,,,2369.23,,,2169.23,,
"RY1","150126","GEHRTZ, CLAYTON J","2014-12-29","","C","B",,,5343.50,,,5543.25,,,5343.25,,5343.25,,,5543.25,,,5325.07,,
"RY1","132584","GERSZEWSKI, JOSEPH","2019-08-05","","H","B",,13.0000,1161.50,,13.0000,1264.61,,13.0000,1182.94,13.0000,1175.72,,13.0000,1222.94,,13.0000,812.56,,
"RY1","174123","GEST, ALEXIS","2019-08-26","","H","B",,12.0000,,,12.0000,,,12.0000,,12.0000,,,12.0000,,,12.0000,749.44,,
"RY1","156988","GIESLER, MEGAN","2017-07-17","2020-05-15","H","B",,14.0000,695.10,,14.0000,619.08,,14.0000,618.80,14.0000,307.86,,14.0000,,,14.0000,,,
"RY1","152235","GIRODAT, JEFF S","1986-05-05","","C","B",,,3612.50,,,3712.56,,,3864.89,,3612.56,,,3712.56,,,4629.81,,
"RY1","152480","GOETZ, DUANE E","2012-10-01","","C","S",4500.00,,,4500.00,,,4500.00,,,,,4500.00,,,4500.00,,,4500.00,
"RY1","152490","GONZALEZ, ANTHONY J","2019-01-14","2020-04-01","H","B",,12.0000,103.92,,12.0000,,,12.0000,,12.0000,,,12.0000,,,12.0000,,,
"RY1","159857","GONZALEZ, DANIEL","2019-12-17","","H","B",,13.0000,804.31,,13.0000,700.18,,13.0000,1081.73,13.0000,997.82,,13.0000,1027.13,,13.0000,1211.41,,
"RY1","153865","GOODOIEN, DEREK","2019-07-11","","C","B",,14.0000,1307.05,,14.0000,1308.79,,14.0000,1323.07,14.0000,1323.49,,14.0000,1317.61,,16.5000,1386.00,,
"RY1","156987","GORDON III, DOUGLAS","2020-02-13","2020-05-21","H","B",,12.0000,1096.50,,12.0000,,,12.0000,,12.0000,85.44,,12.0000,,,12.0000,,,
"RY1","152499","GOTHBERG, CONNER J","2015-09-01","","H","B",,15.0000,1736.19,,15.0000,1841.70,,15.0000,2015.15,15.0000,1857.30,,15.0000,2092.55,,15.0000,2229.88,,
"RY1","175342","GOULET, JENNIFER","2019-08-26","2020-05-28","H","B",,13.0000,1166.17,,13.0000,1089.73,,13.0000,1040.26,13.0000,966.42,,13.0000,706.04,,13.0000,0.00,,
"RY1","152510","GOULET, SHANE A","2014-03-31","","H","B",,14.5000,1233.73,,14.5000,1175.67,,14.5000,1134.63,14.5000,1155.36,,14.5000,1258.89,,14.5000,1124.91,,
"RY1","149857","GRAESSER, EVAN","2020-07-01","","H","B",,,,,,,,,,,,,,,,,,,
"RY1","152525","GRANT, DESIREE L","2014-05-19","","C","B",,,1423.00,,,1423.19,,,1423.19,,1423.19,,,1503.60,,,1423.88,,
"RY1","152410","GRAY, NATHAN J","2011-08-22","","C","B",,,2497.50,,,2497.51,,,2497.51,,2497.51,,,2497.51,,,2252.05,,
"RY1","152432","GREEN, HARRISON","2016-02-15","","H","B",,14.0000,,,14.0000,,,14.0000,,14.0000,,,14.0000,,,14.0000,,,
"RY1","198531","GROVE, ALEXANDER","2020-05-18","","H","B",,12.0000,,,12.0000,,,12.0000,,12.0000,,,12.0000,231.00,,12.0000,735.80,,
"RY1","122558","GRYSKIEWICZ, JONATHAN","2017-05-22","","C","B",,,1840.50,,,1940.45,,,1840.45,,1840.45,,,1940.45,,,1840.45,,
"RY1","137837","GULLEKSON, ASHLEY","2019-11-18","","H","B",,14.0000,1141.00,,14.0000,1143.45,,14.0000,1578.68,14.0000,1080.80,,14.0000,1565.69,,14.0000,1151.36,,
"RY1","196623","GURUNG, DIWAS","2020-06-29","","H","B",,,,,,,,,,,,,,,,,,,
"RY1","165327","GUST, MICAH","2018-08-13","","H","B",,12.0000,392.16,,12.0000,,,12.0000,,12.0000,,,12.0000,,,12.0000,,,
"RY1","145982","HAARSTAD, BRITTANY","2019-08-26","","H","B",,16.0000,1377.44,,16.0000,1736.88,,16.0000,2120.24,16.0000,1965.44,,16.0000,2066.00,,16.0000,772.00,,
"RY1","161010","HAGA, MASON C","2015-06-01","","H","B",,14.0000,419.50,,14.0000,420.00,,14.0000,438.90,14.0000,597.94,,14.0000,1021.68,,14.0000,1448.24,,
"RY1","195975","HAGEN, TYLER","2019-10-28","","H","B",,21.0000,1711.92,,21.0000,1903.48,,21.0000,2175.81,21.0000,2046.66,,21.0000,2076.10,,21.0000,2471.91,,
"RY1","164328","HAHN, BRIDGER","2018-12-17","","H","B",,13.0000,601.25,,13.0000,471.38,,13.0000,519.74,13.0000,291.59,,13.0000,,,13.0000,,,
"RY1","147852","HALE, ELISA","2020-02-24","","H","B",,14.0000,1080.70,,14.0000,1259.27,,14.0000,1711.88,14.0000,1288.46,,14.0000,1612.20,,14.0000,690.94,,
"RY1","163700","HALEY, DYLANGER","2016-09-26","","S","B",,,,,,,,,2346.16,,1846.16,,,3946.16,,,1846.16,,
"RY1","163700","HALEY, DYLANGER","2016-09-26","","S","B",700.00,,,3192.32,,,,,,,,,,,,,,,
"RY1","178323","HANSON, ADAM","2019-11-19","","H","B",,12.0000,330.00,,12.0000,331.20,,12.0000,619.56,12.0000,502.20,,12.0000,665.52,,12.0000,774.67,,
"RY1","162428","HARMON, TERRENCE J","2001-10-01","","H","B",,25.0000,300.00,,25.0000,250.00,,25.0000,250.00,25.0000,,,25.0000,1463.25,,25.0000,2064.13,,
"RY1","175839","HARREN, ZACHARY","2019-11-19","","H","B",,12.0000,630.72,,12.0000,604.56,,12.0000,232.92,12.0000,686.76,,12.0000,355.68,,12.0000,438.72,,
"RY1","162800","HARRIS, SHERIDAN","1955-09-01","","H","B",,10.0000,,,10.0000,320.00,,10.0000,160.00,10.0000,160.00,,10.0000,160.00,,10.0000,255.00,,
"RY1","163096","HASTINGS, DAWN","1986-01-06","","H","B",,18.0000,1431.81,,18.0000,2069.34,,18.0000,1697.85,18.0000,1753.20,,18.0000,2124.87,,18.0000,1513.17,,
"RY1","154760","HATLOY, CHARTON","2018-11-05","","H","B",,12.0000,128.28,,12.0000,117.48,,12.0000,79.56,12.0000,615.60,,12.0000,,,12.0000,,,
"RY1","165789","HECK, SETH","2019-01-14","2020-04-20","C","S",500.00,,,4093.92,,,,,,,,,,,,,,,
"RY1","164015","HEFFERNAN, JOSH","1995-07-15","","C","B",,,3006.50,,,3006.41,,,3006.41,,3006.41,,,3492.04,,,3523.79,,
"RY1","164202","HELGESON, HERB","2005-01-13","","H","B",,10.0000,,,10.0000,,,10.0000,,10.0000,,,10.0000,,,10.0000,,,
"RY1","175838","HELLYER, HENRY","2019-11-13","","H","B",,10.0000,,,10.0000,,,10.0000,,10.0000,,,10.0000,,,10.0000,,,
"RY1","181876","HENRY, JUDY","1994-02-01","","S","B",,,1923.08,,,2423.08,,,1923.08,,1923.08,,,2423.08,,,1923.08,,
"RY1","164920","HEPOLA, JAMES W","2010-11-15","","C","B",,,471.90,,,571.00,,,728.00,,806.00,,,676.00,,,598.00,,
"RY1","185600","HIBMA, MORGAN E","2016-08-01","","S","B",,,2692.31,,,3092.31,,,2692.31,,2692.31,,,3092.31,,,2692.31,,
"RY1","165275","HICKS, EMILY","2016-09-12","","H","B",,13.7500,465.16,,13.7500,320.79,,13.7500,173.39,13.7500,694.24,,13.7500,1132.00,,13.7500,1051.88,,
"RY1","165357","HILL, BRIAN","2006-08-28","","H","B",,12.0000,2610.00,,12.0000,2810.08,,12.0000,2610.08,12.0000,2610.08,,12.0000,2810.08,,12.0000,2610.08,,
"RY1","164329","HINTZ, MATTHEW","2019-06-26","","H","B",,10.0000,,,10.0000,,,10.0000,335.80,10.0000,336.60,,12.0000,953.28,,12.0000,1362.28,,
"RY1","142589","HLAVAC, TERRI","2019-08-26","2020-06-01","H","B",,18.0000,1393.20,,18.0000,1475.10,,18.0000,1444.14,18.0000,1451.25,,18.0000,720.00,,18.0000,,,
"RY1","159873","HOLUM, JACOB","2019-11-04","","H","B",,12.0000,807.88,,12.0000,688.80,,12.0000,702.00,14.0000,1797.53,,14.0000,954.10,,14.0000,760.95,,
"RY1","167812","HOLWEGER, AMANDA J","2011-04-25","","H","B",,14.0000,174.72,,14.0000,325.12,,14.0000,250.60,14.0000,224.84,,14.0000,322.74,,14.0000,148.68,,
"RY1","167580","HOLWERDA, KIRBY W","2011-05-18","","C","B",,,2591.00,,,2590.81,,,2590.81,,2599.13,,,2590.81,,,2613.51,,
"RY1","167906","HULL, DAVID","2015-04-27","","H","B",,15.0000,1008.30,,15.0000,1325.80,,15.0000,1319.48,15.0000,1344.90,,15.0000,1516.30,,15.0000,1223.70,,
"RY1","168815","HUNTER, JASON W","2018-08-23","","H","B",,14.0000,,,14.0000,,,14.0000,,14.0000,,,14.0000,,,14.0000,,,
"RY1","170150","IVERSON, ARNOLD W","2017-11-17","","H","B",,10.0000,,,10.0000,840.00,,10.0000,420.00,10.0000,440.00,,10.0000,530.00,,10.0000,272.50,,
"RY1","171055","JACOBSON, PETER A","2010-12-13","","C","B",,,3597.50,,,3597.72,,,3597.72,,3597.72,,,3597.64,,,3597.72,,
"RY1","172308","JANKOWSKI, GARRETT","2019-09-12","","H","B",,8.0000,1661.54,,8.0000,2028.08,,8.0000,2023.04,8.0000,2028.44,,8.0000,2015.56,,8.0000,2079.04,,
"RY1","172077","JERSTAD, KENNETH","2002-06-10","","H","B",,23.0000,1684.98,,23.0000,1902.79,,23.0000,1965.58,23.0000,1910.38,,23.0000,1864.38,,23.0000,2118.30,,
"RY1","184620","JOHNSON, BENJAMIN R","2017-01-20","","H","B",,18.0000,1659.78,,18.0000,1486.00,,18.0000,1485.79,18.0000,1486.00,,18.0000,1486.00,,18.0000,1486.00,,
"RY1","156844","JOHNSON, DAVID","2017-11-06","","H","B",,19.0000,1575.29,,19.0000,1629.41,,19.0000,1530.26,19.0000,1537.86,,19.0000,1623.99,,19.0000,1525.42,,
"RY1","195675","JOHNSON, ISAIAH","2020-06-29","","H","B",,,,,,,,,,,,,,,,,,,
"RY1","168754","JOHNSON, JOHNNY","2020-04-20","","H","B",,,,,18.0000,530.82,,18.0000,1031.94,18.0000,1610.37,,18.0000,1397.70,,18.0000,1371.06,,
"RY1","164286","JOHNSON, LOGAN","2019-05-17","2020-05-13","H","B",,12.0000,214.32,,12.0000,616.32,,12.0000,949.02,12.0000,237.24,,12.0000,,,12.0000,,,
"RY1","178050","KIEFER, LUCAS M","2014-05-19","","C","B",,,1565.00,,,1565.11,,,1565.11,,1565.11,,,1565.11,,,1715.32,,
"RY1","178060","KILEY, COLTON","2016-06-06","","H","B",,12.0000,861.24,,12.0000,629.04,,12.0000,587.04,12.0000,597.60,,12.0000,836.20,,12.0000,366.84,,
"RY1","178079","KILMER, JUSTIN","2007-02-01","","H","B",,16.5000,1397.96,,16.5000,2633.76,,16.5000,1870.44,16.5000,1876.88,,16.5000,2105.43,,16.5000,1526.42,,
"RY1","165732","KLOETY, HALEY","2019-04-29","","H","B",,14.0000,1134.49,,14.0000,1223.36,,14.0000,1333.57,14.0000,1358.35,,14.0000,1412.15,,14.0000,1456.98,,
"RY1","132987","KNOWLES, MAYHAYLA","2017-12-18","","H","B",,14.0000,1158.85,,14.0000,1888.89,,14.0000,1384.39,14.0000,1436.05,,14.0000,1625.62,,14.0000,1087.10,,
"RY1","165288","KNUTSON, AUSTIN","2020-05-04","","H","B",,,,,,,,12.0000,241.32,12.0000,123.36,,12.0000,344.76,,12.0000,552.48,,
"RY1","154219","KOBAYASHI-DYER, NARUMI","2018-10-01","","H","B",600.00,,,1787.00,,,600.00,,,,,1950.00,16.0000,,,16.0000,,,
"RY1","154219","KOBAYASHI-DYER, NARUMI","2018-10-01","","H","B",,,,,,,,,,,,,16.0000,723.04,,16.0000,2313.20,,
"RY1","179693","KOENEN, DEBRA M","2008-08-04","","H","B",,13.5000,949.46,,13.5000,1338.73,,13.5000,1097.42,13.5000,1098.63,,13.5000,1268.39,,13.5000,1074.20,,
"RY1","167834","KOHLS, ADAM","2018-04-11","2020-05-09","C","S",500.00,,,1954.00,,,500.00,,,,,4.00,,,,,,,
"RY1","154876","KOLLMAN, MAXWELL","2020-02-24","","H","B",,12.0000,367.92,,12.0000,329.28,,12.0000,427.20,12.0000,329.28,,12.0000,268.80,,12.0000,405.72,,
"RY1","179775","KOLSTAD, KIRK R","1980-03-01","","H","B",,17.0000,1251.80,,17.0000,1561.03,,17.0000,1503.06,17.0000,1643.56,,17.0000,1659.46,,17.0000,1431.15,,
"RY1","179790","KOWALSKI, JASON","2014-06-16","","H","B",,16.0000,1684.88,,16.0000,1962.48,,16.0000,1892.96,16.0000,1827.92,,16.0000,1876.88,,16.0000,2585.44,,
"RY1","196452","KOZEL, KELSEY","2020-05-18","","H","B",,,,,,,,,,14.0000,462.14,,14.0000,908.86,,14.0000,1248.87,,
"RY1","158765","KRISTENSEN, ADAM","2020-02-11","2020-06-16","H","B",,13.0000,,,13.0000,,,13.0000,,13.0000,,,13.0000,,,13.0000,,,
"RY1","198543","KROGSTAD, LARRY","2019-04-03","","H","B",,10.0000,,,10.0000,80.00,,10.0000,295.00,10.0000,212.50,,10.0000,100.00,,10.0000,235.00,,
"RY1","184605","LABELLE, KODI L","2018-12-17","","H","B",,13.0000,775.32,,13.0000,791.44,,13.0000,1120.08,13.0000,1130.09,,13.0000,1229.02,,13.0000,766.48,,
"RY1","184614","LAMONT, BRANDON","2015-10-12","","C","B",,,2731.36,,,2653.16,,,2553.16,,2553.16,,,2653.16,,,2553.16,,
"RY1","182713","LARSON, CODY J","2018-09-24","","H","B",,17.8500,1299.57,,17.8500,1286.09,,17.8500,1323.58,17.8500,1190.24,,17.8500,1197.56,,17.8500,1394.09,,
"RY1","189596","LARSON, TYLER","2019-10-07","","H","B",,12.0000,,,12.0000,160.92,,12.0000,217.32,12.0000,205.92,,12.0000,221.28,,12.0000,350.68,,
"RY1","175738","LARSON, WYATT","2019-11-19","2020-06-19","H","B",,12.0000,263.40,,12.0000,295.80,,12.0000,294.60,12.0000,367.56,,12.0000,373.44,,12.0000,428.64,,
"RY1","184610","LAUGHLIN, LARRY J","1998-10-16","","H","B",,25.0000,2072.13,,25.0000,3201.25,,25.0000,3161.38,25.0000,2896.63,,25.0000,3007.88,,25.0000,2137.25,,
"RY1","184806","LEAVY, PAUL M","2014-08-25","","C","B",,,2429.50,,,2629.50,,,2429.50,,2429.50,,,2629.50,,,2104.00,,916.00
"RY1","165972","LECLAIR, AUSTIN","2018-11-19","","H","B",,14.0000,842.94,,14.0000,1089.56,,14.0000,950.32,14.0000,738.36,,14.0000,1230.96,,14.0000,882.00,,
"RY1","140882","LEEDAHL, GLENNA","2018-05-07","","H","B",,10.0000,,,10.0000,120.00,,10.0000,120.00,10.0000,300.00,,10.0000,205.00,,10.0000,115.00,,
"RY1","198435","LEHR, CARLY","2019-07-15","2020-06-04","H","B",,12.0000,288.00,,12.0000,288.00,,12.0000,288.00,12.0000,288.00,,12.0000,144.00,,12.0000,,,
"RY1","184920","LENE, RYAN","2015-01-05","","C","B",,,3959.12,,,2808.65,,,2708.65,,2708.65,,,2808.65,,,2708.65,,
"RY1","15668","LINDEMANN, TASHA","2017-09-11","","H","B",,14.0000,1939.00,,14.0000,1564.00,,14.0000,1564.00,14.0000,1588.08,,14.0000,1711.41,,14.0000,1576.44,,
"RY1","186100","LIND, KATHERINE","1983-11-22","","S","B",,,2884.62,,,3084.62,,,2884.62,,2884.62,,,3084.62,,,2884.62,,
"RY1","145785","LOGAN, JAI'LA","2020-02-24","","H","B",,14.0000,566.34,,14.0000,1074.72,,14.0000,1274.57,14.0000,983.82,,14.0000,1367.95,,14.0000,992.92,,
"RY1","187675","LONGORIA, BEVERLEY A","2005-02-21","","S","B",,,2769.24,,,2769.24,,,2769.24,,2769.24,,,2769.24,,,2769.24,,
"RY1","189100","LOVEN, ARDEN","2010-03-08","","C","S",900.00,,,3575.00,,,900.00,,,,,3200.00,,,900.00,,,4550.00,
"RY1","188338","LUEKER, DAVID C","2003-06-16","","H","B",,10.0000,2082.50,,10.0000,2082.68,,10.0000,2082.68,10.0000,2082.68,,10.0000,2082.68,,10.0000,2082.68,,
"RY1","190600","MAGNUSON, TYLER D","2019-09-09","","H","B",,18.0000,1407.51,,18.0000,1910.86,,18.0000,2484.71,18.0000,1633.05,,18.0000,1880.74,,18.0000,1452.96,,
"RY1","190892","MANGAN, RICHARD","2002-09-23","","H","B",,17.0000,1330.42,,17.0000,2231.59,,17.0000,2224.45,17.0000,2187.99,,17.0000,2465.51,,17.0000,1649.94,,
"RY1","190918","MARCOTTE, THOMAS H","1985-07-28","","H","B",,35.0000,4126.15,,35.0000,3498.25,,35.0000,3630.03,35.0000,5654.78,,35.0000,7411.25,,35.0000,6160.00,,
"RY1","190910","MAREK, DAYTON C","2017-05-05","","S","B",,,1846.15,,,2046.15,,,1846.15,,1846.15,,,2046.15,,,1846.15,,
"RY1","168351","MARESCA, ROMAO","2018-08-27","","S","B",,,1923.08,,,1923.08,,,1923.08,,1923.08,,,1923.08,,,1923.08,,
"RY1","191060","MARO, NICHOLAS","2014-01-20","","H","B",,8.0000,3138.79,,8.0000,3016.88,,8.0000,2684.16,8.0000,2739.40,,8.0000,1675.76,,8.0000,2879.64,,
"RY1","191350","MAVITY, ROBERT","2008-01-01","","C","B",,,2308.50,,,2308.35,,,2308.35,,2308.35,,,2308.35,,,2308.35,,
"RY1","18574","MCLAUGHLIN, JOHN","2017-12-11","","S","B",,,4153.85,,,4353.85,,,4153.85,,4153.85,,,4353.85,,,4153.85,,
"RY1","198542","MCMILLIAN, TARA","2018-09-10","","H","B",,9.0000,1432.50,,9.0000,1532.57,,9.0000,1432.57,9.0000,1432.57,,9.0000,1532.57,,15.5000,1432.57,,
"RY1","194675","MCVEIGH, DENNIS","2007-11-13","","C","B",,,2544.50,,,2544.59,,,2544.59,,2544.59,,,2544.59,,,3202.23,,
"RY1","198234","MELBY, BAILEY","2019-12-31","","H","B",,14.0000,1096.20,,14.0000,1369.22,,14.0000,1138.55,14.0000,1197.56,,14.0000,1347.68,,14.0000,1272.67,,
"RY1","165983","MENARD, MICHAEL","2018-02-12","","C","S",650.00,,,3268.25,,,650.00,,,,,6574.47,,,650.00,,,4917.11,
"RY1","195401","METZGER, JUSTIN","2010-05-24","","H","B",,14.5000,1172.18,,14.5000,1513.82,,14.5000,2407.35,14.5000,1525.62,,14.5000,1868.49,,14.5000,1657.64,,
"RY1","181520","METZGER, KAYLE M","2013-11-20","","H","B",,18.5000,1460.95,,18.5000,1787.85,,18.5000,1687.57,18.5000,1658.71,,18.5000,1832.43,,18.5000,1474.09,,
"RY1","195460","MICHAEL, ANTHONY E","2010-10-25","","C","S",700.00,,,9500.00,,,700.00,,,,,9500.00,,,700.00,,,10000.00,
"RY1","196341","MILLER, KIM M","1985-01-02","","H","B",,20.5000,1657.32,,20.5000,1915.58,,20.5000,1859.86,20.5000,1818.97,,20.5000,1951.26,,20.5000,1658.04,,
"RY1","134795","MOE, BRYCE","2019-08-26","2020-05-11","H","B",,12.0000,244.08,,12.0000,215.64,,12.0000,222.00,12.0000,,,12.0000,,,12.0000,,,
"RY1","174384","MOGAVERO, MICHAEL","2019-09-24","","C","B",,,1535.25,,,1464.46,,,1464.46,,1464.46,,,1464.46,,,1464.46,,
"RY1","118030","MONSON, TAYLOR","2014-06-30","","S","B",,,2307.70,,,2307.70,,,2307.70,,2307.70,,,2307.70,,,2307.70,,
"RY1","118746","MONTGOMERY, CODY","2017-09-03","2020-05-15","H","B",,14.7000,1072.36,,14.7000,1309.40,,14.7000,1235.98,14.7000,2237.49,,14.7000,,,14.7000,,,
"RY1","165321","MOORE, JEFFREY","2020-06-15","","H","B",,,,,,,,,,,,,,,,14.0000,537.88,,
"RY1","115444","MOORE, LANNY","2017-08-21","","H","B",,13.0000,,,13.0000,,,13.0000,,13.0000,,,13.0000,,,13.0000,,,
"RY1","166278","MOOR, JARON","2020-03-05","2020-04-01","H","B",,14.0000,,,14.0000,,,14.0000,,14.0000,,,14.0000,,,14.0000,,,
"RY1","185965","MORGAN, DEVIN","2019-12-04","2020-06-03","H","B",,12.0000,371.50,,12.0000,622.00,,12.0000,429.36,12.0000,384.36,,12.0000,289.92,,12.0000,,,
"RY1","113011","MORLOCK, BRUCE A","2012-08-30","","H","B",,10.0000,,,10.0000,720.00,,10.0000,360.00,10.0000,360.00,,10.0000,360.00,,10.0000,250.00,,
"RY1","113020","MORRIS, GREG","2010-04-19","","S","B",,,2538.46,,,2538.46,,,2538.46,,2538.46,,,2538.46,,,2538.46,,
"RY1","195826","MUCKENHIRN, BENJAMIN","2019-10-07","","H","B",,12.0000,309.50,,12.0000,309.72,,12.0000,315.12,12.0000,314.04,,12.0000,317.04,,12.0000,329.68,,
"RY1","151702","MULHERN, ALAN","2017-01-05","","H","B",,18.0000,1413.90,,18.0000,2330.10,,18.0000,1880.34,18.0000,1872.00,,18.0000,1972.00,,18.0000,1872.00,,
"RY1","158475","MURDOCH, KYLE","2020-06-29","","H","B",,,,,,,,,,,,,,,,,,,
"RY1","198532","NAVARRO, ALEXANDER","2019-04-29","","H","B",,12.0000,443.76,,12.0000,419.28,,12.0000,210.00,12.0000,689.32,,12.0000,427.32,,12.0000,435.60,,
"RY1","1100710","NEFS, GERALD F","2010-07-21","","H","B",,10.0000,,,10.0000,,,10.0000,,10.0000,,,10.0000,,,10.0000,,,
"RY1","145087","NELSON, LAUREN","2020-05-04","","H","B",,,,,,,,13.0000,279.50,13.0000,949.26,,13.0000,1041.43,,13.0000,771.94,,
"RY1","1102195","NEUMANN, ANDREW D","2014-05-18","","S","B",,,3461.54,,,3461.54,,,3461.54,,3461.54,,,3461.54,,,3461.54,,
"RY1","1102198","NEUMANN, NICKOLAS J","2015-08-03","","S","B",,,2307.70,,,2307.70,,,2807.70,,2307.70,,,2807.70,,,2307.70,,
"RY1","1103050","NOKELBY, RONALD J","1978-05-05","","S","B",,,3269.24,,,3369.24,,,3269.24,,3269.24,,,3369.24,,,3269.24,,
"RY1","187651","NOREIKIS, TIFFANY","2018-09-10","","C","S",700.00,,,2554.00,,,700.00,,,,,5800.00,,,700.00,,,5800.00,
"RY1","168753","NORTHAGEN, JOSHUA","2019-03-12","","C","B",,,1962.00,,,1962.23,,,1962.23,,1962.23,,,1953.23,,,1728.97,,
"RY1","148765","NOVA ABREU, EDWIN","2020-04-20","","H","B",,,,,12.0000,109.08,,12.0000,170.52,12.0000,514.32,,12.0000,901.20,,12.0000,462.12,,
"RY1","1103065","NYGAARD, KENT A","2015-01-26","","H","B",,14.7500,1132.65,,14.7500,1282.45,,14.7500,1303.70,14.7500,1439.36,,15.5000,1506.60,,15.5000,1604.90,,
"RY1","1106225","OLDERBAK, JOHN","2016-02-16","","C","S",800.00,,,4623.00,,,800.00,,,,,6100.00,,,800.00,,,8300.00,
"RY1","173209","O'LEARY, MATTHEW","2019-12-31","","H","B",,14.0000,996.52,,14.0000,1085.35,,14.0000,1130.29,14.0000,1249.57,,14.0000,1201.90,,14.0000,1140.58,,
"RY1","1100625","OLSON, CODEY","2016-08-01","","C","B",,,,,,,,,,,2196.09,,,2296.09,,,2196.09,,
"RY1","1106399","OLSON, JAY P","2002-02-11","","C","B",,,3509.00,,,3508.79,,,3508.79,,3508.79,,,4091.61,,,3629.85,,
"RY1","1106400","OLSON, JUSTIN S","2012-11-12","","C","B",,,1874.00,,,2074.03,,,1874.03,,1874.03,,,2074.03,,,1873.53,,
"RY1","164732","OLSON, RACHEL","2019-04-22","","H","B",,16.5000,1331.39,,16.5000,1425.19,,16.5000,1516.52,16.5000,1363.48,,17.0000,1313.57,,17.0000,1339.77,,
"RY1","144788","OLSON, WYATT","2017-04-10","2020-05-15","S","B",,,2314.50,,,2314.50,,,2314.51,,1157.69,,,,,,,,
"RY1","1106421","O'NEIL, TIMOTHY J","2014-08-11","","C","B",,,2803.00,,,2807.79,,,2807.79,,2807.79,,,2807.79,,,3789.38,,
"RY1","1107950","ORTIZ, GUADALUPE","2012-11-12","","H","B",,25.0000,2123.00,,25.0000,2586.00,,25.0000,2148.00,25.0000,2123.00,,25.0000,2323.00,,25.0000,2123.00,,
"RY1","1108200","OSTLUND, ANNE B","2011-01-17","","H","B",,10.0000,2078.00,,10.0000,2277.79,,10.0000,2077.79,10.0000,2077.79,,10.0000,2277.79,,10.0000,2077.79,,
"RY1","157493","OTTO, ALYSSA","2019-09-23","","H","B",,13.0000,916.50,,13.0000,1152.91,,13.0000,986.44,13.0000,1142.96,,13.0000,871.26,,14.0000,1107.29,,
"RY1","187347","OWEN, ANDREW","2020-05-26","","H","B",,,,,,,,,,14.0000,,,14.0000,422.80,,14.0000,611.38,,
"RY1","137593","PALACIOS, ERIC","2020-01-13","","H","B",,13.0000,1043.58,,13.0000,1031.55,,13.0000,1019.20,13.0000,1791.63,,13.0000,1103.57,,13.0000,938.67,,
"RY1","139846","PARKER, JOSHUA","2019-09-12","","H","B",,14.0000,845.18,,14.0000,1036.18,,14.0000,983.36,14.0000,1025.92,,14.0000,1057.04,,14.0000,989.10,,
"RY1","1109700","PASCHKE, MATTHEW G","2019-08-26","","H","B",,23.0000,2135.00,,23.0000,2601.13,,8.0000,2135.08,8.0000,2135.08,,8.0000,2135.08,,8.0000,2135.08,,
"RY1","190324","PEDE, DOUGLAS","2020-05-04","","H","B",,,,,,,,27.5000,935.28,27.5000,2654.16,,27.5000,2425.23,,27.5000,2797.71,,
"RY1","185647","PERALES, LIL CHRIS","2019-10-21","","H","B",,12.0000,321.12,,12.0000,295.20,,12.0000,377.28,12.0000,421.44,,12.0000,453.48,,12.0000,276.60,,
"RY1","123564","PESEK, BENJAMIN","2017-07-10","","H","B",,12.0000,,,12.0000,374.76,,12.0000,889.80,12.0000,870.30,,12.0000,1135.56,,12.0000,945.78,,
"RY1","1110425","PETERSON, BRIAN D","1999-03-15","","C","B",,,3525.00,,,3524.93,,,3524.93,,3524.93,,,4640.04,,,3524.93,,
"RY1","1110542","PETERSON, DOUG","1995-12-04","","S","B",,,3269.24,,,3369.24,,,3269.24,,3269.24,,,3369.24,,,3269.24,,
"RY1","1110660","PETERSON, TYLER","2015-11-23","","H","B",,17.0000,1300.50,,17.0000,1896.72,,17.0000,1806.76,17.0000,1839.66,,17.0000,1968.21,,17.0000,1472.20,,
"RY1","167934","PFAFF, JONATHAN","2019-01-06","","H","B",,15.0000,1184.33,,15.0000,2365.50,,15.0000,1444.45,15.0000,1445.00,,15.0000,1577.00,,15.0000,1445.00,,
"RY1","1110800","PICHE, STACEY","2015-05-11","","H","B",,15.0000,270.00,,15.0000,498.00,,15.0000,498.00,15.0000,504.00,,15.0000,510.00,,15.0000,355.64,,
"RY1","193542","PICKENS, WHITNEY","2020-03-24","","H","B",,12.0000,967.08,,12.0000,960.78,,12.0000,1002.12,12.0000,950.28,,12.0000,1107.66,,12.0000,948.84,,
"RY1","187526","POKHREL, CHANDRA","2018-12-17","","H","B",,13.0000,1039.87,,13.0000,1036.82,,13.0000,1062.23,13.0000,1054.04,,13.0000,979.16,,13.0000,1190.68,,
"RY1","165478","POLUM, MAXWELL","2018-12-31","","H","B",,14.0000,493.50,,14.0000,507.36,,14.0000,491.68,14.0000,501.20,,14.0000,801.78,,14.0000,773.55,,
"RY1","136942","POPE, DEVON","2020-05-18","","H","B",,,,,,,,,,12.0000,226.68,,12.0000,755.64,,12.0000,814.06,,
"RY1","1111325","POWELL, GAYLA R","2011-08-29","","S","B",,,1921.50,,,2221.50,,,1921.50,,1921.50,,,2358.00,,,1921.50,,
"RY1","1112411","PRESTON, APRIL","2015-07-20","","C","B",,,1296.00,,,1296.00,,,1296.00,,1296.00,,,1296.00,,,1498.00,,
"RY1","1112425","PRICE, JAMES J","1990-12-01","2020-03-31","C","S",,,,,,,,,,,,,,,,,,,
"RY1","1113940","RADKE, DUANE","1966-05-01","","H","B",,21.5000,1720.00,,21.5000,1720.00,,21.5000,1720.00,21.5000,1720.00,,21.5000,1720.00,,21.5000,1782.57,,
"RY1","165473","RAI, SANTI","2018-04-23","","H","B",,14.0000,1205.50,,14.0000,1408.20,,14.0000,1225.21,14.0000,1217.79,,14.0000,1416.74,,14.0000,869.40,,
"RY1","1588879","RAUNER, VALERIE","2017-06-19","","H","B",,15.0000,1083.90,,15.0000,1199.55,,15.0000,1199.40,15.0000,1251.90,,15.0000,1195.73,,15.0000,1254.08,,
"RY1","132785","REEB, LUKE","2020-02-24","","H","B",,13.0000,431.73,,13.0000,156.65,,13.0000,248.30,13.0000,378.43,,13.0000,553.67,,13.0000,584.48,,
"RY1","1114831","REED, DALE","2015-12-21","","H","B",,14.0000,588.56,,14.0000,591.78,,14.0000,589.40,14.0000,534.10,,14.0000,546.00,,14.0000,598.08,,
"RY1","1114921","REUTER, TIMOTHY J","2015-01-26","","H","B",,23.5000,1923.60,,23.5000,2766.75,,23.5000,2240.63,23.5000,2241.00,,23.5000,2441.00,,23.5000,2441.00,,
"RY1","1116800","RICHARDSON, DARRICK J","2015-09-29","","C","B",,,156.80,,,1910.50,,,1585.50,,1585.50,,,1910.50,,,1511.30,,
"RY1","167321","RITCHIE, MICHAEL","2020-05-18","","H","B",,,,,,,,,,12.0000,246.00,,12.0000,491.88,,12.0000,553.44,,
"RY1","195123","RIVERA, ROLANDO","2018-12-17","","H","B",,13.0000,1238.07,,13.0000,936.91,,13.0000,933.27,13.0000,1044.94,,13.0000,965.77,,13.0000,462.28,,
"RY1","122332","ROBINSON, AARON","2017-09-25","","H","B",,14.5000,1082.65,,14.5000,1304.59,,14.5000,1241.35,14.5000,1293.55,,14.5000,1503.46,,14.5000,1158.12,,
"RY1","192348","ROBINSON, CARSON","2018-05-07","","C","S",600.00,,,2959.00,,,600.00,,,,,2959.00,,,600.00,,,2575.00,
"RY1","1117600","ROBLES, RUDOLPH","2000-07-12","","H","B",,15.5000,2140.00,,15.5000,2140.00,,15.5000,2077.97,15.5000,1995.36,,15.5000,2090.30,,15.5000,2275.48,,
"RY1","1117842","RODRIGUEZ, JUSTIN","2015-11-23","","H","B",,8.0000,2098.61,,8.0000,1987.40,,8.0000,1952.08,8.0000,1999.04,,8.0000,2053.36,,8.0000,1952.96,,
"RY1","159763","ROED, ZACHARY","2020-02-11","2020-05-23","H","B",,14.0000,642.88,,14.0000,662.20,,14.0000,810.76,14.0000,366.80,,14.0000,,,14.0000,,,
"RY1","1117901","ROGERS, MITCH A","2014-10-13","","C","B",,,819.40,,,2180.00,,,2551.56,,2180.00,,,2180.00,,,3107.64,,
"RY1","165780","ROGERS, SARA","2018-10-22","","H","B",,13.0000,837.85,,13.0000,819.78,,13.0000,941.72,13.0000,953.03,,13.0000,1210.63,,13.0000,684.32,,
"RY1","158393","ROGERS, TIMOTHY","2019-11-12","","H","B",,10.0000,,,10.0000,,,10.0000,,10.0000,,,10.0000,,,10.0000,,,
"RY1","1117960","ROGNE, CRAIG A","1988-06-13","","S","B",,,1923.08,,,1923.08,,,1923.08,,1923.08,,,1923.08,,,1923.08,,
"RY1","175394","ROHLOFF, KADEN","2020-01-28","","H","B",,12.0000,353.00,,12.0000,261.36,,12.0000,272.28,12.0000,333.00,,12.0000,286.20,,12.0000,1173.97,,
"RY1","175323","ROLIGHED, CODY","2019-10-09","2020-06-16","C","B",,,,,,,,,,,,,,,,,,,
"RY1","159875","ROSE, BRITTANY","2019-10-07","","H","B",,14.0000,665.14,,14.0000,665.00,,14.0000,947.51,14.0000,662.62,,14.0000,779.38,,14.0000,742.28,,
"RY1","1118722","ROSE, CORY","2006-10-23","","C","B",,,190.80,,,200.00,,,190.80,,,,,3342.21,,,3142.21,,
"RY1","12236","ROTH, LAURA","2017-11-20","","S","B",,,2496.16,,,2696.16,,,2496.16,,2496.16,,,2696.16,,,2496.16,,
"RY1","141082","RUMEN, ROBERT","2018-05-07","","C","S",700.00,,,7849.84,,,700.00,,,,,8201.72,,,700.00,,,14232.36,
"RY1","1120110","RYAN, ANTONIO R","2012-03-29","","S","B",,,2300.00,,,2000.00,,,2000.00,,2000.00,,,2000.00,,,2000.00,,
"RY1","1120225","RYDELL, BRIAN L","1999-06-28","","S","B",,,9230.77,,,4166.50,,,4166.50,,4166.50,,,4166.50,,,4166.50,,
"RY1","1120800","RYDELL, WESLEY D","1962-06-01","","C","S",,,,8333.00,,,,,,,,8333.00,,,,,,8333.00,
"RY1","1120120","RYGG, KEN C","2012-11-21","","H","B",,17.0000,1180.14,,17.0000,1179.46,,17.0000,1268.71,17.0000,1262.76,,17.0000,1307.98,,17.0000,1370.63,,
"RY1","1121240","SALBERG, GAYLEN K","2017-02-01","","H","B",,10.0000,,,10.0000,860.00,,10.0000,380.00,10.0000,470.00,,10.0000,690.00,,10.0000,260.00,,
"RY1","1122110","SANCHEZ, ROGELIO","2015-07-06","","S","B",,,3692.31,,,4017.31,,,3692.31,,3692.31,,,4017.31,,,3692.31,,
"RY1","135289","SATHER, SAMUEL","2020-05-18","","H","B",,,,,,,,,,12.0000,145.80,,12.0000,218.28,,12.0000,223.16,,
"RY1","1122342","SATTLER, RANDY J","2002-08-26","","S","B",,,3692.31,0.00,,4092.31,,,3692.31,,3692.31,,,4092.31,,,3692.31,,
"RY1","1122352","SAULS, THOMAS R","2013-08-12","","C","B",,,1657.50,,,1757.50,,,1657.50,,1657.50,,,1757.50,,,1443.75,,
"RY1","198431","SCHADT, MICHAEL","2020-06-25","","C","B",,,,,,,,,,,,,,,,,,,
"RY1","175943","SCHILTZ, JARED","2019-10-09","","H","B",,12.0000,,,12.0000,,,12.0000,,12.0000,,,12.0000,464.88,,12.0000,1084.63,,
"RY1","1123340","SCHMIESS PENAS, JERI L","2009-05-12","","S","B",,,5000.00,,,5400.00,,,5000.00,,5000.00,,,5400.00,,,5000.00,,
"RY1","165432","SCHMITZ, MADISON","2020-06-29","","H","B",,,,,,,,,,,,,,,,,,,
"RY1","137854","SCHNEIDER, AMANDA","2019-08-26","","H","B",,14.0000,1514.95,,14.0000,1083.32,,14.0000,1125.88,14.0000,1102.36,,14.0000,1188.94,,14.0000,987.28,,
"RY1","1566882","SCHNEIDER, BRIAN","2017-06-05","","C","B",,,1908.50,,,2108.50,,,2255.86,,2815.90,,,2872.35,,,2537.50,,
"RY1","198134","SCHREIER, JUSTIN","2020-05-04","","H","B",,,,,,,,12.0000,91.68,12.0000,357.84,,12.0000,252.72,,12.0000,398.16,,
"RY1","1124400","SCHUPPERT, KODEY","2015-04-27","","H","B",,17.0000,1145.80,,17.0000,1443.90,,17.0000,1356.18,17.0000,1528.73,,17.0000,1363.40,,17.0000,1613.98,,
"RY1","1124436","SCHWAN, MICHAEL","2012-02-27","","C","B",,,3854.50,,,4154.28,,,3854.28,,3854.28,,,5033.99,,,3955.72,,
"RY1","1124625","SEAY, BRYN N","2014-08-25","","C","S",700.00,,,4727.00,,,600.00,,,,,7050.00,,,600.00,,,8700.00,
"RY1","1124875","SEEBA, BRADLEY F","1977-04-11","","H","B",,25.0000,2174.75,,25.0000,2524.38,,25.0000,2343.50,25.0000,2323.25,,25.0000,2354.00,,25.0000,2027.75,,
"RY1","1125565","SEVIGNY, SCOTT","2008-09-29","","C","B",,,2498.50,,,2498.52,,,2498.52,,2498.52,,,2498.52,,,2498.52,,
"RY1","168243","SHADWICK, SHAY","2019-08-12","","H","B",,13.0000,416.00,,13.0000,551.20,,13.0000,1109.81,13.0000,1121.32,,13.0000,1096.29,,13.0000,1213.36,,
"RY1","1126040","SHERECK, LOREN","2016-11-07","","S","B",,,2490.50,,,2590.70,,,2490.70,,2490.70,,,2590.70,,,2490.70,,
"RY1","1126300","SHIREK, NICHOLAS","2018-02-01","","C","S",2400.00,,,10000.00,,,2400.00,,,,,10050.00,,,2400.00,,,10000.00,
"RY1","197643","SHOWER, DUSTIN","2018-08-20","","H","B",,14.0000,1148.77,,14.0000,1646.72,,14.0000,1411.46,14.0000,1351.21,,14.0000,1414.67,,14.0000,1119.72,,
"RY1","1126060","SHUMAKER, MARTIN D","2013-07-01","","H","B",,16.0000,1562.72,,16.0000,1567.84,,16.0000,1543.52,16.0000,1614.32,,16.0000,1523.04,,16.0000,1527.20,,
"RY1","167932","SLATOR, ANDREW","2019-05-01","2020-05-15","H","B",,14.0000,955.50,,14.0000,872.80,,14.0000,811.16,14.0000,,,14.0000,,,14.0000,,,
"RY1","139475","SLOMINSKI, JOSEPH","2019-07-29","","H","B",,14.0000,1327.00,,14.0000,1375.19,,14.0000,1327.00,14.0000,1352.62,,14.0000,1415.87,,14.0000,1109.27,,
"RY1","146803","SMERER, JASON","2019-05-20","","H","B",,18.0000,1395.09,,18.0000,1577.70,,18.0000,1981.08,18.0000,2812.14,,18.0000,3811.50,,18.0000,3168.00,,
"RY1","176430","SMITH, TANER","2018-05-07","","H","B",,12.0000,974.88,,12.0000,883.92,,12.0000,996.54,12.0000,993.66,,12.0000,1174.14,,12.0000,961.44,,
"RY1","152964","SOBERG, NICHOLAS","2018-08-27","","H","B",,16.0000,1137.12,,16.0000,1330.32,,16.0000,1577.36,16.0000,1649.36,,16.0000,1343.20,,16.0000,1951.52,,
"RY1","1129560","SOENKSEN, LINDSEY","2017-01-12","","H","B",,12.6000,813.96,,12.6000,821.48,,12.6000,849.24,12.6000,773.89,,12.6000,1159.66,,12.6000,937.31,,
"RY1","1130090","SOLEM, BEN G","2013-09-16","","H","B",,16.0000,1139.20,,16.0000,1498.16,,16.0000,1255.84,16.0000,1289.76,,16.0000,1273.44,,16.0000,1408.00,,
"RY1","165428","SOLHEIM, ARIK","2019-04-15","","S","B",,,2538.47,,,2638.47,,,2538.47,,2538.47,,,2638.47,,,2538.47,,
"RY1","154474","SORENSON, THOMAS","2017-08-28","","H","B",,12.0000,140.16,,12.0000,144.12,,12.0000,146.64,12.0000,141.24,,12.0000,146.64,,12.0000,108.36,,
"RY1","1130420","SORUM, ABIGAIL","2018-03-09","","H","B",,20.0000,1523.60,,20.0000,1501.20,,20.0000,1725.40,20.0000,1745.20,,20.0000,1564.00,,20.0000,1803.10,,
"RY1","1130426","SORUM, GREG","1996-01-01","","S","B",,,16615.39,,,16666.50,,,4166.50,,4166.50,,,12500.00,,,4166.50,,
"RY1","154783","SORUM, JACOB","2019-06-03","","S","B",,,3269.24,,,3269.24,,,3269.24,,3269.24,,,3269.24,,,3269.24,,
"RY1","1130430","SORUM, MICHAEL J","2002-11-04","","S","B",,,2400.00,,,2400.00,,,2400.00,,2400.00,,,2400.00,,,2400.00,,
"RY1","198567","SPIVA, NOLAN","2019-12-17","","H","B",,13.0000,764.40,,13.0000,772.59,,13.0000,1080.50,13.0000,1191.52,,13.0000,1222.72,,13.0000,999.96,,
"RY1","1130690","STADSTAD, LARRY O","2015-01-01","","C","S",,,,3250.00,,,,,,,,1775.00,,,700.00,,,3875.00,
"RY1","1130700","STALLMO, RICHARD D","2009-09-16","","H","B",,13.0000,752.83,,13.0000,842.27,,13.0000,1046.05,13.0000,1040.59,,13.0000,1051.05,,13.0000,1032.79,,
"RY1","174836","STEFFL, SIMON","2019-11-18","","H","B",,12.0000,677.40,,12.0000,568.32,,12.0000,658.68,12.0000,1061.34,,12.0000,1080.00,,12.0000,1224.06,,
"RY1","1132205","STEIN, DONALD W","2012-08-13","","H","B",,15.0000,1232.10,,15.0000,1407.60,,15.0000,1257.53,15.0000,1560.68,,15.0000,1340.25,,15.0000,1515.68,,
"RY1","1132700","STOUT, RICK","2016-08-29","","C","S",3600.00,,,7321.00,,,3600.00,,,,,12436.09,,,3600.00,,,10050.00,
"RY1","143659","STRAUS, TYLER","2018-04-11","","C","B",,,1175.50,,,1175.00,,,1425.50,,1175.50,,,1326.00,,,1188.85,,
"RY1","1133727","STREETER, TIMOTHY","2007-03-28","","H","B",,16.0000,1774.16,,16.0000,1931.76,,16.0000,2003.84,16.0000,2042.72,,16.0000,1973.36,,16.0000,1702.64,,
"RY1","16250","STREITZ, DANIELLE M","2011-09-12","","H","B",,14.0000,1068.62,,14.0000,1331.02,,14.0000,1153.60,14.0000,1153.18,,14.0000,1260.67,,14.0000,1069.67,,
"RY1","128945","SWANSON, ZACHARY","2018-09-11","2020-06-11","H","B",,14.0000,1704.00,,14.0000,1808.00,,14.0000,1709.89,14.0000,1717.45,,14.0000,1862.25,,14.0000,1460.85,,
"RY1","1135265","SYMONS, ELIZABETH R","2012-12-27","","S","B",,,2769.24,,,2869.24,,,2769.24,,2769.24,,,2869.24,,,2769.24,,
"RY1","1135260","SYMONS, STEVEN","2010-11-22","","S","B",,,2692.31,,,2792.31,,,2692.31,,2692.31,,,2792.31,,,2692.31,,
"RY1","1135410","SYVERSON, JOSHUA L","2012-06-11","","C","B",,,2743.00,,,2743.15,,,2743.15,,2743.15,,,3193.44,,,2813.90,,
"RY1","175843","TANGREN, ALEX","2020-06-08","","H","B",,12.0000,960.00,,12.0000,,,12.0000,,12.0000,,,12.0000,,,12.0000,412.80,,
"RY1","157374","TAPPARO, GREGORY","2019-10-09","2020-05-22","H","B",,12.0000,279.72,,12.0000,333.36,,12.0000,466.32,12.0000,435.48,,12.0000,,,12.0000,,,
"RY1","1135518","TARR, JEFF D","1993-11-01","","C","S",500.00,,,4211.00,,,500.00,,,,,4211.00,,,500.00,,,5675.00,
"RY1","1135710","TELKEN, WYATT","2017-06-28","2020-06-16","C","B",,,,,,,,,,,,,,,,,,,
"RY1","157392","THOMPSON, COLE","2019-11-18","","H","B",,13.0000,1265.45,,13.0000,1478.36,,13.0000,1060.09,13.0000,1042.54,,13.0000,1232.17,,13.0000,1104.16,,
"RY1","1137590","THOMPSON, WYATT","2007-05-14","","C","B",,,2556.00,,,2655.83,,,2555.83,,2555.83,,,2655.83,,,2386.75,,
"RY1","197560","TISI, CATHERINE","2019-06-26","2020-05-18","H","B",,13.0000,537.00,,13.0000,538.20,,13.0000,538.33,13.0000,549.64,,13.0000,,,13.0000,,,
"RY1","134956","TORGERSON, JOSEPH","2019-01-28","","C","B",,,1122.00,,,872.00,,,1390.80,,872.00,,,,,,,,
"RY1","1140870","TROFTGRUBEN, RODNEY","1992-08-03","","H","B",,9.0000,3154.10,,9.0000,2972.84,,9.0000,3110.67,9.0000,3152.52,,9.0000,3421.03,,9.0000,2903.33,,
"RY1","195231","TURNER, RICHARD J","2018-12-31","","C","S",500.00,,,3048.00,,,500.00,,,,,3023.00,,,500.00,,,5029.48,
"RY1","175642","VANCAMP, KEVIN S","2018-01-29","2020-04-10","S","B",,,1538.47,0.00,,,,,,,,,,,,,,,
"RY1","1144265","VAN HESTE II, FRED E","2007-05-15","","H","B",,19.0000,1371.99,,19.0000,1526.37,,19.0000,1536.53,19.0000,1547.93,,19.0000,1558.57,,19.0000,1592.11,,
"RY1","178543","VANYO, DAVID","2017-12-18","","C","S",800.00,,,6771.76,,,800.00,,,,,8570.08,,,800.00,,,10089.16,
"RY1","185393","VARBERG, WILLIAM","2019-11-21","","H","B",,12.0000,,,12.0000,,,12.0000,,12.0000,,,12.0000,,,12.0000,,,
"RY1","15646","VELA, JUAN CARLOS","2017-10-23","","H","B",,14.0000,1001.00,,14.0000,1234.07,,14.0000,1178.59,14.0000,1196.72,,14.0000,1248.91,,14.0000,1197.00,,
"RY1","1145660","VIEN, NORMAN A","2007-07-27","","H","B",,21.0000,1680.00,,21.0000,226.00,,21.0000,1344.00,21.0000,3903.90,,21.0000,1837.75,,21.0000,1386.00,,
"RY1","174934","VITTERS, JAKE","2019-10-09","","H","B",,12.0000,360.24,,12.0000,515.76,,12.0000,514.92,12.0000,525.96,,12.0000,533.28,,12.0000,481.92,,
"RY1","1146751","WAGENER, SAMUEL L","2014-01-01","","S","B",,,4615.39,,,4815.39,,,4615.39,,4615.39,,,4815.39,,,4615.39,,
"RY1","1146989","WALDBAUER, ALEX","2007-08-29","","C","B",,,1691.50,,,1791.43,,,1691.43,,1691.43,,,1791.43,,,1724.20,,
"RY1","165989","WALDECK, JAMES A","2019-10-21","","C","S",600.00,,,2367.00,,,600.00,,,,,2367.00,,,600.00,,,2875.00,
"RY1","1146991","WALDEN, CHRIS W","1994-09-06","","C","B",,,2703.00,,,2802.83,,,2702.83,,2702.83,,,2802.83,,,2702.83,,
"RY1","1147062","WALIOR, SUSAN E","1997-03-03","2020-06-01","S","B",,,723.08,,,542.31,,,542.31,,1175.00,,,,,,,,
"RY1","1147061","WALTON, JOSHUA","2006-12-27","","C","B",,,2359.64,,,2232.54,,,2232.54,,2232.54,,,2232.54,,,2232.54,,
"RY1","1147250","WARMACK, JAMES H","2011-04-02","","C","S",1000.00,,,5829.00,,,900.00,,,,,5829.00,,,900.00,,,7725.00,
"RY1","197530","WATSON, BRYCE","2019-07-29","","H","B",,12.0000,428.16,,12.0000,393.60,,12.0000,357.12,12.0000,384.24,,12.0000,380.52,,12.0000,371.88,,
"RY1","1147810","WEBER, JAMES A","2011-10-10","","C","S",800.00,,,7081.98,,,800.00,,,,,6881.15,,,800.00,,,9811.31,
"RY1","136943","WIBBELS, CHANTEL","2020-05-18","2020-06-03","H","B",,,,,,,,,,12.0000,106.08,,12.0000,362.40,,12.0000,,,
"RY1","162984","WIKSTROM, ABIGAIL","2019-09-09","","H","B",,13.5000,758.97,,13.5000,1403.10,,13.5000,1080.67,13.5000,1089.72,,13.5000,1081.00,,13.5000,1088.30,,
"RY1","163278","WILDE, HUNTER","2019-06-03","","C","B",,,37.68,,,750.60,,,531.00,,750.60,,,750.60,,,1680.00,,
"RY1","1149160","WILKENING, RONALD","2011-01-01","","H","B",,10.0000,,,10.0000,580.00,,10.0000,240.00,10.0000,320.00,,10.0000,340.00,,10.0000,160.00,,
"RY1","1149180","WILKIE, DAVID","1978-05-17","","C","S",1175.00,,,6300.00,,,1175.00,,,,,6300.00,,,1175.00,,,6300.00,
"RY1","193287","WILLIAMS, BRAYDON","2020-05-04","","H","B",,,,,,,,12.0000,240.00,12.0000,563.52,,12.0000,622.20,,12.0000,918.69,,
"RY1","1149636","WINZER, CHRISTOPHER L","2007-06-25","","H","B",,15.0000,1083.30,,15.0000,1058.85,,15.0000,1230.08,15.0000,1302.60,,15.0000,1428.68,,15.0000,1142.70,,
"RY1","139856","WITTER, PATRICK","2020-02-24","","H","B",,16.0000,986.56,,16.0000,985.12,,16.0000,1134.24,16.0000,1233.28,,16.0000,1110.88,,16.0000,1051.36,,
"RY1","165982","WOHLGAMUTH, ALEX","2019-07-29","","H","B",,12.0000,497.04,,12.0000,538.56,,12.0000,522.96,12.0000,604.92,,12.0000,478.68,,12.0000,500.76,,
"RY1","1149710","WOINAROWICZ, EMILEE M","2013-07-29","","H","B",,15.0000,1261.43,,15.0000,1564.68,,15.0000,1377.53,15.0000,1381.80,,15.0000,1447.75,,15.0000,1050.60,,
"RY1","167542","WOLSKY, KADEN","2020-06-02","","H","B",,,,,,,,,,,,,12.0000,105.12,,12.0000,437.88,,
"RY1","115021","WOODS, SCOTT","2019-06-24","","H","B",,13.0000,843.57,,13.0000,824.07,,13.0000,1055.99,13.0000,1023.69,,13.0000,1054.89,,13.0000,1054.63,,
"RY1","165675","WYMER, JOHN","2020-06-29","","H","B",,,,,,,,,,,,,,,,,,,
"RY1","1150510","YEM, RITHY M","2013-04-29","","S","B",,,2307.70,,,2532.70,,,2307.70,,2307.70,,,2532.70,,,2307.70,,
"RY1","1151450","YUNKER, GEORGE P","2016-09-26","","C","S",700.00,,,2487.00,,,700.00,,,,,2487.00,,,700.00,,,3775.00,
"RY1","1150920","ZACHA, CHARLES J","2014-12-29","","H","B",,14.0000,487.62,,14.0000,611.38,,14.0000,700.00,14.0000,700.00,,14.0000,708.40,,14.0000,508.06,,
"RY1","1160100","ZOELLICK, STEVE","2013-01-01","","S","B",,,1461.54,,,1461.54,,,1461.54,,1461.54,,,1461.54,,,1461.54,,
"RY2","210123","BARTA, PATRICK","2017-01-04","","H","B",,24.0000,1521.84,,24.0000,3229.32,,24.0000,2323.44,24.0000,2435.16,,24.0000,2155.80,,24.0000,2575.20,,
"RY2","24665","BATZER, CORY","2017-11-20","","H","B",,14.0000,1694.00,,14.0000,1694.00,,14.0000,1694.00,14.0000,1694.00,,14.0000,1668.59,,14.0000,1279.74,,
"RY2","246783","BEAUVAIS, ELLIOT","2019-12-02","","H","B",,14.0000,968.16,,14.0000,1061.25,,14.0000,993.50,14.0000,1273.86,,14.0000,1351.45,,14.0000,1298.64,,
"RY2","297632","BECK, MADISON","2020-02-11","","H","B",,12.0000,333.36,,12.0000,445.92,,12.0000,380.16,12.0000,339.72,,12.0000,392.16,,12.0000,195.48,,
"RY2","254976","BINA, BENJAMIN","2018-07-02","","C","B",,,1151.50,,,1151.50,,,1151.50,,1151.50,,,1151.50,,,1540.50,,
"RY2","213520","BINA, NOAH P","2019-11-20","","H","B",,14.0000,370.44,,14.0000,379.96,,14.0000,353.00,14.0000,367.22,,14.0000,606.06,,14.0000,662.90,,
"RY2","257935","BOGER, DYLAN","2019-11-19","","H","B",,12.0000,362.40,,12.0000,381.60,,12.0000,346.00,12.0000,387.60,,12.0000,303.36,,12.0000,393.24,,
"RY2","24551","BUCKHOLZ, TYLER","2017-10-23","","H","B",,14.0000,1143.00,,14.0000,1145.83,,14.0000,1287.37,14.0000,1143.00,,14.0000,1136.24,,14.0000,1339.66,,
"RY2","264972","DANGERFIELD, JAXSON","2020-05-24","","H","B",,12.0000,,,12.0000,,,12.0000,,13.0000,,,13.0000,319.54,,13.0000,939.12,,
"RY2","230601","DANGERFIELD, JOEL","2001-11-29","","S","B",,,2307.70,,,2407.70,,,2307.70,,2307.70,,,2407.70,,,2307.70,,
"RY2","230810","DOERR, ROY","2013-04-29","","H","B",,10.0000,319.30,,10.0000,540.00,,10.0000,337.00,10.0000,337.00,,10.0000,574.00,,10.0000,228.40,,
"RY2","294387","DUNHAM, DEXTER","2019-09-12","2020-05-25","C","S",500.00,,,1927.00,,,500.00,,,,,1584.07,,,,,,,
"RY2","269547","EAGAN, CHASE","2020-05-18","","H","B",,,,,,,,,,12.0000,57.00,,12.0000,443.88,,12.0000,855.36,,
"RY2","276431","ENGEBRETSON, ERIK","2018-07-02","","C","B",,,1511.50,,,1777.00,,,1511.62,,1511.62,,,1611.62,,,1205.10,,
"RY2","295435","ERICKSON, ANTHONY","2019-08-26","","H","B",,12.0000,1323.00,,12.0000,1423.00,,12.0000,1323.00,12.0000,1323.00,,12.0000,1392.34,,12.0000,1172.22,,
"RY2","241085","EVENSON, GARRETT","2018-08-01","","C","B",,,1505.50,,,1655.63,,,1505.63,,1518.10,,,1964.66,,,1588.40,,
"RY2","243180","FEIST, LUDWIG","1995-01-23","","H","B",,16.5000,1319.84,,16.5000,1320.50,,16.5000,1319.02,16.5000,1316.54,,16.5000,1375.86,,16.5000,1527.65,,
"RY2","247000","FRASER, BRADEN","2019-07-17","","H","B",,15.0000,1512.15,,15.0000,1503.01,,15.0000,1503.00,15.0000,1537.65,,15.0000,1777.18,,15.0000,1512.30,,
"RY2","249750","GABRIELSON, JAMES","2017-09-18","","C","S",650.00,,,2369.00,,,650.00,,,,,2500.00,,,650.00,,,2525.00,
"RY2","269854","GOETZ, ELIJAH","2020-03-24","","H","B",,12.0000,866.88,,12.0000,789.96,,12.0000,1375.98,12.0000,1245.66,,12.0000,955.50,,12.0000,901.08,,
"RY2","254327","GROLLIMUND, TYLER","2018-08-01","","C","S",650.00,,,2584.00,,,650.00,,,,,2583.00,,,650.00,,,2885.00,
"RY2","263095","HAGER, DELWYN D","2014-03-11","","H","B",,12.0000,,,12.0000,168.00,,12.0000,84.00,12.0000,84.00,,12.0000,84.00,,12.0000,,,
"RY2","264110","HEAZLETT, CURTIS F","2014-11-17","","H","B",,10.0000,,,10.0000,1580.00,,10.0000,700.00,10.0000,700.00,,10.0000,800.00,,10.0000,381.00,,
"RY2","264220","HELGESON, JEFFREY S","2009-11-24","","H","B",,15.0000,1256.85,,15.0000,1190.85,,15.0000,1272.53,15.0000,1350.08,,15.0000,1359.00,,15.0000,1278.45,,
"RY2","211232","HOLLAND, NIKOLAI","2019-03-18","","C","S",600.00,,,5847.00,,,600.00,,,,,5847.00,,,600.00,,,5500.00,
"RY2","256879","JENSON, MARK A","2017-02-13","","H","B",,10.0000,530.44,,10.0000,781.30,,10.0000,581.00,10.0000,637.30,,10.0000,768.40,,10.0000,604.90,,
"RY2","232874","JOHNSON, ALLYN","2018-05-03","","H","B",,11.0000,,,11.0000,222.75,,11.0000,221.50,11.0000,232.76,,11.0000,216.37,,11.0000,260.26,,
"RY2","273315","JOHNSON, BRANDON J","2011-03-07","","C","B",,,3785.50,,,3984.29,,,3784.29,,3784.29,,,3984.29,,,4511.74,,
"RY2","243876","JOHNSON, CHRISTIE","2019-07-29","","C","S",500.00,,,2152.00,,,500.00,,,,,2152.00,,,500.00,,,1950.00,
"RY2","274225","JOHNSON, DUSTIN A","2014-02-10","","H","B",,21.0000,1650.71,,21.0000,1911.27,,21.0000,1716.75,21.0000,1766.94,,21.0000,1902.98,,21.0000,1941.14,,
"RY2","259756","JOHNSON, FRANCES","2020-01-21","","H","B",,14.0000,1173.91,,14.0000,1171.42,,14.0000,1247.00,14.0000,1616.27,,14.0000,1241.28,,14.0000,1635.37,,
"RY2","295148","KELLER, JOSIAH","2020-06-15","","C","B",,,60.88,,,,,,,,,,,0.00,,,793.80,,
"RY2","279380","KNUDSON, BENJAMIN","2009-08-12","","C","S",3400.00,,,7000.00,,,3400.00,,,,,7000.00,,,3400.00,,,7000.00,
"RY2","279630","KNUDSON, KENNETH","2013-01-02","","C","B",,,2476.00,,,2876.09,,,2476.09,,2476.09,,,2876.09,,,2329.04,,
"RY2","268574","LARA III, REYES","2019-12-17","2020-04-28","H","B",,14.0000,1015.92,,14.0000,939.72,,14.0000,198.24,14.0000,,,14.0000,,,14.0000,,,
"RY2","265328","LONGORIA, MICHAEL","2018-07-30","","C","S",700.00,,,4727.00,,,700.00,,,,,4727.00,,,700.00,,,5500.00,
"RY2","275342","LOUDEN, ZAKERY","2019-05-29","","H","B",,15.5000,891.10,,15.5000,1078.80,,15.5000,977.59,15.5000,1201.41,,15.5000,1415.85,,15.5000,1250.46,,
"RY2","298432","MASON, MYRON","2019-04-29","","H","B",,14.0000,1166.41,,14.0000,1016.26,,14.0000,1013.00,14.0000,1098.72,,14.0000,1145.90,,14.0000,1083.74,,
"RY2","291582","MATHISEN, GARY","2015-11-09","","H","B",,11.0000,,,11.0000,220.00,,11.0000,242.00,11.0000,220.00,,11.0000,220.00,,11.0000,60.83,,
"RY2","275849","MAXWELL, WYATT","2019-11-19","2020-06-24","H","B",,12.0000,,,12.0000,271.80,,12.0000,,12.0000,,,12.0000,,,12.0000,,,
"RY2","215883","MONREAL, JESSIE","2017-09-25","","C","S",700.00,,,3097.00,,,700.00,,,,,3097.00,,,700.00,,,3486.00,
"RY2","289563","NEUMANN, NANCY","2018-06-11","","H","B",,12.0000,1131.00,,12.0000,1286.00,,12.0000,1120.56,12.0000,1208.40,,12.0000,1341.32,,12.0000,1151.16,,
"RY2","2106350","OLSON, CHAD","2010-01-01","","S","B",,,2384.62,,,2484.62,,,2384.62,,2384.62,,,2484.62,,,2384.62,,
"RY2","296347","OLSON, JAMIE","2019-08-26","","H","B",,13.0000,1039.68,,13.0000,1091.22,,13.0000,1089.92,13.0000,1125.80,,13.0000,1099.67,,13.0000,1053.46,,
"RY2","264387","OLVERA, CHRISTIAN","2018-11-19","","H","B",,14.0000,985.50,,14.0000,1002.96,,14.0000,1118.32,14.0000,1125.60,,14.0000,971.74,,14.0000,1043.00,,
"RY2","2106410","PEDERSON, DAVID A","2011-12-16","","H","B",,10.0000,3285.31,,10.0000,2789.00,,10.0000,2489.00,10.0000,2489.00,,10.0000,2928.13,,10.0000,907.25,,
"RY2","211201","PROIS, JUSTIN","2017-11-20","","C","B",,,1545.00,,,1544.75,,,1544.75,,1544.75,,,544.76,,,,,
"RY2","2114160","RAMBERG, GARY","1999-11-02","","H","B",,10.0000,2005.96,,10.0000,2455.00,,10.0000,2155.00,10.0000,2155.00,,10.0000,2301.30,,10.0000,989.00,,
"RY2","267531","RAMON JR, MICHAEL","2019-08-26","","C","S",1100.00,,,2194.00,,,600.00,,,,,2193.00,,,600.00,,,1650.00,
"RY2","258964","RISBERG, REBECCA","2020-01-07","","H","B",,12.0000,459.36,,12.0000,589.92,,12.0000,713.88,12.0000,653.88,,12.0000,1176.42,,12.0000,675.72,,
"RY2","267843","ROMIG, THOMAS","2018-10-08","","C","S",500.00,,,2094.00,,,500.00,,,,,2093.00,,,500.00,,,1925.00,
"RY2","242539","SALDANA, DEION","2019-06-03","","C","S",700.00,,,2860.00,,,700.00,,,,,3150.00,,,700.00,,,2875.00,
"RY2","2126055","SHROYER, RYAN","2019-04-01","","S","B",,,1461.54,,,1461.54,,,1461.54,,1461.54,,,1461.54,,,1461.54,,
"RY2","2130150","SOBOLIK, PAUL A","1992-03-23","","C","B",,,3008.50,,,3208.75,,,3008.75,,3008.75,,,3208.75,,,2634.10,,
"RY2","2130678","SPENCER, FRED C","2005-02-01","","C","S",600.00,,,4223.00,,,600.00,,,,,4222.00,,,600.00,,,4275.00,
"RY2","264852","SUMMERS, SAMANATHA G","2019-08-05","","H","B",,17.5000,1094.45,,17.5000,2528.61,,17.5000,1658.83,17.5000,1572.51,,17.5000,1542.63,,17.5000,1614.73,,
"RY2","256845","SUTHERLAND, BROOKE","2017-07-23","","H","B",,15.0000,1305.30,,15.0000,2356.83,,15.0000,1782.98,15.0000,1781.18,,15.0000,2072.98,,15.0000,1191.60,,
"RY2","2135031","SYVERSON, AMANDA","2016-02-01","","C","S",700.00,,,2867.07,,,700.00,,,,,2867.51,,,700.00,,,2348.74,
"RY2","2141225","TANDESKI, JADE L","2014-10-08","","H","B",,15.0000,960.00,,15.0000,1837.80,,15.0000,1398.90,15.0000,1245.60,,15.0000,1402.95,,15.0000,1079.85,,
"RY2","298567","TANDESKI, JEROME","2017-12-28","","H","B",,10.0000,,,10.0000,640.00,,10.0000,320.00,10.0000,320.00,,10.0000,320.00,,10.0000,,,
"RY2","259375","THORSELL, JESSE","2020-01-28","","H","B",,12.0000,1008.00,,12.0000,1152.36,,12.0000,1008.54,12.0000,1183.08,,12.0000,1039.56,,12.0000,730.44,,
"RY2","247583","VOELKER, JUSTIN","2019-12-31","","H","B",,13.0000,284.96,,13.0000,402.09,,13.0000,449.67,13.0000,515.97,,13.0000,442.13,,13.0000,387.53,,
"RY2","2150210","WILDE, COREY R","2012-08-06","","C","S",700.00,,,5807.00,,,700.00,,,,,6050.00,,,950.00,,,6750.00,
"RY2","256984","ZAPZALKA, WYATT","2018-05-21","","C","B",,,1598.00,,,1621.90,,,1598.10,,1448.10,,,1714.66,,,1761.20,,
"RY2","211568","ZEMAN, HUNTER","2017-03-27","","H","B",,14.0000,1341.15,,14.0000,1328.46,,14.0000,1411.50,14.0000,1411.50,,14.0000,1452.33,,14.0000,1327.27,,
"RY2","2126053","ZIDON, STEPHEN","2015-12-21","","H","B",,10.0000,,,10.0000,104.40,,10.0000,,10.0000,,,10.0000,23.50,,10.0000,,,
