employee,emp #,date,clock in,clock out,code,mgr name
"SCHUPPERT, KODEY",1124400,11/10/2020,11:45:00,15:31:48,O,"ESPELUND, KENNETH M"
"SCHUPPERT, KODEY",1124400,11/10/2020,14:00:00,16:00:00,PTO,"ESPELUND, KENNETH M"
,,,,,,
,,,,,,
employee,emp #,date,clock in,clock out,code,mgr name
"JOHNSON, DUSTIN A",274225,10/23/2020,6:00:00,14:00:00,VAC,"OLSON, CHAD"
"JOHNSON, DUSTIN A",274225,10/23/2020,10:29:59,11:34:16,O,"OLSON, CHAD"
