"employee_number","store","employee_name","ssn","payroll_class","pay_period","full_part","hire_date","term_date","cp_gross","cp_hours"
"168573","RY1","AAMODT, MATTHEW","=""9585""","H","B","F","2019-08-04","",9802.63,567.43
"143769","RY1","AANENSON, AMANDA","=""3926""","H","B","F","2019-06-03","",8803.32,548.59
"159876","RY1","AANENSON, GENE","=""1612""","H","B","P","2019-10-31","",540.00,54.00
"154785","RY1","AANSTAD, TANNER","=""0013""","H","B","P","2020-04-20","",4220.18,316.69
"193457","RY1","AAS, SCOTT","=""9449""","H","B","F","2020-03-16","",11297.16,729.96
"11660","RY1","ADAM, PATRICK","=""2241""","C","B","F","2016-04-25","",20282.76,480.00
"197642","RY1","ADHIKARI, OM","=""5419""","H","B","F","2019-06-17","",7307.18,556.03
"11732","RY1","AGUILAR, ANNA","=""3319""","H","B","F","2015-09-08","",10647.39,574.97
"10568","RY1","AKER, CADEN","=""4735""","H","B","F","2017-11-06","2020-08-25",8901.77,407.03
"175398","RY1","ALLARD, BROCK","=""1369""","H","B","P","2019-10-09","2020-06-15",2160.00,180.00
"168575","RY1","ALOISIO, MADYSON","=""8490""","H","B","P","2019-12-17","",3113.28,259.44
"12725","RY1","ALSLEBEN, DEVIN R","=""2237""","H","B","P","2017-08-18","2020-04-07",997.00,24.17
"147832","RY1","ALTEPETER, GRAYSON","=""6841""","H","B","F","2019-07-11","",5971.26,494.39
"165873","RY1","ANDERSON, NICHOLAS","=""5638""","H","B","F","2020-07-06","",,
"13725","RY1","ANDERSON, SHAWN W","=""5431""","C","B","F","2015-02-02","",37941.58,560.00
"13815","RY1","ANDERSON, STEVEN L","=""8085""","H","B","P","2014-03-10","",4464.00,384.50
"16425","RY1","ANDREWS, JON","=""2157""","S","B","F","2006-04-11","",23484.68,560.00
"16450","RY1","APPLING, DAVID J","=""1523""","H","B","P","2015-01-27","",,
"123578","RY1","ATWELL, TREVOR","=""3949""","H","B","F","2020-02-24","",6251.76,520.98
"17534","RY1","AUBOL, THOMAS B","=""6010""","C","S","F","1998-11-09","",36334.19,480.00
"18005","RY1","AXTMAN, DALE M","=""8828""","C","B","F","2001-05-01","",23594.07,560.00
"196575","RY1","BACH, CASPER","=""4889""","C","S","F","2020-03-24","",9160.00,480.00
"166873","RY1","BAILLY, BRODY","=""4246""","H","B","P","2020-03-05","",2121.80,172.53
"165826","RY1","BAKKEN, BRAYDON","=""5105""","H","B","P","2020-06-29","",173.04,14.42
"174738","RY1","BARBEAU, LUKE","=""9467""","H","B","P","2019-11-19","",4570.19,368.24
"111210","RY1","BEAR, JEFFERY L","=""4113""","C","B","F","2014-10-14","",13956.21,560.00
"112589","RY1","BEDNEY, TYLER","=""0723""","C","S","F","2017-06-05","",23061.00,480.00
"187564","RY1","BEHM, PAUL","=""7297""","H","B","F","2018-04-23","2020-06-12",6762.28,389.57
"185628","RY1","BEISNER, EVAN","=""7672""","H","B","P","2020-05-04","2020-05-04",24.00,2.00
"111250","RY1","BEISWENGER, LYLE W","=""0387""","H","B","P","2012-11-13","",1480.00,88.00
"197523","RY1","BEITER, GABRIELLE","=""4041""","H","B","F","2019-08-12","",7461.09,523.81
"156398","RY1","BERG, ETHAN","=""1703""","H","B","P","2019-10-09","",3082.44,256.87
"195359","RY1","BERGE, THOMAS","=""8198""","H","B","F","2019-10-08","",7558.16,486.29
"113085","RY1","BERGH, STEVEN","=""2635""","S","B","F","2014-06-30","",13223.12,560.00
"196485","RY1","BICKER, AUSTIN","=""9203""","H","B","P","2020-03-24","",2572.71,188.55
"157953","RY1","BIES II, DAVID","=""5941""","C","B","F","2019-01-28","",21803.95,560.00
"147741","RY1","BJARNASON, JUSTIN","=""7799""","C","S","F","2017-06-05","",10968.96,480.00
"115255","RY1","BJORNSETH, MARK L","=""9196""","S","B","F","1989-09-25","",18500.00,560.00
"149852","RY1","BLEWITT, ALEXIS","=""6787""","H","B","P","2019-10-02","2020-07-24",4323.48,308.82
"160930","RY1","BLUMHAGEN, KATHERINE M","=""4971""","H","B","F","2002-08-19","",16766.67,646.89
"165785","RY1","BOEHMER, LARRY","=""4984""","H","B","P","2020-03-24","2020-04-06",66.00,5.50
"116185","RY1","BOHM, DOUGLAS","=""3994""","H","B","F","1993-03-01","",10532.94,482.86
"169843","RY1","BOOKER, JEREMIAH","=""3513""","H","B","F","2019-06-24","2020-06-19",6012.79,427.45
"118010","RY1","BRAATEN, DEAN T","=""7277""","H","B","F","2017-04-24","",10087.75,638.88
"195436","RY1","BRAATEN, LOGAN","=""9251""","H","B","P","2019-08-26","",1976.18,110.37
"165876","RY1","BRIONES-BURNETT, KATRINA","=""9145""","H","B","P","2020-04-06","",2746.92,228.91
"165823","RY1","BRODEN, MARK","=""5443""","H","B","F","2019-08-19","2020-08-19",7407.82,525.70
"118520","RY1","BROOKS JR, DREW","=""5399""","H","B","F","2017-04-02","",14297.89,655.61
"121063","RY1","BRORBY, BO","=""1880""","H","B","F","2015-11-23","",15429.56,660.52
"123211","RY1","BRUGGEMAN, AFTON","=""8564""","S","B","F","2016-08-01","",18400.00,560.00
"158763","RY1","BRUNK, JUSTIN","=""8013""","C","S","F","2018-02-26","2020-08-03",8959.00,480.00
"145789","RY1","BUCHANAN, KYLE","=""4861""","C","B","F","2017-05-08","",18318.08,560.00
"155477","RY1","BUCKHOLZ, ZACHARY","=""8087""","H","B","F","2017-04-10","",8370.14,542.85
"175873","RY1","BUDEAU, KAYLA","=""4248""","H","B","F","2018-03-27","",10223.21,613.51
"159375","RY1","BUSHEE, BRYCE","=""7943""","H","B","P","2019-11-19","",838.50,66.04
"146982","RY1","BUSSE, JORDAN","=""3944""","H","B","P","2020-06-15","",982.08,81.84
"123100","RY1","CAHALAN, BENJAMIN C","=""9030""","S","B","F","2011-08-03","",36625.93,560.00
"123946","RY1","CANFIELD, EMILY","=""8767""","H","B","F","2020-05-04","2020-06-19",3982.56,314.15
"185462","RY1","CARABALLO, CHRISTOPHER","=""6968""","C","S","F","2019-10-07","",12017.00,480.00
"123525","RY1","CARLSON, KENNETH A","=""4940""","H","B","P","2010-01-01","",4980.75,292.05
"123538","RY1","CARLSON, ROBERT","=""4980""","C","S","F","1997-04-01","",37200.00,480.00
"169856","RY1","CASTRO, DONOVAN","=""1276""","H","B","F","2020-06-29","",36.00,3.00
"124101","RY1","CHAMPAGNE, LESLIE","=""8738""","H","B","F","2014-08-25","2020-08-10",7757.32,564.42
"135987","RY1","CLARK, ADAM","=""4088""","H","B","F","2018-02-01","",5570.11,386.18
"125028","RY1","CLARK, JOHNNY","=""7056""","H","B","F","2020-05-18","2020-07-24",4188.28,284.52
"165980","RY1","CLASEMAN, JAMIE","=""4766""","H","B","F","2018-12-03","",6457.02,535.42
"162983","RY1","CLOSE, PRESTON","=""5523""","C","S","F","2019-09-12","",13403.00,480.00
"126200","RY1","COCHRAN, MICHELLE C","=""7694""","S","B","F","2011-01-24","",14613.51,560.00
"169964","RY1","COOK, COURTNIE","=""2630""","H","B","F","2020-06-01","",2849.98,198.28
"158963","RY1","COOK, MATTHEW","=""2302""","H","B","F","2019-06-03","",7321.44,519.78
"196325","RY1","COOLEY, CONNOR","=""9530""","H","B","P","2020-01-28","",2552.58,195.26
"186724","RY1","CORY, CLAIRE","=""6636""","H","B","P","2019-05-24","",3926.64,277.22
"126250","RY1","COULTER, DONALD R","=""0871""","H","B","P","2015-01-27","",,
"128530","RY1","CROAKER, CRAIG R","=""7632""","C","S","F","2007-01-30","",27653.56,480.00
"143298","RY1","DAHLEY, SHELBY","=""0495""","H","B","F","2019-07-11","",4834.25,371.84
"131370","RY1","DAVID, GORDON","=""9583""","C","B","F","1995-06-07","",14126.83,1281.00
"131315","RY1","DAVIS, ERIC A","=""8080""","C","B","F","2014-08-11","",14579.30,536.08
"196314","RY1","DEAN, VANDER","=""6447""","H","B","F","2020-05-11","",4712.09,296.37
"15552","RY1","DECOUTEAU, FRANK A","=""7461""","C","S","F","2017-09-25","",21582.30,480.00
"132500","RY1","DELOHERY, MICHAEL J","=""9135""","S","B","F","2010-05-03","",18744.29,560.00
"132489","RY1","DEMANT, COLTEN","=""7174""","H","B","F","2020-06-01","",2371.69,184.65
"154983","RY1","DEVIER, RYLIE","=""2190""","H","B","P","2018-12-03","",1253.94,73.38
"154225","RY1","DEZIEL, DYLAN","=""0187""","H","B","F","2019-02-21","",9360.38,620.99
"15648","RY1","DIBI, ANDREW","=""1713""","H","B","F","2017-10-23","2020-04-24",3155.99,150.37
"138945","RY1","DOCKENDORF, BEN","=""8149""","H","B","P","2020-04-20","",2154.72,179.56
"133017","RY1","DOCKENDORF, NATE J","=""9722""","C","S","F","2015-05-18","",19574.00,480.00
"135770","RY1","DRISCOLL, TERRANCE","=""0445""","C","B","F","2002-11-04","",22418.23,560.00
"136170","RY1","DUCKSTAD, JARED J","=""2500""","C","B","F","2002-09-30","",20941.47,560.00
"137495","RY1","DUKES, JAYDA","=""7473""","H","B","P","2020-05-18","2020-09-15",1900.68,158.39
"145732","RY1","DUNN, CORY","=""9557""","H","B","F","2019-11-04","2020-03-10",0.00,0.00
"137101","RY1","EBERLE, MARCUS M","=""5489""","C","B","F","2016-08-15","",12918.88,560.00
"138380","RY1","EICHHORST, NOEL E","=""0849""","H","B","F","1978-08-30","",7282.90,478.86
"153835","RY1","ELLINGSON, DANE","=""5739""","H","B","P","2020-01-13","",1602.64,123.28
"132963","RY1","ERICKSON, DENNIS","=""4195""","H","B","P","2019-04-03","",300.00,30.00
"175393","RY1","ERICKSON, JUSTIN","=""3432""","C","B","P","2019-11-19","",11331.65,404.66
"189432","RY1","ERICKSON, REED","=""4918""","H","B","P","2020-05-04","2020-07-26",1527.84,127.32
"140500","RY1","ERICKSON, RONALD J","=""6384""","C","S","F","2009-10-12","",19523.00,480.00
"140790","RY1","ESPELUND, KENNETH M","=""9470""","S","B","F","2005-09-19","",19984.68,560.00
"141060","RY1","EULISS, NED","=""3076""","H","B","F","2004-11-02","",18342.42,641.65
"141069","RY1","EVAVOLD, DANIEL J","=""4224""","H","B","F","2007-01-23","",19361.40,571.91
"195628","RY1","EVENSON, JOSHUA","=""2223""","H","B","F","2019-10-07","2020-08-10",11524.06,576.87
"157939","RY1","FEATHERSTONE, GARRETT","=""3048""","H","B","F","2020-01-13","2020-08-28",6528.02,484.77
"159863","RY1","FERRY, CARTER","=""5913""","C","B","F","2018-02-12","2020-06-06",11781.13,400.00
"145801","RY1","FLAAT, GAVIN","=""3893""","C","B","F","2016-04-11","",17010.69,560.00
"183923","RY1","FLORES, JOSHUA","=""2526""","H","B","P","2019-10-09","",2136.00,178.00
"169753","RY1","FONTEYNE, MICHAEL","=""2332""","H","B","P","2020-06-01","",1321.62,110.00
"148050","RY1","FOSTER, BENJAMIN F","=""6100""","S","B","F","2013-10-21","",34556.00,560.00
"148075","RY1","FOSTER, KEVIN B","=""4789""","S","B","F","2006-06-05","",34145.16,560.00
"148080","RY1","FOSTER, SAMUEL T","=""1011""","C","S","F","2014-11-17","",16189.54,480.00
"165783","RY1","FREITAG, TALON","=""4624""","H","B","F","2018-05-21","",3387.20,232.08
"154328","RY1","FREKING, NICOLAS","=""8979""","H","B","P","2018-10-08","",6983.54,547.64
"155214","RY1","GAGNON, ANASTASIA","=""9989""","H","B","F","2018-05-27","",7134.53,475.47
"157995","RY1","GAGNON, JUNE","=""8675""","S","B","F","2008-02-11","",14211.56,560.00
"149878","RY1","GAGNON, TRACI L","=""6923""","H","B","F","2008-10-30","",9621.61,609.04
"157394","RY1","GAJMER, JOHN","=""1797""","H","B","P","2019-10-09","",4522.16,368.66
"159823","RY1","GALLETTA, ALEXIUS","=""9345""","H","B","P","2019-12-31","2020-04-27",,
"150105","RY1","GARDNER, CHAD A","=""3614""","C","B","F","2011-04-04","",20980.37,560.00
"150120","RY1","GARDNER, JOHN T","=""7504""","S","B","F","2014-06-01","",15784.61,560.00
"150126","RY1","GEHRTZ, CLAYTON J","=""3892""","C","B","F","2014-12-29","",38239.41,560.00
"132584","RY1","GERSZEWSKI, JOSEPH","=""9636""","H","B","F","2019-08-05","",7994.75,482.14
"174123","RY1","GEST, ALEXIS","=""2390""","H","B","P","2019-08-26","",1222.96,81.08
"156988","RY1","GIESLER, MEGAN","=""7293""","H","B","P","2017-07-17","2020-05-15",2240.84,160.06
"152235","RY1","GIRODAT, JEFF S","=""1561""","C","B","F","1986-05-05","",27719.23,560.00
"152480","RY1","GOETZ, DUANE E","=""4066""","C","S","P","2012-10-01","",27000.00,105.00
"152490","RY1","GONZALEZ, ANTHONY J","=""9773""","H","B","F","2019-01-14","2020-04-01",103.92,8.66
"159857","RY1","GONZALEZ, DANIEL","=""5763""","H","B","F","2019-12-17","",6939.28,521.17
"153865","RY1","GOODOIEN, DEREK","=""5057""","H","B","P","2019-07-11","",9282.77,616.70
"156987","RY1","GORDON III, DOUGLAS","=""7394""","H","B","F","2020-02-13","2020-05-21",1181.94,15.40
"152499","RY1","GOTHBERG, CONNER J","=""5348""","H","B","F","2015-09-01","",13966.27,616.37
"175342","RY1","GOULET, JENNIFER","=""7763""","H","B","F","2019-08-26","2020-05-28",4968.62,358.43
"152510","RY1","GOULET, SHANE A","=""5265""","H","B","F","2014-03-31","",8303.22,570.95
"149857","RY1","GRAESSER, EVAN","=""6132""","H","B","F","2020-06-29","",681.50,47.00
"152525","RY1","GRANT, DESIREE L","=""7493""","C","B","F","2014-05-19","",10056.12,560.00
"152410","RY1","GRAY, NATHAN J","=""6035""","C","B","F","2011-08-22","",17900.55,560.00
"152432","RY1","GREEN, HARRISON","=""1939""","H","B","F","2016-02-15","",,
"198531","RY1","GROVE, ALEXANDER","=""8120""","H","B","F","2020-05-18","",1639.30,129.65
"122558","RY1","GRYSKIEWICZ, JONATHAN","=""4908""","C","B","F","2017-05-22","",13411.31,560.00
"137837","RY1","GULLEKSON, ASHLEY","=""9107""","H","B","F","2019-11-18","",9871.94,574.30
"196623","RY1","GURUNG, DIWAS","=""5680""","H","B","P","2020-06-29","",382.50,30.60
"165327","RY1","GUST, MICAH","=""1868""","H","B","P","2018-08-13","",392.16,32.68
"145982","RY1","HAARSTAD, BRITTANY","=""1067""","H","B","F","2019-08-26","",12191.36,673.37
"161010","RY1","HAGA, MASON C","=""2004""","H","B","P","2015-06-01","",5264.55,330.64
"195975","RY1","HAGEN, TYLER","=""7290""","H","B","F","2019-10-28","",14370.95,630.62
"164328","RY1","HAHN, BRIDGER","=""0547""","H","B","P","2018-12-17","",1883.96,144.92
"147852","RY1","HALE, ELISA","=""4434""","H","B","F","2020-02-24","",8537.94,476.20
"163700","RY1","HALEY, DYLANGER","=""1450""","C,S","B,S","F","2016-09-26","",18323.12,560.00
"178323","RY1","HANSON, ADAM","=""9387""","H","B","P","2019-11-19","",3988.09,322.69
"162428","RY1","HARMON, TERRENCE J","=""7568""","H","B","F","2001-10-01","",6628.88,243.84
"175839","RY1","HARREN, ZACHARY","=""2944""","H","B","P","2019-11-19","",3524.40,293.70
"162800","RY1","HARRIS, SHERIDAN","=""2144""","H","B","P","1955-09-01","2020-09-11",1330.00,133.00
"163096","RY1","HASTINGS, DAWN","=""0361""","H","B","F","1986-01-06","",12466.62,609.73
"154760","RY1","HATLOY, CHARTON","=""7849""","H","B","P","2018-11-05","",940.92,78.41
"165789","RY1","HECK, SETH","=""0436""","C","S","F","2019-01-14","2020-04-20",4593.92,120.00
"164015","RY1","HEFFERNAN, JOSH","=""8613""","C","B","F","1995-07-15","",22128.41,560.00
"164202","RY1","HELGESON, HERB","=""7690""","H","B","P","2005-01-13","2020-09-04",,
"175838","RY1","HELLYER, HENRY","=""5744""","H","B","P","2019-11-13","",,
"181876","RY1","HENRY, JUDY","=""7349""","S","B","F","1994-02-01","",14961.56,560.00
"164920","RY1","HEPOLA, JAMES W","=""1532""","C","B","P","2010-11-15","",4810.30,209.31
"185600","RY1","HIBMA, MORGAN E","=""0775""","S","B","F","2016-08-01","",20046.17,560.00
"165275","RY1","HICKS, EMILY","=""3766""","H","B","F","2016-09-12","2020-07-17",4831.86,342.33
"165357","RY1","HILL, BRIAN","=""3634""","H","B","F","2006-08-28","",19137.00,562.20
"164329","RY1","HINTZ, MATTHEW","=""9771""","H","B","P","2019-06-26","",3967.34,289.54
"142589","RY1","HLAVAC, TERRI","=""7713""","H","B","F","2019-08-26","2020-06-01",6483.69,358.88
"159873","RY1","HOLUM, JACOB","=""3160""","H","B","P","2019-11-04","",6688.71,466.77
"167812","RY1","HOLWEGER, AMANDA J","=""8716""","H","B","P","2011-04-25","",1789.04,106.36
"167580","RY1","HOLWERDA, KIRBY W","=""1185""","C","B","F","2011-05-18","",20589.42,560.00
"167906","RY1","HULL, DAVID","=""9728""","H","B","F","2015-04-27","",9162.08,581.08
"168815","RY1","HUNTER, JASON W","=""3158""","H","B","P","2018-08-23","",433.52,16.68
"170150","RY1","IVERSON, ARNOLD W","=""7345""","H","B","P","2017-11-17","",2995.00,299.50
"171055","RY1","JACOBSON, PETER A","=""5630""","C","B","F","2010-12-13","",25700.98,560.00
"172308","RY1","JANKOWSKI, GARRETT","=""6496""","H","B","F","2019-09-12","",13976.62,657.39
"172077","RY1","JERSTAD, KENNETH","=""9259""","H","B","F","2002-06-10","",13386.69,574.14
"184620","RY1","JOHNSON, BENJAMIN R","=""9214""","H","B","F","2017-01-20","",10802.99,556.38
"156844","RY1","JOHNSON, DAVID","=""6220""","H","B","F","2017-11-06","",11181.69,571.24
"195675","RY1","JOHNSON, ISAIAH","=""3563""","H","B","F","2020-06-29","",335.79,25.83
"168754","RY1","JOHNSON, JOHNNY","=""8639""","H","B","F","2020-04-20","",7413.93,408.62
"164286","RY1","JOHNSON, LOGAN","=""5729""","H","B","P","2019-05-17","2020-05-13",2016.90,157.45
"178050","RY1","KIEFER, LUCAS M","=""3826""","C","B","F","2014-05-19","",11257.54,560.00
"178060","RY1","KILEY, COLTON","=""0072""","H","B","P","2016-06-06","",4038.52,315.71
"178079","RY1","KILMER, JUSTIN","=""3982""","H","B","F","2007-02-01","",13559.56,689.78
"165732","RY1","KLOETY, HALEY","=""8404""","H","B","F","2019-04-29","",9642.97,635.05
"132987","RY1","KNOWLES, MAYHAYLA","=""7552""","H","B","F","2017-12-18","",10651.88,642.96
"165288","RY1","KNUTSON, AUSTIN","=""2928""","H","B","P","2020-05-04","",1679.64,139.97
"154219","RY1","KOBAYASHI-DYER, NARUMI","=""0501""","C,H","B,S","F","2018-10-01","",10052.60,596.85
"179693","RY1","KOENEN, DEBRA M","=""0733""","H","B","F","2008-08-04","",8111.56,549.10
"167834","RY1","KOHLS, ADAM","=""2158""","C","S","F","2018-04-11","2020-05-09",2958.00,240.00
"154876","RY1","KOLLMAN, MAXWELL","=""8590""","H","B","P","2020-02-24","2020-07-02",2344.08,195.34
"179775","RY1","KOLSTAD, KIRK R","=""0659""","H","B","F","1980-03-01","",10554.48,602.27
"179790","RY1","KOWALSKI, JASON","=""9410""","H","B","F","2014-06-16","",13835.84,722.66
"196452","RY1","KOZEL, KELSEY","=""1871""","H","B","F","2020-05-18","",3804.17,233.39
"198543","RY1","KROGSTAD, LARRY","=""1472""","H","B","P","2019-04-03","",992.50,99.25
"184605","RY1","LABELLE, KODI L","=""6904""","H","B","F","2018-12-17","",6704.23,508.98
"184614","RY1","LAMONT, BRANDON","=""7440""","C","B","F","2015-10-12","",18650.52,560.00
"182713","RY1","LARSON, CODY J","=""7546""","H","B","F","2018-09-24","",8977.04,502.60
"189596","RY1","LARSON, TYLER","=""7364""","H","B","P","2019-10-07","",1302.00,96.15
"175738","RY1","LARSON, WYATT","=""7452""","H","B","P","2019-11-19","2020-06-19",2023.44,168.62
"184610","RY1","LAUGHLIN, LARRY J","=""8329""","H","B","F","1998-10-16","",19006.65,681.54
"184806","RY1","LEAVY, PAUL M","=""3149""","C","B","F","2014-08-25","",18794.50,513.49
"165972","RY1","LECLAIR, AUSTIN","=""8767""","H","B","F","2018-11-19","",6964.82,454.63
"140882","RY1","LEEDAHL, GLENNA","=""2294""","H","B","P","2018-05-07","",980.00,98.00
"198435","RY1","LEHR, CARLY","=""2439""","H","B","P","2019-07-15","2020-06-04",1296.00,108.00
"184920","RY1","LENE, RYAN","=""0621""","C","B","F","2015-01-05","",20536.86,560.00
"15668","RY1","LINDEMANN, TASHA","=""4104""","H","B","F","2017-09-11","",11607.08,585.63
"186100","RY1","LIND, KATHERINE","=""0913""","S","B","F","1983-11-22","",20792.34,560.00
"145785","RY1","LOGAN, JAI'LA","=""3139""","H","B","F","2020-02-24","2020-07-07",7361.81,389.12
"187675","RY1","LONGORIA, BEVERLEY A","=""3212""","S","B","F","2005-02-21","",19384.68,560.00
"189100","RY1","LOVEN, ARDEN","=""4373""","C","S","F","2010-03-08","",14025.00,480.00
"188338","RY1","LUEKER, DAVID C","=""9783""","H","B","F","2003-06-16","",14986.13,607.85
"190600","RY1","MAGNUSON, TYLER D","=""8112""","H","B","F","2019-09-09","",12700.24,592.84
"190892","RY1","MANGAN, RICHARD","=""3370""","H","B","F","2002-09-23","",14127.27,748.47
"190918","RY1","MARCOTTE, THOMAS H","=""7276""","H","B","F","1985-07-28","",35415.46,873.58
"190910","RY1","MAREK, DAYTON C","=""0278""","S","B","F","2017-05-05","",13523.05,560.00
"168351","RY1","MARESCA, ROMAO","=""8628""","S","B","F","2018-08-27","",13461.56,560.00
"191060","RY1","MARO, NICHOLAS","=""6669""","H","B","F","2014-01-20","",20194.21,628.04
"191350","RY1","MAVITY, ROBERT","=""6370""","C","B","F","2008-01-01","",16611.80,560.00
"18574","RY1","MCLAUGHLIN, JOHN","=""9306""","S","B","F","2017-12-11","",29676.95,560.00
"198542","RY1","MCMILLIAN, TARA","=""4478""","H","B","F","2018-09-10","",10284.46,569.67
"194675","RY1","MCVEIGH, DENNIS","=""1906""","C","B","F","2007-11-13","",18770.61,560.00
"198234","RY1","MELBY, BAILEY","=""8090""","H","B","F","2019-12-31","",8930.91,583.07
"165983","RY1","MENARD, MICHAEL","=""8533""","C","S","F","2018-02-12","",16709.83,480.00
"195401","RY1","METZGER, JUSTIN","=""9746""","H","B","F","2010-05-24","",12059.31,668.57
"181520","RY1","METZGER, KAYLE M","=""7542""","H","B","F","2013-11-20","",11675.11,600.50
"195460","RY1","MICHAEL, ANTHONY E","=""5696""","C","S","F","2010-10-25","",31100.00,480.00
"196341","RY1","MILLER, KIM M","=""8541""","H","B","F","1985-01-02","",12787.18,596.80
"134795","RY1","MOE, BRYCE","=""8867""","H","B","P","2019-08-26","2020-05-11",681.72,56.81
"174384","RY1","MOGAVERO, MICHAEL","=""0966""","C","B","F","2019-09-24","",10459.46,560.00
"115883","RY1","MONREAL, JESSIE","=""4778""","C","S","F","2017-09-25","",,
"118030","RY1","MONSON, TAYLOR","=""1455""","S","B","F","2014-06-30","",17153.90,560.00
"118746","RY1","MONTGOMERY, CODY","=""8693""","H","B","F","2017-09-03","2020-05-15",5855.23,393.62
"165321","RY1","MOORE, JEFFREY","=""2363""","H","B","F","2020-06-15","",1218.91,86.85
"115444","RY1","MOORE, LANNY","=""9813""","H","B","P","2017-08-21","",,
"185965","RY1","MORGAN, DEVIN","=""7751""","H","B","P","2019-12-04","2020-06-03",2097.14,137.75
"113011","RY1","MORLOCK, BRUCE A","=""8647""","H","B","P","2012-08-30","",2265.00,226.50
"113020","RY1","MORRIS, GREG","=""3950""","S","B","F","2010-04-19","",17769.22,560.00
"195826","RY1","MUCKENHIRN, BENJAMIN","=""7982""","H","B","P","2019-10-07","2020-08-05",2233.33,178.29
"151702","RY1","MULHERN, ALAN","=""5815""","H","B","F","2017-01-05","2020-09-25",13145.03,567.92
"158475","RY1","MURDOCH, KYLE","=""1950""","H","B","F","2020-06-29","",391.16,27.94
"198532","RY1","NAVARRO, ALEXANDER","=""3242""","H","B","P","2019-04-29","",2696.44,203.87
"1100710","RY1","NEFS, GERALD F","=""5351""","H","B","P","2010-07-21","",,
"145087","RY1","NELSON, LAUREN","=""8396""","H","B","F","2020-05-04","",4044.69,311.04
"1102195","RY1","NEUMANN, ANDREW D","=""8765""","S","B","F","2014-05-18","",24230.78,560.00
"1102198","RY1","NEUMANN, NICKOLAS J","=""8559""","S","B","F","2015-08-03","",17653.90,560.00
"1103050","RY1","NOKELBY, RONALD J","=""3316""","S","B","F","1978-05-05","",23184.68,560.00
"187651","RY1","NOREIKIS, TIFFANY","=""1301""","C","S","F","2018-09-10","",16254.00,480.00
"168753","RY1","NORTHAGEN, JOSHUA","=""1310""","C","B","F","2019-03-12","",13256.27,560.00
"148765","RY1","NOVA ABREU, EDWIN","=""8688""","H","B","P","2020-04-20","2020-08-24",2718.84,226.57
"1103065","RY1","NYGAARD, KENT A","=""5597""","H","B","F","2015-01-26","",9958.72,615.63
"1106225","RY1","OLDERBAK, JOHN","=""5420""","C","S","F","2016-02-16","",21423.00,480.00
"173209","RY1","O'LEARY, MATTHEW","=""3517""","H","B","F","2019-12-31","",7950.81,562.73
"1100625","RY1","OLSON, CODEY","=""8567""","C","B","F","2016-08-01","",9826.93,320.00
"1106399","RY1","OLSON, JAY P","=""1705""","C","B","F","2002-02-11","",25382.91,560.00
"1106400","RY1","OLSON, JUSTIN S","=""9342""","C","B","F","2012-11-12","",14138.63,560.00
"164732","RY1","OLSON, RACHEL","=""3279""","H","B","F","2019-04-22","2020-08-14",9699.65,575.15
"144788","RY1","OLSON, WYATT","=""7428""","S","B","F","2017-04-10","2020-05-15",8101.20,240.00
"1106421","RY1","O'NEIL, TIMOTHY J","=""8317""","C","B","F","2014-08-11","",21281.84,560.00
"1107950","RY1","ORTIZ, GUADALUPE","=""6010""","H","B","F","2012-11-12","",15718.75,502.73
"1108200","RY1","OSTLUND, ANNE B","=""0381""","H","B","F","2011-01-17","",15359.78,593.44
"157493","RY1","OTTO, ALYSSA","=""9450""","H","B","F","2019-09-23","2020-07-15",6938.40,509.23
"187347","RY1","OWEN, ANDREW","=""8591""","H","B","F","2020-05-26","",1744.86,117.49
"137593","RY1","PALACIOS, ERIC","=""1587""","H","B","F","2020-01-13","",7999.92,555.07
"139846","RY1","PARKER, JOSHUA","=""1441""","H","B","F","2019-09-12","",7131.86,487.99
"1109700","RY1","PASCHKE, MATTHEW G","=""7924""","H","B","F","2019-08-26","",15848.50,570.83
"190324","RY1","PEDE, DOUGLAS","=""3201""","H","B","F","2020-05-04","",11524.43,400.92
"185647","RY1","PERALES, LIL CHRIS","=""8090""","H","B","P","2019-10-21","",2583.48,215.29
"123564","RY1","PESEK, BENJAMIN","=""9968""","H","B","P","2017-07-10","",5071.08,420.17
"136548","RY1","PETERSEN, BENJAMIN","=""9573""","H","B","P","2020-07-13","",,
"1110425","RY1","PETERSON, BRIAN D","=""5561""","C","B","F","1999-03-15","",27162.80,560.00
"1110542","RY1","PETERSON, DOUG","=""9850""","S","B","F","1995-12-04","",23184.68,560.00
"1110660","RY1","PETERSON, TYLER","=""2788""","H","B","F","2015-11-23","",12345.33,613.47
"167934","RY1","PFAFF, JONATHAN","=""3903""","H","B","F","2019-01-06","2020-09-11",11007.63,589.64
"1110800","RY1","PICHE, STACEY","=""6089""","H","B","P","2015-05-11","",2827.64,179.64
"193542","RY1","PICKENS, WHITNEY","=""6028""","H","B","F","2020-03-24","",6939.12,575.09
"187526","RY1","POKHREL, CHANDRA","=""0204""","H","B","F","2018-12-17","",7537.42,558.06
"165478","RY1","POLUM, MAXWELL","=""1978""","H","B","P","2018-12-31","",4350.04,295.71
"136942","RY1","POPE, DEVON","=""8425""","H","B","F","2020-05-18","",2539.38,203.92
"1111325","RY1","POWELL, GAYLA R","=""8640""","S","B","F","2011-08-29","",14180.89,560.00
"1112411","RY1","PRESTON, APRIL","=""9536""","C","B","F","2015-07-20","2020-08-14",8860.00,327.99
"165985","RY1","PUDIL, AIDEN","=""7969""","H","B","P","2020-07-13","",,
"1113940","RY1","RADKE, DUANE","=""6433""","H","B","F","1966-05-01","",12374.55,573.04
"165473","RY1","RAI, SANTI","=""0992""","H","B","F","2018-04-23","",8530.80,520.54
"1588879","RY1","RAUNER, VALERIE","=""7837""","H","B","F","2017-06-19","",8485.96,562.45
"132785","RY1","REEB, LUKE","=""0589""","H","B","P","2020-02-24","",3029.91,233.07
"1114831","RY1","REED, DALE","=""6207""","H","B","P","2015-12-21","",4029.20,287.80
"1114921","RY1","REUTER, TIMOTHY J","=""9619""","H","B","F","2015-01-26","",17007.62,587.33
"1116800","RY1","RICHARDSON, DARRICK J","=""6925""","C","B","F","2015-09-29","",10541.90,438.74
"158964","RY1","RISBERG, REBECCA","=""1309""","H","B","F","2020-01-07","",,
"158582","RY1","RISKEY, CALEB","=""4722""","H","B","P","2019-12-04","2020-03-11",150.50,0.00
"167321","RY1","RITCHIE, MICHAEL","=""9506""","H","B","F","2020-05-18","",1626.36,135.53
"195123","RY1","RIVERA, ROLANDO","=""6820""","H","B","F","2018-12-17","2020-07-29",6572.36,476.72
"122332","RY1","ROBINSON, AARON","=""4661""","H","B","F","2017-09-25","",8998.01,587.75
"192348","RY1","ROBINSON, CARSON","=""9413""","C","S","F","2018-05-07","2020-07-02",10293.00,480.00
"1117600","RY1","ROBLES, RUDOLPH","=""0455""","H","B","F","2000-07-12","",14794.81,699.61
"1117842","RY1","RODRIGUEZ, JUSTIN","=""9301""","H","B","F","2015-11-23","",15250.17,655.17
"159763","RY1","ROED, ZACHARY","=""1687""","H","B","P","2020-02-11","2020-05-23",2482.64,159.35
"1117901","RY1","ROGERS, MITCH A","=""4212""","C,H","B","F","2014-10-13","",15910.25,520.97
"165780","RY1","ROGERS, SARA","=""7120""","H","B","P","2018-10-22","",6457.95,487.70
"158393","RY1","ROGERS, TIMOTHY","=""0531""","H","B","P","2019-11-12","",,
"1117960","RY1","ROGNE, CRAIG A","=""5154""","S","B","F","1988-06-13","",13461.56,560.00
"175394","RY1","ROHLOFF, KADEN","=""6389""","H","B","P","2020-01-28","",3735.03,295.76
"159875","RY1","ROSE, BRITTANY","=""1871""","H","B","P","2019-10-07","",5910.60,377.70
"1118722","RY1","ROSE, CORY","=""0203""","C","B","F","2006-10-23","",11143.16,240.00
"12236","RY1","ROTH, LAURA","=""3199""","S","B","F","2017-11-20","",18073.12,560.00
"141082","RY1","RUMEN, ROBERT","=""0057""","C","S","F","2018-05-07","",32383.92,480.00
"1120110","RY1","RYAN, ANTONIO R","=""6284""","S","B","F","2012-03-29","",14300.00,560.00
"1120225","RY1","RYDELL, BRIAN L","=""0925""","S","B","F","1999-06-28","",34229.77,560.00
"1120800","RY1","RYDELL, WESLEY D","=""7066""","C","S","F","1962-06-01","",24999.00,15.00
"1120120","RY1","RYGG, KEN C","=""1363""","H","B","F","2012-11-21","",9172.27,536.61
"1121240","RY1","SALBERG, GAYLEN K","=""8532""","H","B","P","2017-02-01","",3035.00,273.50
"1122110","RY1","SANCHEZ, ROGELIO","=""0753""","S","B","F","2015-07-06","",26821.17,560.00
"135289","RY1","SATHER, SAMUEL","=""4950""","H","B","P","2020-05-18","",835.12,67.29
"1122342","RY1","SATTLER, RANDY J","=""4527""","S","B","F","2002-08-26","",27046.17,560.00
"1122352","RY1","SAULS, THOMAS R","=""5750""","C","B","F","2013-08-12","",11781.75,539.80
"135946","RY1","SAYERS, MELISSA","=""7571""","H","B","F","2020-07-13","",,
"198431","RY1","SCHADT, MICHAEL","=""6982""","C","B","F","2020-06-25","",482.30,22.11
"175943","RY1","SCHILTZ, JARED","=""9422""","H","B","P","2019-10-09","",2344.37,183.33
"1123340","RY1","SCHMIESS PENAS, JERI L","=""9316""","S","B","F","2009-05-12","",36200.00,560.00
"165432","RY1","SCHMITZ, MADISON","=""8406""","H","B","P","2020-06-29","",298.87,22.99
"137854","RY1","SCHNEIDER, AMANDA","=""6562""","H","B","F","2019-08-26","",8311.86,552.33
"1566882","RY1","SCHNEIDER, BRIAN","=""2276""","C","B","F","2017-06-05","",17307.16,533.93
"198134","RY1","SCHREIER, JUSTIN","=""0398""","H","B","P","2020-05-04","",1277.76,106.48
"1124400","RY1","SCHUPPERT, KODEY","=""1736""","H","B","F","2015-04-27","",9990.07,575.71
"1124436","RY1","SCHWAN, MICHAEL","=""4858""","C","B","F","2012-02-27","",28713.39,560.00
"1124625","RY1","SEAY, BRYN N","=""5362""","C","S","F","2014-08-25","",22877.00,480.00
"1124875","RY1","SEEBA, BRADLEY F","=""4037""","H","B","F","1977-04-11","",16012.13,602.04
"1125565","RY1","SEVIGNY, SCOTT","=""0113""","C","B","F","2008-09-29","",18169.17,560.00
"168243","RY1","SHADWICK, SHAY","=""1531""","H","B","F","2019-08-12","",6590.23,496.20
"1126040","RY1","SHERECK, LOREN","=""3037""","S","B","F","2016-11-07","",18091.22,560.00
"1126300","RY1","SHIREK, NICHOLAS","=""3260""","C","S","F","2018-02-01","",37250.00,480.00
"197643","RY1","SHOWER, DUSTIN","=""8293""","H","B","F","2018-08-20","",9754.31,598.89
"1126060","RY1","SHUMAKER, MARTIN D","=""6832""","H","B","F","2013-07-01","",10620.72,630.00
"167932","RY1","SLATOR, ANDREW","=""7772""","H","B","P","2019-05-01","2020-05-15",2639.46,181.39
"139475","RY1","SLOMINSKI, JOSEPH","=""2624""","H","B","F","2019-07-29","",9497.93,583.03
"146803","RY1","SMERER, JASON","=""2522""","H","B","F","2019-05-20","",17363.61,833.90
"176430","RY1","SMITH, TANER","=""0735""","H","B","F","2018-05-07","",7023.42,576.58
"152964","RY1","SOBERG, NICHOLAS","=""1490""","H","B","F","2018-08-27","",10637.84,630.00
"1129560","RY1","SOENKSEN, LINDSEY","=""6945""","H","B","F","2017-01-12","2020-09-12",6461.65,488.72
"1130090","RY1","SOLEM, BEN G","=""1062""","H","B","F","2013-09-16","",9442.08,581.00
"165428","RY1","SOLHEIM, ARIK","=""9508""","S","B","F","2019-04-15","",18069.29,560.00
"154474","RY1","SORENSON, THOMAS","=""5450""","H","B","P","2017-08-28","",939.72,78.31
"1130420","RY1","SORUM, ABIGAIL","=""4955""","H","B","F","2018-03-09","",11541.50,567.70
"1130426","RY1","SORUM, GREG","=""1940""","S","B","F","1996-01-01","",79114.39,560.00
"154783","RY1","SORUM, JACOB","=""3574""","S","B","F","2019-06-03","",22884.68,560.00
"1130430","RY1","SORUM, MICHAEL J","=""5544""","S","B","F","2002-11-04","",16800.00,560.00
"198567","RY1","SPIVA, NOLAN","=""4966""","H","B","F","2019-12-17","",7047.51,529.13
"165848","RY1","SPONHOLZ, KEEGAN","=""5710""","H","B","P","2020-07-13","",,
"1130690","RY1","STADSTAD, LARRY O","=""0339""","C","S","P","2015-01-01","",9600.00,200.00
"1130700","RY1","STALLMO, RICHARD D","=""7776""","H","B","F","2009-09-16","",6894.96,529.87
"174836","RY1","STEFFL, SIMON","=""3697""","H","B","P","2019-11-18","",6682.56,534.17
"1132205","RY1","STEIN, DONALD W","=""6405""","H","B","F","2012-08-13","",9655.14,619.65
"1132700","RY1","STOUT, RICK","=""6319""","C","S","F","2016-08-29","",40607.09,480.00
"143659","RY1","STRAUS, TYLER","=""6524""","C","B","P","2018-04-11","",8708.50,328.52
"1133727","RY1","STREETER, TIMOTHY","=""2062""","H","B","F","2007-03-28","",13126.72,730.41
"16250","RY1","STREITZ, DANIELLE M","=""2795""","H","B","F","2011-09-12","",8292.64,554.25
"128945","RY1","SWANSON, ZACHARY","=""1796""","H","B","F","2018-09-11","2020-06-11",10262.44,608.22
"1135265","RY1","SYMONS, ELIZABETH R","=""9018""","S","B","F","2012-12-27","",19684.68,560.00
"1135260","RY1","SYMONS, STEVEN","=""0557""","S","B","F","2010-11-22","",19146.17,560.00
"1135410","RY1","SYVERSON, JOSHUA L","=""5016""","C","B","F","2012-06-11","",20526.00,567.00
"175843","RY1","TANGREN, ALEX","=""9891""","H","B","P","2020-06-08","2020-07-29",1011.48,84.29
"157374","RY1","TAPPARO, GREGORY","=""2685""","H","B","P","2019-10-09","2020-05-22",1514.88,126.24
"1135518","RY1","TARR, JEFF D","=""4778""","C","S","F","1993-11-01","",15597.00,480.00
"1135710","RY1","TELKEN, WYATT","=""5395""","C","B","P","2017-06-28","2020-06-16",,
"157392","RY1","THOMPSON, COLE","=""9501""","H","B","F","2019-11-18","",8329.47,587.72
"1137590","RY1","THOMPSON, WYATT","=""6569""","C","B","F","2007-05-14","",18180.27,560.00
"197560","RY1","TISI, CATHERINE","=""6977""","H","B","P","2019-06-26","2020-05-18",2163.17,159.88
"165287","RY1","TOMLIN, LUNDEAN","=""3756""","H","B","F","2018-12-17","2020-03-06",936.00,72.00
"134956","RY1","TORGERSON, JOSEPH","=""1308""","C","B","P","2019-01-28","",4256.80,146.16
"1140870","RY1","TROFTGRUBEN, RODNEY","=""2982""","H","B","F","1992-08-03","",22749.90,648.69
"195231","RY1","TURNER, RICHARD J","=""9981""","C","S","F","2018-12-31","",12600.48,480.00
"175642","RY1","VANCAMP, KEVIN S","=""5527""","S","B","F","2018-01-29","2020-04-10",1538.47,80.00
"1144265","RY1","VAN HESTE II, FRED E","=""6808""","H","B","F","2007-05-15","",10994.65,571.76
"178543","RY1","VANYO, DAVID","=""1751""","C","S","F","2017-12-18","",27831.00,480.00
"185393","RY1","VARBERG, WILLIAM","=""2617""","H","B","P","2019-11-21","",,
"15646","RY1","VELA, JUAN CARLOS","=""0922""","H","B","F","2017-10-23","",8356.93,569.38
"1145660","RY1","VIEN, NORMAN A","=""1190""","H","B","F","2007-07-27","",12031.65,554.80
"174934","RY1","VITTERS, JAKE","=""4003""","H","B","P","2019-10-09","2020-07-24",3593.16,299.43
"1146751","RY1","WAGENER, SAMUEL L","=""6320""","S","B","F","2014-01-01","",32907.73,560.00
"1146989","RY1","WALDBAUER, ALEX","=""6973""","C","B","F","2007-08-29","",12294.94,560.00
"165989","RY1","WALDECK, JAMES A","=""7237""","C","S","F","2019-10-21","",9409.00,480.00
"1146991","RY1","WALDEN, CHRIS W","=""5038""","C","B","F","1994-09-06","",19752.17,560.00
"1147062","RY1","WALIOR, SUSAN E","=""1098""","S","B","F","1997-03-03","2020-06-01",2982.70,0.00
"1147061","RY1","WALTON, JOSHUA","=""9804""","C","B","F","2006-12-27","",17390.93,560.00
"1147250","RY1","WARMACK, JAMES H","=""4704""","C","S","F","2011-04-02","",22183.00,480.00
"197530","RY1","WATSON, BRYCE","=""9133""","H","B","P","2019-07-29","",2708.88,225.74
"1147810","RY1","WEBER, JAMES A","=""2402""","C","S","F","2011-10-10","",26174.44,480.00
"169873","RY1","WETZEL, HEATHER","=""7804""","H","B","F","2020-07-13","",,
"136943","RY1","WIBBELS, CHANTEL","=""0653""","H","B","P","2020-05-18","2020-06-03",468.48,39.04
"162984","RY1","WIKSTROM, ABIGAIL","=""5243""","H","B","F","2019-09-09","",7684.70,536.84
"163278","RY1","WILDE, HUNTER","=""0527""","C","B","F","2019-06-03","",5232.48,412.47
"1149160","RY1","WILKENING, RONALD","=""7883""","H","B","P","2011-01-01","",1980.00,168.00
"1149180","RY1","WILKIE, DAVID","=""9008""","C","S","F","1978-05-17","",22425.00,480.00
"193287","RY1","WILLIAMS, BRAYDON","=""4278""","H","B","P","2020-05-04","",3160.79,253.81
"135614","RY1","WILLOTT, JOEL","=""4328""","H","B","P","2020-07-13","",,
"1149636","RY1","WINZER, CHRISTOPHER L","=""0531""","H","B","F","2007-06-25","2020-08-14",8473.51,556.06
"139856","RY1","WITTER, PATRICK","=""1096""","H","B","F","2020-02-24","",7894.24,493.21
"165982","RY1","WOHLGAMUTH, ALEX","=""4667""","H","B","P","2019-07-29","",3666.60,305.55
"1149710","RY1","WOINAROWICZ, EMILEE M","=""6666""","H","B","F","2013-07-29","",9742.14,589.96
"167542","RY1","WOLSKY, KADEN","=""4794""","H","B","P","2020-06-02","",900.12,75.01
"115021","RY1","WOODS, SCOTT","=""8868""","H","B","F","2019-06-24","",7004.16,537.25
"165675","RY1","WYMER, JOHN","=""7338""","H","B","F","2020-06-29","2020-08-05",587.25,46.98
"1150510","RY1","YEM, RITHY M","=""9027""","S","B","F","2013-04-29","",16828.90,560.00
"1151450","RY1","YUNKER, GEORGE P","=""3487""","C","S","F","2016-09-26","",10849.00,480.00
"1150920","RY1","ZACHA, CHARLES J","=""6299""","H","B","F","2014-12-29","",4361.56,311.54
"1160100","RY1","ZOELLICK, STEVE","=""4189""","S","B","F","2013-01-01","",10230.78,560.00
"210123","RY2","BARTA, PATRICK","=""2470""","H","B","F","2017-01-04","",16542.12,609.57
"24665","RY2","BATZER, CORY","=""4077""","H","B","F","2017-11-20","",10958.22,645.82
"246783","RY2","BEAUVAIS, ELLIOT","=""9131""","H","B","F","2019-12-02","",7820.93,483.26
"297632","RY2","BECK, MADISON","=""3606""","H","B","P","2020-02-11","",2356.56,196.38
"254976","RY2","BINA, BENJAMIN","=""1439""","C","B","F","2018-07-02","",9084.20,557.81
"213520","RY2","BINA, NOAH P","=""1440""","H","B","P","2019-11-20","",3603.94,256.46
"257935","RY2","BOGER, DYLAN","=""1023""","H","B","P","2019-11-19","",2552.32,209.56
"258763","RY2","BRUNK, JUSTIN","=""8013""","C","S","F","2018-02-26","",,
"24551","RY2","BUCKHOLZ, TYLER","=""3651""","H","B","F","2017-10-23","",8517.26,581.42
"264972","RY2","DANGERFIELD, JAXSON","=""1418""","H","B","P","2020-05-24","",2163.59,166.43
"230601","RY2","DANGERFIELD, JOEL","=""3827""","S","B","F","2001-11-29","",16453.90,560.00
"230810","RY2","DOERR, ROY","=""1274""","H","B","P","2013-04-29","",2756.20,191.23
"294387","RY2","DUNHAM, DEXTER","=""3377""","C","S","P","2019-09-12","2020-05-25",4511.07,320.00
"269547","RY2","EAGAN, CHASE","=""5611""","H","B","P","2020-05-18","",2261.40,188.45
"276431","RY2","ENGEBRETSON, ERIK","=""8811""","C","B","F","2018-07-02","",10654.00,560.00
"295435","RY2","ERICKSON, ANTHONY","=""0674""","H","B","F","2019-08-26","",9483.90,653.40
"241085","RY2","EVENSON, GARRETT","=""7037""","C","B","F","2018-08-01","",11326.30,560.00
"243180","RY2","FEIST, LUDWIG","=""9498""","H","B","F","1995-01-23","",9771.25,584.16
"247000","RY2","FRASER, BRADEN","=""1034""","H","B","F","2019-07-17","",10747.19,627.06
"249750","RY2","GABRIELSON, JAMES","=""6665""","C","S","F","2017-09-18","",9344.00,480.00
"269854","RY2","GOETZ, ELIJAH","=""0685""","H","B","F","2020-03-24","",6966.54,560.16
"254327","RY2","GROLLIMUND, TYLER","=""6966""","C","S","F","2018-08-01","",10002.00,480.00
"263095","RY2","HAGER, DELWYN D","=""9236""","H","B","P","2014-03-11","",420.00,35.00
"264110","RY2","HEAZLETT, CURTIS F","=""7428""","H","B","P","2014-11-17","",5004.00,420.50
"264220","RY2","HELGESON, JEFFREY S","=""5658""","H","B","F","2009-11-24","",8954.86,588.85
"264329","RY2","HINTZ, MATTHEW","=""9771""","H","B","P","2019-06-26","",,
"211232","RY2","HOLLAND, NIKOLAI","=""8048""","C","S","F","2019-03-18","",18994.00,400.00
"256879","RY2","JENSON, MARK A","=""6597""","H","B","P","2017-02-13","",4380.34,349.76
"232874","RY2","JOHNSON, ALLYN","=""4882""","H","B","P","2018-05-03","",1474.84,133.60
"273315","RY2","JOHNSON, BRANDON J","=""8472""","C","B","F","2011-03-07","",27287.94,560.00
"243876","RY2","JOHNSON, CHRISTIE","=""8399""","C","S","F","2019-07-29","",7754.00,480.00
"274225","RY2","JOHNSON, DUSTIN A","=""1550""","H","B","F","2014-02-10","",13041.93,592.51
"259756","RY2","JOHNSON, FRANCES","=""9627""","H","B","F","2020-01-21","",9768.76,609.11
"295148","RY2","KELLER, JOSIAH","=""3564""","C","B","F","2020-06-15","",2247.88,120.00
"279380","RY2","KNUDSON, BENJAMIN","=""4984""","C","S","F","2009-08-12","",31200.00,480.00
"279630","RY2","KNUDSON, KENNETH","=""5414""","C","B","F","2013-01-02","",18543.84,560.00
"268574","RY2","LARA III, REYES","=""0308""","H","B","F","2019-12-17","2020-04-28",2153.88,139.42
"265328","RY2","LONGORIA, MICHAEL","=""8157""","C","S","F","2018-07-30","",17054.00,480.00
"275342","RY2","LOUDEN, ZAKERY","=""7774""","H","B","F,P","2019-05-29","",8171.15,525.74
"298432","RY2","MASON, MYRON","=""1682""","H","B","F","2019-04-29","",7775.98,546.61
"291582","RY2","MATHISEN, GARY","=""4858""","H","B","P","2015-11-09","",1191.85,108.35
"275849","RY2","MAXWELL, WYATT","=""5334""","H","B","P","2019-11-19","2020-06-24",271.80,22.65
"215883","RY2","MONREAL, JESSIE","=""4778""","C","S","F","2017-09-25","2020-08-01",11780.00,480.00
"289563","RY2","NEUMANN, NANCY","=""9175""","H","B","F","2018-06-11","",8515.68,631.46
"2106350","RY2","OLSON, CHAD","=""4543""","S","B","F","2010-01-01","",16992.34,560.00
"296347","RY2","OLSON, JAMIE","=""7655""","H","B","F","2019-08-26","",7662.47,583.81
"264387","RY2","OLVERA, CHRISTIAN","=""9245""","H","B","F","2018-11-19","",7510.69,524.53
"2106410","RY2","PEDERSON, DAVID A","=""9816""","H","B","F","2011-12-16","",16464.14,627.66
"211201","RY2","PROIS, JUSTIN","=""3186""","C","B","F","2017-11-20","2020-05-29",6724.01,335.00
"2114160","RY2","RAMBERG, GARY","=""3275""","H","B","F","1999-11-02","2020-07-23",13478.89,612.67
"267531","RY2","RAMON JR, MICHAEL","=""0553""","C","S","P","2019-08-26","",8337.00,480.00
"258964","RY2","RISBERG, REBECCA","=""1309""","H","B","F","2020-01-07","2020-08-10",5098.50,417.35
"267843","RY2","ROMIG, THOMAS","=""1625""","C","S","F","2018-10-08","",7612.00,480.00
"242539","RY2","SALDANA, DEION","=""1851""","C","S","F","2019-06-03","",10985.00,480.00
"2126055","RY2","SHROYER, RYAN","=""6185""","S","B","F","2019-04-01","",10230.78,560.00
"2130150","RY2","SOBOLIK, PAUL A","=""5209""","C","B","F","1992-03-23","",21152.67,560.00
"2130678","RY2","SPENCER, FRED C","=""7979""","C","S","F","2005-02-01","",14520.00,480.00
"264852","RY2","SUMMERS, SAMANTHA G","=""8624""","H","B","F","2019-08-05","",11598.66,583.18
"256845","RY2","SUTHERLAND, BROOKE","=""0486""","H","B","F","2017-07-23","",12374.29,689.77
"2135031","RY2","SYVERSON, AMANDA","=""2517""","C","S","F","2016-02-01","2020-07-28",10183.32,480.00
"2141225","RY2","TANDESKI, JADE L","=""6558""","H","B","F","2014-10-08","",9195.60,595.36
"298567","RY2","TANDESKI, JEROME","=""0787""","H","B","P","2017-12-28","",1600.00,160.00
"259375","RY2","THORSELL, JESSE","=""6285""","H","B","F","2020-01-28","",7001.46,536.14
"247583","RY2","VOELKER, JUSTIN","=""7569""","H","B","F","2019-12-31","2020-07-31",2960.36,227.72
"2150210","RY2","WILDE, COREY R","=""9351""","C","S","F","2012-08-06","",20957.00,480.00
"256984","RY2","ZAPZALKA, WYATT","=""1682""","C","B","F","2018-05-21","2020-07-28",11589.28,560.00
"211568","RY2","ZEMAN, HUNTER","=""9942""","H","B","F","2017-03-27","",9538.79,613.47
"2126053","RY2","ZIDON, STEPHEN","=""2617""","H","B","P","2015-12-21","2020-07-13",127.90,12.79
