line_label,page,line,201601,201602,201603,201604,201605,201606,201607,201608,201609,201610,201611,201612,201701,201703,201704,201705,201706,201707,201708,201709,201710
SALARIES OWNERS EX,4,8,7800,7800,7800,7800,7800,7800,7800,7800,7800,7800,7800,7800,2000,2000,2000,2000,2000,2000,2000,2000,2000
SALARIES SUPERVIS,4,9,12088,11370,11936,10673,10896,10841,10882,11505,11397,11475,10918,11094,11354,12046,11595,11672,11602,11872,12228,11368,11599
SALARIES CLERICAL,4,10,11329,11660,12053,10745,11621,12263,11246,12443,12164,12886,12508,12416,13792,13413,12552,13608,13764,12562,14149,12366,14079
OTHER SALARIES & WAG,4,11,50444,46703,51095,50241,42768,43269,44064,54524,49346,43795,43443,50883,52768,46111,42281,43972,46948,38741,43508,41610,48866
ABSENTEE COMPEN,4,12,8206,4629,4218,4206,7034,14976,21762,6762,12897,5548,12439,18553,9500,9500,9500,9500,9500,14500,14500,14500,14500
TAXES PAYROLL,4,14,16428,15326,16511,15430,14547,15025,15801,16477,14655,14464,15421,15821,19565,19147,16436,17731,17740,15476,17444,15880,16735
EMPLOYEE BENEFITS,4,15,10376,10086,8937,11513,9379,8924,9281,8562,10562,10224,9594,10068,12460,14734,12800,12620,12842,13262,12770,13797,13841
RETIREMENT BENEFITS,4,16,4068,3997,4448,4253,3812,3937,3876,4247,3924,3838,3980,694,4321,3995,3666,3135,3816,3790,4109,3849,4287
TOTAL PERSONNEL,4,17,120739,111571,116998,114861,107857,117037,124711,122320,122744,110030,116104,127329,125760,120946,110830,114239,118212,112203,120708,115370,125906
CUSTOMER PAINT LABOR,6,35,44798,42689,46527,36489,41033,40032,37558,39974,38197,41213,42203,38082,46091,50590,46982,44305,43300,41247,46804,36497,47460
CUSTOMER BODY LABOR,6,36,84771,86003,85401,63059,78982,84506,81540,88757,82493,86678,86604,81244,89412,100367,85213,95579,100090,95005,118422,91430,101986
WARRANTY CLAIM LABOR,6,37,4851,6450,7709,4820,9088,5243,1999,4227,6618,1388,2770,1916,2998,9435,4669,3614,9837,6437,4832,5905,4659
INTERNAL LABOR,6,38,47340,30067,52201,54963,36818,35454,39730,54296,46439,39921,44924,45707,39521,47441,33412,33844,33915,32975,45149,42316,42920
ADJ COST OF LABOR SALES,6,39,-1844,-9804,-5163,-14045,-10060,-5062,-7066,-10145,-804,-6108,-17206,-8712,-1332,3033,-2307,-9323,12044,2362,-1470,-11315,-13333
SUBLET REPAIRS,6,41,156,85,20,110,50,20,9195,34256,46798,4324,2885,-3,40,29,10,15,20,20,8705,1308,1367
PAINT & SHOP MATERIALS,6,42,23680,13884,20749,21476,15183,13149,11448,17089,13048,14369,14922,13585,13982,24979,19875,16956,20423,15240,22230,9785,17653
TOTAL BODY SHOP,6,43,203752,169374,207444,166871,171093,173343,174403,228454,232788,181785,177102,171819,190712,235875,187855,184990,219630,193286,244671,175926,202713
