last name,first name,emp #,commission %,pto/holiday rate,hourly rate,ot rate,monthly salary,reg_hours,ot_hours,pto_hours,hol_hours,total sales,reg pay,ot pay,pto/holiday pay,ot variance,commission pay,total pay,guarantee
Blumhagen,Katherine,160930,0.55,21.63,10,15,,80,10.24,0,0,246912.93,800,153.6,0,77.05,1358.02,2388.67,N/A
Evavold,Daniel,141069,2,38.73,8.75,13.125,,80,24.67,0,0,65541.41,700,323.79,0,154.48,1310.83,2489.10,N/A
Hill,Brian,165357,2.35,47.27,10,15,,80,14.77,0,0,55293.06,800,221.55,0,101.26,1299.39,2422.20,N/A
Lueker,David,188338,1.5,38.08,10,15,,78.8,1.61,0,0,64850.96,788,24.15,0,9.74,972.76,1794.65,N/A
Marek,Dayton,190910,1.25,30.53,10,15,,80,13.56,0,0,58311.79,800,203.4,0,52.82,728.9,1785.12,1925.00
Ostlund,Anne,1108200,1.25,42.69,10,15,,77.26,4.14,0,0,89203.71,772.6,62.1,0,28.36,1115.05,1978.11,N/A
Shereck,Loren,1126040,0.65,,,,1000,,,,,246912.93,1000,,,,1604.93,2604.93,N/A
Steinke,Mark,1132218,2.35,40.03,10,15,,80,21.47,0,0,90384.09,800,322.05,0,224.71,2124.03,3470.79,N/A
