"last name","first name","emp #","commission %","pto/holiday rate","hourly rate","ot rate","monthly salary","reg_hours","ot_hours","pto_hours","hol_hours","total sales","reg pay","ot pay","pto/holiday pay","ot variance","commission pay","total pay"
"Blumhagen","Katherine","160930",0.55,21.63,10.00,15.000,,76.85,0.00,16.00,0.00,244031.52,768.50,0.00,346.08,0.00,1342.17,2456.75
"Evavold","Daniel","141069",2.00,38.73,8.75,13.125,,80.00,8.74,0.00,0.00,65325.31,700.00,114.71,0.00,64.34,1306.51,2185.56
"Hill","Brian","165357",2.35,47.27,10.00,15.000,,69.08,17.92,16.00,0.00,69942.07,690.80,268.80,756.32,169.28,1643.64,3528.84
"Lueker","David","188338",1.50,38.08,10.00,15.000,,80.00,14.83,0.00,0.00,87836.22,800.00,222.45,0.00,103.02,1317.54,2443.01
"Ostlund","Anne","1108200",1.25,42.69,10.00,15.000,,80.00,11.78,0.00,0.00,76855.51,800.00,176.70,0.00,61.65,960.69,1999.04
"Shereck","Loren","1126040",0.55,,,,1000.00,,,,,244031.52,1000.00,,,,1342.17,2342.17
"Steinke","Mark","1132218",2.35,40.03,10.00,15.000,,80.00,20.47,0.00,0.00,81567.63,800.00,307.05,0.00,195.27,1916.84,3219.16
"Yem","Rithy","1150510",1.25,39.85,10.00,15.000,,66.89,5.03,0.00,0.00,61625.31,668.90,75.45,0.00,26.94,770.32,1541.61
