last name,first name,emp #,commission %,pto/holiday rate,hourly rate,ot rate,monthly salary,reg_hours,ot_hours,pto_hours,hol_hours,total sales,reg pay,ot pay,pto/holiday pay,ot variance,commission pay,total pay
Blumhagen,Katherine,160930,0.55,21.63,10.00,15.000,,0.00,0.00,72.00,8.00,202339.13,0.00,0.00,1730.40,0,1112.87,2843.27
Evavold,Daniel,141069,2.00,38.73,8.75,13.125,,57.36,4.40,16.00,8.00,64060.63,501.90,57.75,929.52,45.64,1281.21,2816.02
Hill,Brian,165357,2.35,47.27,10.00,15.000,,76.36,5.90,0.00,8.00,29098.41,763.60,88.50,378.16,24.52,683.81,1938.59
Lueker,David,188338,1.50,38.08,10.00,15.000,,76.84,15.76,0.00,8.00,63899.49,768.40,236.40,304.64,81.57,958.49,2349.50
Ostlund,Anne,1108200,1.25,42.69,10.00,15.000,,76.21,4.89,8.00,8.00,49205.22,762.10,73.35,683.04,18.54,615.07,2152.10
Shereck,Loren,1126040,0.55,,,,1000.00,,,,,202339.13,1000.00,,,,1112.87,2112.87
Steinke,Mark,1132218,2.35,40.03,10.00,15.000,,76.74,5.36,0.00,8.00,88471.34,767.40,80.40,320.24,67.87,2079.08,3314.99
Yem,Rithy,1150510,1.25,39.85,10.00,15.000,,30.14,0.00,40.00,8.00,72782.51,301.40,0.00,1912.80,0.00,909.78,3123.98
