last name,first name,emp #,commission %,pto/holiday rate,hourly rate,ot rate,monthly salary,reg_hours,ot_hours,pto_hours,hol_hours,total sales,reg pay,ot pay,pto/holiday pay,ot variance,commission pay,total pay,guarantee
Blumhagen,Katherine,160930,0.55,21.63,10.00,15.000,,80.00,16.17,0.00,0.00,278700.78,800.00,242.55,0.00,128.87,1532.85,2704.27,N/A
Evavold,Daniel,141069,2.00,38.73,8.75,13.125,,80.00,15.87,0.00,0.00,83833.55,700.00,208.29,0.00,138.78,1676.67,2723.74,N/A
Hill,Brian,165357,2.35,47.27,10.00,15.000,,80.00,16.69,0.00,0.00,84945.42,800.00,250.35,0.00,172.29,1996.22,3218.86,N/A
Lueker,David,188338,1.50,38.08,10.00,15.000,,80.00,11.51,0.00,0.00,56817.20,800.00,172.65,0.00,53.60,852.26,1878.51,N/A
Marek,Dayton,190910,1.25,30.53,10.00,15.000,,80.00,14.21,0.00,0.00,97754.05,800.00,213.15,0.00,92.15,1221.93,2327.23,N/A
Ostlund,Anne,1108200,1.25,42.69,10.00,15.000,,80.00,20.01,0.00,0.00,94208.23,800.00,300.15,0.00,117.81,1177.60,2395.56,N/A
Shereck,Loren,1126040,0.65,,,,1000.00,,,,,278700.78,1000.00,,,,1811.56,2811.56,N/A
Steinke,Mark,1132218,2.35,40.03,10.00,15.000,,76.25,5.79,8.00,0.00,82278.23,762.50,86.85,320.24,68.23,1933.54,3171.36,N/A
Yem,Rithy,1150510,1.25,39.85,10.00,15.000,,0.00,0.00,0.00,0.00,,0.00,0.00,0.00,0,,0.00,N/A
