"employee_number","store","employee_name","ssn","payroll_class","pay_period","hire_date","term_date","lb_gross_pay","lb_gross_pay_with_cap","lb_annualized_salary","lb_annualized_salary_with_cap","lb_total_hours","lb_avg_hourly_wage","cp_gross_pay","cp_gross_pay_with_cap","cp_annualized_salary","cp_annualized_salary_with_cap","cp_total_hours","cp_avg_hourly_wage","wage_comparison","check_date"
"168573","RY1","AAMODT, MATTHEW","=""9585""","H","B","2019-08-04","",9118.98,9118.98,36475.92,36475.92,517.22,17.63,9802.63,9802.63,36409.77,36409.77,567.43,17.28,0.98,""
"143769","RY1","AANENSON, AMANDA","=""3926""","H","B","2019-06-03","",6786.12,6786.12,27144.48,27144.48,445.43,15.23,8803.32,8803.32,32698.05,32698.05,548.59,16.05,1.05,""
"159876","RY1","AANENSON, GENE","=""1612""","H","B","2019-10-31","",625.00,625.00,2500.00,2500.00,62.50,10.00,540.00,540.00,2005.71,2005.71,54.00,10.00,1.00,""
"154785","RY1","AANSTAD, TANNER","=""0013""","H","B","2020-04-20","",,,,,,,4220.18,4220.18,15674.95,15674.95,316.69,13.33,,""
"193457","RY1","AAS, SCOTT","=""9449""","H","B","2020-03-16","",,,,,,,11297.16,11297.16,41960.88,41960.88,729.96,15.48,,""
"11660","RY1","ADAM, PATRICK","=""2241""","C","B","2016-04-25","",16762.17,16762.17,67048.68,67048.68,480.00,34.92,20282.76,20282.76,75335.97,75335.97,480.00,42.26,1.21,""
"197642","RY1","ADHIKARI, OM","=""5419""","H","B","2019-06-17","",6402.51,6402.51,25610.04,25610.04,488.43,13.11,7307.18,7307.18,27140.95,27140.95,556.03,13.14,1.00,""
"11732","RY1","AGUILAR, ANNA","=""3319""","H","B","2015-09-08","",8267.66,8267.66,33070.64,33070.64,463.92,17.82,10647.39,10647.39,39547.45,39547.45,574.97,18.52,1.04,""
"10568","RY1","AKER, CADEN","=""4735""","H","B","2017-11-06","2020-08-25",9187.68,9187.68,36750.72,36750.72,526.63,17.45,8901.77,8901.77,33063.72,33063.72,407.03,21.87,1.25,""
"175398","RY1","ALLARD, BROCK","=""1369""","H","B","2019-10-09","2020-06-15",1314.97,1314.97,5259.88,5259.88,98.23,13.39,2160.00,2160.00,8022.86,8022.86,180.00,12.00,0.90,""
"168575","RY1","ALOISIO, MADYSON","=""8490""","H","B","2019-12-17","",2636.16,2636.16,10544.64,10544.64,219.68,12.00,3113.28,3113.28,11563.61,11563.61,259.44,12.00,1.00,""
"12725","RY1","ALSLEBEN, DEVIN R","=""2237""","H","B","2017-08-18","2020-04-07",8821.26,8821.26,35285.04,35285.04,540.02,16.34,997.00,997.00,3703.14,3703.14,24.17,41.25,2.52,""
"147832","RY1","ALTEPETER, GRAYSON","=""6841""","H","B","2019-07-11","",5624.16,5624.16,22496.64,22496.64,464.01,12.12,5971.26,5971.26,22178.97,22178.97,494.39,12.08,1.00,""
"165873","RY1","ANDERSON, NICHOLAS","=""5638""","H","B","2020-07-06","",3150.66,3150.66,12602.64,12602.64,208.88,15.08,,,,,,,,""
"13725","RY1","ANDERSON, SHAWN W","=""5431""","C","B","2015-02-02","",30892.10,23076.92,123568.40,92307.68,480.00,48.08,37941.58,26923.12,140925.87,100000,560.00,48.08,1.00,"2019-01-11"
"13815","RY1","ANDERSON, STEVEN L","=""8085""","H","B","2014-03-10","",1725.00,1725.00,6900.00,6900.00,102.00,16.91,4464.00,4464.00,16580.57,16580.57,384.50,11.61,0.69,""
"16425","RY1","ANDREWS, JON","=""2157""","S","B","2006-04-11","",20215.44,20215.44,80861.76,80861.76,480.00,42.12,23484.68,23484.68,87228.81,87228.81,560.00,41.94,1.00,""
"16450","RY1","APPLING, DAVID J","=""1523""","H","B","2015-01-27","",3708.25,3708.25,14833.00,14833.00,285.25,13.00,,,,,,,,""
"123578","RY1","ATWELL, TREVOR","=""3949""","H","B","2020-02-24","",1289.52,1289.52,5158.08,5158.08,107.46,12.00,6251.76,6251.76,23220.82,23220.82,520.98,12.00,1.00,""
"17534","RY1","AUBOL, THOMAS B","=""6010""","C","S","1998-11-09","",32534.22,25000,130136.88,100000,480.00,52.08,36334.19,25000,145336.76,100000,480.00,52.08,1.00,"2019-02-28"
"18005","RY1","AXTMAN, DALE M","=""8828""","C","B","2001-05-01","",23375.90,23076.92,93503.60,92307.68,480.00,48.08,23594.07,23594.07,87635.12,87635.12,560.00,42.13,0.88,"2019-12-27"
"196575","RY1","BACH, CASPER","=""4889""","C","S","2020-03-24","",807.60,807.60,3230.40,3230.40,40.00,20.19,9160.00,9160.00,36640.00,34022.86,480.00,19.08,0.95,""
"166873","RY1","BAILLY, BRODY","=""4246""","H","B","2020-03-05","",262.89,262.89,1051.56,1051.56,18.13,14.50,2121.80,2121.80,7880.97,7880.97,172.53,12.30,0.85,""
"165826","RY1","BAKKEN, BRAYDON","=""5105""","H","B","2020-06-29","",,,,,,,173.04,173.04,642.72,642.72,14.42,12.00,,""
"176398","RY1","BALDWIN, BROCK","=""9176""","C","S","2019-07-29","2020-01-23",1346.14,1346.14,5384.56,5384.56,120.00,11.22,,,,,,,,""
"174738","RY1","BARBEAU, LUKE","=""9467""","H","B","2019-11-19","",3852.37,3852.37,15409.48,15409.48,285.01,13.52,4570.19,4570.19,16974.99,16974.99,368.24,12.41,0.92,""
"158339","RY1","BARTYZAL, FRANK","=""8381""","H","B","2019-11-18","2020-03-26",2442.84,2442.84,9771.36,9771.36,203.57,12.00,,,,,,,,""
"111210","RY1","BEAR, JEFFERY L","=""4113""","C","B","2014-10-14","",11501.31,11501.31,46005.24,46005.24,480.00,23.96,13956.21,13956.21,51837.35,51837.35,560.00,24.92,1.04,""
"112589","RY1","BEDNEY, TYLER","=""0723""","C","S","2017-06-05","",20100.00,20100.00,80400.00,80400.00,480.00,41.88,23061.00,23061.00,92244.00,85655.14,480.00,48.04,1.15,"2019-01-31"
"187564","RY1","BEHM, PAUL","=""7297""","C,H","B,S","2018-04-23","2020-06-12",3793.38,3793.38,15173.52,15173.52,198.25,19.13,6762.28,6762.28,27049.12,25117.04,389.57,17.36,0.91,""
"185628","RY1","BEISNER, EVAN","=""7672""","H","B","2020-05-04","2020-05-04",,,,,,,24.00,24.00,89.14,89.14,2.00,12.00,,""
"111250","RY1","BEISWENGER, LYLE W","=""0387""","H","B","2012-11-13","",990.00,990.00,3960.00,3960.00,39.00,25.38,1480.00,1480.00,5497.14,5497.14,88.00,16.82,0.66,""
"197523","RY1","BEITER, GABRIELLE","=""4041""","H","B","2019-08-12","",7031.29,7031.29,28125.16,28125.16,488.10,14.41,7461.09,7461.09,27712.62,27712.62,523.81,14.24,0.99,""
"156398","RY1","BERG, ETHAN","=""1703""","H","B","2019-10-09","",1673.16,1673.16,6692.64,6692.64,139.43,12.00,3082.44,3082.44,11449.06,11449.06,256.87,12.00,1.00,""
"195359","RY1","BERGE, THOMAS","=""8198""","H","B","2019-10-08","",7771.59,7771.59,31086.36,31086.36,474.09,16.39,7558.16,7558.16,28073.17,28073.17,486.29,15.54,0.95,""
"113085","RY1","BERGH, STEVEN","=""2635""","S","B","2014-06-30","",11376.96,11376.96,45507.84,45507.84,480.00,23.70,13223.12,13223.12,49114.45,49114.45,560.00,23.61,1.00,""
"196485","RY1","BICKER, AUSTIN","=""9203""","H","B","2020-03-24","",,,,,,,2572.71,2572.71,9555.78,9555.78,188.55,13.64,,""
"157953","RY1","BIES II, DAVID","=""5941""","C","B","2019-01-28","",19230.68,19230.68,76922.72,76922.72,480.00,40.06,21803.95,21803.95,80986.10,80986.10,560.00,38.94,0.97,"2019-11-01"
"147741","RY1","BJARNASON, JUSTIN","=""7799""","C","S","2017-06-05","",8798.00,8798.00,35192.00,35192.00,480.00,18.33,10968.96,10968.96,43875.84,40741.85,480.00,22.85,1.25,"2019-02-28"
"115255","RY1","BJORNSETH, MARK L","=""9196""","S","B","1989-09-25","",15400.00,15400.00,61600.00,61600.00,480.00,32.08,18500.00,18500.00,68714.29,68714.29,560.00,33.04,1.03,""
"149852","RY1","BLEWITT, ALEXIS","=""6787""","H","B","2019-10-02","2020-07-24",2369.78,2369.78,9479.12,9479.12,169.27,14.00,4323.48,4323.48,16058.64,16058.64,308.82,14.00,1.00,""
"160930","RY1","BLUMHAGEN, KATHERINE M","=""4971""","H","B","2002-08-19","",16607.98,16607.98,66431.92,66431.92,583.11,28.48,16766.67,16766.67,62276.20,62276.20,646.89,25.92,0.91,""
"165785","RY1","BOEHMER, LARRY","=""4984""","H","B","2020-03-24","2020-04-06",,,,,,,66.00,66.00,245.14,245.14,5.50,12.00,,""
"116185","RY1","BOHM, DOUGLAS","=""3994""","H","B","1993-03-01","",10290.16,10290.16,41160.64,41160.64,497.80,20.67,10532.94,10532.94,39122.35,39122.35,482.86,21.81,1.06,""
"169843","RY1","BOOKER, JEREMIAH","=""3513""","H","B","2019-06-24","2020-06-19",4607.33,4607.33,18429.32,18429.32,322.05,14.31,6012.79,6012.79,22333.22,22333.22,427.45,14.07,0.98,""
"118010","RY1","BRAATEN, DEAN T","=""7277""","H","B","2017-04-24","",8654.79,8654.79,34619.16,34619.16,543.46,15.93,10087.75,10087.75,37468.79,37468.79,638.88,15.79,0.99,""
"195436","RY1","BRAATEN, LOGAN","=""9251""","H","B","2019-08-26","",1771.29,1771.29,7085.16,7085.16,116.29,15.23,1976.18,1976.18,7340.10,7340.10,110.37,17.91,1.18,""
"165876","RY1","BRIONES-BURNETT, KATRINA","=""9145""","H","B","2020-04-06","",,,,,,,2746.92,2746.92,10202.85,10202.85,228.91,12.00,,""
"165823","RY1","BRODEN, MARK","=""5443""","H","B","2019-08-19","2020-08-19",5949.02,5949.02,23796.08,23796.08,404.60,14.70,7407.82,7407.82,27514.76,27514.76,525.70,14.09,0.96,""
"118520","RY1","BROOKS JR, DREW","=""5399""","H","B","2017-04-02","",13948.21,13948.21,55792.84,55792.84,641.47,21.74,14297.89,14297.89,53106.45,53106.45,655.61,21.81,1.00,""
"121063","RY1","BRORBY, BO","=""1880""","H","B","2015-11-23","",13406.16,13406.16,53624.64,53624.64,561.57,23.87,15429.56,15429.56,57309.79,57309.79,660.52,23.36,0.98,""
"123211","RY1","BRUGGEMAN, AFTON","=""8564""","S","B","2016-08-01","",15515.40,15515.40,62061.60,62061.60,480.00,32.32,18400.00,18400.00,68342.86,68342.86,560.00,32.86,1.02,""
"158763","RY1","BRUNK, JUSTIN","=""8013""","C","S","2018-02-26","2020-08-03",8069.48,8069.48,32277.92,32277.92,480.00,16.81,8959.00,8959.00,35836.00,33276.29,480.00,18.66,1.11,"2019-05-31"
"145789","RY1","BUCHANAN, KYLE","=""4861""","C","B","2017-05-08","",14395.85,14395.85,57583.40,57583.40,480.00,29.99,18318.08,18318.08,68038.58,68038.58,560.00,32.71,1.09,""
"155477","RY1","BUCKHOLZ, ZACHARY","=""8087""","H","B","2017-04-10","",7117.02,7117.02,28468.08,28468.08,447.18,15.92,8370.14,8370.14,31089.09,31089.09,542.85,15.42,0.97,""
"175873","RY1","BUDEAU, KAYLA","=""4248""","H","B","2018-03-27","",8366.40,8366.40,33465.60,33465.60,435.81,19.20,10223.21,10223.21,37971.92,37971.92,613.51,16.66,0.87,""
"159375","RY1","BUSHEE, BRYCE","=""7943""","H","B","2019-11-19","",2415.84,2415.84,9663.36,9663.36,179.81,13.44,838.50,838.50,3114.43,3114.43,66.04,12.70,0.94,""
"146982","RY1","BUSSE, JORDAN","=""3944""","H","B","2020-06-15","",,,,,,,982.08,982.08,3647.73,3647.73,81.84,12.00,,""
"123100","RY1","CAHALAN, BENJAMIN C","=""9030""","S","B","2011-08-03","",64511.58,23076.92,258046.32,92307.68,480.00,48.08,36625.93,26923.12,136039.17,100000,560.00,48.08,1.00,"2019-01-11"
"123946","RY1","CANFIELD, EMILY","=""8767""","H","B","2020-05-04","2020-06-19",,,,,,,3982.56,3982.56,14792.37,14792.37,314.15,12.68,,""
"185462","RY1","CARABALLO, CHRISTOPHER","=""6968""","C","S","2019-10-07","",12919.00,12919.00,51676.00,51676.00,480.00,26.91,12017.00,12017.00,48068.00,44634.57,480.00,25.04,0.93,"2019-11-30"
"123525","RY1","CARLSON, KENNETH A","=""4940""","H","B","2010-01-01","",4830.15,4830.15,19320.60,19320.60,282.01,17.13,4980.75,4980.75,18499.93,18499.93,292.05,17.05,1.00,""
"123538","RY1","CARLSON, ROBERT","=""4980""","C","S","1997-04-01","",37200.00,25000,148800.00,100000,480.00,52.08,37200.00,25000,148800.00,100000,480.00,52.08,1.00,"2019-01-15"
"164821","RY1","CASSERLY, SAMANTHA","=""1807""","H","B","2020-09-08","",1892.89,1892.89,7571.56,7571.56,67.57,28.01,,,,,,,,""
"169856","RY1","CASTRO, DONOVAN","=""1276""","H","B","2020-06-29","",,,,,,,36.00,36.00,133.71,133.71,3.00,12.00,,""
"185340","RY1","CATLIN, REECE","=""6306""","H","B","2019-07-11","2020-03-18",6541.42,6541.42,26165.68,26165.68,412.56,15.86,,,,,,,,""
"124101","RY1","CHAMPAGNE, LESLIE","=""8738""","H","B","2014-08-25","2020-08-10",7947.77,7947.77,31791.08,31791.08,547.14,14.53,7757.32,7757.32,28812.90,28812.90,564.42,13.74,0.95,""
"135987","RY1","CLARK, ADAM","=""4088""","H","B","2018-02-01","",,,,,,,5570.11,5570.11,20688.98,20688.98,386.18,14.42,,""
"125028","RY1","CLARK, JOHNNY","=""7056""","H","B","2020-05-18","2020-07-24",,,,,,,4188.28,4188.28,15556.47,15556.47,284.52,14.72,,""
"165980","RY1","CLASEMAN, JAMIE","=""4766""","H","B","2018-12-03","",5415.60,5415.60,21662.40,21662.40,450.46,12.02,6457.02,6457.02,23983.22,23983.22,535.42,12.06,1.00,""
"162983","RY1","CLOSE, PRESTON","=""5523""","C","S","2019-09-12","",10838.00,10838.00,43352.00,43352.00,480.00,22.58,13403.00,13403.00,53612.00,49782.57,480.00,27.92,1.24,""
"126200","RY1","COCHRAN, MICHELLE C","=""7694""","S","B","2011-01-24","",12536.58,12536.58,50146.32,50146.32,480.00,26.12,14613.51,14613.51,54278.75,54278.75,560.00,26.10,1.00,""
"169964","RY1","COOK, COURTNIE","=""2630""","H","B","2020-06-01","",,,,,,,2849.98,2849.98,10585.64,10585.64,198.28,14.37,,""
"158963","RY1","COOK, MATTHEW","=""2302""","H","B","2019-06-03","",5964.00,5964.00,23856.00,23856.00,482.98,12.35,7321.44,7321.44,27193.92,27193.92,519.78,14.09,1.14,""
"196325","RY1","COOLEY, CONNOR","=""9530""","H","B","2020-01-28","",1166.74,1166.74,4666.96,4666.96,83.78,13.93,2552.58,2552.58,9481.01,9481.01,195.26,13.07,0.94,""
"186724","RY1","CORY, CLAIRE","=""6636""","H","B","2019-05-24","",2983.44,2983.44,11933.76,11933.76,198.62,15.02,3926.64,3926.64,14584.66,14584.66,277.22,14.16,0.94,""
"126250","RY1","COULTER, DONALD R","=""0871""","H","B","2015-01-27","",2501.07,2501.07,10004.28,10004.28,192.39,13.00,,,,,,,,""
"128530","RY1","CROAKER, CRAIG R","=""7632""","C","S","2007-01-30","",31186.00,25000,124744.00,100000,480.00,52.08,27653.56,25000,110614.24,100000,480.00,52.08,1.00,"2019-01-31"
"143298","RY1","DAHLEY, SHELBY","=""0495""","H","B","2019-07-11","",3002.88,3002.88,12011.52,12011.52,195.76,15.34,4834.25,4834.25,17955.79,17955.79,371.84,13.00,0.85,""
"145369","RY1","DAKU, ALTIN","=""2257""","H","B","2018-07-26","2020-01-22",853.56,853.56,3414.24,3414.24,71.13,12.00,,,,,,,,""
"131370","RY1","DAVID, GORDON","=""9583""","C","B","1995-06-07","",13080.84,13080.84,52323.36,52323.36,480.00,27.25,14126.83,14126.83,52471.08,52471.08,1281.00,11.03,0.40,""
"131315","RY1","DAVIS, ERIC A","=""8080""","C","B","2014-08-11","",11873.80,11873.80,47495.20,47495.20,438.66,27.07,14579.30,14579.30,54151.69,54151.69,536.08,27.20,1.00,""
"196314","RY1","DEAN, VANDER","=""6447""","H","B","2020-05-11","",,,,,,,4712.09,4712.09,17502.05,17502.05,296.37,15.90,,""
"15552","RY1","DECOUTEAU, FRANK A","=""7461""","C","S","2017-09-25","",21350.99,21350.99,85403.96,85403.96,480.00,44.48,21582.30,21582.30,86329.20,80162.83,480.00,44.96,1.01,"2019-01-31"
"132500","RY1","DELOHERY, MICHAEL J","=""9135""","S","B","2010-05-03","",16205.82,16205.82,64823.28,64823.28,480.00,33.76,18744.29,18744.29,69621.65,69621.65,560.00,33.47,0.99,""
"132489","RY1","DEMANT, COLTEN","=""7174""","H","B","2020-06-01","",,,,,,,2371.69,2371.69,8809.13,8809.13,184.65,12.84,,""
"154983","RY1","DEVIER, RYLIE","=""2190""","H","B","2018-12-03","",1049.06,1049.06,4196.24,4196.24,57.62,18.21,1253.94,1253.94,4657.49,4657.49,73.38,17.09,0.94,""
"154225","RY1","DEZIEL, DYLAN","=""0187""","H","B","2019-02-21","",8165.15,8165.15,32660.60,32660.60,533.90,15.29,9360.38,9360.38,34767.13,34767.13,620.99,15.07,0.99,""
"15648","RY1","DIBI, ANDREW","=""1713""","C,H","B","2017-10-23","2020-04-24",10867.13,10867.13,43468.52,43468.52,507.79,21.40,3155.99,3155.99,11722.25,11722.25,150.37,20.99,0.98,""
"138945","RY1","DOCKENDORF, BEN","=""8149""","H","B","2020-04-20","",,,,,,,2154.72,2154.72,8003.25,8003.25,179.56,12.00,,""
"133017","RY1","DOCKENDORF, NATE J","=""9722""","C","S","2015-05-18","",19400.00,19400.00,77600.00,77600.00,480.00,40.42,19574.00,19574.00,78296.00,72703.43,480.00,40.78,1.01,"2019-01-31"
"135770","RY1","DRISCOLL, TERRANCE","=""0445""","C","B","2002-11-04","",17329.61,17329.61,69318.44,69318.44,480.00,36.10,22418.23,22418.23,83267.71,83267.71,560.00,40.03,1.11,"2019-02-08"
"136170","RY1","DUCKSTAD, JARED J","=""2500""","C","B","2002-09-30","",19927.57,19927.57,79710.28,79710.28,480.00,41.52,20941.47,20941.47,77782.60,77782.60,560.00,37.40,0.90,""
"137495","RY1","DUKES, JAYDA","=""7473""","H","B","2020-05-18","2020-09-15",,,,,,,1900.68,1900.68,7059.67,7059.67,158.39,12.00,,""
"145732","RY1","DUNN, CORY","=""9557""","H","B","2019-11-04","2020-03-10",5752.80,5752.80,23011.20,23011.20,374.00,15.38,0.00,0.00,0.00,0.00,0.00,,,""
"137101","RY1","EBERLE, MARCUS M","=""5489""","C","B","2016-08-15","",11197.04,11197.04,44788.16,44788.16,480.00,23.33,12918.88,12918.88,47984.41,47984.41,560.00,23.07,0.99,""
"138380","RY1","EICHHORST, NOEL E","=""0849""","H","B","1978-08-30","",6715.43,6715.43,26861.72,26861.72,409.16,16.41,7282.90,7282.90,27050.77,27050.77,478.86,15.21,0.93,""
"153835","RY1","ELLINGSON, DANE","=""5739""","H","B","2020-01-13","",1729.13,1729.13,6916.52,6916.52,133.01,13.00,1602.64,1602.64,5952.66,5952.66,123.28,13.00,1.00,""
"132963","RY1","ERICKSON, DENNIS","=""4195""","H","B","2019-04-03","",,,,,,,300.00,300.00,1114.29,1114.29,30.00,10.00,,""
"175393","RY1","ERICKSON, JUSTIN","=""3432""","C,H","B","2019-11-19","",4193.21,4193.21,16772.84,16772.84,274.34,15.28,11331.65,11331.65,42088.99,42088.99,404.66,28.00,1.83,""
"189432","RY1","ERICKSON, REED","=""4918""","H","B","2020-05-04","2020-07-26",,,,,,,1527.84,1527.84,5674.83,5674.83,127.32,12.00,,""
"140500","RY1","ERICKSON, RONALD J","=""6384""","C","S","2009-10-12","",18373.00,18373.00,73492.00,73492.00,480.00,38.28,19523.00,19523.00,78092.00,72514.00,480.00,40.67,1.06,"2019-01-31"
"140790","RY1","ESPELUND, KENNETH M","=""9470""","S","B","2005-09-19","",16615.44,16615.44,66461.76,66461.76,480.00,34.62,19984.68,19984.68,74228.81,74228.81,560.00,35.69,1.03,""
"141060","RY1","EULISS, NED","=""3076""","H","B","2004-11-02","",17591.70,17591.70,70366.80,70366.80,558.45,31.50,18342.42,18342.42,68128.99,68128.99,641.65,28.59,0.91,"2019-02-08"
"141069","RY1","EVAVOLD, DANIEL J","=""4224""","H","B","2007-01-23","",18066.69,18066.69,72266.76,72266.76,558.93,32.32,19361.40,19361.40,71913.77,71913.77,571.91,33.85,1.05,""
"195628","RY1","EVENSON, JOSHUA","=""2223""","H","B","2019-10-07","2020-08-10",11159.42,11159.42,44637.68,44637.68,479.22,23.29,11524.06,11524.06,42803.65,42803.65,576.87,19.98,0.86,""
"187325","RY1","FAULHABER, DAVID","=""0017""","H","B","2018-08-27","2020-03-12",3211.24,3211.24,12844.96,12844.96,242.23,13.26,,,,,,,,""
"157939","RY1","FEATHERSTONE, GARRETT","=""3048""","H","B","2020-01-13","2020-08-28",5292.55,5292.55,21170.20,21170.20,373.13,14.18,6528.02,6528.02,24246.93,24246.93,484.77,13.47,0.95,""
"159863","RY1","FERRY, CARTER","=""5913""","C,H","B","2018-02-12","2020-06-06",9239.65,9239.65,36958.60,36958.60,495.59,18.64,11781.13,11781.13,43758.48,43758.48,400.00,29.45,1.58,""
"145801","RY1","FLAAT, GAVIN","=""3893""","C","B","2016-04-11","",19073.33,19073.33,76293.32,76293.32,480.00,39.74,17010.69,17010.69,63182.56,63182.56,560.00,30.38,0.76,""
"145840","RY1","FLAAT, STEPHEN C","=""3324""","C","S","2005-02-01","2019-12-31",7295.16,7295.16,29180.64,29180.64,0.00,,,,,,,,,"2019-01-31"
"183923","RY1","FLORES, JOSHUA","=""2526""","H","B","2019-10-09","",831.97,831.97,3327.88,3327.88,62.12,13.39,2136.00,2136.00,7933.71,7933.71,178.00,12.00,0.90,""
"169753","RY1","FONTEYNE, MICHAEL","=""2332""","H","B","2020-06-01","",,,,,,,1321.62,1321.62,4908.87,4908.87,110.00,12.01,,""
"148050","RY1","FOSTER, BENJAMIN F","=""6100""","S","B","2013-10-21","",29748.00,23076.92,118992.00,92307.68,480.00,48.08,34556.00,26923.12,128350.86,100000,560.00,48.08,1.00,"2019-01-11"
"148075","RY1","FOSTER, KEVIN B","=""4789""","S","B","2006-06-05","",53376.96,23076.92,213507.84,92307.68,480.00,48.08,34145.16,26923.12,126824.88,100000,560.00,48.08,1.00,"2019-01-11"
"148080","RY1","FOSTER, SAMUEL T","=""1011""","C","S","2014-11-17","",12341.00,12341.00,49364.00,49364.00,480.00,25.71,16189.54,16189.54,64758.16,60132.58,480.00,33.73,1.31,"2019-02-28"
"165783","RY1","FREITAG, TALON","=""4624""","H","B","2018-05-21","",6551.29,6551.29,26205.16,26205.16,436.47,15.01,3387.20,3387.20,12581.03,12581.03,232.08,14.59,0.97,""
"154328","RY1","FREKING, NICOLAS","=""8979""","H","B","2018-10-08","",5844.24,5844.24,23376.96,23376.96,446.31,13.09,6983.54,6983.54,25938.86,25938.86,547.64,12.75,0.97,""
"198563","RY1","FRIERSON, LUTHER","=""7737""","H","B,S","2019-10-07","2020-01-09",1587.52,1587.52,6350.08,6350.08,90.12,17.62,,,,,,,,""
"186753","RY1","FRIERSON, MONICA","=""2613""","H","B","2019-08-12","2020-01-09",1794.96,1794.96,7179.84,7179.84,65.31,27.48,,,,,,,,""
"155214","RY1","GAGNON, ANASTASIA","=""9989""","H","B","2018-05-27","",5892.42,5892.42,23569.68,23569.68,406.35,14.50,7134.53,7134.53,26499.68,26499.68,475.47,15.01,1.04,""
"157995","RY1","GAGNON, JUNE","=""8675""","S","B","2008-02-11","",12288.48,12288.48,49153.92,49153.92,480.00,25.60,14211.56,14211.56,52785.79,52785.79,560.00,25.38,0.99,"2019-12-27"
"149878","RY1","GAGNON, TRACI L","=""6923""","H","B","2008-10-30","",8685.08,8685.08,34740.32,34740.32,493.30,17.61,9621.61,9621.61,35737.41,35737.41,609.04,15.80,0.90,""
"157394","RY1","GAJMER, JOHN","=""1797""","H","B","2019-10-09","",4087.67,4087.67,16350.68,16350.68,301.34,13.56,4522.16,4522.16,16796.59,16796.59,368.66,12.27,0.90,""
"159823","RY1","GALLETTA, ALEXIUS","=""9345""","H","B","2019-12-31","2020-04-27",1056.00,1056.00,4224.00,4224.00,88.00,12.00,,,,,,,,""
"150105","RY1","GARDNER, CHAD A","=""3614""","C","B","2011-04-04","",20047.96,20047.96,80191.84,80191.84,480.00,41.77,20980.37,20980.37,77927.09,77927.09,560.00,37.46,0.90,"2019-03-08"
"150120","RY1","GARDNER, JOHN T","=""7504""","S","B","2014-06-01","",13615.38,13615.38,54461.52,54461.52,480.00,28.37,15784.61,15784.61,58628.55,58628.55,560.00,28.19,0.99,""
"150126","RY1","GEHRTZ, CLAYTON J","=""3892""","C","B","2014-12-29","",33279.02,23076.92,133116.08,92307.68,480.00,48.08,38239.41,26923.12,142032.09,100000,560.00,48.08,1.00,"2019-01-11"
"132584","RY1","GERSZEWSKI, JOSEPH","=""9636""","H","B","2019-08-05","",5901.54,5901.54,23606.16,23606.16,385.37,15.31,7994.75,7994.75,29694.79,29694.79,482.14,16.58,1.08,""
"174123","RY1","GEST, ALEXIS","=""2390""","H","B","2019-08-26","",3077.36,3077.36,12309.44,12309.44,214.78,14.33,1222.96,1222.96,4542.42,4542.42,81.08,15.08,1.05,""
"156988","RY1","GIESLER, MEGAN","=""7293""","H","B","2017-07-17","2020-05-15",3729.04,3729.04,14916.16,14916.16,266.36,14.00,2240.84,2240.84,8323.12,8323.12,160.06,14.00,1.00,""
"152235","RY1","GIRODAT, JEFF S","=""1561""","C","B","1986-05-05","",26075.59,23076.92,104302.36,92307.68,480.00,48.08,27719.23,26923.12,102957.14,100000,560.00,48.08,1.00,"2019-01-11"
"152480","RY1","GOETZ, DUANE E","=""4066""","C","S","2012-10-01","",27000.00,25000,108000.00,100000,30.00,833.33,27000.00,25000,108000.00,100000,105.00,238.10,0.29,"2019-01-15"
"152490","RY1","GONZALEZ, ANTHONY J","=""9773""","H","B","2019-01-14","2020-04-01",4262.40,4262.40,17049.60,17049.60,339.20,12.57,103.92,103.92,385.99,385.99,8.66,12.00,0.95,""
"159857","RY1","GONZALEZ, DANIEL","=""5763""","H","B","2019-12-17","",6675.39,6675.39,26701.56,26701.56,484.02,13.79,6939.28,6939.28,25774.47,25774.47,521.17,13.31,0.97,""
"153865","RY1","GOODOIEN, DEREK","=""5057""","H","B","2019-07-11","",7747.86,7747.86,30991.44,30991.44,469.11,16.52,9282.77,9282.77,34478.86,34478.86,616.70,15.05,0.91,""
"156987","RY1","GORDON III, DOUGLAS","=""7394""","H","B","2020-02-13","2020-05-21",1850.40,1850.40,7401.60,7401.60,129.66,14.27,1181.94,1181.94,4390.06,4390.06,15.40,76.75,5.38,""
"152499","RY1","GOTHBERG, CONNER J","=""5348""","H","B","2015-09-01","",13851.83,13851.83,55407.32,55407.32,635.56,21.79,13966.27,13966.27,51874.72,51874.72,616.37,22.66,1.04,""
"175342","RY1","GOULET, JENNIFER","=""7763""","H","B","2019-08-26","2020-05-28",6373.46,6373.46,25493.84,25493.84,486.99,13.09,4968.62,4968.62,18454.87,18454.87,358.43,13.86,1.06,""
"152510","RY1","GOULET, SHANE A","=""5265""","H","B","2014-03-31","",6741.65,6741.65,26966.60,26966.60,440.94,15.29,8303.22,8303.22,30840.53,30840.53,570.95,14.54,0.95,""
"149857","RY1","GRAESSER, EVAN","=""6132""","H","B","2020-06-29","",,,,,,,681.50,681.50,2531.29,2531.29,47.00,14.50,,""
"152525","RY1","GRANT, DESIREE L","=""7493""","C","B","2014-05-19","",8337.40,8337.40,33349.60,33349.60,480.00,17.37,10056.12,10056.12,37351.30,37351.30,560.00,17.96,1.03,""
"152410","RY1","GRAY, NATHAN J","=""6035""","C","B","2011-08-22","",17536.55,17536.55,70146.20,70146.20,480.00,36.53,17900.55,17900.55,66487.76,66487.76,560.00,31.97,0.88,""
"152432","RY1","GREEN, HARRISON","=""1939""","H","B","2016-02-15","",1988.69,1988.69,7954.76,7954.76,94.85,20.97,,,,,,,,""
"198531","RY1","GROVE, ALEXANDER","=""8120""","H","B","2020-05-18","",,,,,,,1639.30,1639.30,6088.83,6088.83,129.65,12.64,,""
"122558","RY1","GRYSKIEWICZ, JONATHAN","=""4908""","C","B","2017-05-22","",12890.22,12890.22,51560.88,51560.88,408.00,31.59,13411.31,13411.31,49813.44,49813.44,560.00,23.95,0.76,""
"137837","RY1","GULLEKSON, ASHLEY","=""9107""","H","B","2019-11-18","",7742.33,7742.33,30969.32,30969.32,456.41,16.96,9871.94,9871.94,36667.21,36667.21,574.30,17.19,1.01,""
"157385","RY1","GUNN, ERIN","=""3706""","H","B","2019-10-09","2020-03-09",7076.34,7076.34,28305.36,28305.36,370.75,19.09,,,,,,,,""
"196623","RY1","GURUNG, DIWAS","=""5680""","H","B","2020-06-29","",,,,,,,382.50,382.50,1420.71,1420.71,30.60,12.50,,""
"173843","RY1","GUST, CHARLES","=""6414""","H","B","2019-09-23","2020-01-06",400.32,400.32,1601.28,1601.28,25.36,15.79,,,,,,,,""
"165327","RY1","GUST, MICAH","=""1868""","H","B","2018-08-13","",916.20,916.20,3664.80,3664.80,76.35,12.00,392.16,392.16,1456.59,1456.59,32.68,12.00,1.00,""
"145982","RY1","HAARSTAD, BRITTANY","=""1067""","H","B","2019-08-26","",7363.34,7363.34,29453.36,29453.36,510.91,14.41,12191.36,12191.36,45282.19,45282.19,673.37,18.10,1.26,""
"161010","RY1","HAGA, MASON C","=""2004""","H","B","2015-06-01","",2706.57,2706.57,10826.28,10826.28,175.59,15.41,5264.55,5264.55,19554.04,19554.04,330.64,15.92,1.03,""
"195975","RY1","HAGEN, TYLER","=""7290""","H","B","2019-10-28","",10147.33,10147.33,40589.32,40589.32,459.15,22.10,14370.95,14370.95,53377.81,53377.81,630.62,22.79,1.03,""
"164328","RY1","HAHN, BRIDGER","=""0547""","H","B","2018-12-17","",2611.45,2611.45,10445.80,10445.80,180.86,14.44,1883.96,1883.96,6997.57,6997.57,144.92,13.00,0.90,""
"147852","RY1","HALE, ELISA","=""4434""","H","B","2020-02-24","",1058.68,1058.68,4234.72,4234.72,75.46,14.03,8537.94,8537.94,31712.35,31712.35,476.20,17.93,1.28,""
"163700","RY1","HALEY, DYLANGER","=""1450""","C,S","B,S","2016-09-26","",12667.00,12667.00,50668.00,50668.00,480.00,26.39,18323.12,18323.12,73292.48,68057.30,560.00,32.72,1.24,"2019-02-28"
"198521","RY1","HALL, MICHAEL A","=""1387""","C","S","2019-06-03","2020-03-09",4100.00,4100.00,16400.00,16400.00,400.00,10.25,,,,,,,,""
"178323","RY1","HANSON, ADAM","=""9387""","H","B","2019-11-19","",2474.86,2474.86,9899.44,9899.44,181.86,13.61,3988.09,3988.09,14812.91,14812.91,322.69,12.36,0.91,""
"132854","RY1","HANSON, EMILY","=""4589""","H","B","2019-08-26","2020-03-15",827.52,827.52,3310.08,3310.08,68.96,12.00,,,,,,,,""
"162428","RY1","HARMON, TERRENCE J","=""7568""","H","B","2001-10-01","",11631.52,11631.52,46526.08,46526.08,440.67,26.40,6628.88,6628.88,24621.55,24621.55,243.84,27.19,1.03,""
"175839","RY1","HARREN, ZACHARY","=""2944""","H","B","2019-11-19","",1475.16,1475.16,5900.64,5900.64,122.93,12.00,3524.40,3524.40,13090.63,13090.63,293.70,12.00,1.00,""
"162800","RY1","HARRIS, SHERIDAN","=""2144""","H","B","1955-09-01","2020-09-11",,,,,,,1330.00,1330.00,4940.00,4940.00,133.00,10.00,,""
"163096","RY1","HASTINGS, DAWN","=""0361""","H","B","1986-01-06","",10989.37,10989.37,43957.48,43957.48,525.25,20.92,12466.62,12466.62,46304.59,46304.59,609.73,20.45,0.98,""
"154760","RY1","HATLOY, CHARTON","=""7849""","H","B","2018-11-05","",2002.64,2002.64,8010.56,8010.56,162.72,12.31,940.92,940.92,3494.85,3494.85,78.41,12.00,0.97,""
"165789","RY1","HECK, SETH","=""0436""","C","S","2019-01-14","2020-04-20",13180.00,13180.00,52720.00,52720.00,480.00,27.46,4593.92,4593.92,18375.68,17063.13,120.00,38.28,1.39,"2019-03-31"
"164015","RY1","HEFFERNAN, JOSH","=""8613""","C","B","1995-07-15","",21096.81,21096.81,84387.24,84387.24,480.00,43.95,22128.41,22128.41,82191.24,82191.24,560.00,39.52,0.90,"2019-03-08"
"181876","RY1","HENRY, JUDY","=""7349""","S","B","1994-02-01","",21138.48,21138.48,84553.92,84553.92,480.00,44.04,14961.56,14961.56,55571.51,55571.51,560.00,26.72,0.61,"2019-01-11"
"164920","RY1","HEPOLA, JAMES W","=""1532""","C","B","2010-11-15","",2594.80,2594.80,10379.20,10379.20,105.54,24.59,4810.30,4810.30,17866.83,17866.83,209.31,22.98,0.93,""
"185600","RY1","HIBMA, MORGAN E","=""0775""","S","B","2016-08-01","",18353.86,18353.86,73415.44,73415.44,480.00,38.24,20046.17,20046.17,74457.20,74457.20,560.00,35.80,0.94,""
"165275","RY1","HICKS, EMILY","=""3766""","H","B","2016-09-12","2020-07-17",6698.81,6698.81,26795.24,26795.24,478.70,13.99,4831.86,4831.86,17946.91,17946.91,342.33,14.11,1.01,""
"165357","RY1","HILL, BRIAN","=""3634""","H","B","2006-08-28","",18027.43,18027.43,72109.72,72109.72,550.03,32.78,19137.00,19137.00,71080.29,71080.29,562.20,34.04,1.04,""
"165400","RY1","HILLEBRAND, BROCK D","=""8615""","H","B","2011-04-06","2019-12-27",1266.94,1266.94,5067.76,5067.76,24.63,51.44,,,,,,,,""
"164329","RY1","HINTZ, MATTHEW","=""9771""","H","B","2019-06-26","",223.80,223.80,895.20,895.20,22.38,10.00,3967.34,3967.34,14735.83,14735.83,289.54,13.70,1.37,""
"142589","RY1","HLAVAC, TERRI","=""7713""","H","B","2019-08-26","2020-06-01",9307.08,9307.08,37228.32,37228.32,507.48,18.34,6483.69,6483.69,24082.28,24082.28,358.88,18.07,0.99,""
"159873","RY1","HOLUM, JACOB","=""3160""","H","B","2019-11-04","",6013.73,6013.73,24054.92,24054.92,433.14,13.88,6688.71,6688.71,24843.78,24843.78,466.77,14.33,1.03,""
"167812","RY1","HOLWEGER, AMANDA J","=""8716""","H","B","2011-04-25","",1645.54,1645.54,6582.16,6582.16,96.11,17.12,1789.04,1789.04,6645.01,6645.01,106.36,16.82,0.98,""
"167580","RY1","HOLWERDA, KIRBY W","=""1185""","C","B","2011-05-18","",13646.43,13646.43,54585.72,54585.72,480.00,28.43,20589.42,20589.42,76474.99,76474.99,560.00,36.77,1.29,"2019-11-29"
"167906","RY1","HULL, DAVID","=""9728""","H","B","2015-04-27","",8314.69,8314.69,33258.76,33258.76,528.35,15.74,9162.08,9162.08,34030.58,34030.58,581.08,15.77,1.00,""
"168815","RY1","HUNTER, JASON W","=""3158""","H","B","2018-08-23","",1403.94,1403.94,5615.76,5615.76,71.71,19.58,433.52,433.52,1610.22,1610.22,16.68,25.99,1.33,""
"170150","RY1","IVERSON, ARNOLD W","=""7345""","H","B","2017-11-17","",1005.00,1005.00,4020.00,4020.00,100.50,10.00,2995.00,2995.00,11124.29,11124.29,299.50,10.00,1.00,""
"171055","RY1","JACOBSON, PETER A","=""5630""","C","B","2010-12-13","",25232.55,23076.92,100930.20,92307.68,480.00,48.08,25700.98,25700.98,95460.78,95460.78,560.00,45.89,0.95,"2019-03-08"
"172308","RY1","JANKOWSKI, GARRETT","=""6496""","H","B","2019-09-12","",12461.92,12461.92,49847.68,49847.68,567.98,21.94,13976.62,13976.62,51913.16,51913.16,657.39,21.26,0.97,""
"172077","RY1","JERSTAD, KENNETH","=""9259""","H","B","2002-06-10","",12055.34,12055.34,48221.36,48221.36,515.52,23.38,13386.69,13386.69,49721.99,49721.99,574.14,23.32,1.00,""
"184620","RY1","JOHNSON, BENJAMIN R","=""9214""","C,H","B","2017-01-20","",10031.31,10031.31,40125.24,40125.24,487.08,20.59,10802.99,10802.99,40125.39,40125.39,556.38,19.42,0.94,""
"156844","RY1","JOHNSON, DAVID","=""6220""","H","B","2017-11-06","",10308.55,10308.55,41234.20,41234.20,514.78,20.03,11181.69,11181.69,41531.99,41531.99,571.24,19.57,0.98,""
"195675","RY1","JOHNSON, ISAIAH","=""3563""","H","B","2020-06-29","",,,,,,,335.79,335.79,1247.22,1247.22,25.83,13.00,,""
"168754","RY1","JOHNSON, JOHNNY","=""8639""","H","B","2020-04-20","",,,,,,,7413.93,7413.93,27537.45,27537.45,408.62,18.14,,""
"164286","RY1","JOHNSON, LOGAN","=""5729""","H","B","2019-05-17","2020-05-13",2488.80,2488.80,9955.20,9955.20,207.40,12.00,2016.90,2016.90,7491.34,7491.34,157.45,12.81,1.07,""
"178050","RY1","KIEFER, LUCAS M","=""3826""","C","B","2014-05-19","",9862.44,9862.44,39449.76,39449.76,480.00,20.55,11257.54,11257.54,41813.72,41813.72,560.00,20.10,0.98,""
"178060","RY1","KILEY, COLTON","=""0072""","H","B","2016-06-06","",4387.76,4387.76,17551.04,17551.04,323.54,13.56,4038.52,4038.52,15000.22,15000.22,315.71,12.79,0.94,""
"178079","RY1","KILMER, JUSTIN","=""3982""","H","B","2007-02-01","",12213.66,12213.66,48854.64,48854.64,455.77,26.80,13559.56,13559.56,50364.08,50364.08,689.78,19.66,0.73,""
"165732","RY1","KLOETY, HALEY","=""8404""","H","B","2019-04-29","",8417.41,8417.41,33669.64,33669.64,545.51,15.43,9642.97,9642.97,35816.75,35816.75,635.05,15.18,0.98,""
"132987","RY1","KNOWLES, MAYHAYLA","=""7552""","H","B","2017-12-18","",9192.32,9192.32,36769.28,36769.28,488.37,18.82,10651.88,10651.88,39564.13,39564.13,642.96,16.57,0.88,""
"165288","RY1","KNUTSON, AUSTIN","=""2928""","H","B","2020-05-04","",,,,,,,1679.64,1679.64,6238.66,6238.66,139.97,12.00,,""
"154219","RY1","KOBAYASHI-DYER, NARUMI","=""0501""","C,H","B,S","2018-10-01","",7387.00,7387.00,29548.00,29548.00,480.00,15.39,10052.60,10052.60,40210.40,37338.23,596.85,16.84,1.09,"2019-01-31"
"179693","RY1","KOENEN, DEBRA M","=""0733""","H","B","2008-08-04","",6805.23,6805.23,27220.92,27220.92,458.95,14.83,8111.56,8111.56,30128.65,30128.65,549.10,14.77,1.00,""
"167834","RY1","KOHLS, ADAM","=""2158""","C","S","2018-04-11","2020-05-09",7353.00,7353.00,29412.00,29412.00,480.00,15.32,2958.00,2958.00,11832.00,10986.86,240.00,12.33,0.80,""
"154876","RY1","KOLLMAN, MAXWELL","=""8590""","H","B","2020-02-24","2020-07-02",579.48,579.48,2317.92,2317.92,48.29,12.00,2344.08,2344.08,8706.58,8706.58,195.34,12.00,1.00,""
"179775","RY1","KOLSTAD, KIRK R","=""0659""","H","B","1980-03-01","",9099.45,9099.45,36397.80,36397.80,513.23,17.73,10554.48,10554.48,39202.35,39202.35,602.27,17.52,0.99,""
"179790","RY1","KOWALSKI, JASON","=""9410""","H","B","2014-06-16","",11501.68,11501.68,46006.72,46006.72,628.56,18.30,13835.84,13835.84,51390.26,51390.26,722.66,19.15,1.05,""
"196452","RY1","KOZEL, KELSEY","=""1871""","H","B","2020-05-18","",,,,,,,3804.17,3804.17,14129.77,14129.77,233.39,16.30,,""
"158765","RY1","KRISTENSEN, ADAM","=""1447""","H","B","2020-02-11","2020-06-16",863.98,863.98,3455.92,3455.92,66.46,13.00,,,,,,,,""
"198543","RY1","KROGSTAD, LARRY","=""1472""","H","B","2019-04-03","",117.50,117.50,470.00,470.00,11.75,10.00,992.50,992.50,3686.43,3686.43,99.25,10.00,1.00,""
"184605","RY1","LABELLE, KODI L","=""6904""","H","B","2018-12-17","",6733.30,6733.30,26933.20,26933.20,502.21,13.41,6704.23,6704.23,24901.43,24901.43,508.98,13.17,0.98,""
"184614","RY1","LAMONT, BRANDON","=""7440""","C","B","2015-10-12","",17660.77,17660.77,70643.08,70643.08,480.00,36.79,18650.52,18650.52,69273.36,69273.36,560.00,33.30,0.91,""
"182713","RY1","LARSON, CODY J","=""7546""","H","B","2018-09-24","",9291.37,9291.37,37165.48,37165.48,503.81,18.44,8977.04,8977.04,33343.29,33343.29,502.60,17.86,0.97,""
"189596","RY1","LARSON, TYLER","=""7364""","H","B","2019-10-07","",1188.04,1188.04,4752.16,4752.16,89.29,13.31,1302.00,1302.00,4836.00,4836.00,96.15,13.54,1.02,""
"175738","RY1","LARSON, WYATT","=""7452""","H","B","2019-11-19","2020-06-19",1557.72,1557.72,6230.88,6230.88,129.81,12.00,2023.44,2023.44,7515.63,7515.63,168.62,12.00,1.00,""
"184610","RY1","LAUGHLIN, LARRY J","=""8329""","H","B","1998-10-16","",16656.38,16656.38,66625.52,66625.52,597.13,27.89,19006.65,19006.65,70596.13,70596.13,681.54,27.89,1.00,""
"184806","RY1","LEAVY, PAUL M","=""3149""","C","B","2014-08-25","",14661.00,14661.00,58644.00,58644.00,420.14,34.90,18794.50,18794.50,69808.14,69808.14,513.49,36.60,1.05,""
"165972","RY1","LECLAIR, AUSTIN","=""8767""","H","B","2018-11-19","",6299.54,6299.54,25198.16,25198.16,401.09,15.71,6964.82,6964.82,25869.33,25869.33,454.63,15.32,0.98,""
"140882","RY1","LEEDAHL, GLENNA","=""2294""","H","B","2018-05-07","",570.00,570.00,2280.00,2280.00,57.00,10.00,980.00,980.00,3640.00,3640.00,98.00,10.00,1.00,""
"198435","RY1","LEHR, CARLY","=""2439""","H","B","2019-07-15","2020-06-04",2028.96,2028.96,8115.84,8115.84,169.08,12.00,1296.00,1296.00,4813.71,4813.71,108.00,12.00,1.00,""
"176239","RY1","LEMBCKE, CURTIS","=""8971""","H","B","2019-04-28","2020-02-16",317.59,317.59,1270.36,1270.36,24.43,13.00,,,,,,,,""
"184920","RY1","LENE, RYAN","=""0621""","C","B","2015-01-05","",20314.86,20314.86,81259.44,81259.44,480.00,42.32,20536.86,20536.86,76279.77,76279.77,560.00,36.67,0.87,"2019-01-11"
"15668","RY1","LINDEMANN, TASHA","=""4104""","H","B","2017-09-11","",9541.51,9541.51,38166.04,38166.04,531.49,17.95,11607.08,11607.08,43112.01,43112.01,585.63,19.82,1.10,""
"186100","RY1","LIND, KATHERINE","=""0913""","S","B","1983-11-22","",17907.72,17907.72,71630.88,71630.88,480.00,37.31,20792.34,20792.34,77228.69,77228.69,560.00,37.13,1.00,"2019-12-27"
"145785","RY1","LOGAN, JAI'LA","=""3139""","H","B","2020-02-24","2020-07-07",1083.88,1083.88,4335.52,4335.52,77.42,14.00,7361.81,7361.81,27343.87,27343.87,389.12,18.92,1.35,""
"187675","RY1","LONGORIA, BEVERLEY A","=""3212""","S","B","2005-02-21","",16615.44,16615.44,66461.76,66461.76,480.00,34.62,19384.68,19384.68,72000.24,72000.24,560.00,34.62,1.00,""
"189100","RY1","LOVEN, ARDEN","=""4373""","C","S","2010-03-08","",10917.00,10917.00,43668.00,43668.00,480.00,22.74,14025.00,14025.00,56100.00,52092.86,480.00,29.22,1.28,"2019-03-31"
"188338","RY1","LUEKER, DAVID C","=""9783""","H","B","2003-06-16","",14223.24,14223.24,56892.96,56892.96,541.10,26.29,14986.13,14986.13,55662.77,55662.77,607.85,24.65,0.94,""
"190600","RY1","MAGNUSON, TYLER D","=""8112""","H","B","2019-09-09","",10452.33,10452.33,41809.32,41809.32,531.80,19.65,12700.24,12700.24,47172.32,47172.32,592.84,21.42,1.09,""
"190892","RY1","MANGAN, RICHARD","=""3370""","H","B","2002-09-23","",13705.92,13705.92,54823.68,54823.68,702.40,19.51,14127.27,14127.27,52472.72,52472.72,748.47,18.87,0.97,"2019-12-27"
"190918","RY1","MARCOTTE, THOMAS H","=""7276""","H","B","1985-07-28","",19735.29,19735.29,78941.16,78941.16,536.77,36.77,35415.46,26923.12,131543.14,100000,873.58,30.82,0.84,"2019-01-25"
"190910","RY1","MAREK, DAYTON C","=""0278""","S","B","2017-05-05","",11676.90,11676.90,46707.60,46707.60,480.00,24.33,13523.05,13523.05,50228.47,50228.47,560.00,24.15,0.99,"2019-05-17"
"168351","RY1","MARESCA, ROMAO","=""8628""","S","B","2018-08-27","",12538.48,12538.48,50153.92,50153.92,480.00,26.12,13461.56,13461.56,50000.08,50000.08,560.00,24.04,0.92,""
"191060","RY1","MARO, NICHOLAS","=""6669""","H","B","2014-01-20","",17214.72,17214.72,68858.88,68858.88,574.81,29.95,20194.21,20194.21,75007.07,75007.07,628.04,32.15,1.07,"2019-01-11"
"191350","RY1","MAVITY, ROBERT","=""6370""","C","B","2008-01-01","",16466.92,16466.92,65867.68,65867.68,480.00,34.31,16611.80,16611.80,61700.97,61700.97,560.00,29.66,0.86,""
"18574","RY1","MCLAUGHLIN, JOHN","=""9306""","S","B","2017-12-11","",25523.10,23076.92,102092.40,92307.68,480.00,48.08,29676.95,26923.12,110228.67,100000,560.00,48.08,1.00,"2019-01-11"
"198542","RY1","MCMILLIAN, TARA","=""4478""","H","B","2018-09-10","",9921.14,9921.14,39684.56,39684.56,511.27,19.40,10284.46,10284.46,38199.42,38199.42,569.67,18.05,0.93,""
"194675","RY1","MCVEIGH, DENNIS","=""1906""","C","B","2007-11-13","",18139.26,18139.26,72557.04,72557.04,480.00,37.79,18770.61,18770.61,69719.41,69719.41,560.00,33.52,0.89,""
"198234","RY1","MELBY, BAILEY","=""8090""","H","B","2019-12-31","",6131.02,6131.02,24524.08,24524.08,420.18,14.59,8930.91,8930.91,33171.95,33171.95,583.07,15.32,1.05,""
"165983","RY1","MENARD, MICHAEL","=""8533""","C","S","2018-02-12","",13572.76,13572.76,54291.04,54291.04,480.00,28.28,16709.83,16709.83,66839.32,62065.08,480.00,34.81,1.23,"2019-03-31"
"195401","RY1","METZGER, JUSTIN","=""9746""","H","B","2010-05-24","",8653.67,8653.67,34614.68,34614.68,517.66,16.72,12059.31,12059.31,44791.72,44791.72,668.57,18.04,1.08,""
"181520","RY1","METZGER, KAYLE M","=""7542""","H","B","2013-11-20","",9338.74,9338.74,37354.96,37354.96,486.56,19.19,11675.11,11675.11,43364.69,43364.69,600.50,19.44,1.01,""
"195460","RY1","MICHAEL, ANTHONY E","=""5696""","C","S","2010-10-25","",31100.00,25000,124400.00,100000,480.00,52.08,31100.00,25000,124400.00,100000,480.00,52.08,1.00,"2019-01-31"
"196341","RY1","MILLER, KIM M","=""8541""","H","B","1985-01-02","",11398.61,11398.61,45594.44,45594.44,499.13,22.84,12787.18,12787.18,47495.24,47495.24,596.80,21.43,0.94,""
"134795","RY1","MOE, BRYCE","=""8867""","H","B","2019-08-26","2020-05-11",1236.60,1236.60,4946.40,4946.40,103.05,12.00,681.72,681.72,2532.10,2532.10,56.81,12.00,1.00,""
"174384","RY1","MOGAVERO, MICHAEL","=""0966""","C,H","B","2019-09-24","",10678.15,10678.15,42712.60,42712.60,561.69,19.01,10459.46,10459.46,38849.42,38849.42,560.00,18.68,0.98,""
"118030","RY1","MONSON, TAYLOR","=""1455""","S","B","2014-06-30","",17346.20,17346.20,69384.80,69384.80,480.00,36.14,17153.90,17153.90,63714.49,63714.49,560.00,30.63,0.85,""
"118746","RY1","MONTGOMERY, CODY","=""8693""","H","B","2017-09-03","2020-05-15",7580.84,7580.84,30323.36,30323.36,494.48,15.33,5855.23,5855.23,21748.00,21748.00,393.62,14.88,0.97,""
"165321","RY1","MOORE, JEFFREY","=""2363""","H","B","2020-06-15","",,,,,,,1218.91,1218.91,4527.38,4527.38,86.85,14.03,,""
"166278","RY1","MOOR, JARON","=""3495""","H","B","2020-03-05","2020-04-01",434.14,434.14,1736.56,1736.56,31.01,14.00,,,,,,,,""
"185965","RY1","MORGAN, DEVIN","=""7751""","H","B","2019-12-04","2020-06-03",2900.60,2900.60,11602.40,11602.40,213.92,13.56,2097.14,2097.14,7789.38,7789.38,137.75,15.22,1.12,""
"173286","RY1","MORGAN, SPENCER","=""8534""","H","B","2019-08-26","2020-03-26",6963.53,6963.53,27854.12,27854.12,419.17,16.61,,,,,,,,""
"113011","RY1","MORLOCK, BRUCE A","=""8647""","H","B","2012-08-30","",820.00,820.00,3280.00,3280.00,82.00,10.00,2265.00,2265.00,8412.86,8412.86,226.50,10.00,1.00,""
"113020","RY1","MORRIS, GREG","=""3950""","S","B","2010-04-19","",15290.76,15290.76,61163.04,61163.04,480.00,31.86,17769.22,17769.22,65999.96,65999.96,560.00,31.73,1.00,""
"195826","RY1","MUCKENHIRN, BENJAMIN","=""7982""","H","B","2019-10-07","2020-08-05",2322.39,2322.39,9289.56,9289.56,171.53,13.54,2233.33,2233.33,8295.23,8295.23,178.29,12.53,0.93,""
"151702","RY1","MULHERN, ALAN","=""5815""","H","B","2017-01-05","2020-09-25",10585.83,10585.83,42343.32,42343.32,544.52,19.44,13145.03,13145.03,48824.40,48824.40,567.92,23.15,1.19,""
"158475","RY1","MURDOCH, KYLE","=""1950""","H","B","2020-06-29","",,,,,,,391.16,391.16,1452.88,1452.88,27.94,14.00,,""
"198532","RY1","NAVARRO, ALEXANDER","=""3242""","H","B","2019-04-29","",2282.08,2282.08,9128.32,9128.32,169.34,13.48,2696.44,2696.44,10015.35,10015.35,203.87,13.23,0.98,""
"158997","RY1","NELP, LANCE","=""9115""","H","B","2019-12-04","2020-03-19",1914.84,1914.84,7659.36,7659.36,159.57,12.00,,,,,,,,""
"145087","RY1","NELSON, LAUREN","=""8396""","H","B","2020-05-04","",,,,,,,4044.69,4044.69,15023.13,15023.13,311.04,13.00,,""
"1102195","RY1","NEUMANN, ANDREW D","=""8765""","S","B","2014-05-18","",20769.24,20769.24,83076.96,83076.96,480.00,43.27,24230.78,24230.78,90000.04,90000.04,560.00,43.27,1.00,""
"1102198","RY1","NEUMANN, NICKOLAS J","=""8559""","S","B","2015-08-03","",15596.20,15596.20,62384.80,62384.80,480.00,32.49,17653.90,17653.90,65571.63,65571.63,560.00,31.52,0.97,""
"1103050","RY1","NOKELBY, RONALD J","=""3316""","S","B","1978-05-05","",19615.44,19615.44,78461.76,78461.76,480.00,40.87,23184.68,23184.68,86114.53,86114.53,560.00,41.40,1.01,""
"187651","RY1","NOREIKIS, TIFFANY","=""1301""","C","S","2018-09-10","",9600.00,9600.00,38400.00,38400.00,480.00,20.00,16254.00,16254.00,65016.00,60372.00,480.00,33.86,1.69,""
"168753","RY1","NORTHAGEN, JOSHUA","=""1310""","C","B","2019-03-12","",10107.25,10107.25,40429.00,40429.00,480.00,21.06,13256.27,13256.27,49237.57,49237.57,560.00,23.67,1.12,""
"148765","RY1","NOVA ABREU, EDWIN","=""8688""","H","B","2020-04-20","2020-08-24",,,,,,,2718.84,2718.84,10098.55,10098.55,226.57,12.00,,""
"1103065","RY1","NYGAARD, KENT A","=""5597""","H","B","2015-01-26","",7749.94,7749.94,30999.76,30999.76,490.15,15.81,9958.72,9958.72,36989.53,36989.53,615.63,16.18,1.02,""
"103053","RY1","OBREGON, JASON","=""8565""","H","B","2019-09-30","2020-02-13",5962.92,5962.92,23851.68,23851.68,374.08,15.94,,,,,,,,""
"1106225","RY1","OLDERBAK, JOHN","=""5420""","C","S","2016-02-16","",19210.64,19210.64,76842.56,76842.56,480.00,40.02,21423.00,21423.00,85692.00,79571.14,480.00,44.63,1.12,"2019-01-31"
"173209","RY1","O'LEARY, MATTHEW","=""3517""","H","B","2019-12-31","",6882.05,6882.05,27528.20,27528.20,451.39,15.25,7950.81,7950.81,29531.58,29531.58,562.73,14.13,0.93,""
"1100625","RY1","OLSON, CODEY","=""8567""","C","B","2016-08-01","",16470.66,16470.66,65882.64,65882.64,480.00,34.31,9826.93,9826.93,36500.03,36500.03,320.00,30.71,0.90,""
"1106399","RY1","OLSON, JAY P","=""1705""","C","B","2002-02-11","",21926.64,21926.64,87706.56,87706.56,480.00,45.68,25382.91,25382.91,94279.38,94279.38,560.00,45.33,0.99,"2019-02-08"
"1106400","RY1","OLSON, JUSTIN S","=""9342""","C","B","2012-11-12","",11922.55,11922.55,47690.20,47690.20,480.00,24.84,14138.63,14138.63,52514.91,52514.91,560.00,25.25,1.02,""
"164732","RY1","OLSON, RACHEL","=""3279""","H","B","2019-04-22","2020-08-14",8090.95,8090.95,32363.80,32363.80,483.78,16.72,9699.65,9699.65,36027.27,36027.27,575.15,16.86,1.01,""
"144788","RY1","OLSON, WYATT","=""7428""","S","B","2017-04-10","2020-05-15",11953.31,11953.31,47813.24,47813.24,480.00,24.90,8101.20,8101.20,30090.17,30090.17,240.00,33.76,1.36,""
"1106421","RY1","O'NEIL, TIMOTHY J","=""8317""","C","B","2014-08-11","",19613.17,19613.17,78452.68,78452.68,480.00,40.86,21281.84,21281.84,79046.83,79046.83,560.00,38.00,0.93,"2019-11-29"
"1107950","RY1","ORTIZ, GUADALUPE","=""6010""","H","B","2012-11-12","",13863.26,13863.26,55453.04,55453.04,517.71,26.78,15718.75,15718.75,58383.93,58383.93,502.73,31.27,1.17,""
"1108200","RY1","OSTLUND, ANNE B","=""0381""","H","B","2011-01-17","",15037.00,15037.00,60148.00,60148.00,556.89,27.00,15359.78,15359.78,57050.61,57050.61,593.44,25.88,0.96,""
"157493","RY1","OTTO, ALYSSA","=""9450""","H","B","2019-09-23","2020-07-15",5765.60,5765.60,23062.40,23062.40,444.63,12.97,6938.40,6938.40,25771.20,25771.20,509.23,13.63,1.05,""
"187347","RY1","OWEN, ANDREW","=""8591""","H","B","2020-05-26","",,,,,,,1744.86,1744.86,6480.91,6480.91,117.49,14.85,,""
"157445","RY1","PACHL, JONATHON","=""1437""","H","B","2019-12-02","2019-12-23",89.16,89.16,356.64,356.64,7.43,12.00,,,,,,,,""
"137593","RY1","PALACIOS, ERIC","=""1587""","H","B","2020-01-13","",4737.99,4737.99,18951.96,18951.96,361.25,13.12,7999.92,7999.92,29713.99,29713.99,555.07,14.41,1.10,""
"139846","RY1","PARKER, JOSHUA","=""1441""","H","B","2019-09-12","",5740.05,5740.05,22960.20,22960.20,377.95,15.19,7131.86,7131.86,26489.77,26489.77,487.99,14.61,0.96,""
"1109700","RY1","PASCHKE, MATTHEW G","=""7924""","H","B","2019-08-26","",14222.63,14222.63,56890.52,56890.52,578.39,24.59,15848.50,15848.50,58865.86,58865.86,570.83,27.76,1.13,""
"190324","RY1","PEDE, DOUGLAS","=""3201""","H","B","2020-05-04","",,,,,,,11524.43,11524.43,42805.03,42805.03,400.92,28.74,,""
"185647","RY1","PERALES, LIL CHRIS","=""8090""","H","B","2019-10-21","",2212.68,2212.68,8850.72,8850.72,184.39,12.00,2583.48,2583.48,9595.78,9595.78,215.29,12.00,1.00,""
"123564","RY1","PESEK, BENJAMIN","=""9968""","H","B","2017-07-10","",,,,,,,5071.08,5071.08,18835.44,18835.44,420.17,12.07,,""
"1110425","RY1","PETERSON, BRIAN D","=""5561""","C","B","1999-03-15","",22211.72,22211.72,88846.88,88846.88,480.00,46.27,27162.80,26923.12,100890.40,100000,560.00,48.08,1.04,"2019-02-22"
"1110542","RY1","PETERSON, DOUG","=""9850""","S","B","1995-12-04","",19915.44,19915.44,79661.76,79661.76,480.00,41.49,23184.68,23184.68,86114.53,86114.53,560.00,41.40,1.00,"2019-09-10"
"1110660","RY1","PETERSON, TYLER","=""2788""","H","B","2015-11-23","",10281.53,10281.53,41126.12,41126.12,494.82,20.78,12345.33,12345.33,45854.08,45854.08,613.47,20.12,0.97,""
"167934","RY1","PFAFF, JONATHAN","=""3903""","H","B","2019-01-06","2020-09-11",9129.09,9129.09,36516.36,36516.36,572.50,15.95,11007.63,11007.63,40885.48,40885.48,589.64,18.67,1.17,""
"1110800","RY1","PICHE, STACEY","=""6089""","H","B","2015-05-11","",2296.49,2296.49,9185.96,9185.96,111.57,20.58,2827.64,2827.64,10502.66,10502.66,179.64,15.74,0.76,""
"193542","RY1","PICKENS, WHITNEY","=""6028""","H","B","2020-03-24","",,,,,,,6939.12,6939.12,25773.87,25773.87,575.09,12.07,,""
"108345","RY1","PIERCE, NICOLE","=""4271""","H","B","2019-09-23","2020-02-17",1128.48,1128.48,4513.92,4513.92,94.04,12.00,,,,,,,,""
"187526","RY1","POKHREL, CHANDRA","=""0204""","H","B","2018-12-17","",5949.97,5949.97,23799.88,23799.88,457.69,13.00,7537.42,7537.42,27996.13,27996.13,558.06,13.51,1.04,""
"165478","RY1","POLUM, MAXWELL","=""1978""","H","B","2018-12-31","",2966.94,2966.94,11867.76,11867.76,190.04,15.61,4350.04,4350.04,16157.29,16157.29,295.71,14.71,0.94,""
"136942","RY1","POPE, DEVON","=""8425""","H","B","2020-05-18","",,,,,,,2539.38,2539.38,9431.98,9431.98,203.92,12.45,,""
"1111325","RY1","POWELL, GAYLA R","=""8640""","H,S","B","2011-08-29","",12064.74,12064.74,48258.96,48258.96,541.93,22.26,14180.89,14180.89,52671.88,52671.88,560.00,25.32,1.14,""
"1112410","RY1","PRESTON, ALLEN E","=""3594""","C","B,S","2014-02-10","2020-02-07",4125.40,4125.40,16501.60,16501.60,160.00,25.78,,,,,,,,"2019-02-28"
"1112411","RY1","PRESTON, APRIL","=""9536""","C","B","2015-07-20","2020-08-14",4760.74,4760.74,19042.96,19042.96,188.39,25.27,8860.00,8860.00,32908.57,32908.57,327.99,27.01,1.07,""
"132856","RY1","QUINLAN, JOHN","=""6730""","C","S","2020-01-06","2020-02-29",5753.80,5753.80,23015.20,23015.20,320.00,17.98,,,,,,,,""
"1113940","RY1","RADKE, DUANE","=""6433""","H","B","1966-05-01","",10696.80,10696.80,42787.20,42787.20,491.72,21.75,12374.55,12374.55,45962.61,45962.61,573.04,21.59,0.99,""
"165473","RY1","RAI, SANTI","=""0992""","H","B","2018-04-23","",6374.20,6374.20,25496.80,25496.80,369.24,17.26,8530.80,8530.80,31685.83,31685.83,520.54,16.39,0.95,""
"1588879","RY1","RAUNER, VALERIE","=""7837""","H","B","2017-06-19","",6186.54,6186.54,24746.16,24746.16,409.11,15.12,8485.96,8485.96,31519.28,31519.28,562.45,15.09,1.00,""
"132785","RY1","REEB, LUKE","=""0589""","H","B","2020-02-24","",629.72,629.72,2518.88,2518.88,48.44,13.00,3029.91,3029.91,11253.95,11253.95,233.07,13.00,1.00,""
"1114831","RY1","REED, DALE","=""6207""","H","B","2015-12-21","",2788.24,2788.24,11152.96,11152.96,194.16,14.36,4029.20,4029.20,14965.60,14965.60,287.80,14.00,0.97,""
"1114921","RY1","REUTER, TIMOTHY J","=""9619""","H","B","2015-01-26","",15409.62,15409.62,61638.48,61638.48,573.86,26.85,17007.62,17007.62,63171.16,63171.16,587.33,28.96,1.08,""
"1116800","RY1","RICHARDSON, DARRICK J","=""6925""","C","B","2015-09-29","",6701.00,6701.00,26804.00,26804.00,283.09,23.67,10541.90,10541.90,39155.63,39155.63,438.74,24.03,1.02,""
"158582","RY1","RISKEY, CALEB","=""4722""","H","B","2019-12-04","2020-03-11",1127.64,1127.64,4510.56,4510.56,83.91,13.44,150.50,150.50,559.00,559.00,0.00,,,""
"167321","RY1","RITCHIE, MICHAEL","=""9506""","H","B","2020-05-18","",,,,,,,1626.36,1626.36,6040.77,6040.77,135.53,12.00,,""
"195123","RY1","RIVERA, ROLANDO","=""6820""","H","B","2018-12-17","2020-07-29",6637.81,6637.81,26551.24,26551.24,477.35,13.91,6572.36,6572.36,24411.62,24411.62,476.72,13.79,0.99,""
"122332","RY1","ROBINSON, AARON","=""4661""","H","B","2017-09-25","",8193.18,8193.18,32772.72,32772.72,516.09,15.88,8998.01,8998.01,33421.18,33421.18,587.75,15.31,0.96,""
"192348","RY1","ROBINSON, CARSON","=""9413""","C","S","2018-05-07","2020-07-02",12449.41,12449.41,49797.64,49797.64,480.00,25.94,10293.00,10293.00,41172.00,38231.14,480.00,21.44,0.83,"2019-03-31"
"1117600","RY1","ROBLES, RUDOLPH","=""0455""","H","B","2000-07-12","",13034.41,13034.41,52137.64,52137.64,686.83,18.98,14794.81,14794.81,54952.15,54952.15,699.61,21.15,1.11,""
"1117842","RY1","RODRIGUEZ, JUSTIN","=""9301""","H","B","2015-11-23","",14933.09,14933.09,59732.36,59732.36,584.59,25.54,15250.17,15250.17,56643.49,56643.49,655.17,23.28,0.91,"2019-09-06"
"159763","RY1","ROED, ZACHARY","=""1687""","H","B","2020-02-11","2020-05-23",1401.26,1401.26,5605.04,5605.04,100.09,14.00,2482.64,2482.64,9221.23,9221.23,159.35,15.58,1.11,""
"1117901","RY1","ROGERS, MITCH A","=""4212""","C,H","B","2014-10-13","",770.00,770.00,3080.00,3080.00,0.00,,15910.25,15910.25,59095.21,59095.21,520.97,30.54,,""
"165780","RY1","ROGERS, SARA","=""7120""","H","B","2018-10-22","",4502.49,4502.49,18009.96,18009.96,340.64,13.22,6457.95,6457.95,23986.67,23986.67,487.70,13.24,1.00,""
"158393","RY1","ROGERS, TIMOTHY","=""0531""","H","B","2019-11-12","",120.00,120.00,480.00,480.00,12.00,10.00,,,,,,,,""
"1117960","RY1","ROGNE, CRAIG A","=""5154""","S","B","1988-06-13","",11538.48,11538.48,46153.92,46153.92,480.00,24.04,13461.56,13461.56,50000.08,50000.08,560.00,24.04,1.00,""
"175394","RY1","ROHLOFF, KADEN","=""6389""","H","B","2020-01-28","",686.22,686.22,2744.88,2744.88,49.36,13.90,3735.03,3735.03,13872.97,13872.97,295.76,12.63,0.91,""
"175323","RY1","ROLIGHED, CODY","=""7988""","C","B","2020-08-31","",2056.60,2056.60,8226.40,8226.40,80.02,25.70,,,,,,,,""
"159875","RY1","ROSE, BRITTANY","=""1871""","H","B","2019-10-07","",4951.59,4951.59,19806.36,19806.36,277.46,17.85,5910.60,5910.60,21953.66,21953.66,377.70,15.65,0.88,""
"1118722","RY1","ROSE, CORY","=""0203""","C","B","2006-10-23","",12752.53,12752.53,51010.12,51010.12,325.00,39.24,11143.16,11143.16,41388.88,41388.88,240.00,46.43,1.18,"2019-10-18"
"12236","RY1","ROTH, LAURA","=""3199""","S","B","2017-11-20","",15576.96,15576.96,62307.84,62307.84,480.00,32.45,18073.12,18073.12,67128.73,67128.73,560.00,32.27,0.99,""
"141082","RY1","RUMEN, ROBERT","=""0057""","C","S","2018-05-07","",25520.67,25000,102082.68,100000,480.00,52.08,32383.92,25000,129535.68,100000,480.00,52.08,1.00,"2019-01-31"
"1120110","RY1","RYAN, ANTONIO R","=""6284""","S","B","2012-03-29","",12000.00,12000.00,48000.00,48000.00,480.00,25.00,14300.00,14300.00,53114.29,53114.29,560.00,25.54,1.02,""
"1120225","RY1","RYDELL, BRIAN L","=""0925""","S","B","1999-06-28","",55384.62,23076.92,221538.48,92307.68,480.00,48.08,34229.77,26923.12,127139.15,100000,560.00,48.08,1.00,"2019-01-11"
"1120800","RY1","RYDELL, WESLEY D","=""7066""","C","S","1962-06-01","",36000.00,25000,144000.00,100000,15.00,1666.67,24999.00,24999.00,99996.00,92853.43,15.00,1666.60,1.00,"2019-01-31"
"1120120","RY1","RYGG, KEN C","=""1363""","H","B","2012-11-21","",8545.52,8545.52,34182.08,34182.08,490.67,17.42,9172.27,9172.27,34068.43,34068.43,536.61,17.09,0.98,""
"1121240","RY1","SALBERG, GAYLEN K","=""8532""","H","B","2017-02-01","",2345.00,2345.00,9380.00,9380.00,204.50,11.47,3035.00,3035.00,11272.86,11272.86,273.50,11.10,0.97,""
"1122110","RY1","SANCHEZ, ROGELIO","=""0753""","S","B","2015-07-06","",23128.86,23076.92,92515.44,92307.68,480.00,48.08,26821.17,26821.17,99621.49,99621.49,560.00,47.89,1.00,"2019-01-11"
"1122246","RY1","SAPP, CORDEAU I","=""0465""","H","B","2015-08-17","2020-01-14",1976.66,1976.66,7906.64,7906.64,124.73,15.85,,,,,,,,""
"135289","RY1","SATHER, SAMUEL","=""4950""","H","B","2020-05-18","",,,,,,,835.12,835.12,3101.87,3101.87,67.29,12.41,,""
"1122342","RY1","SATTLER, RANDY J","=""4527""","C,S","B,S","2002-08-26","",28276.93,25000,113107.72,100000,480.00,52.08,27046.17,25000,108184.68,100000,560.00,44.64,0.86,"2019-01-31"
"1122352","RY1","SAULS, THOMAS R","=""5750""","C","B","2013-08-12","",9582.75,9582.75,38331.00,38331.00,409.02,23.43,11781.75,11781.75,43760.79,43760.79,539.80,21.83,0.93,""
"198431","RY1","SCHADT, MICHAEL","=""6982""","C","B","2020-06-25","",3822.00,3822.00,15288.00,15288.00,153.04,24.97,482.30,482.30,1791.40,1791.40,22.11,21.81,0.87,""
"175943","RY1","SCHILTZ, JARED","=""9422""","H","B","2019-10-09","",2006.05,2006.05,8024.20,8024.20,146.77,13.67,2344.37,2344.37,8707.66,8707.66,183.33,12.79,0.94,""
"1123340","RY1","SCHMIESS PENAS, JERI L","=""9316""","S","B","2009-05-12","",31200.00,23076.92,124800.00,92307.68,480.00,48.08,36200.00,26923.12,134457.14,100000,560.00,48.08,1.00,"2019-01-11"
"165432","RY1","SCHMITZ, MADISON","=""8406""","H","B","2020-06-29","",,,,,,,298.87,298.87,1110.09,1110.09,22.99,13.00,,""
"137854","RY1","SCHNEIDER, AMANDA","=""6562""","H","B","2019-08-26","",6059.82,6059.82,24239.28,24239.28,382.38,15.85,8311.86,8311.86,30872.62,30872.62,552.33,15.05,0.95,""
"1566882","RY1","SCHNEIDER, BRIAN","=""2276""","C","B","2017-06-05","",12836.56,12836.56,51346.24,51346.24,433.48,29.61,17307.16,17307.16,64283.74,64283.74,533.93,32.41,1.09,""
"198134","RY1","SCHREIER, JUSTIN","=""0398""","H","B","2020-05-04","",,,,,,,1277.76,1277.76,4745.97,4745.97,106.48,12.00,,""
"1124400","RY1","SCHUPPERT, KODEY","=""1736""","H","B","2015-04-27","",9013.15,9013.15,36052.60,36052.60,491.56,18.34,9990.07,9990.07,37105.97,37105.97,575.71,17.35,0.95,""
"1124430","RY1","SCHWAN, JASON","=""4880""","H","B","2015-10-26","2020-01-31",2657.72,2657.72,10630.88,10630.88,204.44,13.00,,,,,,,,""
"1124436","RY1","SCHWAN, MICHAEL","=""4858""","C","B","2012-02-27","",26366.35,23076.92,105465.40,92307.68,480.00,48.08,28713.39,26923.12,106649.73,100000,560.00,48.08,1.00,"2019-01-25"
"1124625","RY1","SEAY, BRYN N","=""5362""","C","S","2014-08-25","",19600.00,19600.00,78400.00,78400.00,480.00,40.83,22877.00,22877.00,91508.00,84971.71,480.00,47.66,1.17,"2019-01-31"
"1124875","RY1","SEEBA, BRADLEY F","=""4037""","H","B","1977-04-11","",12648.88,12648.88,50595.52,50595.52,475.30,26.61,16012.13,16012.13,59473.63,59473.63,602.04,26.60,1.00,""
"1125565","RY1","SEVIGNY, SCOTT","=""0113""","C","B","2008-09-29","",15917.29,15917.29,63669.16,63669.16,480.00,33.16,18169.17,18169.17,67485.49,67485.49,560.00,32.44,0.98,""
"168243","RY1","SHADWICK, SHAY","=""1531""","H","B","2019-08-12","",5901.03,5901.03,23604.12,23604.12,447.91,13.17,6590.23,6590.23,24478.00,24478.00,496.20,13.28,1.01,""
"1126040","RY1","SHERECK, LOREN","=""3037""","S","B","2016-11-07","",17343.63,17343.63,69374.52,69374.52,480.00,36.13,18091.22,18091.22,67195.96,67195.96,560.00,32.31,0.89,""
"1126300","RY1","SHIREK, NICHOLAS","=""3260""","C","S","2018-02-01","",41200.00,25000,164800.00,100000,480.00,52.08,37250.00,25000,149000.00,100000,480.00,52.08,1.00,"2019-01-31"
"197643","RY1","SHOWER, DUSTIN","=""8293""","H","B","2018-08-20","",8834.10,8834.10,35336.40,35336.40,479.96,18.41,9754.31,9754.31,36230.29,36230.29,598.89,16.29,0.88,""
"1126060","RY1","SHUMAKER, MARTIN D","=""6832""","H","B","2013-07-01","",9187.52,9187.52,36750.08,36750.08,542.52,16.93,10620.72,10620.72,39448.39,39448.39,630.00,16.86,1.00,""
"167932","RY1","SLATOR, ANDREW","=""7772""","H","B","2019-05-01","2020-05-15",4741.24,4741.24,18964.96,18964.96,310.67,15.26,2639.46,2639.46,9803.71,9803.71,181.39,14.55,0.95,""
"139475","RY1","SLOMINSKI, JOSEPH","=""2624""","H","B","2019-07-29","",6928.33,6928.33,27713.32,27713.32,434.53,15.94,9497.93,9497.93,35278.03,35278.03,583.03,16.29,1.02,""
"146803","RY1","SMERER, JASON","=""2522""","H","B","2019-05-20","",9727.99,9727.99,38911.96,38911.96,522.12,18.63,17363.61,17363.61,64493.41,64493.41,833.90,20.82,1.12,""
"176430","RY1","SMITH, TANER","=""0735""","H","B","2018-05-07","",6457.92,6457.92,25831.68,25831.68,522.71,12.35,7023.42,7023.42,26086.99,26086.99,576.58,12.18,0.99,""
"152964","RY1","SOBERG, NICHOLAS","=""1490""","H","B","2018-08-27","",9812.41,9812.41,39249.64,39249.64,593.06,16.55,10637.84,10637.84,39511.98,39511.98,630.00,16.89,1.02,""
"1129560","RY1","SOENKSEN, LINDSEY","=""6945""","H","B","2017-01-12","2020-09-12",4503.49,4503.49,18013.96,18013.96,333.61,13.50,6461.65,6461.65,24000.41,24000.41,488.72,13.22,0.98,""
"1130090","RY1","SOLEM, BEN G","=""1062""","H","B","2013-09-16","",8678.16,8678.16,34712.64,34712.64,518.70,16.73,9442.08,9442.08,35070.58,35070.58,581.00,16.25,0.97,""
"165428","RY1","SOLHEIM, ARIK","=""9508""","S","B","2019-04-15","",15530.82,15530.82,62123.28,62123.28,480.00,32.36,18069.29,18069.29,67114.51,67114.51,560.00,32.27,1.00,""
"154474","RY1","SORENSON, THOMAS","=""5450""","H","B","2017-08-28","",735.00,735.00,2940.00,2940.00,61.25,12.00,939.72,939.72,3490.39,3490.39,78.31,12.00,1.00,""
"1130420","RY1","SORUM, ABIGAIL","=""4955""","H","B","2018-03-09","",9954.40,9954.40,39817.60,39817.60,448.29,22.21,11541.50,11541.50,42868.43,42868.43,567.70,20.33,0.92,""
"1130426","RY1","SORUM, GREG","=""1940""","S","B","1996-01-01","",137192.34,23076.92,548769.36,92307.68,480.00,48.08,79114.39,26923.12,293853.45,100000,560.00,48.08,1.00,"2019-01-11"
"154783","RY1","SORUM, JACOB","=""3574""","S","B","2019-06-03","",19615.44,19615.44,78461.76,78461.76,480.00,40.87,22884.68,22884.68,85000.24,85000.24,560.00,40.87,1.00,""
"1130430","RY1","SORUM, MICHAEL J","=""5544""","S","B","2002-11-04","",14400.00,14400.00,57600.00,57600.00,480.00,30.00,16800.00,16800.00,62400.00,62400.00,560.00,30.00,1.00,""
"198567","RY1","SPIVA, NOLAN","=""4966""","H","B","2019-12-17","",6833.33,6833.33,27333.32,27333.32,508.84,13.43,7047.51,7047.51,26176.47,26176.47,529.13,13.32,0.99,""
"1130690","RY1","STADSTAD, LARRY O","=""0339""","C","S","2015-01-01","",6374.95,6374.95,25499.80,25499.80,200.00,31.87,9600.00,9600.00,38400.00,35657.14,200.00,48.00,1.51,"2019-01-31"
"1130700","RY1","STALLMO, RICHARD D","=""7776""","H","B","2009-09-16","",6317.36,6317.36,25269.44,25269.44,481.63,13.12,6894.96,6894.96,25609.85,25609.85,529.87,13.01,0.99,""
"174836","RY1","STEFFL, SIMON","=""3697""","H","B","2019-11-18","",2157.48,2157.48,8629.92,8629.92,179.79,12.00,6682.56,6682.56,24820.94,24820.94,534.17,12.51,1.04,""
"1132205","RY1","STEIN, DONALD W","=""6405""","H","B","2012-08-13","",8158.68,8158.68,32634.72,32634.72,520.28,15.68,9655.14,9655.14,35861.95,35861.95,619.65,15.58,0.99,""
"154893","RY1","STEWART, ROGER","=""0763""","H","B","2019-09-23","2020-01-28",2683.41,2683.41,10733.64,10733.64,174.22,15.40,,,,,,,,""
"1132595","RY1","STINAR, DANIEL M","=""5107""","S","B","2009-12-15","2020-03-04",20169.24,20169.24,80676.96,80676.96,400.00,50.42,,,,,,,,"2019-04-05"
"1132700","RY1","STOUT, RICK","=""6319""","C","S","2016-08-29","",39200.00,25000,156800.00,100000,480.00,52.08,40607.09,25000,162428.36,100000,480.00,52.08,1.00,"2019-01-15"
"143659","RY1","STRAUS, TYLER","=""6524""","C","B","2018-04-11","",6462.05,6462.05,25848.20,25848.20,210.18,30.75,8708.50,8708.50,32345.86,32345.86,328.52,26.51,0.86,""
"1133727","RY1","STREETER, TIMOTHY","=""2062""","H","B","2007-03-28","",13354.80,13354.80,53419.20,53419.20,708.45,18.85,13126.72,13126.72,48756.39,48756.39,730.41,17.97,0.95,""
"16250","RY1","STREITZ, DANIELLE M","=""2795""","H","B","2011-09-12","",6875.25,6875.25,27501.00,27501.00,430.31,15.98,8292.64,8292.64,30801.23,30801.23,554.25,14.96,0.94,""
"169853","RY1","SUDA, JESS","=""7455""","C","S","2020-02-24","2020-03-11",1673.10,1673.10,6692.40,6692.40,160.00,10.46,,,,,,,,""
"145972","RY1","SVENSON, JAMES","=""6338""","C","S","2019-12-23","2020-02-25",5400.00,5400.00,21600.00,21600.00,320.00,16.88,,,,,,,,""
"128945","RY1","SWANSON, ZACHARY","=""1796""","H","B","2018-09-11","2020-06-11",9279.75,9279.75,37119.00,37119.00,542.28,17.11,10262.44,10262.44,38117.63,38117.63,608.22,16.87,0.99,""
"1135265","RY1","SYMONS, ELIZABETH R","=""9018""","S","B","2012-12-27","",16915.44,16915.44,67661.76,67661.76,480.00,35.24,19684.68,19684.68,73114.53,73114.53,560.00,35.15,1.00,""
"1135260","RY1","SYMONS, STEVEN","=""0557""","S","B","2010-11-22","",16453.86,16453.86,65815.44,65815.44,480.00,34.28,19146.17,19146.17,71114.35,71114.35,560.00,34.19,1.00,""
"1135410","RY1","SYVERSON, JOSHUA L","=""5016""","C","B","2012-06-11","",18505.17,18505.17,74020.68,74020.68,480.00,38.55,20526.00,20526.00,76239.43,76239.43,567.00,36.20,0.94,""
"175843","RY1","TANGREN, ALEX","=""9891""","H","B","2020-06-08","2020-07-29",1197.72,1197.72,4790.88,4790.88,99.81,12.00,1011.48,1011.48,3756.93,3756.93,84.29,12.00,1.00,""
"157374","RY1","TAPPARO, GREGORY","=""2685""","H","B","2019-10-09","2020-05-22",1168.08,1168.08,4672.32,4672.32,97.34,12.00,1514.88,1514.88,5626.70,5626.70,126.24,12.00,1.00,""
"1135518","RY1","TARR, JEFF D","=""4778""","C","S","1993-11-01","",17664.28,17664.28,70657.12,70657.12,480.00,36.80,15597.00,15597.00,62388.00,57931.71,480.00,32.49,0.88,"2019-10-31"
"1135710","RY1","TELKEN, WYATT","=""5395""","C","B","2017-06-28","2020-06-16",1815.15,1815.15,7260.60,7260.60,30.40,59.71,,,,,,,,"2019-07-26"
"157392","RY1","THOMPSON, COLE","=""9501""","H","B","2019-11-18","",7672.02,7672.02,30688.08,30688.08,461.40,16.63,8329.47,8329.47,30938.03,30938.03,587.72,14.17,0.85,""
"1137590","RY1","THOMPSON, WYATT","=""6569""","C","B","2007-05-14","",18341.43,18341.43,73365.72,73365.72,480.00,38.21,18180.27,18180.27,67526.72,67526.72,560.00,32.46,0.85,"2019-03-08"
"197560","RY1","TISI, CATHERINE","=""6977""","H","B","2019-06-26","2020-05-18",3402.10,3402.10,13608.40,13608.40,261.70,13.00,2163.17,2163.17,8034.63,8034.63,159.88,13.53,1.04,""
"165287","RY1","TOMLIN, LUNDEAN","=""3756""","H","B","2018-12-17","2020-03-06",7486.78,7486.78,29947.12,29947.12,498.40,15.02,936.00,936.00,3476.57,3476.57,72.00,13.00,0.87,""
"134956","RY1","TORGERSON, JOSEPH","=""1308""","C","B","2019-01-28","",4546.60,4546.60,18186.40,18186.40,201.79,22.53,4256.80,4256.80,15810.97,15810.97,146.16,29.12,1.29,""
"1140870","RY1","TROFTGRUBEN, RODNEY","=""2982""","H","B","1992-08-03","",20101.52,20101.52,80406.08,80406.08,592.40,33.93,22749.90,22749.90,84499.63,84499.63,648.69,35.07,1.03,"2019-01-11"
"1143575","RY1","TROST, SETH","=""0698""","H","B","2017-01-16","2020-01-03",94.32,94.32,377.28,377.28,7.86,12.00,,,,,,,,""
"184755","RY1","TRUJILLO, CASLYNNE","=""1802""","H","B","2019-12-31","2020-03-11",3114.60,3114.60,12458.40,12458.40,259.55,12.00,,,,,,,,""
"195231","RY1","TURNER, RICHARD J","=""9981""","C","S","2018-12-31","",13208.36,13208.36,52833.44,52833.44,480.00,27.52,12600.48,12600.48,50401.92,46801.78,480.00,26.25,0.95,"2019-05-31"
"175642","RY1","VANCAMP, KEVIN S","=""5527""","S","B","2018-01-29","2020-04-10",10330.82,10330.82,41323.28,41323.28,480.00,21.52,1538.47,1538.47,5714.32,5714.32,80.00,19.23,0.89,""
"1144265","RY1","VAN HESTE II, FRED E","=""6808""","H","B","2007-05-15","",10110.24,10110.24,40440.96,40440.96,508.42,19.89,10994.65,10994.65,40837.27,40837.27,571.76,19.23,0.97,""
"178543","RY1","VANYO, DAVID","=""1751""","C","S","2017-12-18","",27262.56,25000,109050.24,100000,480.00,52.08,27831.00,25000,111324.00,100000,480.00,52.08,1.00,"2019-01-31"
"185393","RY1","VARBERG, WILLIAM","=""2617""","H","B","2019-11-21","",2377.35,2377.35,9509.40,9509.40,176.16,13.50,,,,,,,,""
"15646","RY1","VELA, JUAN CARLOS","=""0922""","H","B","2017-10-23","",7703.62,7703.62,30814.48,30814.48,511.18,15.07,8356.93,8356.93,31040.03,31040.03,569.38,14.68,0.97,""
"1145660","RY1","VIEN, NORMAN A","=""1190""","H","B","2007-07-27","",9830.86,9830.86,39323.44,39323.44,409.94,23.98,12031.65,12031.65,44688.99,44688.99,554.80,21.69,0.90,""
"174934","RY1","VITTERS, JAKE","=""4003""","H","B","2019-10-09","2020-07-24",2360.28,2360.28,9441.12,9441.12,196.69,12.00,3593.16,3593.16,13346.02,13346.02,299.43,12.00,1.00,""
"147583","RY1","VOELKER, JUSTIN","=""7569""","H","B","2019-12-31","2020-03-01",3348.22,3348.22,13392.88,13392.88,256.44,13.06,,,,,,,,""
"1146751","RY1","WAGENER, SAMUEL L","=""6320""","S","B","2014-01-01","",28292.34,23076.92,113169.36,92307.68,480.00,48.08,32907.73,26923.12,122228.71,100000,560.00,48.08,1.00,"2019-01-11"
"1146989","RY1","WALDBAUER, ALEX","=""6973""","C","B","2007-08-29","",10696.73,10696.73,42786.92,42786.92,480.00,22.28,12294.94,12294.94,45666.92,45666.92,560.00,21.96,0.99,""
"165989","RY1","WALDECK, JAMES A","=""7237""","C","S","2019-10-21","",10750.00,10750.00,43000.00,43000.00,480.00,22.40,9409.00,9409.00,37636.00,34947.71,480.00,19.60,0.88,""
"1146991","RY1","WALDEN, CHRIS W","=""5038""","C","B","1994-09-06","",18597.76,18597.76,74391.04,74391.04,480.00,38.75,19752.17,19752.17,73365.20,73365.20,560.00,35.27,0.91,""
"1147062","RY1","WALIOR, SUSAN E","=""1098""","S","B","1997-03-03","2020-06-01",9671.19,9671.19,38684.76,38684.76,400.00,24.18,2982.70,2982.70,11078.60,11078.60,0.00,,,""
"1147061","RY1","WALTON, JOSHUA","=""9804""","C","B","2006-12-27","",16744.03,16744.03,66976.12,66976.12,480.00,34.88,17390.93,17390.93,64594.88,64594.88,560.00,31.06,0.89,""
"1147250","RY1","WARMACK, JAMES H","=""4704""","C","S","2011-04-02","",21446.00,21446.00,85784.00,85784.00,480.00,44.68,22183.00,22183.00,88732.00,82394.00,480.00,46.21,1.03,"2019-01-31"
"197530","RY1","WATSON, BRYCE","=""9133""","H","B","2019-07-29","",1874.16,1874.16,7496.64,7496.64,156.18,12.00,2708.88,2708.88,10061.55,10061.55,225.74,12.00,1.00,""
"1147810","RY1","WEBER, JAMES A","=""2402""","C","S","2011-10-10","",27677.92,25000,110711.68,100000,480.00,52.08,26174.44,25000,104697.76,97219.35,480.00,52.08,1.00,"2019-01-15"
"136943","RY1","WIBBELS, CHANTEL","=""0653""","H","B","2020-05-18","2020-06-03",,,,,,,468.48,468.48,1740.07,1740.07,39.04,12.00,,""
"162984","RY1","WIKSTROM, ABIGAIL","=""5243""","H","B","2019-09-09","",6954.19,6954.19,27816.76,27816.76,503.80,13.80,7684.70,7684.70,28543.17,28543.17,536.84,14.31,1.04,""
"163278","RY1","WILDE, HUNTER","=""0527""","C","B","2019-06-03","",4785.00,4785.00,19140.00,19140.00,310.68,15.40,5232.48,5232.48,19434.93,19434.93,412.47,12.69,0.82,""
"1149160","RY1","WILKENING, RONALD","=""7883""","H","B","2011-01-01","",1790.00,1790.00,7160.00,7160.00,149.00,12.01,1980.00,1980.00,7354.29,7354.29,168.00,11.79,0.98,""
"1149180","RY1","WILKIE, DAVID","=""9008""","C","S","1978-05-17","",22425.00,22425.00,89700.00,89700.00,480.00,46.72,22425.00,22425.00,89700.00,83292.86,480.00,46.72,1.00,"2019-01-31"
"193287","RY1","WILLIAMS, BRAYDON","=""4278""","H","B","2020-05-04","",,,,,,,3160.79,3160.79,11740.08,11740.08,253.81,12.45,,""
"1149300","RY1","WINKLER, ZACHARY S","=""2582""","C","B","2014-05-19","2020-03-20",18031.17,18031.17,72124.68,72124.68,480.00,37.56,,,,,,,,"2019-03-08"
"1149636","RY1","WINZER, CHRISTOPHER L","=""0531""","H","B","2007-06-25","2020-08-14",7571.67,7571.67,30286.68,30286.68,506.14,14.96,8473.51,8473.51,31473.04,31473.04,556.06,15.24,1.02,""
"139856","RY1","WITTER, PATRICK","=""1096""","H","B","2020-02-24","",1784.16,1784.16,7136.64,7136.64,110.07,16.21,7894.24,7894.24,29321.46,29321.46,493.21,16.01,0.99,""
"165982","RY1","WOHLGAMUTH, ALEX","=""4667""","H","B","2019-07-29","",2946.24,2946.24,11784.96,11784.96,245.52,12.00,3666.60,3666.60,13618.80,13618.80,305.55,12.00,1.00,""
"1149710","RY1","WOINAROWICZ, EMILEE M","=""6666""","H","B","2013-07-29","",9108.17,9108.17,36432.68,36432.68,491.00,18.55,9742.14,9742.14,36185.09,36185.09,589.96,16.51,0.89,""
"167542","RY1","WOLSKY, KADEN","=""4794""","H","B","2020-06-02","",,,,,,,900.12,900.12,3343.30,3343.30,75.01,12.00,,""
"115021","RY1","WOODS, SCOTT","=""8868""","H","B","2019-06-24","",6288.11,6288.11,25152.44,25152.44,478.69,13.14,7004.16,7004.16,26015.45,26015.45,537.25,13.04,0.99,""
"165675","RY1","WYMER, JOHN","=""7338""","H","B","2020-06-29","2020-08-05",,,,,,,587.25,587.25,2181.21,2181.21,46.98,12.50,,""
"1150510","RY1","YEM, RITHY M","=""9027""","S","B","2013-04-29","",14521.20,14521.20,58084.80,58084.80,480.00,30.25,16828.90,16828.90,62507.34,62507.34,560.00,30.05,0.99,"2019-12-27"
"1151450","RY1","YUNKER, GEORGE P","=""3487""","C","S","2016-09-26","",8562.00,8562.00,34248.00,34248.00,480.00,17.84,10849.00,10849.00,43396.00,40296.29,480.00,22.60,1.27,"2019-07-31"
"1150920","RY1","ZACHA, CHARLES J","=""6299""","C,H","B","2014-12-29","",9141.75,9141.75,36567.00,36567.00,446.85,20.46,4361.56,4361.56,16200.08,16200.08,311.54,14.00,0.68,""
"1160100","RY1","ZOELLICK, STEVE","=""4189""","S","B","2013-01-01","",8769.24,8769.24,35076.96,35076.96,480.00,18.27,10230.78,10230.78,38000.04,38000.04,560.00,18.27,1.00,""
"210123","RY2","BARTA, PATRICK","=""2470""","H","B","2017-01-04","",12175.08,12175.08,48700.32,48700.32,497.34,24.48,16542.12,16542.12,61442.16,61442.16,609.57,27.14,1.11,""
"24665","RY2","BATZER, CORY","=""4077""","H","B","2017-11-20","",9243.34,9243.34,36973.36,36973.36,551.94,16.75,10958.22,10958.22,40701.96,40701.96,645.82,16.97,1.01,""
"246783","RY2","BEAUVAIS, ELLIOT","=""9131""","H","B","2019-12-02","",7452.96,7452.96,29811.84,29811.84,500.01,14.91,7820.93,7820.93,29049.17,29049.17,483.26,16.18,1.09,""
"297632","RY2","BECK, MADISON","=""3606""","H","B","2020-02-11","",927.00,927.00,3708.00,3708.00,77.25,12.00,2356.56,2356.56,8752.94,8752.94,196.38,12.00,1.00,""
"254976","RY2","BINA, BENJAMIN","=""1439""","C","B","2018-07-02","",7306.00,7306.00,29224.00,29224.00,473.18,15.44,9084.20,9084.20,33741.31,33741.31,557.81,16.29,1.06,""
"213520","RY2","BINA, NOAH P","=""1440""","H","B","2019-11-20","",2647.82,2647.82,10591.28,10591.28,184.10,14.38,3603.94,3603.94,13386.06,13386.06,256.46,14.05,0.98,""
"257935","RY2","BOGER, DYLAN","=""1023""","H","B","2019-11-19","",2324.64,2324.64,9298.56,9298.56,193.72,12.00,2552.32,2552.32,9480.05,9480.05,209.56,12.18,1.02,""
"275934","RY2","BOHL, SHERYL","=""4136""","H","B","2019-10-09","2020-01-31",816.96,816.96,3267.84,3267.84,68.08,12.00,,,,,,,,""
"269843","RY2","BOOKER, JEREMIAH","=""3513""","H","B","2019-06-24","2020-01-19",1826.16,1826.16,7304.64,7304.64,152.18,12.00,,,,,,,,""
"24551","RY2","BUCKHOLZ, TYLER","=""3651""","H","B","2017-10-23","",8217.86,8217.86,32871.44,32871.44,549.71,14.95,8517.26,8517.26,31635.54,31635.54,581.42,14.65,0.98,""
"264972","RY2","DANGERFIELD, JAXSON","=""1418""","H","B","2020-05-24","",,,,,,,2163.59,2163.59,8036.19,8036.19,166.43,13.00,,""
"230601","RY2","DANGERFIELD, JOEL","=""3827""","S","B","2001-11-29","",16133.21,16133.21,64532.84,64532.84,480.00,33.61,16453.90,16453.90,61114.49,61114.49,560.00,29.38,0.87,"2019-02-08"
"230810","RY2","DOERR, ROY","=""1274""","H","B","2013-04-29","",2416.60,2416.60,9666.40,9666.40,181.66,13.30,2756.20,2756.20,10237.31,10237.31,191.23,14.41,1.08,""
"294387","RY2","DUNHAM, DEXTER","=""3377""","C","S","2019-09-12","2020-05-25",8427.00,8427.00,33708.00,33708.00,480.00,17.56,4511.07,4511.07,18044.28,16755.40,320.00,14.10,0.80,""
"269547","RY2","EAGAN, CHASE","=""5611""","H","B","2020-05-18","",,,,,,,2261.40,2261.40,8399.49,8399.49,188.45,12.00,,""
"276431","RY2","ENGEBRETSON, ERIK","=""8811""","C","B","2018-07-02","",8391.68,8391.68,33566.72,33566.72,480.00,17.48,10654.00,10654.00,39572.00,39572.00,560.00,19.03,1.09,""
"295435","RY2","ERICKSON, ANTHONY","=""0674""","H","B","2019-08-26","",8097.48,8097.48,32389.92,32389.92,579.42,13.98,9483.90,9483.90,35225.91,35225.91,653.40,14.51,1.04,""
"241085","RY2","EVENSON, GARRETT","=""7037""","C","B","2018-08-01","",8236.10,8236.10,32944.40,32944.40,480.00,17.16,11326.30,11326.30,42069.11,42069.11,560.00,20.23,1.18,""
"243180","RY2","FEIST, LUDWIG","=""9498""","H","B","1995-01-23","",9309.67,9309.67,37238.68,37238.68,495.90,18.77,9771.25,9771.25,36293.21,36293.21,584.16,16.73,0.89,""
"247000","RY2","FRASER, BRADEN","=""1034""","H","B","2019-07-17","",8902.38,8902.38,35609.52,35609.52,520.65,17.10,10747.19,10747.19,39918.13,39918.13,627.06,17.14,1.00,""
"249750","RY2","GABRIELSON, JAMES","=""6665""","C","S","2017-09-18","",8530.28,8530.28,34121.12,34121.12,480.00,17.77,9344.00,9344.00,37376.00,34706.29,480.00,19.47,1.10,"2019-05-31"
"269854","RY2","GOETZ, ELIJAH","=""0685""","H","B","2020-03-24","",,,,,,,6966.54,6966.54,25875.72,25875.72,560.16,12.44,,""
"254327","RY2","GROLLIMUND, TYLER","=""6966""","C","S","2018-08-01","",11227.60,11227.60,44910.40,44910.40,480.00,23.39,10002.00,10002.00,40008.00,37150.29,480.00,20.84,0.89,"2019-05-31"
"263095","RY2","HAGER, DELWYN D","=""9236""","H","B","2014-03-11","",,,,,,,420.00,420.00,1560.00,1560.00,35.00,12.00,,""
"264110","RY2","HEAZLETT, CURTIS F","=""7428""","H","B","2014-11-17","",4356.50,4356.50,17426.00,17426.00,328.50,13.26,5004.00,5004.00,18586.29,18586.29,420.50,11.90,0.90,""
"264220","RY2","HELGESON, JEFFREY S","=""5658""","H","B","2009-11-24","",9764.97,9764.97,39059.88,39059.88,519.17,18.81,8954.86,8954.86,33260.91,33260.91,588.85,15.21,0.81,""
"211232","RY2","HOLLAND, NIKOLAI","=""8048""","C","S","2019-03-18","",18647.00,18647.00,74588.00,74588.00,480.00,38.85,18994.00,18994.00,75976.00,70549.14,400.00,47.49,1.22,"2019-04-30"
"268753","RY2","HUEWE, LUCAS","=""5895""","H","B","2019-08-20","2020-01-15",1604.78,1604.78,6419.12,6419.12,115.41,13.91,,,,,,,,""
"256879","RY2","JENSON, MARK A","=""6597""","H","B","2017-02-13","",3130.20,3130.20,12520.80,12520.80,253.02,12.37,4380.34,4380.34,16269.83,16269.83,349.76,12.52,1.01,""
"268523","RY2","JEROME, TRISTAN","=""0138""","H","B","2019-08-22","2019-12-24",149.52,149.52,598.08,598.08,12.46,12.00,,,,,,,,""
"232874","RY2","JOHNSON, ALLYN","=""4882""","H","B","2018-05-03","",1156.54,1156.54,4626.16,4626.16,105.14,11.00,1474.84,1474.84,5477.98,5477.98,133.60,11.04,1.00,""
"273315","RY2","JOHNSON, BRANDON J","=""8472""","C","B","2011-03-07","",20224.32,20224.32,80897.28,80897.28,480.00,42.13,27287.94,26923.12,101355.21,100000,560.00,48.08,1.14,"2019-02-08"
"243876","RY2","JOHNSON, CHRISTIE","=""8399""","C","S","2019-07-29","",6252.00,6252.00,25008.00,25008.00,480.00,13.03,7754.00,7754.00,31016.00,28800.57,480.00,16.15,1.24,""
"274225","RY2","JOHNSON, DUSTIN A","=""1550""","H","B","2014-02-10","",13030.64,13030.64,52122.56,52122.56,502.56,25.93,13041.93,13041.93,48441.45,48441.45,592.51,22.01,0.85,""
"259756","RY2","JOHNSON, FRANCES","=""9627""","H","B","2020-01-21","",5736.00,5736.00,22944.00,22944.00,362.80,15.81,9768.76,9768.76,36283.97,36283.97,609.11,16.04,1.01,""
"295148","RY2","KELLER, JOSIAH","=""3564""","C","B","2020-06-15","",6543.72,6543.72,26174.88,26174.88,480.00,13.63,2247.88,2247.88,8349.27,8349.27,120.00,18.73,1.37,""
"279380","RY2","KNUDSON, BENJAMIN","=""4984""","C","S","2009-08-12","",31200.00,25000,124800.00,100000,480.00,52.08,31200.00,25000,124800.00,100000,480.00,52.08,1.00,"2019-10-31"
"279630","RY2","KNUDSON, KENNETH","=""5414""","C","B","2013-01-02","",14160.12,14160.12,56640.48,56640.48,480.00,29.50,18543.84,18543.84,68877.12,68877.12,560.00,33.11,1.12,"2019-04-05"
"268574","RY2","LARA III, REYES","=""0308""","H","B","2019-12-17","2020-04-28",5316.73,5316.73,21266.92,21266.92,333.03,15.96,2153.88,2153.88,8000.13,8000.13,139.42,15.45,0.97,""
"265328","RY2","LONGORIA, MICHAEL","=""8157""","C","S","2018-07-30","",18327.00,18327.00,73308.00,73308.00,480.00,38.18,17054.00,17054.00,68216.00,63343.43,480.00,35.53,0.93,"2019-10-31"
"275342","RY2","LOUDEN, ZAKERY","=""7774""","H","B","2019-05-29","",3215.18,3215.18,12860.72,12860.72,207.43,15.50,8171.15,8171.15,30349.99,30349.99,525.74,15.54,1.00,""
"249315","RY2","LOUGEE, THOMAS","=""7021""","H","B","2019-08-19","2020-03-26",6716.88,6716.88,26867.52,26867.52,513.81,13.07,,,,,,,,""
"298432","RY2","MASON, MYRON","=""1682""","H","B","2019-04-29","",6869.10,6869.10,27476.40,27476.40,486.50,14.12,7775.98,7775.98,28882.21,28882.21,546.61,14.23,1.01,""
"291582","RY2","MATHISEN, GARY","=""4858""","H","B","2015-11-09","",1360.48,1360.48,5441.92,5441.92,123.68,11.00,1191.85,1191.85,4426.87,4426.87,108.35,11.00,1.00,""
"275849","RY2","MAXWELL, WYATT","=""5334""","H","B","2019-11-19","2020-06-24",2027.52,2027.52,8110.08,8110.08,168.96,12.00,271.80,271.80,1009.54,1009.54,22.65,12.00,1.00,""
"215883","RY2","MONREAL, JESSIE","=""4778""","C","S","2017-09-25","2020-08-01",11530.76,11530.76,46123.04,46123.04,480.00,24.02,11780.00,11780.00,47120.00,43754.29,480.00,24.54,1.02,"2019-03-31"
"289563","RY2","NEUMANN, NANCY","=""9175""","H","B","2018-06-11","",7133.46,7133.46,28533.84,28533.84,522.99,13.64,8515.68,8515.68,31629.67,31629.67,631.46,13.49,0.99,""
"2106350","RY2","OLSON, CHAD","=""4543""","S","B","2010-01-01","",16207.72,16207.72,64830.88,64830.88,480.00,33.77,16992.34,16992.34,63114.41,63114.41,560.00,30.34,0.90,""
"296347","RY2","OLSON, JAMIE","=""7655""","H","B","2019-08-26","",7473.07,7473.07,29892.28,29892.28,516.63,14.47,7662.47,7662.47,28460.60,28460.60,583.81,13.12,0.91,""
"264387","RY2","OLVERA, CHRISTIAN","=""9245""","H","B","2018-11-19","",6509.05,6509.05,26036.20,26036.20,465.25,13.99,7510.69,7510.69,27896.85,27896.85,524.53,14.32,1.02,""
"2106410","RY2","PEDERSON, DAVID A","=""9816""","H","B","2011-12-16","",15605.48,15605.48,62421.92,62421.92,575.97,27.09,16464.14,16464.14,61152.52,61152.52,627.66,26.23,0.97,"2019-01-11"
"211201","RY2","PROIS, JUSTIN","=""3186""","C","B","2017-11-20","2020-05-29",11139.46,11139.46,44557.84,44557.84,480.00,23.21,6724.01,6724.01,24974.89,24974.89,335.00,20.07,0.86,""
"2114160","RY2","RAMBERG, GARY","=""3275""","H","B","1999-11-02","2020-07-23",11015.92,11015.92,44063.68,44063.68,585.49,18.81,13478.89,13478.89,50064.45,50064.45,612.67,22.00,1.17,"2019-01-11"
"267531","RY2","RAMON JR, MICHAEL","=""0553""","C","S","2019-08-26","",8293.00,8293.00,33172.00,33172.00,480.00,17.28,8337.00,8337.00,33348.00,30966.00,480.00,17.37,1.01,""
"287543","RY2","RANISATE, KYLE","=""3117""","H","B","2020-01-13","2020-02-13",1800.00,1800.00,7200.00,7200.00,150.00,12.00,,,,,,,,""
"258964","RY2","RISBERG, REBECCA","=""1309""","H","B","2020-01-07","2020-08-10",3833.16,3833.16,15332.64,15332.64,314.39,12.19,5098.50,5098.50,18937.29,18937.29,417.35,12.22,1.00,""
"267843","RY2","ROMIG, THOMAS","=""1625""","C","S","2018-10-08","",8443.00,8443.00,33772.00,33772.00,480.00,17.59,7612.00,7612.00,30448.00,28273.14,480.00,15.86,0.90,"2019-05-31"
"242539","RY2","SALDANA, DEION","=""1851""","C","S","2019-06-03","",10710.00,10710.00,42840.00,42840.00,480.00,22.31,10985.00,10985.00,43940.00,40801.43,480.00,22.89,1.03,"2019-09-30"
"2126055","RY2","SHROYER, RYAN","=""6185""","S","B","2019-04-01","",9003.35,9003.35,36013.40,36013.40,480.00,18.76,10230.78,10230.78,38000.04,38000.04,560.00,18.27,0.97,""
"2130150","RY2","SOBOLIK, PAUL A","=""5209""","C","B","1992-03-23","",15413.09,15413.09,61652.36,61652.36,480.00,32.11,21152.67,21152.67,78567.06,78567.06,560.00,37.77,1.18,"2019-05-03"
"2130678","RY2","SPENCER, FRED C","=""7979""","C","S","2005-02-01","",13344.67,13344.67,53378.68,53378.68,480.00,27.80,14520.00,14520.00,58080.00,53931.43,480.00,30.25,1.09,"2019-03-31"
"264852","RY2","SUMMERS, SAMANTHA G","=""8624""","H","B","2019-08-05","",8093.06,8093.06,32372.24,32372.24,457.21,17.70,11598.66,11598.66,43080.74,43080.74,583.18,19.89,1.12,""
"256845","RY2","SUTHERLAND, BROOKE","=""0486""","H,S","B","2017-07-23","",9131.60,9131.60,36526.40,36526.40,479.90,19.03,12374.29,12374.29,45961.65,45961.65,689.77,17.94,0.94,""
"2135031","RY2","SYVERSON, AMANDA","=""2517""","C","S","2016-02-01","2020-07-28",10710.50,10710.50,42842.00,42842.00,480.00,22.31,10183.32,10183.32,40733.28,37823.76,480.00,21.22,0.95,"2019-03-31"
"2141225","RY2","TANDESKI, JADE L","=""6558""","H","B","2014-10-08","",8164.28,8164.28,32657.12,32657.12,509.80,16.01,9195.60,9195.60,34155.09,34155.09,595.36,15.45,0.97,""
"298567","RY2","TANDESKI, JEROME","=""0787""","H","B","2017-12-28","",1441.00,1441.00,5764.00,5764.00,123.50,11.67,1600.00,1600.00,5942.86,5942.86,160.00,10.00,0.86,""
"259375","RY2","THORSELL, JESSE","=""6285""","H","B","2020-01-28","",4112.04,4112.04,16448.16,16448.16,317.09,12.97,7001.46,7001.46,26005.42,26005.42,536.14,13.06,1.01,""
"297324","RY2","TROEMNER, RUSSLYN","=""8163""","H","B","2020-03-09","2020-03-12",120.48,120.48,481.92,481.92,10.04,12.00,,,,,,,,""
"247583","RY2","VOELKER, JUSTIN","=""7569""","H","B","2019-12-31","2020-07-31",735.93,735.93,2943.72,2943.72,56.61,13.00,2960.36,2960.36,10995.62,10995.62,227.72,13.00,1.00,""
"2150210","RY2","WILDE, COREY R","=""9351""","C","S","2012-08-06","",21754.00,21754.00,87016.00,87016.00,480.00,45.32,20957.00,20957.00,83828.00,77840.29,480.00,43.66,0.96,"2019-01-31"
"256984","RY2","ZAPZALKA, WYATT","=""1682""","C","B","2018-05-21","2020-07-28",9576.72,9576.72,38306.88,38306.88,480.00,19.95,11589.28,11589.28,43045.90,43045.90,560.00,20.70,1.04,""
"211568","RY2","ZEMAN, HUNTER","=""9942""","H","B","2017-03-27","",7582.19,7582.19,30328.76,30328.76,499.13,15.19,9538.79,9538.79,35429.79,35429.79,613.47,15.55,1.02,""
"2126053","RY2","ZIDON, STEPHEN","=""2617""","H","B","2015-12-21","2020-07-13",1528.40,1528.40,6113.60,6113.60,152.84,10.00,127.90,127.90,475.06,475.06,12.79,10.00,1.00,""
