"store","employee_number","name","distrib_code","hire_date","term_date","payroll_class","full_part","2/10-2/16","employed","fte","2/17-2/23","employed","fte","2/24-3/2","employed","fte","3/3-3/9","employed","fte","3/10-3/16","employed","fte","3/17-3/23","employed","fte","3/24-3/30","employed","fte","3/31-4/6","employed","fte","4/7-4/13","employed","fte","4/14-4/20","employed","fte","4/21-4/27","employed","fte","4/28-5/4","employed","fte","5/5-5/11","employed","fte","5/12-5/18","employed","fte","5/19-5/25","employed","fte","5/26-6/1","employed","fte","6/2-6/8","employed","fte","6/9-6/15","employed","fte","6/16-6/22","employed","fte","6/23-6/29","employed","fte","6/30-7/6","employed","fte"
"RY2","268573","AAMODT, MATTHEW","TECH","2019-06-03","2019-06-10","H","full",0,f,0,0,f,0,0,f,0,0,f,0,0,f,0,0,f,0,0,f,0,0,f,0,0,f,0,0,f,0,0,f,0,0,f,0,0,f,0,0,f,0,0,f,0,0,f,0,36.91,t,1,16.89,t,1,0,f,0,0,f,0,0,f,0
"RY2","210073","BARON, CORY","TECH","2016-06-26","2019-03-15","C","full",48.54,t,1,43.66,t,1,40.21,t,1,43.27,t,1,38.02,t,1,0,f,0,0,f,0,0,f,0,0,f,0,0,f,0,0,f,0,0,f,0,0,f,0,0,f,0,0,f,0,0,f,0,0,f,0,0,f,0,0,f,0,0,f,0,0,f,0
"RY2","210123","BARTA, PATRICK","TECH","2017-01-04","","H","full",0,t,1,0,t,1,0,t,1,0,t,1,0,t,1,0,t,1,0,t,1,0,t,1,0,t,1,0,t,1,0,t,1,0,t,1,0,t,1,0,t,1,0,t,1,50.75,t,1,45.09,t,1,45.38,t,1,45.47,t,1,40.09,t,1,42.69,t,1
"RY2","24665","BATZER, CORY","TPDQ","2017-11-20","","H","full",44.24,t,1,42.18,t,1,33.60,t,1,43.03,t,1,42.43,t,1,36.12,t,1,41.91,t,1,41.30,t,1,36.77,t,1,42.29,t,1,42.64,t,1,43.16,t,1,43.70,t,1,40.41,t,1,44.36,t,1,42.40,t,1,43.08,t,1,33.80,t,1,35.54,t,1,41.42,t,1,49.65,t,1
"RY2","212589","BEDNEY, TYLER","TEAM","2017-06-05","","C","full",0,t,1,0,t,1,0,t,1,0,t,1,0,t,1,0,t,1,0,t,1,0,t,1,0,t,1,0,t,1,0,t,1,0,t,1,0,t,1,0,t,1,0,t,1,0,t,1,0,t,1,0,t,1,0,t,1,0,t,1,0,t,1
"RY2","254976","BINA, BENJAMIN","DETA","2018-07-02","","C","full",0,t,1,0,t,1,0,t,1,0,t,1,0,t,1,8.71,t,1,42.86,t,1,40.54,t,1,44.46,t,1,33.48,t,1,43.79,t,1,34.62,t,1,45.30,t,1,43.73,t,1,45.19,t,1,33.13,t,1,43.61,t,1,44.42,t,1,44.45,t,1,41.13,t,1,40.07,t,1
"RY2","213520","BINA, NOAH P","TPDQ","2014-07-27","2019-03-29","H","part",9.71,t,0.2,46.50,t,1,49.22,t,1,38.90,t,1.0,0,t,0,39.22,t,1.0,40.39,t,1,0,f,0,0,f,0,0,f,0,0,f,0,0,f,0,0,f,0,0,f,0,0,f,0,0,f,0,0,f,0,0,f,0,0,f,0,0,f,0,0,f,0
"RY2","212120","BJERK, CHRISTOPHER L","SALE","2012-09-24","2019-06-04","C","full",0,t,1,0,t,1,0,t,1,0,t,1,0,t,1,0,t,1,0,t,1,0,t,1,0,t,1,0,t,1,0,t,1,0,t,1,16.00,t,1,56.00,t,1,32.00,t,1,0,t,1,0,t,1,0,f,0,0,f,0,0,f,0,0,f,0
"RY2","265498","BOHN, CHRISTOPHER","DRI","2018-12-03","2019-04-12","H","full",40.00,t,1,40.00,t,1,43.00,t,1,40.00,t,1,40.00,t,1,40.00,t,1,40.00,t,1,40.00,t,1,40.00,t,1,0,f,0,0,f,0,0,f,0,0,f,0,0,f,0,0,f,0,0,f,0,0,f,0,0,f,0,0,f,0,0,f,0,0,f,0
"RY2","269843","BOOKER, JEREMIAH","OFFI","2019-06-24","","H","full",0,f,0,0,f,0,0,f,0,0,f,0,0,f,0,0,f,0,0,f,0,0,f,0,0,f,0,0,f,0,0,f,0,0,f,0,0,f,0,0,f,0,0,f,0,0,f,0,0,f,0,0,f,0,0,f,0,38.05,t,1,40.53,t,1
"RY2","24551","BUCKHOLZ, TYLER","TPDQ","2017-10-23","","H","full",40.71,t,1,35.70,t,1,31.28,t,1,47.86,t,1,44.01,t,1,41.11,t,1,36.54,t,1,37.94,t,1,42.64,t,1,52.57,t,1,43.42,t,1,43.38,t,1,42.75,t,1,41.77,t,1,33.83,t,1,35.01,t,1,43.25,t,1,33.38,t,1,42.13,t,1,31.89,t,1,50.05,t,1
"RY2","265873","BUDEAU, KAYLA","OFFI","2018-03-27","2019-05-20","H","part",10.46,t,0.3,11.02,t,0.3,25.03,t,0.6,11.81,t,0.3,17.63,t,0.4,11.63,t,0.3,26.47,t,0.7,10.51,t,0.3,24.25,t,0.6,11.64,t,0.3,15.02,t,0.4,27.22,t,0.7,24.53,t,0.6,10.97,t,0.3,13.19,t,0.3,4.73,f,0,0,f,0,0,f,0,0,f,0,0,f,0,0,f,0
"RY2","222457","CALCATERRA, CHAD E","TEAM","2015-07-20","","C","full",0,t,1,0,t,1,0,t,1,0,t,1,0,t,1,0,t,1,0,t,1,0,t,1,0,t,1,0,t,1,0,t,1,0,t,1,0,t,1,0,t,1,0,t,1,0,t,1,0,t,1,0,t,1,0,t,1,0,t,1,0,t,1
"RY2","223050","CARLSTROM, NATHAN T","TPDQ","2013-10-24","","H","part",29.24,t,0.7,29.84,t,0.7,39.78,t,1.0,29.75,t,0.7,52.13,t,1,22.78,t,0.6,39.52,t,1.0,28.92,t,0.7,39.09,t,1.0,29.62,t,0.7,30.59,t,0.8,35.81,t,0.9,53.15,t,1,48.51,t,1,42.81,t,1,36.23,t,0.9,43.97,t,1,42.86,t,1,42.08,t,1,41.83,t,1,44.30,t,1
"RY2","235791","DALLOW, BENJAMIN","SALE","2019-02-25","2019-05-03","C","full",0,f,0,0,f,0,0,t,1,0,t,1,0,t,1,0,t,1,0,t,1,0,t,1,0,t,1,0,t,1,0,t,1,0,t,1,0,f,0,0,f,0,0,f,0,0,f,0,0,f,0,0,f,0,0,f,0,0,f,0,0,f,0
"RY2","264972","DANGERFIELD, JAXSON","TPDQ","2019-05-13","","H","part",0,f,0,0,f,0,0,f,0,0,f,0,0,f,0,0,f,0,0,f,0,0,f,0,0,f,0,0,f,0,0,f,0,0,f,0,0,f,0,34.80,t,0.9,41.34,t,1,51.94,t,1,25.08,t,0.6,43.94,t,1,43.93,t,1,43.53,t,1,25.69,t,0.6
"RY2","230601","DANGERFIELD, JOEL","SMGR","2001-11-29","","S","full",0,t,1,0,t,1,0,t,1,0,t,1,0,t,1,0,t,1,0,t,1,0,t,1,0,t,1,0,t,1,0,t,1,0,t,1,0,t,1,0,t,1,0,t,1,0,t,1,0,t,1,0,t,1,0,t,1,0,t,1,0,t,1
"RY2","235489","DANZEY, MARIAH","SALE","2019-01-28","","C","full",0,t,1,0,t,1,0,t,1,0,t,1,0,t,1,0,t,1,0,t,1,0,t,1,0,t,1,0,t,1,0,t,1,0,t,1,0,t,1,0,t,1,0,t,1,0,t,1,0,t,1,0,t,1,0,t,1,0,t,1,0,t,1
"RY2","230810","DOERR, ROY","SVR","2013-04-29","","H","part",37.63,t,0.9,0,t,0,35.63,t,0.9,17.06,t,0.4,37.57,t,0.9,0,t,0,28.40,t,0.7,0,t,0,37.04,t,0.9,0,t,0,28.40,t,0.7,0,t,0,36.99,t,0.9,5.61,t,0.1,28.67,t,0.7,0,t,0,37.41,t,0.9,0,t,0,22.87,t,0.6,0,t,0,31.05,t,0.8
"RY2","265421","DURAND, TIMOTHY","STEA","2018-09-17","","H","full",49.13,t,1,34.62,t,1,42.87,t,1,33.29,t,1,37.55,t,1,31.18,t,1,48.39,t,1,43.29,t,1,36.05,t,1,37.16,t,1,38.49,t,1,43.31,t,1,44.09,t,1,31.50,t,1,40.86,t,1,41.42,t,1,40.21,t,1,26.31,t,1,43.20,t,1,28.65,t,1,44.56,t,1
"RY2","276431","ENGEBRETSON, ERIK","TECH","2018-07-02","","C","full",44.11,t,1,53.56,t,1,43.64,t,1,34.72,t,1,0,t,1,50.22,t,1,43.01,t,1,48.90,t,1,40.16,t,1,40.65,t,1,44.40,t,1,41.58,t,1,43.34,t,1,51.34,t,1,37.87,t,1,33.42,t,1,52.04,t,1,43.89,t,1,37.72,t,1,43.22,t,1,32.56,t,1
"RY2","211260","ENOCKSON, ZACHARY","TPDQ","2017-06-01","","H","full",47.62,t,1,34.32,t,1,42.72,t,1,43.24,t,1,41.83,t,1,34.44,t,1,48.16,t,1,48.76,t,1,48.97,t,1,53.40,t,1,41.96,t,1,36.91,t,1,13.89,t,1,43.65,t,1,45.34,t,1,48.22,t,1,43.90,t,1,43.97,t,1,44.00,t,1,43.11,t,1,40.06,t,1
"RY2","241085","EVENSON, GARRETT","TECH","2018-08-01","","C","full",50.31,t,1,43.26,t,1,42.58,t,1,42.50,t,1,40.36,t,1,32.08,t,1,48.64,t,1,41.56,t,1,37.59,t,1,40.31,t,1,37.98,t,1,48.36,t,1,31.90,t,1,39.28,t,1,38.98,t,1,46.85,t,1,39.79,t,1,39.79,t,1,40.03,t,1,42.21,t,1,38.08,t,1
"RY2","243180","FEIST, LUDWIG","PART","1995-01-23","","H","full",47.75,t,1,47.72,t,1,43.80,t,1,46.38,t,1,45.46,t,1,46.36,t,1,48.83,t,1,41.71,t,1,46.33,t,1,42.16,t,1,44.16,t,1,42.96,t,1,40.86,t,1,43.52,t,1,41.94,t,1,41.81,t,1,42.08,t,1,46.14,t,1,47.41,t,1,45.73,t,1,39.98,t,1
"RY2","247000","FRASER, BRADEN","PDQW","2017-01-05","","H","part",23.10,t,0.6,13.69,t,0.3,16.20,t,0.4,23.89,t,0.6,13.99,t,0.3,5.88,t,0.1,22.95,t,0.6,13.60,t,0.3,13.57,t,0.3,22.68,t,0.6,13.78,t,0.3,13.52,t,0.3,22.50,t,0.6,6.18,t,0.2,0,t,0,0,t,0,0,t,0,0,t,0,0,t,0,0,t,0,0,t,0
"RY2","249750","GABRIELSON, JAMES","SALE","2017-09-18","","C","full",0,t,1,0,t,1,0,t,1,0,t,1,0,t,1,0,t,1,0,t,1,0,t,1,0,t,1,0,t,1,0,t,1,0,t,1,0,t,1,0,t,1,0,t,1,0,t,1,0,t,1,0,t,1,0,t,1,0,t,1,0,t,1
"RY2","232985","GILGALLON, KEVIN","TPDQ","2018-11-19","","H","full",41.84,t,1,43.74,t,1,40.84,t,1,42.65,t,1,43.21,t,1,44.62,t,1,40.06,t,1,43.42,t,1,41.46,t,1,17.63,t,1,17.82,t,1,39.36,t,1,43.64,t,1,33.48,t,1,47.71,t,1,51.78,t,1,44.34,t,1,44.82,t,1,43.23,t,1,43.62,t,1,40.41,t,1
"RY2","254327","GROLLIMUND, TYLER","SALE","2018-08-01","","C","full",0,t,1,0,t,1,0,t,1,0,t,1,0,t,1,0,t,1,0,t,1,0,t,1,0,t,1,0,t,1,0,t,1,0,t,1,0,t,1,0,t,1,0,t,1,0,t,1,0,t,1,0,t,1,0,t,1,0,t,1,0,t,1
"RY2","263095","HAGER, DELWYN D","DRI","2014-03-11","","H","part",0,t,0,0,t,0,0,t,0,0,t,0,0,t,0,0,t,0,0,t,0,0,t,0,0,t,0,0,t,0,0,t,0,0,t,0,0,t,0,0,t,0,0,t,0,0,t,0,0,t,0,0,t,0,0,t,0,0,t,0,0,t,0
"RY2","256689","HALGRIMSON, JARED","PDQW","2017-04-10","","H","full",43.30,t,1,52.40,t,1,39.47,t,1,52.96,t,1,34.43,t,1,51.99,t,1,39.85,t,1,51.86,t,1,40.93,t,1,51.33,t,1,42.78,t,1,45.12,t,1,40.96,t,1,43.96,t,1,41.13,t,1,41.54,t,1,52.51,t,1,41.19,t,1,42.16,t,1,42.33,t,1,41.84,t,1
"RY2","264110","HEAZLETT, CURTIS F","DRI","2014-11-17","","H","part",0,t,0,3.50,t,0.1,33.50,t,0.8,4.50,t,0.1,9.50,t,0.2,8.00,t,0.2,11.00,t,0.3,0,t,0,0,t,0,34.50,t,0.9,11.00,t,0.3,0,t,0,33.00,t,0.8,1.50,t,0.0,23.50,t,0.6,0,t,0,11.00,t,0.3,14.00,t,0.4,28.00,t,0.7,4.25,t,0.1,0,t,0
"RY2","264220","HELGESON, JEFFREY S","PART","2009-11-24","","H","full",44.18,t,1,42.44,t,1,46.51,t,1,43.71,t,1,45.40,t,1,45.98,t,1,44.46,t,1,38.56,t,1,47.65,t,1,45.08,t,1,44.44,t,1,43.71,t,1,43.95,t,1,42.87,t,1,45.08,t,1,50.74,t,1,47.76,t,1,43.57,t,1,43.86,t,1,41.60,t,1,46.05,t,1
"RY2","211232","HOLLAND, NIKOLAI","TEAM","2019-03-18","","C","full",0,f,0,0,f,0,0,f,0,0,f,0,0,f,0,0,t,1,0,t,1,0,t,1,0,t,1,0,t,1,0,t,1,0,t,1,0,t,1,0,t,1,0,t,1,0,t,1,0,t,1,0,t,1,0,t,1,0,t,1,0,t,1
"RY2","22358","HUGHES, KAITLYN","OFFI","2017-07-31","","H","part",26.22,t,0.7,25.31,t,0.6,12.62,t,0.3,24.82,t,0.6,10.84,t,0.3,26.11,t,0.7,11.40,t,0.3,25.99,t,0.6,12.41,t,0.3,13.61,t,0.3,11.39,t,0.3,24.28,t,0.6,10.28,t,0.3,15.28,t,0.4,25.45,t,0.6,5.52,t,0.1,19.86,t,0.5,15.58,t,0.4,5.59,t,0.1,16.76,t,0.4,0,t,0
"RY2","256879","JENSON, MARK A","SVR","2017-02-13","","H","part",28.80,t,0.7,22.37,t,0.6,0,t,0,0,t,0,27.95,t,0.7,16.70,t,0.4,37.33,t,0.9,16.94,t,0.4,27.58,t,0.7,16.96,t,0.4,37.23,t,0.9,22.49,t,0.6,22.64,t,0.6,38.54,t,1.0,36.85,t,0.9,11.47,t,0.3,17.74,t,0.4,22.65,t,0.6,35.83,t,0.9,16.62,t,0.4,0,t,0
"RY2","232874","JOHNSON, ALLYN","SVR","2018-05-03","","H","part",0,t,0,17.84,t,0.4,0,t,0,10.49,t,0.3,0,t,0,21.38,t,0.5,0,t,0,11.88,t,0.3,0,t,0,21.05,t,0.5,0,t,0,6.12,t,0.2,5.95,t,0.1,20.91,t,0.5,0,t,0,12.03,t,0.3,0,t,0,21.12,t,0.5,0,t,0,11.35,t,0.3,16.86,t,0.4
"RY2","273315","JOHNSON, BRANDON J","TECH","2011-03-07","","C","full",44.36,t,1,57.99,t,1,48.24,t,1,48.51,t,1,54.32,t,1,43.46,t,1,42.22,t,1,43.24,t,1,42.29,t,1,43.72,t,1,55.13,t,1,44.62,t,1,47.06,t,1,56.46,t,1,47.29,t,1,43.82,t,1,44.06,t,1,58.66,t,1,55.37,t,1,30.63,t,1,40.27,t,1
"RY2","274225","JOHNSON, DUSTIN A","PART","2014-02-10","","H","full",42.37,t,1,48.17,t,1,43.28,t,1,43.74,t,1,42.84,t,1,44.27,t,1,42.44,t,1,39.77,t,1,41.65,t,1,45.45,t,1,38.84,t,1,43.10,t,1,42.39,t,1,43.12,t,1,52.26,t,1,41.03,t,1,42.82,t,1,48.32,t,1,48.80,t,1,38.98,t,1,41.43,t,1
"RY2","295148","KELLER, JOSIAH","TECH","2017-09-11","","C","full",38.00,t,1,41.98,t,1,51.14,t,1,40.23,t,1,39.13,t,1,46.41,t,1,38.53,t,1,39.03,t,1,46.37,t,1,38.21,t,1,39.24,t,1,47.20,t,1,38.75,t,1,22.87,t,1,47.85,t,1,39.62,t,1,43.65,t,1,30.59,t,1,39.52,t,1,31.03,t,1,45.94,t,1
"RY2","279630","KNUDSON, KENNETH","TECH","2013-01-02","","C","full",43.51,t,1,45.06,t,1,51.27,t,1,48.59,t,1,39.72,t,1,49.80,t,1,44.37,t,1,43.69,t,1,46.91,t,1,39.52,t,1,40.51,t,1,51.02,t,1,47.58,t,1,44.18,t,1,53.16,t,1,39.72,t,1,40.60,t,1,49.55,t,1,39.93,t,1,46.56,t,1,45.83,t,1
"RY2","284625","LANGENSTEIN, JARED","MGR","2018-02-19","2019-04-12","S","full",0,t,1,0,t,1,0,t,1,0,t,1,0,t,1,0,t,1,0,t,1,0,t,1,0,t,1,0,f,0,0,f,0,0,f,0,0,f,0,0,f,0,0,f,0,0,f,0,0,f,0,0,f,0,0,f,0,0,f,0,0,f,0
"RY2","275342","LOUDEN, ZAKERY","TECH","2019-05-29","","H","part",0,f,0,0,f,0,0,f,0,0,f,0,0,f,0,0,f,0,0,f,0,0,f,0,0,f,0,0,f,0,0,f,0,0,f,0,0,f,0,0,f,0,0,f,0,22.98,t,0.6,47.61,t,1,39.35,t,1.0,41.22,t,1,42.79,t,1,33.74,t,0.8
"RY2","269852","MAGNUSON, TYLER","DETA","2019-03-18","","C","full",0,f,0,0,f,0,0,f,0,0,f,0,0,f,0,7.79,t,1,8.94,t,1,0,t,1,7.73,t,1,24.27,t,1,36.08,t,1,35.22,t,1,32.27,t,1,44.15,t,1,44.65,t,1,42.06,t,1,26.30,t,1,45.00,t,1,44.53,t,1,40.00,t,1,40.55,t,1
"RY2","298432","MASON, MYRON","PDQW","2019-04-29","","H","full",0,f,0,0,f,0,0,f,0,0,f,0,0,f,0,0,f,0,0,f,0,0,f,0,0,f,0,0,f,0,0,f,0,0,t,1,0,t,1,0,t,1,0,t,1,0,t,1,42.50,t,1,55.44,t,1,36.13,t,1,42.38,t,1,40.05,t,1
"RY2","291582","MATHISEN, GARY","DRI","2015-11-09","","H","part",4.50,t,0.1,22.00,t,0.6,20.50,t,0.5,6.50,t,0.2,7.00,t,0.2,0,t,0,0,t,0,4.50,t,0.1,0,t,0,7.50,t,0.2,0,t,0,4.00,t,0.1,5.50,t,0.1,5.00,t,0.1,7.50,t,0.2,0,t,0,14.56,t,0.4,0,t,0,8.58,t,0.2,0,t,0,11.78,t,0.3
"RY2","215883","MONREAL, JESSIE","SALE","2017-09-25","","C","full",0,t,1,0,t,1,0,t,1,0,t,1,0,t,1,0,t,1,0,t,1,0,t,1,0,t,1,0,t,1,0,t,1,0,t,1,0,t,1,0,t,1,0,t,1,0,t,1,0,t,1,0,t,1,0,t,1,0,t,1,0,t,1
"RY2","2100750","NELSON, NICHOLAS","SALE","2018-09-10","","C","full",0,t,1,0,t,1,0,t,1,0,t,1,0,t,1,0,t,1,0,t,1,0,t,1,0,t,1,0,t,1,0,t,1,0,t,1,0,t,1,0,t,1,0,t,1,0,t,1,0,t,1,0,t,1,0,t,1,0,t,1,0,t,1
"RY2","289563","NEUMANN, NANCY","OFFI","2018-06-11","","H","full",40.78,t,1,41.00,t,1,41.35,t,1,41.23,t,1,48.68,t,1,41.34,t,1,41.31,t,1,39.91,t,1,41.07,t,1,54.17,t,1,51.77,t,1,40.93,t,1,41.19,t,1,50.93,t,1,41.01,t,1,42.53,t,1,42.89,t,1,50.31,t,1,41.41,t,1,43.79,t,1,43.10,t,1
"RY2","2106350","OLSON, CHAD","PTMG","2010-01-01","","S","full",0,t,1,0,t,1,0,t,1,0,t,1,0,t,1,0,t,1,0,t,1,0,t,1,0,t,1,0,t,1,0,t,1,0,t,1,0,t,1,0,t,1,0,t,1,0,t,1,0,t,1,0,t,1,0,t,1,0,t,1,0,t,1
"RY2","264387","OLVERA, CHRISTIAN","TPDQ","2018-11-19","","H","full",36.47,t,1,41.98,t,1,37.78,t,1,40.74,t,1,32.11,t,1,41.79,t,1,31.13,t,1,43.10,t,1,49.30,t,1,42.04,t,1,39.07,t,1,43.44,t,1,37.36,t,1,38.13,t,1,43.35,t,1,50.34,t,1,28.65,t,1,43.22,t,1,40.17,t,1,42.10,t,1,39.38,t,1
"RY2","2106410","PEDERSON, DAVID A","STEA","2011-12-16","","H","full",48.39,t,1,48.20,t,1,57.65,t,1,47.58,t,1,46.60,t,1,56.22,t,1,46.54,t,1,46.58,t,1,56.35,t,1,47.60,t,1,48.34,t,1,56.75,t,1,46.90,t,1,45.70,t,1,57.37,t,1,46.81,t,1,48.22,t,1,56.37,t,1,47.88,t,1,46.22,t,1,53.53,t,1
"RY2","211201","PROIS, JUSTIN","TECH","2017-11-20","","C","full",39.20,t,1,42.99,t,1,47.90,t,1,37.91,t,1,37.44,t,1,38.10,t,1,41.11,t,1,36.52,t,1,43.56,t,1,33.60,t,1,34.48,t,1,36.83,t,1,42.82,t,1,37.58,t,1,44.87,t,1,37.71,t,1,39.91,t,1,44.66,t,1,36.15,t,1,41.04,t,1,32.40,t,1
"RY2","2114160","RAMBERG, GARY","STEA","2018-11-12","","H","full",51.46,t,1,61.50,t,1,44.10,t,1,47.53,t,1,59.01,t,1,49.80,t,1,49.49,t,1,60.49,t,1,49.33,t,1,48.21,t,1,59.93,t,1,48.13,t,1,41.29,t,1,58.24,t,1,45.91,t,1,49.00,t,1,50.45,t,1,52.91,t,1,50.72,t,1,54.59,t,1,42.45,t,1
"RY2","267843","ROMIG, THOMAS","SALE","2018-10-08","","C","full",0,t,1,0,t,1,0,t,1,0,t,1,0,t,1,0,t,1,0,t,1,0,t,1,0,t,1,0,t,1,0,t,1,0,t,1,0,t,1,0,t,1,0,t,1,0,t,1,0,t,1,0,t,1,0,t,1,0,t,1,0,t,1
"RY2","2120492","RYDELL, ROBERT R","OWN","2006-06-01","2019-04-02","C","full",0,t,1,0,t,1,0,t,1,0,t,1,0,t,1,0,t,1,0,t,1,0,t,1,0,f,0,0,f,0,0,f,0,0,f,0,0,f,0,0,f,0,0,f,0,0,f,0,0,f,0,0,f,0,0,f,0,0,f,0,0,f,0
"RY2","242539","SALDANA, DEION","SALE","2018-09-24","2019-05-23","C","full",0,t,1,0,t,1,0,t,1,0,t,1,0,t,1,0,t,1,0,t,1,0,t,1,0,t,1,0,t,1,0,t,1,0,t,1,0,t,1,0,t,1,0,t,1,0,f,0,0,f,0,0,f,0,0,f,0,0,f,0,0,f,0
"RY2","298543","SCHINDLER, TIM","TPDQ","2018-03-12","","H","full",36.79,t,1,38.11,t,1,45.15,t,1,44.68,t,1,42.58,t,1,30.62,t,1,43.66,t,1,36.94,t,1,28.91,t,1,44.36,t,1,45.59,t,1,41.41,t,1,42.37,t,1,40.29,t,1,40.00,t,1,43.29,t,1,42.86,t,1,41.21,t,1,42.33,t,1,39.61,t,1,41.35,t,1
"RY2","2126055","SHROYER, RYAN","SMGR","2019-04-01","","S","full",0,f,0,0,f,0,0,f,0,0,f,0,0,f,0,0,f,0,0,f,0,0,t,1,0,t,1,0,t,1,0,t,1,0,t,1,0,t,1,0,t,1,0,t,1,0,t,1,0,t,1,0,t,1,0,t,1,0,t,1,0,t,1
"RY2","2130150","SOBOLIK, PAUL A","TECH","1992-03-23","","C","full",47.09,t,1,44.82,t,1,44.09,t,1,52.36,t,1,50.37,t,1,39.34,t,1,50.05,t,1,49.51,t,1,39.89,t,1,47.27,t,1,40.04,t,1,36.91,t,1,50.57,t,1,43.18,t,1,42.22,t,1,50.13,t,1,42.74,t,1,31.22,t,1,47.87,t,1,41.29,t,1,40.22,t,1
"RY2","2130678","SPENCER, FRED C","SALE","2005-02-01","","C","full",0,t,1,0,t,1,0,t,1,32.00,t,1,0,t,1,0,t,1,0,t,1,0,t,1,0,t,1,0,t,1,0,t,1,0,t,1,0,t,1,0,t,1,32.00,t,1,0,t,1,8.00,t,1,0,t,1,16.00,t,1,0,t,1,0,t,1
"RY2","256845","SUTHERLAND, BROOKE","STA","2017-07-23","","S","full",39.92,t,1,37.88,t,1,40.25,t,1,41.01,t,1,42.88,t,1,49.85,t,1,39.35,t,1,40.53,t,1,44.24,t,1,44.19,t,1,39.23,t,1,15.17,t,1,0,t,1,0,t,1,0,t,1,0,t,1,0,t,1,0,t,1,0,t,1,0,t,1,0,t,1
"RY2","2135031","SYVERSON, AMANDA","SALE","2018-09-04","","C","full",0,t,1,0,t,1,0,t,1,0,t,1,0,t,1,0,t,1,0,t,1,0,t,1,0,t,1,0,t,1,0,t,1,0,t,1,0,t,1,0,t,1,0,t,1,0,t,1,0,t,1,0,t,1,0,t,1,0,t,1,0,t,1
"RY2","2141225","TANDESKI, JADE L","STA","2014-10-08","","H","full",39.28,t,1,34.74,t,1,40.90,t,1,40.40,t,1,35.78,t,1,39.31,t,1,41.01,t,1,39.86,t,1,33.91,t,1,36.23,t,1,42.20,t,1,43.58,t,1,52.98,t,1,30.88,t,1,35.51,t,1,33.01,t,1,44.88,t,1,41.67,t,1,49.90,t,1,38.75,t,1,45.46,t,1
"RY2","298567","TANDESKI, JEROME","DRI","2017-12-28","","H","part",0,t,0,0,t,0,0,t,0,0,t,0,0,t,0,0,t,0,0,t,0,0,t,0,0,t,0,0,t,0,0,t,0,26.00,t,0.7,16.00,t,0.4,-3.00,t,-0.1,3.50,t,0.1,0,t,0,11.00,t,0.3,0,t,0,4.50,t,0.1,18.00,t,0.5,3.00,t,0.1
"RY2","223654","THIBERT, MASON","PART","2019-04-27","","H","full",0,f,0,0,f,0,0,f,0,0,f,0,0,f,0,0,f,0,0,f,0,0,f,0,0,f,0,0,f,0,0,t,1,39.23,t,1,41.32,t,1,31.05,t,1,41.02,t,1,40.39,t,1,37.79,t,1,41.09,t,1,39.52,t,1,32.87,t,1,39.06,t,1
"RY2","242460","TWETEN, MICHAEL","TEAM","2018-07-31","","C","full",0,t,1,0,t,1,0,t,1,0,t,1,0,t,1,0,t,1,0,t,1,0,t,1,0,t,1,0,t,1,0,t,1,0,t,1,0,t,1,0,t,1,0,t,1,0,t,1,0,t,1,0,t,1,0,t,1,0,t,1,0,t,1
"RY2","2150210","WILDE, COREY R","SALE","2012-08-06","","C","full",0,t,1,0,t,1,0,t,1,0,t,1,0,t,1,0,t,1,0,t,1,0,t,1,0,t,1,0,t,1,0,t,1,0,t,1,0,t,1,0,t,1,0,t,1,0,t,1,0,t,1,0,t,1,0,t,1,0,t,1,0,t,1
"RY2","256984","ZAPZALKA, WYATT","TECH","2018-05-21","","C","full",40.94,t,1,50.80,t,1,25.24,t,1,24.16,t,1,7.95,t,1,38.65,t,1,28.83,t,1,33.46,t,1,39.08,t,1,27.36,t,1,36.38,t,1,38.59,t,1,33.01,t,1,43.65,t,1,33.24,t,1,34.34,t,1,48.30,t,1,36.90,t,1,40.11,t,1,46.21,t,1,36.41,t,1
"RY2","2126053","ZIDON, STEPHEN","SVR","2015-12-21","","H","part",0,t,0,25.81,t,0.6,29.64,t,0.7,38.47,t,1.0,0,t,0,27.81,t,0.7,0,t,0,37.23,t,0.9,0,t,0,27.54,t,0.7,0,t,0,37.19,t,0.9,0,t,0,0,t,0,0,t,0,32.05,t,0.8,5.69,t,0.1,22.60,t,0.6,0,t,0,36.88,t,0.9,0,t,0
"","","","","","","","",,,50.2,,,51.2,,,53.2,,,52.2,,,51.0,,,52.5,,,53.5,,,52.6,,,51.8,,,50.6,,,50.7,,,53.0,,,52.4,,,51.4,,,52.4,,,50.0,,,52.5,,,51.5,,,50.6,,,51.6,,,50.0
