"store","emp #","name","dist_code","hire_date","term_date","payroll_class","full_part","clock_hours","fte"
"RY2","210123","BARTA, PATRICK","TECH","2017-01-04","","H","full",31.84,1.0
"RY2","24665","BATZER, CORY","TPDQ","2017-11-20","","H","full",35.89,1.0
"RY2","246783","BEAUVAIS, ELLIOT","PDQW","2019-12-02","","H","full",25.34,1.0
"RY2","297632","BECK, MADISON","OFFI","2020-02-11","","H","part",12.23,0.4
"RY2","254976","BINA, BENJAMIN","DETA","2018-07-02","","C","full",40.01,1.0
"RY2","213520","BINA, NOAH P","TPDQ","2019-11-20","","H","part",9.00,0.3
"RY2","257935","BOGER, DYLAN","TPDQ","2019-11-19","","H","part",10.66,0.4
"RY2","24551","BUCKHOLZ, TYLER","TPDQ","2017-10-23","","H","full",37.07,1.0
"RY2","230601","DANGERFIELD, JOEL","SMGR","2001-11-29","","S","full",0.00,1.0
"RY2","230810","DOERR, ROY","SVR","2013-04-29","","H","part",8.85,0.3
"RY2","294387","DUNHAM, DEXTER","SALE","2019-09-12","","C","part",0.00,0.5
"RY2","276431","ENGEBRETSON, ERIK","TECH","2018-07-02","","C","full",40.50,1.0
"RY2","295435","ERICKSON, ANTHONY","TPDQ","2019-08-26","","H","full",29.07,1.0
"RY2","241085","EVENSON, GARRETT","TECH","2018-08-01","","C","full",46.50,1.0
"RY2","243180","FEIST, LUDWIG","PART","1995-01-23","","H","full",39.99,1.0
"RY2","247000","FRASER, BRADEN","STEA","2019-07-17","","H","full",41.22,1.0
"RY2","249750","GABRIELSON, JAMES","SALE","2017-09-18","","C","full",0.00,1.0
"RY2","269854","GOETZ, ELIJAH","TPDQ","2020-03-24","","H","full",39.98,1.0
"RY2","254327","GROLLIMUND, TYLER","SALE","2018-08-01","","C","full",0.00,1.0
"RY2","263095","HAGER, DELWYN D","DRI","2014-03-11","","H","part",0.00,0.0
"RY2","263101","HAGER, JONATHAN E","DRI","2014-02-18","","H","part",0.00,0.0
"RY2","264110","HEAZLETT, CURTIS F","DRI","2014-11-17","","H","part",0.00,0.0
"RY2","264220","HELGESON, JEFFREY S","PART","2009-11-24","","H","full",42.22,1.0
"RY2","211232","HOLLAND, NIKOLAI","TEAM","2019-03-18","","C","full",0.00,1.0
"RY2","256879","JENSON, MARK A","SVR","2017-02-13","","H","part",25.28,0.8
"RY2","232874","JOHNSON, ALLYN","SVR","2018-05-03","","H","part",0.00,0.0
"RY2","273315","JOHNSON, BRANDON J","TECH","2011-03-07","","C","full",35.43,1.0
"RY2","243876","JOHNSON, CHRISTIE","SALE","2019-07-29","","C","full",0.00,1.0
"RY2","274225","JOHNSON, DUSTIN A","PART","2014-02-10","","H","full",40.19,1.0
"RY2","259756","JOHNSON, FRANCES","PDQW","2020-01-21","","H","full",37.59,1.0
"RY2","295148","KELLER, JOSIAH","TECH","2017-09-11","","C","full",0.00,1.0
"RY2","279380","KNUDSON, BENJAMIN","MGR","2009-08-12","","C","full",0.00,1.0
"RY2","279630","KNUDSON, KENNETH","TECH","2013-01-02","","C","full",38.54,1.0
"RY2","268574","LARA III, REYES","PDQW","2019-12-17","","H","full",38.36,1.0
"RY2","265328","LONGORIA, MICHAEL","TEAM","2018-07-30","","C","full",0.00,1.0
"RY2","275342","LOUDEN, ZAKERY","TECH","2019-05-29","","H","part",31.84,1.0
"RY2","298432","MASON, MYRON","STEA","2019-04-29","","H","full",35.85,1.0
"RY2","291582","MATHISEN, GARY","DRI","2015-11-09","","H","part",0.00,0.0
"RY2","275849","MAXWELL, WYATT","TPDQ","2019-11-19","","H","part",0.00,0.0
"RY2","215883","MONREAL, JESSIE","SALE","2017-09-25","","C","full",0.00,1.0
"RY2","289563","NEUMANN, NANCY","OFFI","2018-06-11","","H","full",39.31,1.0
"RY2","2106350","OLSON, CHAD","PTMG","2010-01-01","","S","full",0.00,1.0
"RY2","296347","OLSON, JAMIE","PART","2019-08-26","","H","full",40.13,1.0
"RY2","264387","OLVERA, CHRISTIAN","TPDQ","2018-11-19","","H","full",36.84,1.0
"RY2","2106410","PEDERSON, DAVID A","STEA","2011-12-16","","H","full",40.25,1.0
"RY2","211201","PROIS, JUSTIN","TECH","2017-11-20","","C","full",36.11,1.0
"RY2","2114160","RAMBERG, GARY","STEA","1999-11-02","","H","full",40.04,1.0
"RY2","267531","RAMON JR, MICHAEL","SALE","2019-08-26","","C","part",0.00,0.5
"RY2","258964","RISBERG, REBECCA","OFFI","2020-01-07","","H","full",22.19,1.0
"RY2","267843","ROMIG, THOMAS","SALE","2018-10-08","","C","full",0.00,1.0
"RY2","242539","SALDANA, DEION","SALE","2019-06-03","","C","full",0.00,1.0
"RY2","2126055","SHROYER, RYAN","PDQM","2019-04-01","","S","full",0.00,1.0
"RY2","2130150","SOBOLIK, PAUL A","TECH","1992-03-23","","C","full",47.00,1.0
"RY2","2130678","SPENCER, FRED C","SALE","2005-02-01","","C","full",0.00,1.0
"RY2","264852","SUMMERS, SAMANATHA G","TECH","2019-08-05","","H","full",31.95,1.0
"RY2","256845","SUTHERLAND, BROOKE","SALE","2017-07-23","","H","full",42.38,1.0
"RY2","2135031","SYVERSON, AMANDA","SALE","2016-02-01","","C","full",0.00,1.0
"RY2","2141225","TANDESKI, JADE L","STA","2014-10-08","","H","full",32.00,1.0
"RY2","298567","TANDESKI, JEROME","DRI","2017-12-28","","H","part",0.00,0.0
"RY2","259375","THORSELL, JESSE","TPDQ","2020-01-28","","H","full",27.36,1.0
"RY2","247583","VOELKER, JUSTIN","TPDQ","2019-12-31","","H","full",8.39,1.0
"RY2","2150210","WILDE, COREY R","SALE","2012-08-06","","C","full",0.00,1.0
"RY2","256984","ZAPZALKA, WYATT","TECH","2018-05-21","","C","full",40.09,1.0
"RY2","211568","ZEMAN, HUNTER","PDQW","2017-03-27","","H","full",38.67,1.0
"RY2","2126053","ZIDON, STEPHEN","SVR","2015-12-21","","H","part",0.00,0.0
"","","","","","","","",,53.2
