"store","employee_number","name","dist_code","hire_date","term_date","payroll_class","full_part","clock_hours","fte"
"RY1","168573","AAMODT, MATTHEW","STEC","2019-08-04","","H","full",39.18,1.0
"RY1","143769","AANENSON, AMANDA","12","2019-06-03","","H","full",39.91,1.0
"RY1","159876","AANENSON, GENE","DRI","2019-10-31","","H","part",0.00,0.0
"RY1","193457","AAS, SCOTT","PTDR","2020-03-16","","H","full",51.33,1.0
"RY1","11660","ADAM, PATRICK","BTEC","2016-04-25","","C","full",36.61,1.0
"RY1","197642","ADHIKARI, OM","RAY","2019-06-17","","H","full",24.04,0.8
"RY1","11732","AGUILAR, ANNA","BOFF","2015-09-08","","H","full",41.76,1.0
"RY1","10568","AKER, CADEN","PTEC","2017-11-06","","H","full",27.84,0.9
"RY1","175398","ALLARD, BROCK","PTEC","2019-10-09","","H","part",0.00,0.0
"RY1","168575","ALOISIO, MADYSON","SRVM","2019-12-17","","H","part",37.46,1.0
"RY1","147832","ALTEPETER, GRAYSON","WTEC","2019-07-11","","H","full",25.32,0.8
"RY1","165873","ANDERSON, NICHOLAS","PTEC","2018-06-18","","H","full",0.00,0.0
"RY1","13725","ANDERSON, SHAWN W","STEC","2015-02-02","","C","full",42.52,1.0
"RY1","13815","ANDERSON, STEVEN L","DRI","2014-03-10","","H","part",0.00,0.0
"RY1","16425","ANDREWS, JON","29","2006-04-11","","S","full",0.00,1.0
"RY1","16450","APPLING, DAVID J","22","2015-01-27","","H","part",0.00,0.0
"RY1","123578","ATWELL, TREVOR","CWAS","2020-02-24","","H","full",32.58,1.0
"RY1","17534","AUBOL, THOMAS B","TEAM","1998-11-09","","C","full",0.00,1.0
"RY1","18005","AXTMAN, DALE M","STEC","2001-05-01","","C","full",40.20,1.0
"RY1","196575","BACH, CASPER","SALE","2020-03-24","","C","full",0.00,1.0
"RY1","166873","BAILLY, BRODY","PTEC","2020-03-05","","H","part",3.27,0.1
"RY1","174738","BARBEAU, LUKE","PTEC","2019-11-19","","H","part",8.21,0.3
"RY1","111210","BEAR, JEFFERY L","STEC","2014-10-14","","C","full",29.18,1.0
"RY1","112589","BEDNEY, TYLER","SALM","2017-06-05","","C","full",0.00,1.0
"RY1","187564","BEHM, PAUL","PTEC","2018-04-23","","H","full",31.53,1.0
"RY1","111250","BEISWENGER, LYLE W","DRI","2012-11-13","","H","part",0.00,0.0
"RY1","197523","BEITER, GABRIELLE","NCI","2019-08-12","","H","full",33.77,1.0
"RY1","156398","BERG, ETHAN","CWAS","2019-10-09","","H","part",27.66,0.9
"RY1","195359","BERGE, THOMAS","PTEC","2019-10-08","","H","full",30.22,1.0
"RY1","113085","BERGH, STEVEN","CMGR","2014-06-30","","S","full",0.00,1.0
"RY1","196485","BICKER, AUSTIN","PTEC","2020-03-24","","H","part",0.00,0.0
"RY1","157953","BIES II, DAVID","BTEC","2019-01-28","","C","full",36.76,1.0
"RY1","147741","BJARNASON, JUSTIN","SALE","2017-06-05","","C","full",0.00,1.0
"RY1","115255","BJORNSETH, MARK L","PART","1989-09-25","","S","full",0.00,1.0
"RY1","149852","BLEWITT, ALEXIS","12","2019-10-02","","H","part",20.15,0.7
"RY1","160930","BLUMHAGEN, KATHERINE M","BSPA","2002-08-19","","H","full",50.24,1.0
"RY1","116185","BOHM, DOUGLAS","STEC","1993-03-01","","H","full",32.00,1.0
"RY1","169843","BOOKER, JEREMIAH","STL","2019-06-24","","H","full",25.68,0.9
"RY1","118010","BRAATEN, DEAN T","PART","2017-04-24","","H","full",44.38,1.0
"RY1","195436","BRAATEN, LOGAN","PTEC","2019-08-26","","H","part",0.00,0.0
"RY1","165876","BRIONES-BURNETT, KATRINA","CWAS","2020-04-06","","H","part",15.69,0.5
"RY1","165823","BRODEN, MARK","SRVM","2019-08-19","","H","full",32.48,1.0
"RY1","118520","BROOKS JR, DREW","PDQW","2017-04-02","","H","full",43.94,1.0
"RY1","121063","BRORBY, BO","94","2015-11-23","","H","full",45.34,1.0
"RY1","123211","BRUGGEMAN, AFTON","29","2016-08-01","","S","full",0.00,1.0
"RY1","158763","BRUNK, JUSTIN","SALE","2018-02-26","","C","full",0.00,1.0
"RY1","145789","BUCHANAN, KYLE","BTEC","2017-05-08","","C","full",35.16,1.0
"RY1","155477","BUCKHOLZ, ZACHARY","PTEC","2017-04-10","","H","full",27.47,0.9
"RY1","175873","BUDEAU, KAYLA","SALE","2018-03-27","","H","full",32.32,1.0
"RY1","159375","BUSHEE, BRYCE","PTEC","2019-11-19","","H","part",0.00,0.0
"RY1","123100","CAHALAN, BENJAMIN C","GM","2011-08-03","","S","full",0.00,1.0
"RY1","185462","CARABALLO, CHRISTOPHER","SALE","2019-10-07","","C","full",0.00,1.0
"RY1","123525","CARLSON, KENNETH A","STL","2010-01-01","","H","part",11.13,0.4
"RY1","123538","CARLSON, ROBERT","25","1997-04-01","","C","full",0.00,1.0
"RY1","124101","CHAMPAGNE, LESLIE","DCAS","2014-08-25","","H","full",36.46,1.0
"RY1","135987","CLARK, ADAM","PTEC","2018-02-01","","H","full",0.00,0.0
"RY1","165980","CLASEMAN, JAMIE","16","2018-12-03","","H","full",38.25,1.0
"RY1","162983","CLOSE, PRESTON","SALE","2019-09-12","","C","full",0.00,1.0
"RY1","126200","COCHRAN, MICHELLE C","ADMI","2011-01-24","","S","full",0.00,1.0
"RY1","158963","COOK, MATTHEW","WTEC","2019-06-03","","H","full",31.54,1.0
"RY1","196325","COOLEY, CONNOR","PTEC","2020-01-28","","H","part",5.33,0.2
"RY1","186724","CORY, CLAIRE","CWAS","2019-05-24","","H","part",16.00,0.5
"RY1","126250","COULTER, DONALD R","22","2015-01-27","","H","part",0.00,0.0
"RY1","128530","CROAKER, CRAIG R","SALE","2007-01-30","","C","full",0.00,1.0
"RY1","143298","DAHLEY, SHELBY","DPOT","2019-07-11","","H","full",13.52,0.5
"RY1","131370","DAVID, GORDON","STEC","1995-06-07","","C","full",48.29,1.0
"RY1","131315","DAVIS, ERIC A","WTEC","2014-08-11","","C","full",36.99,1.0
"RY1","15552","DECOUTEAU, FRANK A","SALE","2017-09-25","","C","full",0.00,1.0
"RY1","132500","DELOHERY, MICHAEL J","15","2010-05-03","","S","full",0.00,1.0
"RY1","154983","DEVIER, RYLIE","CWAS","2018-12-03","","H","part",6.57,0.2
"RY1","154225","DEZIEL, DYLAN","PTDR","2019-02-21","","H","full",40.57,1.0
"RY1","15648","DIBI, ANDREW","BTEC","2017-10-23","","H","full",33.87,1.0
"RY1","133017","DOCKENDORF, NATE J","SALM","2015-05-18","","C","full",0.00,1.0
"RY1","135770","DRISCOLL, TERRANCE","BTEC","2002-11-04","","C","full",28.79,1.0
"RY1","136170","DUCKSTAD, JARED J","STEC","2002-09-30","","C","full",40.26,1.0
"RY1","137101","EBERLE, MARCUS M","BTEC","2016-08-15","","C","full",34.90,1.0
"RY1","138380","EICHHORST, NOEL E","RAY","1978-08-30","","H","full",38.43,1.0
"RY1","153835","ELLINGSON, DANE","SRVM","2020-01-13","","H","part",0.00,0.0
"RY1","132963","ERICKSON, DENNIS","DRI","2019-04-03","","H","part",0.00,0.0
"RY1","175393","ERICKSON, JUSTIN","WTEC","2019-11-19","","C","part",24.20,0.8
"RY1","140500","ERICKSON, RONALD J","USED","2009-10-12","","C","full",0.00,1.0
"RY1","140790","ESPELUND, KENNETH M","STEC","2005-09-19","","S","full",0.00,1.0
"RY1","141060","EULISS, NED","STL","2004-11-02","","H","full",34.66,1.0
"RY1","141069","EVAVOLD, DANIEL J","BTEA","2007-01-23","","H","full",37.66,1.0
"RY1","195628","EVENSON, JOSHUA","STL","2019-10-07","","H","full",45.78,1.0
"RY1","157939","FEATHERSTONE, GARRETT","PTEC","2020-01-13","","H","full",36.20,1.0
"RY1","159863","FERRY, CARTER","STEC","2018-02-12","","C","full",40.13,1.0
"RY1","145801","FLAAT, GAVIN","STEC","2016-04-11","","C","full",48.16,1.0
"RY1","183923","FLORES, JOSHUA","PTEC","2019-10-09","","H","part",0.00,0.0
"RY1","148050","FOSTER, BENJAMIN F","94","2013-10-21","","S","full",0.00,1.0
"RY1","148075","FOSTER, KEVIN B","94","2006-06-05","","S","full",0.00,1.0
"RY1","148080","FOSTER, SAMUEL T","SALE","2014-11-17","","C","full",0.00,1.0
"RY1","165783","FREITAG, TALON","PTSR","2018-05-21","","H","full",32.98,1.0
"RY1","154328","FREKING, NICOLAS","PTDR","2018-10-08","","H","part",28.70,1.0
"RY1","155214","GAGNON, ANASTASIA","14","2018-05-27","","H","full",33.29,1.0
"RY1","157995","GAGNON, JUNE","14","2008-02-11","","S","full",0.00,1.0
"RY1","149878","GAGNON, TRACI L","SOFF","2008-10-30","","H","full",40.49,1.0
"RY1","157394","GAJMER, JOHN","PTEC","2019-10-09","","H","part",16.47,0.5
"RY1","159823","GALLETTA, ALEXIUS","CWAS","2019-12-31","","H","part",0.00,0.0
"RY1","150105","GARDNER, CHAD A","BTEC","2011-04-04","","C","full",33.40,1.0
"RY1","150120","GARDNER, JOHN T","BSM","2014-06-01","","S","full",0.00,1.0
"RY1","150126","GEHRTZ, CLAYTON J","STEC","2014-12-29","","C","full",39.80,1.0
"RY1","132584","GERSZEWSKI, JOSEPH","PTEC","2019-08-05","","H","full",18.69,0.6
"RY1","174123","GEST, ALEXIS","16","2019-08-26","","H","part",0.00,0.0
"RY1","156988","GIESLER, MEGAN","14","2017-07-17","","H","part",20.17,0.7
"RY1","152235","GIRODAT, JEFF S","STEC","1986-05-05","","C","full",41.38,1.0
"RY1","152480","GOETZ, DUANE E","25","2012-10-01","","C","part",0.00,0.5
"RY1","159857","GONZALEZ, DANIEL","SRVM","2019-12-17","","H","full",30.03,1.0
"RY1","153865","GOODOIEN, DEREK","PTEC","2019-07-11","","H","part",37.86,1.0
"RY1","156987","GORDON III, DOUGLAS","PTEC","2020-02-13","","H","full",0.00,0.0
"RY1","152499","GOTHBERG, CONNER J","STL","2015-09-01","","H","full",40.94,1.0
"RY1","175342","GOULET, JENNIFER","16","2019-08-26","","H","full",41.35,1.0
"RY1","152510","GOULET, SHANE A","CWAS","2014-03-31","","H","full",40.57,1.0
"RY1","152525","GRANT, DESIREE L","STEC","2014-05-19","","C","full",40.24,1.0
"RY1","152410","GRAY, NATHAN J","STEC","2011-08-22","","C","full",50.41,1.0
"RY1","152432","GREEN, HARRISON","PDQW","2016-02-15","","H","full",0.00,0.0
"RY1","122558","GRYSKIEWICZ, JONATHAN","BTEC","2017-05-22","","C","full",36.67,1.0
"RY1","137837","GULLEKSON, ASHLEY","SOFF","2019-11-18","","H","full",39.83,1.0
"RY1","165327","GUST, MICAH","BTEC","2018-08-13","","H","part",0.00,0.0
"RY1","145982","HAARSTAD, BRITTANY","CWAS","2019-08-26","","H","full",40.92,1.0
"RY1","161010","HAGA, MASON C","PTEC","2015-06-01","","H","part",7.65,0.3
"RY1","195975","HAGEN, TYLER","WTEC","2019-10-28","","H","full",40.75,1.0
"RY1","164328","HAHN, BRIDGER","DPOT","2018-12-17","","H","part",19.25,0.6
"RY1","147852","HALE, ELISA","SALE","2020-02-24","","H","full",40.40,1.0
"RY1","163700","HALEY, DYLANGER","SALM","2016-09-26","","C","full",0.00,1.0
"RY1","178323","HANSON, ADAM","PTEC","2019-11-19","","H","part",12.49,0.4
"RY1","132854","HANSON, EMILY","CWAS","2019-08-26","","H","part",0.00,0.0
"RY1","162428","HARMON, TERRENCE J","PART","2001-10-01","","H","full",0.00,0.0
"RY1","175839","HARREN, ZACHARY","CWAS","2019-11-19","","H","part",26.15,0.9
"RY1","162800","HARRIS, SHERIDAN","DRI","1955-09-01","","H","part",0.00,0.0
"RY1","163096","HASTINGS, DAWN","12","1986-01-06","","H","full",39.31,1.0
"RY1","154760","HATLOY, CHARTON","PTDR","2018-11-05","","H","part",5.46,0.2
"RY1","165789","HECK, SETH","RAO","2019-01-14","","C","full",0.00,1.0
"RY1","164015","HEFFERNAN, JOSH","STEC","1995-07-15","","C","full",41.98,1.0
"RY1","164202","HELGESON, HERB","DRI","2005-01-13","","H","part",0.00,0.0
"RY1","175838","HELLYER, HENRY","DRI","2019-11-13","","H","part",0.00,0.0
"RY1","181876","HENRY, JUDY","84","1994-02-01","","S","full",0.00,1.0
"RY1","164920","HEPOLA, JAMES W","WTEC","2010-11-15","","C","part",9.63,0.3
"RY1","185600","HIBMA, MORGAN E","15","2016-08-01","","S","full",0.00,1.0
"RY1","165275","HICKS, EMILY","BTEC","2016-09-12","","H","full",4.47,0.1
"RY1","165357","HILL, BRIAN","BTEA","2006-08-28","","H","full",34.70,1.0
"RY1","164329","HINTZ, MATTHEW","RAY","2019-06-26","","H","part",0.00,0.0
"RY1","142589","HLAVAC, TERRI","BOFF","2019-08-26","","H","full",27.55,0.9
"RY1","159873","HOLUM, JACOB","PTEC","2019-11-04","","H","part",24.87,0.8
"RY1","167812","HOLWEGER, AMANDA J","14","2011-04-25","","H","part",5.12,0.2
"RY1","167580","HOLWERDA, KIRBY W","STEC","2011-05-18","","C","full",40.23,1.0
"RY1","167906","HULL, DAVID","PTSR","2015-04-27","","H","full",35.89,1.0
"RY1","168815","HUNTER, JASON W","PTDR","2018-08-23","","H","part",0.00,0.0
"RY1","170150","IVERSON, ARNOLD W","DRI","2017-11-17","","H","part",0.00,0.0
"RY1","171055","JACOBSON, PETER A","BTEC","2010-12-13","","C","full",35.26,1.0
"RY1","172308","JANKOWSKI, GARRETT","STL","2019-09-12","","H","full",45.27,1.0
"RY1","172077","JERSTAD, KENNETH","PART","2002-06-10","","H","full",32.49,1.0
"RY1","184620","JOHNSON, BENJAMIN R","BTEC","2017-01-20","","H","full",36.61,1.0
"RY1","156844","JOHNSON, DAVID","RAY","2017-11-06","","H","full",40.22,1.0
"RY1","164286","JOHNSON, LOGAN","CWAS","2019-05-17","","H","part",25.37,0.8
"RY1","178050","KIEFER, LUCAS M","STEC","2014-05-19","","C","full",44.60,1.0
"RY1","178060","KILEY, COLTON","CWAS","2016-06-06","","H","part",33.14,1.0
"RY1","178079","KILMER, JUSTIN","SOFF","2007-02-01","","H","full",40.17,1.0
"RY1","165732","KLOETY, HALEY","STL","2019-04-29","","H","full",42.12,1.0
"RY1","132987","KNOWLES, MAYHAYLA","SOFF","2017-12-18","","H","full",40.71,1.0
"RY1","154219","KOBAYASHI-DYER, NARUMI","SALE","2018-10-01","","C","full",0.00,1.0
"RY1","179693","KOENEN, DEBRA M","16","2008-08-04","","H","full",30.67,1.0
"RY1","167834","KOHLS, ADAM","SALE","2018-04-11","","C","full",0.00,1.0
"RY1","154876","KOLLMAN, MAXWELL","CWAS","2020-02-24","","H","part",15.81,0.5
"RY1","179775","KOLSTAD, KIRK R","PART","1980-03-01","","H","full",42.15,1.0
"RY1","179790","KOWALSKI, JASON","AFTE","2014-06-16","","H","full",50.99,1.0
"RY1","158765","KRISTENSEN, ADAM","DPOT","2020-02-11","","H","part",0.00,0.0
"RY1","198543","KROGSTAD, LARRY","DRI","2019-04-03","","H","part",0.00,0.0
"RY1","184605","LABELLE, KODI L","WTEC","2018-12-17","","H","full",25.33,0.8
"RY1","184614","LAMONT, BRANDON","BTEC","2015-10-12","","C","full",34.75,1.0
"RY1","182713","LARSON, CODY J","RAY","2018-09-24","","H","full",39.71,1.0
"RY1","189596","LARSON, TYLER","PTEC","2019-10-07","","H","part",6.71,0.2
"RY1","175738","LARSON, WYATT","PTEC","2019-11-19","","H","part",13.28,0.4
"RY1","184610","LAUGHLIN, LARRY J","PART","1998-10-16","","H","full",37.29,1.0
"RY1","184806","LEAVY, PAUL M","WTEC","2014-08-25","","C","full",22.00,0.7
"RY1","165972","LECLAIR, AUSTIN","11","2018-11-19","","H","full",30.20,1.0
"RY1","140882","LEEDAHL, GLENNA","DRI","2018-05-07","","H","part",0.00,0.0
"RY1","198435","LEHR, CARLY","16","2019-07-15","","H","part",0.00,0.0
"RY1","184920","LENE, RYAN","BTEC","2015-01-05","","C","full",35.28,1.0
"RY1","15668","LINDEMANN, TASHA","PDQW","2017-09-11","","H","full",39.71,1.0
"RY1","186100","LIND, KATHERINE","LIND","1983-11-22","","S","full",0.00,1.0
"RY1","145785","LOGAN, JAI'LA","SALE","2020-02-24","","H","full",32.67,1.0
"RY1","187675","LONGORIA, BEVERLEY A","STEC","2005-02-21","","S","full",48.54,1.0
"RY1","189100","LOVEN, ARDEN","SALE","2010-03-08","","C","full",0.00,1.0
"RY1","188338","LUEKER, DAVID C","BTEA","2003-06-16","","H","full",41.34,1.0
"RY1","190600","MAGNUSON, TYLER D","WTEC","2019-09-09","","H","full",38.64,1.0
"RY1","190892","MANGAN, RICHARD","PTSR","2002-09-23","","H","full",41.77,1.0
"RY1","190918","MARCOTTE, THOMAS H","22","1985-07-28","","H","full",46.54,1.0
"RY1","190910","MAREK, DAYTON C","DEMG","2017-05-05","","S","full",0.00,1.0
"RY1","168351","MARESCA, ROMAO","PTSM","2018-08-27","","S","full",0.00,1.0
"RY1","191060","MARO, NICHOLAS","STL","2014-01-20","","H","full",43.26,1.0
"RY1","191350","MAVITY, ROBERT","BTEC","2008-01-01","","C","full",35.63,1.0
"RY1","18574","MCLAUGHLIN, JOHN","22","2017-12-11","","S","full",0.00,1.0
"RY1","198542","MCMILLIAN, TARA","BTEA","2018-09-10","","H","full",40.96,1.0
"RY1","194675","MCVEIGH, DENNIS","STEC","2007-11-13","","C","full",41.21,1.0
"RY1","198234","MELBY, BAILEY","STL","2019-12-31","","H","full",30.97,1.0
"RY1","165983","MENARD, MICHAEL","SALE","2018-02-12","","C","full",0.00,1.0
"RY1","195401","METZGER, JUSTIN","PTDR","2010-05-24","","H","full",0.00,0.0
"RY1","181520","METZGER, KAYLE M","14","2013-11-20","","H","full",39.18,1.0
"RY1","195460","MICHAEL, ANTHONY E","TEAM","2010-10-25","","C","full",0.00,1.0
"RY1","196341","MILLER, KIM M","14","1985-01-02","","H","full",38.49,1.0
"RY1","134795","MOE, BRYCE","CWAS","2019-08-26","","H","part",5.32,0.2
"RY1","174384","MOGAVERO, MICHAEL","BTEC","2019-09-24","","C","full",35.44,1.0
"RY1","118030","MONSON, TAYLOR","NCI","2014-06-30","","S","full",16.00,1.0
"RY1","118746","MONTGOMERY, CODY","PART","2017-09-03","","H","full",32.25,1.0
"RY1","115444","MOORE, LANNY","22","2017-08-21","","H","part",0.00,0.0
"RY1","185965","MORGAN, DEVIN","PTEC","2019-12-04","","H","part",7.90,0.3
"RY1","113011","MORLOCK, BRUCE A","DRI","2012-08-30","","H","part",0.00,0.0
"RY1","113020","MORRIS, GREG","PART","2010-04-19","","S","full",0.00,1.0
"RY1","195826","MUCKENHIRN, BENJAMIN","PTEC","2019-10-07","","H","part",3.39,0.1
"RY1","151702","MULHERN, ALAN","BTEA","2017-01-05","","H","full",35.98,1.0
"RY1","198532","NAVARRO, ALEXANDER","CWAS","2019-04-29","","H","part",4.34,0.1
"RY1","1100710","NEFS, GERALD F","DRI","2010-07-21","","H","part",0.00,0.0
"RY1","1102195","NEUMANN, ANDREW D","SMRG","2014-05-18","","S","full",0.00,1.0
"RY1","1102198","NEUMANN, NICKOLAS J","PDQO","2015-08-03","","S","full",42.34,1.0
"RY1","1103050","NOKELBY, RONALD J","29","1978-05-05","","S","full",0.00,1.0
"RY1","187651","NOREIKIS, TIFFANY","SALE","2018-09-10","","C","full",0.00,1.0
"RY1","168753","NORTHAGEN, JOSHUA","STEC","2019-03-12","","C","full",39.96,1.0
"RY1","1103065","NYGAARD, KENT A","DPOT","2015-01-26","","H","full",33.09,1.0
"RY1","1106225","OLDERBAK, JOHN","RAO","2016-02-16","","C","full",0.00,1.0
"RY1","173209","O'LEARY, MATTHEW","PTDR","2019-12-31","","H","full",36.70,1.0
"RY1","1100625","OLSON, CODEY","BTEC","2016-08-01","","C","full",0.00,0.0
"RY1","1106399","OLSON, JAY P","STEC","2002-02-11","","C","full",39.94,1.0
"RY1","1106400","OLSON, JUSTIN S","BTEC","2012-11-12","","C","full",35.48,1.0
"RY1","164732","OLSON, RACHEL","14","2019-04-22","","H","full",41.09,1.0
"RY1","144788","OLSON, WYATT","PDQM","2017-04-10","","S","full",12.00,1.0
"RY1","1106421","O'NEIL, TIMOTHY J","STEC","2014-08-11","","C","full",44.48,1.0
"RY1","1107950","ORTIZ, GUADALUPE","BTEC","2012-11-12","","H","full",7.28,0.2
"RY1","1108200","OSTLUND, ANNE B","BTEA","2011-01-17","","H","full",42.35,1.0
"RY1","157493","OTTO, ALYSSA","NCR","2019-09-23","","H","full",44.43,1.0
"RY1","137593","PALACIOS, ERIC","16","2020-01-13","","H","full",40.23,1.0
"RY1","139846","PARKER, JOSHUA","PTSR","2019-09-12","","H","full",29.59,1.0
"RY1","1109700","PASCHKE, MATTHEW G","BTEA","2019-08-26","","H","full",32.74,1.0
"RY1","185647","PERALES, LIL CHRIS","CWAS","2019-10-21","","H","part",24.38,0.8
"RY1","123564","PESEK, BENJAMIN","CWAS","2017-07-10","","H","part",0.00,0.0
"RY1","1110425","PETERSON, BRIAN D","BTEC","1999-03-15","","C","full",41.06,1.0
"RY1","1110542","PETERSON, DOUG","22","1995-12-04","","S","full",0.00,1.0
"RY1","1110660","PETERSON, TYLER","11","2015-11-23","","H","full",41.13,1.0
"RY1","167934","PFAFF, JONATHAN","BTEC","2019-01-06","","H","full",40.42,1.0
"RY1","1110800","PICHE, STACEY","PDQW","2015-05-11","","H","part",0.00,0.0
"RY1","193542","PICKENS, WHITNEY","CWAS","2020-03-24","","H","full",39.33,1.0
"RY1","187526","POKHREL, CHANDRA","RAY","2018-12-17","","H","full",40.19,1.0
"RY1","165478","POLUM, MAXWELL","PTEC","2018-12-31","","H","part",15.39,0.5
"RY1","1111325","POWELL, GAYLA R","BSM","2011-08-29","","S","full",0.00,1.0
"RY1","1112411","PRESTON, APRIL","WTEC","2015-07-20","","C","full",14.05,0.5
"RY1","1113940","RADKE, DUANE","STEC","1966-05-01","","H","full",40.00,1.0
"RY1","165473","RAI, SANTI","PTEC","2018-04-23","","H","full",19.87,0.7
"RY1","1588879","RAUNER, VALERIE","14","2017-06-19","","H","full",40.00,1.0
"RY1","132785","REEB, LUKE","16","2020-02-24","","H","part",12.05,0.4
"RY1","1114831","REED, DALE","PTDR","2015-12-21","","H","part",21.04,0.7
"RY1","1114921","REUTER, TIMOTHY J","BTEC","2015-01-26","","H","full",40.68,1.0
"RY1","1116800","RICHARDSON, DARRICK J","WTEC","2015-09-29","","C","full",32.52,1.0
"RY1","195123","RIVERA, ROLANDO","PTSR","2018-12-17","","H","full",31.32,1.0
"RY1","122332","ROBINSON, AARON","PART","2017-09-25","","H","full",32.79,1.0
"RY1","192348","ROBINSON, CARSON","SALE","2018-05-07","","C","full",0.00,1.0
"RY1","1117600","ROBLES, RUDOLPH","PDQW","2000-07-12","","H","full",33.63,1.0
"RY1","1117842","RODRIGUEZ, JUSTIN","STL","2015-11-23","","H","full",45.26,1.0
"RY1","159763","ROED, ZACHARY","SALE","2020-02-11","","H","part",24.49,0.8
"RY1","1117901","ROGERS, MITCH A","STEC","2014-10-13","","C","full",43.33,1.0
"RY1","165780","ROGERS, SARA","WTEC","2018-10-22","","H","part",25.95,0.9
"RY1","158393","ROGERS, TIMOTHY","DRI","2019-11-12","","H","part",0.00,0.0
"RY1","1117960","ROGNE, CRAIG A","STEC","1988-06-13","","S","full",49.99,1.0
"RY1","175394","ROHLOFF, KADEN","PTEC","2020-01-28","","H","part",13.68,0.5
"RY1","175323","ROLIGHED, CODY","WTEC","2019-10-09","","C","part",0.00,0.0
"RY1","159875","ROSE, BRITTANY","SALE","2019-10-07","","H","part",9.25,0.3
"RY1","1118722","ROSE, CORY","BTEC","2006-10-23","","C","full",0.00,0.0
"RY1","12236","ROTH, LAURA","11","2017-11-20","","S","full",0.00,1.0
"RY1","141082","RUMEN, ROBERT","SALE","2018-05-07","","C","full",0.00,1.0
"RY1","1120110","RYAN, ANTONIO R","CMGR","2012-03-29","","S","full",0.00,1.0
"RY1","1120225","RYDELL, BRIAN L","OWN","1999-06-28","","S","full",0.00,1.0
"RY1","1120800","RYDELL, WESLEY D","OWN","1962-06-01","","C","full",0.00,1.0
"RY1","1120120","RYGG, KEN C","PART","2012-11-21","","H","full",28.41,0.9
"RY1","1121240","SALBERG, GAYLEN K","DRI","2017-02-01","","H","part",0.00,0.0
"RY1","1122110","SANCHEZ, ROGELIO","CWAS","2015-07-06","","S","full",0.00,1.0
"RY1","1122342","SATTLER, RANDY J","BSM","2002-08-26","","S","full",0.00,1.0
"RY1","1122352","SAULS, THOMAS R","WTEC","2013-08-12","","C","full",34.78,1.0
"RY1","198431","SCHADT, MICHAEL","WTEC","2019-06-03","","C","part",0.00,0.0
"RY1","175943","SCHILTZ, JARED","PTEC","2019-10-09","","H","part",0.00,0.0
"RY1","1123340","SCHMIESS PENAS, JERI L","14","2009-05-12","","S","full",0.00,1.0
"RY1","137854","SCHNEIDER, AMANDA","SOFF","2019-08-26","","H","full",37.55,1.0
"RY1","1566882","SCHNEIDER, BRIAN","WTEC","2017-06-05","","C","full",29.56,1.0
"RY1","1124400","SCHUPPERT, KODEY","STEC","2015-04-27","","H","full",43.57,1.0
"RY1","1124436","SCHWAN, MICHAEL","STEC","2012-02-27","","C","full",41.60,1.0
"RY1","1124625","SEAY, BRYN N","SALM","2014-08-25","","C","full",0.00,1.0
"RY1","1124875","SEEBA, BRADLEY F","PART","1977-04-11","","H","full",36.64,1.0
"RY1","1125565","SEVIGNY, SCOTT","BTEC","2008-09-29","","C","full",33.64,1.0
"RY1","168243","SHADWICK, SHAY","PDQW","2019-08-12","","H","full",0.00,0.0
"RY1","1126040","SHERECK, LOREN","BTEC","2016-11-07","","S","full",38.03,1.0
"RY1","1126300","SHIREK, NICHOLAS","SALM","2018-02-01","","C","full",0.00,1.0
"RY1","197643","SHOWER, DUSTIN","SOFF","2018-08-20","","H","full",40.09,1.0
"RY1","1126060","SHUMAKER, MARTIN D","RAY","2013-07-01","","H","full",44.03,1.0
"RY1","167932","SLATOR, ANDREW","PTSR","2019-05-01","","H","part",29.13,1.0
"RY1","139475","SLOMINSKI, JOSEPH","PDQW","2019-07-29","","H","full",42.39,1.0
"RY1","146803","SMERER, JASON","22","2019-05-20","","H","full",41.12,1.0
"RY1","176430","SMITH, TANER","DPOT","2018-05-07","","H","full",31.95,1.0
"RY1","152964","SOBERG, NICHOLAS","STEC","2018-08-27","","H","full",37.64,1.0
"RY1","1129560","SOENKSEN, LINDSEY","CWAS","2017-01-12","","H","full",26.51,0.9
"RY1","1130090","SOLEM, BEN G","PART","2013-09-16","","H","full",40.74,1.0
"RY1","165428","SOLHEIM, ARIK","RAY","2019-04-15","","S","full",0.00,1.0
"RY1","154474","SORENSON, THOMAS","CWAS","2017-08-28","","H","part",6.19,0.2
"RY1","1130420","SORUM, ABIGAIL","29","2018-03-09","","H","full",37.72,1.0
"RY1","1130426","SORUM, GREG","29G","1996-01-01","","S","full",0.00,1.0
"RY1","154783","SORUM, JACOB","22","2019-06-03","","S","full",0.00,1.0
"RY1","1130430","SORUM, MICHAEL J","29","2002-11-04","","S","full",0.00,1.0
"RY1","198567","SPIVA, NOLAN","SRVM","2019-12-17","","H","full",24.63,0.8
"RY1","1130690","STADSTAD, LARRY O","SALE","2015-01-01","","C","part",0.00,1.0
"RY1","1130700","STALLMO, RICHARD D","SRVM","2009-09-16","","H","full",32.69,1.0
"RY1","174836","STEFFL, SIMON","PTSR","2019-11-18","","H","part",20.95,0.7
"RY1","1132205","STEIN, DONALD W","PTDR","2012-08-13","","H","full",25.34,0.8
"RY1","1132700","STOUT, RICK","TEAM","2016-08-29","","C","full",0.00,1.0
"RY1","143659","STRAUS, TYLER","WTEC","2018-04-11","","C","part",13.65,0.5
"RY1","1133727","STREETER, TIMOTHY","PTDR","2007-03-28","","H","full",49.00,1.0
"RY1","16250","STREITZ, DANIELLE M","SOFF","2011-09-12","","H","full",27.50,0.9
"RY1","128945","SWANSON, ZACHARY","PDQW","2018-09-11","","H","full",38.13,1.0
"RY1","1135265","SYMONS, ELIZABETH R","29","2012-12-27","","S","full",0.00,1.0
"RY1","1135260","SYMONS, STEVEN","11","2010-11-22","","S","full",0.00,1.0
"RY1","1135410","SYVERSON, JOSHUA L","STEC","2012-06-11","","C","full",42.35,1.0
"RY1","175843","TANGREN, ALEX","CWAS","2019-09-23","","H","part",0.00,0.0
"RY1","157374","TAPPARO, GREGORY","PTSR","2019-10-09","","H","part",15.75,0.5
"RY1","1135518","TARR, JEFF D","SALE","1993-11-01","","C","full",0.00,1.0
"RY1","1135710","TELKEN, WYATT","WTEC","2017-06-28","","C","part",0.00,0.0
"RY1","157392","THOMPSON, COLE","16","2019-11-18","","H","full",52.37,1.0
"RY1","1137590","THOMPSON, WYATT","STEC","2007-05-14","","C","full",50.86,1.0
"RY1","197560","TISI, CATHERINE","PDQW","2019-06-26","","H","part",10.95,0.4
"RY1","134956","TORGERSON, JOSEPH","WTEC","2019-01-28","","C","part",12.10,0.4
"RY1","1140870","TROFTGRUBEN, RODNEY","STL","1992-08-03","","H","full",47.93,1.0
"RY1","195231","TURNER, RICHARD J","SALE","2018-12-31","","C","full",0.00,1.0
"RY1","1144265","VAN HESTE II, FRED E","PART","2007-05-15","","H","full",32.27,1.0
"RY1","178543","VANYO, DAVID","SALE","2017-12-18","","C","full",0.00,1.0
"RY1","185393","VARBERG, WILLIAM","PTEC","2019-11-21","","H","part",0.00,0.0
"RY1","15646","VELA, JUAN CARLOS","PART","2017-10-23","","H","full",31.65,1.0
"RY1","1145660","VIEN, NORMAN A","22","2007-07-27","","H","full",0.00,0.0
"RY1","174934","VITTERS, JAKE","DCAS","2019-10-09","","H","part",23.04,0.8
"RY1","1146751","WAGENER, SAMUEL L","25","2014-01-01","","S","full",0.00,1.0
"RY1","1146989","WALDBAUER, ALEX","STEC","2007-08-29","","C","full",39.61,1.0
"RY1","165989","WALDECK, JAMES A","SALE","2019-10-21","","C","full",0.00,1.0
"RY1","1146991","WALDEN, CHRIS W","BTEC","1994-09-06","","C","full",34.60,1.0
"RY1","1147062","WALIOR, SUSAN E","NCR","1997-03-03","","S","full",0.00,1.0
"RY1","1147061","WALTON, JOSHUA","BTEC","2006-12-27","","C","full",32.73,1.0
"RY1","1147250","WARMACK, JAMES H","SALE","2011-04-02","","C","full",0.00,1.0
"RY1","197530","WATSON, BRYCE","CWAS","2019-07-29","","H","part",15.19,0.5
"RY1","1147810","WEBER, JAMES A","SALE","2011-10-10","","C","full",0.00,1.0
"RY1","162984","WIKSTROM, ABIGAIL","BOFF","2019-09-09","","H","full",36.70,1.0
"RY1","163278","WILDE, HUNTER","WTEC","2019-06-03","","C","full",31.39,1.0
"RY1","1149160","WILKENING, RONALD","DRI","2011-01-01","","H","part",0.00,0.0
"RY1","1149180","WILKIE, DAVID","USED","1978-05-17","","C","full",0.00,1.0
"RY1","1149636","WINZER, CHRISTOPHER L","DPOT","2007-06-25","","H","full",36.24,1.0
"RY1","139856","WITTER, PATRICK","PART","2020-02-24","","H","full",29.64,1.0
"RY1","165982","WOHLGAMUTH, ALEX","CWAS","2019-07-29","","H","part",26.82,0.9
"RY1","1149710","WOINAROWICZ, EMILEE M","SOFF","2013-07-29","","H","full",39.87,1.0
"RY1","115021","WOODS, SCOTT","SRVM","2019-06-24","","H","full",32.75,1.0
"RY1","1150510","YEM, RITHY M","94","2013-04-29","","S","full",0.00,1.0
"RY1","1151450","YUNKER, GEORGE P","SALE","2016-09-26","","C","full",0.00,1.0
"RY1","1150920","ZACHA, CHARLES J","PTDR","2014-12-29","","H","full",19.22,0.6
"RY1","1160100","ZOELLICK, STEVE","OFF","2013-01-01","","S","full",0.00,1.0
"","","","","","","","",,281.4
