,=,,,,,,,,,,,,
,FINAL CONSENSUS / DOSP / ORDER FLOW TIMING Version 5 Fleet,,,,,,,,,,,,
,,,,,,,,,,,,,
, ,,,,,,,,,,,,
,,,,,RETAIL ,,,,FLEET,,,,
,DIVISION,MODEL,ALLOCATION GROUP,2019 MY BUILD-OUT DATE,FINAL CONSENSUS MONTH / CYCLE,FINAL DOSP CYCLE,UNALLOCATED SOLD ORDER CUT-OFF,IN-SYSTEM RETURN            CUT-OFF,SPECIAL PAINT ORDER CUT-OFF,SEO ORDER CUT-OFF,FYI ,,
,Buick,Cascada,CASCDA,43644.0,Feb / 2,43524.0,43480.0,43448.0,,,43454.0,,
,,Enclave  ,ENCLAV,43630.0,Apr / 1,43566.0,43546.0,43539.0,,,43545.0,,
,,Encore,ENCORE,43644.0,Apr / 2,43580.0,43546.0,43539.0,,,43545.0,,
,,Envision,ENVISN,43581.0,Jan / 1,43482.0,43455.0,43448.0,,,43454.0,,
,,LaCrosse,LACROS,43511.0,December,43447.0,43427.0,43420.0,,,43434.0,,
,,Regal Sportback / TourX,REGAL / RGLWGN,43658.0,Apr / 1,43566.0,43546.0,43539.0,,,43545.0,,
,Cadillac,ATS ,ATS,43489.0,Nov / 1,43419.0,43399.0,43392.0,,,43397.0,,
,,CT6,CT6,43679.0,Feb / 2,43517.0,43518.0,43511.0,,,43434.0,,
,,CTS  ,CTS,43572.0,Feb / 1,43510.0,43490.0,43483.0,,,43489.0,,
,,Escalade  ,ESC,43638.0,Apr / 2,43580.0,43546.0,43539.0,43545.0,43545.0,43545.0,,
,,Escalade ESV ,ESCESV,43638.0,Apr / 2,43580.0,43546.0,43539.0,43545.0,43545.0,43545.0,,
,,XT4,XT4,43630.0,Apr / 2,43580.0,43546.0,43539.0,,,43542.0,,
,,XT5,XT5,43673.0,May / 2,43615.0,43574.0,43567.0,,,43580.0,,
,,XTS,XTS,43693.0,May / 2,43615.0,43609.0,43609.0,,,43616.0,,
,Chevrolet Car,Bolt EV,BOLTEV,43686.0,May / 2,43615.0,43581.0,43574.0,,,43580.0,,
,,Camaro Coupe / Convertible,CAM / CAMCON,43664.0,May / 1,43601.0,43581.0,43574.0,,,43580.0,,
,,Corvette Stingray / Z06,VET / Z06,TBD,Jul / 1,43664.0,43637.0,43630.0,,,43636.0,,September 30 SOP for US- Canada starts 7/30
,,Cruze Hatchback,CRZHBK,43525.0,December,43447.0,43427.0,43420.0,,,43434.0,,
,,Cruze Sedan,CRUZE,43530.0,December,43447.0,43427.0,43420.0,,,43434.0,,
,,Impala ,IMPALA,43693.0,May / 2,43615.0,43595.0,43595.0,,,43602.0,,
,,Malibu ,MALIBU,43616.0,Mar / 2,43552.0,43518.0,43511.0,,,43542.0,,
,,Sonic,SONIC,43686.0,May / 1,43601.0,43581.0,43574.0,,,43580.0,,
,,Spark,SPARK,43616.0,Mar / 2,43552.0,43518.0,43511.0,,,43517.0,,
,,Volt,VOLT,43511.0,December,43447.0,43427.0,43420.0,,,43434.0,,
,Chevrolet Truck / Crossovers,Blazer,BLAZER,43700.0,Jun / 1,43636.0,N/A,43602.0,,,43608.0,,
,,Colorado  ,COLRDO,43661.0,May / 1,43601.0,43581.0,43574.0,43580.0,43580.0,43580.0,,
,,Equinox,EQUINX,43631.0,Apr / 1,43566.0,43546.0,43539.0,,,43545.0,,
,,Express Van   ,EXPVAN,43693.0,Jun / 1,43629.0,43609.0,43602.0,43566.0,43566.0,43587.0,,
,,Traverse,TRAVRS,43630.0,Apr / 1,43566.0,43546.0,43539.0,,,43475.0,,
,,Trax ,TRAX ,43644.0,Apr / 2,43580.0,43546.0,43539.0,,,43545.0,,
,,Silverado LD Regular Cab   (next gen),CLDREG,43688.0,May / 2,43615.0,N/A,43574.0,43475.0,43475.0,43475.0,,
,,Silverado LD Double Cab (next gen),CLDDBL,43679.0,May / 2,43622.0,43581.0,43574.0,43579.0,43579.0,43579.0,,
,,Silverado LD Crew Cab  (next gen),CLDCRW,43680.0,May / 2,43622.0,43581.0,43574.0,43579.0,43579.0,43579.0,,
,,Silverado HD Regular Cab (curr gen),CREGHD,43580.0,Nov / 1,43419.0,43399.0,43392.0,43391.0,43426.0,43426.0,,
,,"Silverado ""LD"" LD Double Cab  (curr gen)",CDBLLD,43777.0,Aug / 1,43692.0,43672.0,43665.0,43650.0,43650.0,43660.0,,
,,Silverado HD Double Cab  (curr gen),CDBLHD,43798.0,Sep / 1,43720.0,43700.0,43693.0,43678.0,43660.0,43660.0,,
,,Silverado HD Crew Cab  (curr gen),CCRUHD,43595.0,Feb / 2,43524.0,N/A,43483.0,43217.0,43217.0,43217.0,,
,,Silverado Medium Duty,SILVMD,43735.0,Jun / 1,43629.0,N/A,N/A,43608.0,43608.0,43608.0,,
,,Suburban  ,SUBURB,43638.0,Apr / 2,43580.0,43546.0,43539.0,43545.0,43545.0,43545.0,,
,,Suburban HD,SUBURB,43609.0,,,,43335.0,43342.0,43342.0,43342.0,,
,,Tahoe  ,TAHOE,43638.0,Apr / 2,43580.0,43546.0,43539.0,43545.0,43545.0,43545.0,,
,,Tahoe Police (PPV / 5W4; Fleet Only),TAHOE,43638.0,,,,43539.0,,,43545.0,,
,,LCF 4500 HD/XD & 5500 HD/XD Diesel,LCFDSL,43455.0,,,,,,,43370.0,,
,,LCF6500 XD Diesel,LCFDSL,43455.0,,,,,,,43370.0,,
,,LCF 3500 & 4500 Gas,LCFGAS,43769.0,,,,,,,43643.0,,
,GMC,Acadia,ACADIA,43673.0,Jun / 1,43629.0,43609.0,43602.0,,,43608.0,,
,,Canyon,CANYON,43661.0,May / 1,43601.0,43581.0,43574.0,43580.0,43580.0,43580.0,,
,,Savana Van    ,SAVVAN,43693.0,Jun / 1,43629.0,43609.0,43602.0,43566.0,43566.0,43587.0,,
,,Sierra LD Regular Cab  (next gen),GLDREG,43688.0,May / 2,43615.0,N/A,43574.0,43475.0,43475.0,43475.0,,
,,Sierra LD Double Cab (next gen),GLDDBL,43679.0,May / 2,43622.0,43581.0,43574.0,43579.0,43579.0,43579.0,,
,,Sierra LD Crew Cab  (next gen),GLDCRW,43680.0,May / 2,43622.0,43581.0,43574.0,43579.0,43579.0,43579.0,,
,,Sierra HD Regular Cab  (curr gen),GREGHD,43580.0,Nov / 1,43419.0,43399.0,43392.0,43391.0,43426.0,43426.0,,
,,"Sierra ""Limited"" LD Double Cab  (curr gen)",GDBLLD,43777.0,Aug / 1,43692.0,43672.0,43665.0,43650.0,43650.0,43660.0,,
,,Sierra HD Double Cab  (curr gen),GDBLHD,43798.0,Sep / 1,43720.0,43700.0,43693.0,43678.0,43660.0,43660.0,,
,,Sierra HD Crew Cab  (curr gen),GCRUHD,43595.0,Feb / 2,43524.0,N/A,43483.0,43217.0,43217.0,43217.0,,
,,Terrain,TERAIN,43630.0,Apr / 1,43566.0,43546.0,43539.0,,,43545.0,,
,,Yukon,YKN,43638.0,Apr / 2,43580.0,43546.0,43539.0,43545.0,43545.0,43545.0,,
,,Yukon XL,YKNXL,43638.0,Apr / 2,43580.0,43546.0,43539.0,43545.0,43545.0,43545.0,,
