,2020 MODEL YEAR VEHICLE START-UP,,,,,,
,INITIAL CONSENSUS / DOSP / ORDER FLOW TIMING Version 5,,,,,,
, ,,,,,,
,,,,,RETAIL ,,All
,DIVISION,MODEL,ALLOCATION GROUP,2020 MY START-UP DATE  ,INITIAL CONSENSUS MONTH / CYCLE,INITIAL DOSP CYCLE,ORDER ENTRY AVAILABILITY
,Buick,Encore,ENCORE,43647.0,May / 1,43601.0,43580.0
,,Envision,ENVISN,43591.0,Feb / 1,43510.0,43496.0
,,Enclave,ENCLAV,43633.0,May / 1,43601.0,43580.0
,,Regal Sportback / TourX,REGAL / RGLWGN,43682.0,May / 1,43601.0,43580.0
,,CT6,CT6,43682.0,Jun / 1,40349.0,43608.0
,Cadillac,Escalade ,ESC,43640.0,May / 1,43601.0,43594.0
,,Escalade ESV  ,ESCESV,43640.0,May / 1,43601.0,43594.0
,,CT4,TBD,TBD,TBD,TBD,TBD
,,CT5,CT5,August,Jul / 1,43664.0,43636.0
,,XT4,XT4,43633.0,May / 1,43601.0,43580.0
,,XT5,XT5,43682.0,Jun / 2,43643.0,43622.0
,,XT6,XT6,May,Mar / 1,43538.0,43524.0
,Chevrolet Car,Bolt EV,BOLTEV,43703.0,Jun / 1,43629.0,43622.0
,,Camaro Coupe / Convertible,CAM / CAMCON,43668.0,Jun / 1,43636.0,43622.0
,,Corvette Stingray / Z06,VET / Z06,TBD,TBD,TBD,TBD
,,Impala,IMPALA,43689.0,Jun / 1,43629.0,43608.0
,,Malibu ,MALIBU,43616.0,Apr / 2,43587.0,43580.0
,,Sonic,SONIC,43703.0,Jun / 1,43629.0,43608.0
,,Spark  ,SPARK,43619.0,Apr / 1,43566.0,43552.0
,Chevrolet Truck / Crossovers,Blazer,BLAZER,43703.0,Jul / 1,43664.0,43636.0
,,Colorado  ,COLRDO,43661.0,Jun / 1,43629.0,43608.0
,,Equinox  ,EQUINX,43633.0,May / 1,43601.0,43580.0
,,Express ,EXPVAN,43696.0,Jul / 1,43664.0,43636.0
,,Silverado LD Regular Cab  ,CLDREG,43689.0,Jun / 1,43636.0,43594.0
,,Silverado LD Double Cab ,CLDDBL,43682.0,Jun / 1,43629.0,43594.0
,,Silverado LD Crew Cab ,CLDCRW,43682.0,Jun / 1,43629.0,43594.0
,,Silverado HD Regular Cab  ,CHDREG,September,Jul / 2,43678.0,43664.0
,,Silverado HD Double Cab  ,CHDDBL,August,Jun / 1,43629.0,43664.0
,,Silverado HD Crew Cab ,CHDCRW,June,Mar / 2,43552.0,
,,"Silverado HD Crew Cab (Fleet, Gasoline)",CHDCRW,August,,,43608.0
,,"Silverado HD Crew Cab (Fleet, Diesel)",CHDCRW,December,,,43748.0
,,Silverado Medium Duty,SILVMD,43738.0,Jul / 1,43664.0,43636.0
,,Suburban  ,SUBURB,43640.0,May / 1,43601.0,43594.0
,,Tahoe ,TAHOE,43640.0,May / 1,43601.0,43594.0
,,Tahoe Police (9C1 / 5W4; Fleet Only),TAHOE,43640.0,,,43594.0
,,Traverse,TRAVRS,43633.0,May / 1,43601.0,43580.0
,,Trax ,TRAX ,43647.0,May / 1,43601.0,43580.0
,,LCF 4500 HD/XD & 5500 HD/XD Diesel,LCFDSL,43467.0,,,43382.0
,,LCF6500 XD Diesel,LCFDSL,43467.0,,,43382.0
,,LCF 3500 & 4500 Gas,LCFGAS,43770.0,,,TBD
,GMC,Acadia  ,ACADIA,43682.0,Jun / 2,43643.0,43622.0
,,Canyon  ,CANYON,43661.0,Jun / 1,43629.0,43608.0
,,Savana,SAVVAN,43696.0,Jul / 1,43664.0,43636.0
,,Sierra LD Regular Cab  ,GLDREG,43689.0,Jun / 1,43636.0,43594.0
,,Sierra LD Double Cab ,GLDDBL,43682.0,Jun / 1,43629.0,43594.0
,,Sierra LD Crew Cab,GLDCRW,43682.0,Jun / 1,43629.0,43594.0
,,Sierra HD Regular Cab,GHDREG,September,Jul / 2,43678.0,43664.0
,,Sierra HD Double Cab  ,GHDDBL,August,Jun / 1,43629.0,43664.0
,,Sierra HD Crew Cab ,GHDCRW,June,Mar / 2,43552.0,
,,Sierra HD Crew Cab (Fleet Gasoline),GHDCRW,August,,,43608.0
,,Sierra HD Crew Cab  (Fleet Diesel),GHDCRW,December,,,43748.0
,,Terrain,TERAIN,43633.0,May / 1,43601.0,43580.0
,,Yukon ,YKN,43640.0,May / 1,43601.0,43594.0
,,Yukon XL  ,YKNXL,43640.0,May / 1,43601.0,43594.0
,,,,,,,
,,,,,,,
,, ,,,,,
