2021-11-30,3,11,November,False,935,202111,2021-11-28,2021-12-04,RY2,1093,5880,285945,"HENDRY-ROBINSON, TALASIA",R17,RE,Talasia,Hendry-robinson,Hourly,12.2,0.0,0.0,"November 28 - December 4, 2021"
2021-11-30,3,11,November,False,935,202111,2021-11-28,2021-12-04,RY2,900,,154976,"BINA, BENJAMIN",D73,RE,,,Hourly,0.0,0.0,0.0,"November 28 - December 4, 2021"
2021-11-30,3,11,November,False,935,202111,2021-11-28,2021-12-04,RY2,1045,5848,269846,"FARLEY, ETHAN",D10,RE,Ethan,Farley,Hourly,0.0,0.0,0.0,"November 28 - December 4, 2021"
2021-11-30,3,11,November,False,935,202111,2021-11-28,2021-12-04,RY2,987,5168,295148,"KELLER, JOSIAH",69,MR,Josiah,Keller,Hourly,0.0,0.0,0.0,"November 28 - December 4, 2021"
2021-11-30,3,11,November,False,935,202111,2021-11-28,2021-12-04,RY2,1097,5872,264673,"OLSON, JOSHUA T",661,MR,Joshua,Olson,Hourly,0.0,0.0,0.0,"November 28 - December 4, 2021"
2021-11-30,3,11,November,False,935,202111,2021-11-28,2021-12-04,RY2,1094,5781,216524,"ALVAREZ, JOHN",660,MR,John,Alvarez,Hourly,4.0,0.0,0.0,"November 28 - December 4, 2021"
2021-11-30,3,11,November,False,935,202111,2021-11-28,2021-12-04,RY2,1068,5582,236548,"PETERSEN, BENJAMIN",659,MR,Benjamin,Petersen,Hourly,5.6,0.0,0.0,"November 28 - December 4, 2021"
2021-11-30,3,11,November,False,935,202111,2021-11-28,2021-12-04,RY2,1043,5725,24665,"BATZER, CORY",655,MR,Cory,Batzer,Hourly,10.7,0.0,0.0,"November 28 - December 4, 2021"
2021-11-30,3,11,November,False,935,202111,2021-11-28,2021-12-04,RY2,913,5726,275342,"LOUDEN, ZAKERY",651,QL,Zakery,Louden,Hourly,3.2,0.0,0.0,"November 28 - December 4, 2021"
2021-11-30,3,11,November,False,935,202111,2021-11-28,2021-12-04,RY2,876,5873,276431,"ENGEBRETSON, ERIK",646,MR,Erik,Engebretson,Hourly,7.2,0.0,0.0,"November 28 - December 4, 2021"
2021-11-30,3,11,November,False,935,202111,2021-11-28,2021-12-04,RY2,1036,4355,273315,"JOHNSON, BRANDON J",31,MR,Brandon,Johnson,Hourly,18.5,0.0,0.0,"November 28 - December 4, 2021"
2021-11-30,3,11,November,False,935,202111,2021-11-28,2021-12-04,RY2,1035,4360,2130150,"SOBOLIK, PAUL A",15,MR,Paul,Sobolik,Hourly,22.9,0.0,0.0,"November 28 - December 4, 2021"
2021-11-30,3,11,November,False,935,202111,2021-11-28,2021-12-04,RY2,1034,4357,279630,"KNUDSON, KENNETH",130,MR,Kenneth,Knudson,Hourly,5.6,0.0,0.0,"November 28 - December 4, 2021"
2021-11-30,3,11,November,False,935,202111,2021-11-28,2021-12-04,RY1,1096,5867,153344,"MOSES, ALI K",R19,RE,Ali,Moses,Hourly,0.0,0.0,0.0,"November 28 - December 4, 2021"
2021-11-30,3,11,November,False,935,202111,2021-11-28,2021-12-04,RY1,1095,5808,137826,"DELACRUZ, RUBEN",R18,RE,Ruben,Delacruz,Hourly,11.2,0.0,0.0,"November 28 - December 4, 2021"
2021-11-30,3,11,November,False,935,202111,2021-11-28,2021-12-04,RY1,1087,5862,193843,"BRICKSON, NOLAN",R16,RE,Nolan,Brickson,Hourly,0.0,0.0,0.0,"November 28 - December 4, 2021"
2021-11-30,3,11,November,False,935,202111,2021-11-28,2021-12-04,RY1,1084,5737,125356,"CALDERON, REIS D",R15,RE,Reis,Calderon,Hourly,0.0,0.0,0.0,"November 28 - December 4, 2021"
2021-11-30,3,11,November,False,935,202111,2021-11-28,2021-12-04,RY1,1078,5733,197876,"TENNANCOUR, TYLER S",R14,RE,Tyler,Tennancour,Hourly,0.0,0.0,0.0,"November 28 - December 4, 2021"
2021-11-30,3,11,November,False,935,202111,2021-11-28,2021-12-04,RY1,1067,5592,156445,"HELM, DYLAN",R12,RE,Dylan,Helm,Hourly,0.0,0.0,0.0,"November 28 - December 4, 2021"
2021-11-30,3,11,November,False,935,202111,2021-11-28,2021-12-04,RY1,1065,5573,143245,"MILLER, SETH",R11,RE,Seth,Miller,Hourly,0.0,0.0,0.0,"November 28 - December 4, 2021"
2021-11-30,3,11,November,False,935,202111,2021-11-28,2021-12-04,RY1,1059,5591,152374,"HACK, WILLIAM J",R10,RE,William,Hack,Hourly,0.0,0.0,0.0,"November 28 - December 4, 2021"
2021-11-30,3,11,November,False,935,202111,2021-11-28,2021-12-04,RY1,1048,5452,124836,"MUHI, ABDULLAH W",R09,RE,Abdullah,Muhi,Hourly,0.0,0.0,0.0,"November 28 - December 4, 2021"
2021-11-30,3,11,November,False,935,202111,2021-11-28,2021-12-04,RY1,1047,5516,187458,"AREL, CONNOR J",R08,RE,Connor,Arel,Hourly,0.0,0.0,0.0,"November 28 - December 4, 2021"
2021-11-30,3,11,November,False,935,202111,2021-11-28,2021-12-04,RY1,1046,5517,124816,"MUNRO, GRANT D",R07,RE,Grant,Munro,Hourly,0.0,0.0,0.0,"November 28 - December 4, 2021"
2021-11-30,3,11,November,False,935,202111,2021-11-28,2021-12-04,RY1,1044,5470,154976,"BINA, BENJAMIN",R06,RE,Benjamin,Bina,Hourly,3.0,0.0,0.0,"November 28 - December 4, 2021"
2021-11-30,3,11,November,False,935,202111,2021-11-28,2021-12-04,RY1,1039,5764,158964,"RISBERG, REBECCA",R05,RE,Rebecca,Risberg,Hourly,27.0,0.0,0.0,"November 28 - December 4, 2021"
2021-11-30,3,11,November,False,935,202111,2021-11-28,2021-12-04,RY1,24,,NA,Quick Service,QS1,MR,,,Department,0.0,0.0,0.0,"November 28 - December 4, 2021"
2021-11-30,3,11,November,False,935,202111,2021-11-28,2021-12-04,RY1,861,4953,190918,"MARCOTTE, THOMAS H",HS3,HS,Thomas,Marcotte,Hourly,0.0,0.0,0.0,"November 28 - December 4, 2021"
2021-11-30,3,11,November,False,935,202111,2021-11-28,2021-12-04,RY1,860,4219,18574,"MCLAUGHLIN, JOHN",HS2,HS,John,Mclaughlin,Hourly,0.0,0.0,0.0,"November 28 - December 4, 2021"
2021-11-30,3,11,November,False,935,202111,2021-11-28,2021-12-04,RY1,859,4702,1110542,"PETERSON, DOUG",HS1,HS,Doug,Peterson,Hourly,0.0,0.0,0.0,"November 28 - December 4, 2021"
2021-11-30,3,11,November,False,935,202111,2021-11-28,2021-12-04,RY1,1003,5193,135614,"WILLOTT, JOEL",D97,RE,Joel,Willott,Hourly,0.0,0.0,0.0,"November 28 - December 4, 2021"
2021-11-30,3,11,November,False,935,202111,2021-11-28,2021-12-04,RY1,1002,5271,146982,"BUSSE, JORDAN",D96,RE,Jordan,Busse,Hourly,12.0,0.0,0.0,"November 28 - December 4, 2021"
2021-11-30,3,11,November,False,935,202111,2021-11-28,2021-12-04,RY1,946,5759,195975,"HAGEN, TYLER",D92,RE,Tyler,Hagen,Hourly,18.0,0.0,0.0,"November 28 - December 4, 2021"
2021-11-30,3,11,November,False,935,202111,2021-11-28,2021-12-04,RY1,945,5759,195975,"HAGEN, TYLER",D91,RE,Tyler,Hagen,Hourly,0.0,0.0,0.0,"November 28 - December 4, 2021"
2021-11-30,3,11,November,False,935,202111,2021-11-28,2021-12-04,RY1,942,5270,175323,"ROLIGHED, CODY",D89,RE,Cody,Rolighed,Hourly,0.0,0.0,0.0,"November 28 - December 4, 2021"
2021-11-30,3,11,November,False,935,202111,2021-11-28,2021-12-04,RY1,920,5312,158963,"COOK, MATTHEW",D85,RE,Matthew,Cook,Hourly,0.0,0.0,0.0,"November 28 - December 4, 2021"
2021-11-30,3,11,November,False,935,202111,2021-11-28,2021-12-04,RY1,909,5196,198431,"SCHADT, MICHAEL",D77,RE,Michael,Schadt,Hourly,1.0,0.0,0.0,"November 28 - December 4, 2021"
2021-11-30,3,11,November,False,935,202111,2021-11-28,2021-12-04,RY1,897,4660,1566882,"SCHNEIDER, BRIAN",D76,RE,Brian,Schneider,Hourly,14.1,0.0,0.0,"November 28 - December 4, 2021"
2021-11-30,3,11,November,False,935,202111,2021-11-28,2021-12-04,RY1,874,4418,143659,"STRAUS, TYLER",D65,RE,Tyler,Straus,Hourly,0.0,0.0,0.0,"November 28 - December 4, 2021"
2021-11-30,3,11,November,False,935,202111,2021-11-28,2021-12-04,RY1,783,3197,131315,"DAVIS, ERIC A",D49,RE,Eric,Davis,Hourly,10.1,0.0,0.0,"November 28 - December 4, 2021"
2021-11-30,3,11,November,False,935,202111,2021-11-28,2021-12-04,RY1,780,3201,184806,"LEAVY, PAUL M",D44,RE,Paul,Leavy,Hourly,12.2,0.0,0.0,"November 28 - December 4, 2021"
2021-11-30,3,11,November,False,935,202111,2021-11-28,2021-12-04,RY1,773,4588,1116800,"RICHARDSON, DARRICK J",D19,RE,Darrick,Richardson,Hourly,7.1,0.0,0.0,"November 28 - December 4, 2021"
2021-11-30,3,11,November,False,935,202111,2021-11-28,2021-12-04,RY1,772,3200,164920,"HEPOLA, JAMES W",D08,RE,James,Hepola,Hourly,5.1,0.0,0.0,"November 28 - December 4, 2021"
2021-11-30,3,11,November,False,935,202111,2021-11-28,2021-12-04,RY1,1075,5608,195359,"BERGE, THOMAS",659,MR,Thomas,Berge,Hourly,0.0,0.0,0.0,"November 28 - December 4, 2021"
2021-11-30,3,11,November,False,935,202111,2021-11-28,2021-12-04,RY1,1066,5579,189325,"SIMON, MITCHELL E",658,MR,Mitchell,Simon,Simon,3.5,0.0,0.0,"November 28 - December 4, 2021"
2021-11-30,3,11,November,False,935,202111,2021-11-28,2021-12-04,RY1,934,5425,168573,"AAMODT, MATTHEW",655,MR,Matthew,Aamodt,Aamodt,5.8,0.0,0.0,"November 28 - December 4, 2021"
2021-11-30,3,11,November,False,935,202111,2021-11-28,2021-12-04,RY1,974,5358,152964,"SOBERG, NICHOLAS",654,MR,Nicholas,Soberg,Anderson,3.1,0.0,0.0,"November 28 - December 4, 2021"
2021-11-30,3,11,November,False,935,202111,2021-11-28,2021-12-04,RY1,929,3832,145801,"FLAAT, GAVIN",647,MR,Gavin,Flaat,Pre-Diagnosis,7.2,0.0,0.0,"November 28 - December 4, 2021"
2021-11-30,3,11,November,False,935,202111,2021-11-28,2021-12-04,RY1,970,5357,1124400,"SCHUPPERT, KODEY",642,MR,Kodey,Schuppert,Anderson,9.6,0.0,0.0,"November 28 - December 4, 2021"
2021-11-30,3,11,November,False,935,202111,2021-11-28,2021-12-04,RY1,969,3182,13725,"ANDERSON, SHAWN W",640,MR,Shawn,Anderson,Anderson,11.1,0.0,0.0,"November 28 - December 4, 2021"
2021-11-30,3,11,November,False,935,202111,2021-11-28,2021-12-04,RY1,968,3071,1106421,"O'NEIL, TIMOTHY J",637,MR,Timothy,O'neil,O'Neil,8.9,0.0,0.0,"November 28 - December 4, 2021"
2021-11-30,3,11,November,False,935,202111,2021-11-28,2021-12-04,RY1,1056,3072,1106399,"OLSON, JAY P",631,MR,Jay,Olson,Pre-Diagnosis,7.1,0.0,0.0,"November 28 - December 4, 2021"
2021-11-30,3,11,November,False,935,202111,2021-11-28,2021-12-04,RY1,965,3068,167580,"HOLWERDA, KIRBY W",627,MR,Kirby,Holwerda,Alignment,17.8,0.0,0.0,"November 28 - December 4, 2021"
2021-11-30,3,11,November,False,935,202111,2021-11-28,2021-12-04,RY1,964,5115,1117901,"ROGERS, MITCH A",626,MR,Mitch,Rogers,Pre-Diagnosis,2.1,0.0,0.0,"November 28 - December 4, 2021"
2021-11-30,3,11,November,False,935,202111,2021-11-28,2021-12-04,RY1,804,,NA,Recon Tech3,621,RE,,,Department,6.0,0.0,0.0,"November 28 - December 4, 2021"
2021-11-30,3,11,November,False,935,202111,2021-11-28,2021-12-04,RY1,803,,NA,Recon Tech2,620,RE,,,Department,0.0,0.0,0.0,"November 28 - December 4, 2021"
2021-11-30,3,11,November,False,935,202111,2021-11-28,2021-12-04,RY1,802,,NA,Recon Tech,619,RE,,,Department,0.0,0.0,0.0,"November 28 - December 4, 2021"
2021-11-30,3,11,November,False,935,202111,2021-11-28,2021-12-04,RY1,1020,5297,135618,"CHARETTE, OLIVIA",618,RE,Olivia,Charette,Hourly,0.0,0.0,0.0,"November 28 - December 4, 2021"
2021-11-30,3,11,November,False,935,202111,2021-11-28,2021-12-04,RY1,963,5501,1146989,"WALDBAUER, ALEX",608,MR,Alex,Waldbauer,Hourly,5.6,0.0,0.0,"November 28 - December 4, 2021"
2021-11-30,3,11,November,False,935,202111,2021-11-28,2021-12-04,RY1,962,4011,1135410,"SYVERSON, JOSHUA L",599,MR,Joshua,Syverson,Heffernan,12.5,0.0,0.0,"November 28 - December 4, 2021"
2021-11-30,3,11,November,False,935,202111,2021-11-28,2021-12-04,RY1,961,4808,18005,"AXTMAN, DALE M",595,MR,Dale,Axtman,Axtman,12.1,0.0,0.0,"November 28 - December 4, 2021"
2021-11-30,3,11,November,False,935,202111,2021-11-28,2021-12-04,RY1,927,3183,150126,"GEHRTZ, CLAYTON J",593,MR,Clayton,Gehrtz,Anderson,8.7,0.0,0.0,"November 28 - December 4, 2021"
2021-11-30,3,11,November,False,935,202111,2021-11-28,2021-12-04,RY1,971,4218,152525,"GRANT, DESIREE L",588,MR,Desiree,Grant,Bear,7.2,0.0,0.0,"November 28 - December 4, 2021"
2021-11-30,3,11,November,False,935,202111,2021-11-28,2021-12-04,RY1,960,3067,164015,"HEFFERNAN, JOSH",577,MR,Josh,Heffernan,Heffernan,6.0,0.0,0.0,"November 28 - December 4, 2021"
2021-11-30,3,11,November,False,935,202111,2021-11-28,2021-12-04,RY1,959,3066,152410,"GRAY, NATHAN J",575,MR,Nathan,Gray,Pre-Diagnosis,2.9,0.0,0.0,"November 28 - December 4, 2021"
2021-11-30,3,11,November,False,935,202111,2021-11-28,2021-12-04,RY1,958,3062,111210,"BEAR, JEFFERY L",574,MR,Jeffery,Bear,Bear,11.2,0.0,0.0,"November 28 - December 4, 2021"
2021-11-30,3,11,November,False,935,202111,2021-11-28,2021-12-04,RY1,957,3064,131370,"DAVID, GORDON",566,MR,Gordon,David,O'Neil,8.3,0.0,0.0,"November 28 - December 4, 2021"
2021-11-30,3,11,November,False,935,202111,2021-11-28,2021-12-04,RY1,877,4381,116185,"BOHM, DOUGLAS",557,QS,Douglas,Bohm,Hourly,7.2,0.0,0.0,"November 28 - December 4, 2021"
2021-11-30,3,11,November,False,935,202111,2021-11-28,2021-12-04,RY1,956,4809,136170,"DUCKSTAD, JARED J",537,MR,Jared,Duckstad,Axtman,4.3,0.0,0.0,"November 28 - December 4, 2021"
2021-11-30,3,11,November,False,935,202111,2021-11-28,2021-12-04,RY1,585,2824,1117960,"ROGNE, CRAIG A",532,MR,Craig,Rogne,Hourly,0.0,0.0,0.0,"November 28 - December 4, 2021"
2021-11-30,3,11,November,False,935,202111,2021-11-28,2021-12-04,RY1,713,3077,1137590,"THOMPSON, WYATT",528,MR,Wyatt,Thompson,Heffernan,9.5,0.0,0.0,"November 28 - December 4, 2021"
2021-11-30,3,11,November,False,935,202111,2021-11-28,2021-12-04,RY1,955,3070,194675,"MCVEIGH, DENNIS",519,MR,Dennis,Mcveigh,O'Neil,15.1,0.0,0.0,"November 28 - December 4, 2021"
2021-11-30,3,11,November,False,935,202111,2021-11-28,2021-12-04,RY1,954,3074,1124436,"SCHWAN, MICHAEL",511,MR,Michael,Schwan,Heffernan,15.9,0.0,0.0,"November 28 - December 4, 2021"
2021-11-30,3,11,November,False,935,202111,2021-11-28,2021-12-04,RY1,27,,NA,Shop Misc,501,MR,,,Department,0.0,0.0,0.0,"November 28 - December 4, 2021"
2021-11-30,3,11,November,False,935,202111,2021-11-28,2021-12-04,RY1,29,,NA,TECH 410,410,QL,,,Department,0.0,0.0,0.0,"November 28 - December 4, 2021"
2021-11-30,3,11,November,False,935,202111,2021-11-28,2021-12-04,RY1,1041,5816,149857,"GRAESSER, EVAN",307,MR,Evan,Graesser,Hourly,0.0,0.0,0.0,"November 28 - December 4, 2021"
2021-11-30,3,11,November,False,935,202111,2021-11-28,2021-12-04,RY1,1040,5497,155477,"BUCKHOLZ, ZACHARY",306,MR,Zachary,Buckholz,Bear,13.2,0.0,0.0,"November 28 - December 4, 2021"
2021-11-30,3,11,November,False,935,202111,2021-11-28,2021-12-04,RY1,998,5454,153865,"Goodoien, Derek",303,MR,Derek,Goodoien,Alignment,0.2,0.0,0.0,"November 28 - December 4, 2021"
2021-11-30,3,11,November,False,935,202111,2021-11-28,2021-12-04,RY1,930,5484,168753,"NORTHAGEN, JOSHUA",294,MR,Joshua,Northagen,Alignment,18.2,0.0,0.0,"November 28 - December 4, 2021"
2021-11-30,3,11,November,False,935,202111,2021-11-28,2021-12-04,RY1,748,3972,169420,"IMBERY, ANTHONY",274,QL,Anthony,Imbery,Hourly,0.0,0.0,0.0,"November 28 - December 4, 2021"
2021-11-30,3,11,November,False,935,202111,2021-11-28,2021-12-04,RY1,980,5134,190324,"PEDE, DOUGLAS",233,MR,Douglas,Pede,Hourly,2.4,0.0,0.0,"November 28 - December 4, 2021"
2021-11-30,3,11,November,False,935,202111,2021-11-28,2021-12-04,RY1,163,,NA,Tech 139,139,MR,,,Department,0.0,0.0,0.0,"November 28 - December 4, 2021"
2021-11-30,3,11,November,False,935,202111,2021-11-28,2021-12-04,RY1,801,,NA,Tech 135 - Gil,135,RE,,,Department,1.7,0.0,0.0,"November 28 - December 4, 2021"
2021-11-30,3,11,November,False,935,202111,2021-11-28,2021-12-04,RY1,1026,,NA,PDQ Tech,103,QL,,,Department,19.2,0.0,0.0,"November 28 - December 4, 2021"
2021-11-30,3,11,November,False,935,202111,2021-11-28,2021-12-04,RY1,676,,NA,PAINT TEAM,BS4,BS,,,Department,0.0,0.0,0.0,"November 28 - December 4, 2021"
2021-11-30,3,11,November,False,935,202111,2021-11-28,2021-12-04,RY1,677,,NA,BLUE TEAM,BS3,BS,,,Department,0.0,0.0,0.0,"November 28 - December 4, 2021"
2021-11-30,3,11,November,False,935,202111,2021-11-28,2021-12-04,RY1,678,,NA,GREEN TEAM,BS2,BS,,,Department,0.0,0.0,0.0,"November 28 - December 4, 2021"
2021-11-30,3,11,November,False,935,202111,2021-11-28,2021-12-04,RY1,679,,NA,QUICK LANE TEAM,BS1,BS,,,Department,0.0,0.0,0.0,"November 28 - December 4, 2021"
2021-11-30,3,11,November,False,935,202111,2021-11-28,2021-12-04,RY1,698,3100,191350,"MAVITY, ROBERT",646,BS,Robert,Mavity,Paint Team,110.1,0.0,0.0,"November 28 - December 4, 2021"
2021-11-30,3,11,November,False,935,202111,2021-11-28,2021-12-04,RY1,830,5810,1107950,"ORTIZ, GUADALUPE",612,BS,Guadalupe,Ortiz,Hourly,31.5,0.0,0.0,"November 28 - December 4, 2021"
2021-11-30,3,11,November,False,935,202111,2021-11-28,2021-12-04,RY1,1079,5864,160432,"NICHOLS, NATHAN M",309,BS,Nathan,Nichols,Team 23,69.8,0.0,0.0,"November 28 - December 4, 2021"
2021-11-30,3,11,November,False,935,202111,2021-11-28,2021-12-04,RY1,1061,5558,174130,"JOHNSON, CODY",308,BS,Cody,Johnson,Hourly,0.0,0.0,0.0,"November 28 - December 4, 2021"
2021-11-30,3,11,November,False,935,202111,2021-11-28,2021-12-04,RY1,30,,NA,USED CAR,300,BS,,,Department,0.0,0.0,0.0,"November 28 - December 4, 2021"
2021-11-30,3,11,November,False,935,202111,2021-11-28,2021-12-04,RY1,675,,NA,PAINT,299,BS,,,Department,0.0,0.0,0.0,"November 28 - December 4, 2021"
2021-11-30,3,11,November,False,935,202111,2021-11-28,2021-12-04,RY1,886,4846,157953,"BIES II, DAVID",293,BS,David,Bies ii,Team 19,66.9,0.0,0.0,"November 28 - December 4, 2021"
2021-11-30,3,11,November,False,935,202111,2021-11-28,2021-12-04,RY1,796,4067,145789,"BUCHANAN, KYLE",279,BS,Kyle,Buchanan,Team 14,-4.1,0.0,0.0,"November 28 - December 4, 2021"
2021-11-30,3,11,November,False,935,202111,2021-11-28,2021-12-04,RY1,826,4261,137101,"EBERLE, MARCUS M",276,BS,Marcus,Eberle,Team 16,14.6,0.0,0.0,"November 28 - December 4, 2021"
2021-11-30,3,11,November,False,935,202111,2021-11-28,2021-12-04,RY1,825,4057,1100625,"OLSON, CODEY",275,BS,Codey,Olson,Team 15,39.4,0.0,0.0,"November 28 - December 4, 2021"
2021-11-30,3,11,November,False,935,202111,2021-11-28,2021-12-04,RY1,824,3739,11660,"ADAM, PATRICK",273,BS,Patrick,Adam,Paint Team,6.7,0.0,0.0,"November 28 - December 4, 2021"
2021-11-30,3,11,November,False,935,202111,2021-11-28,2021-12-04,RY1,701,5085,184614,"LAMONT, BRANDON",271,BS,Brandon,Lamont,Team 20,26.1,0.0,0.0,"November 28 - December 4, 2021"
2021-11-30,3,11,November,False,935,202111,2021-11-28,2021-12-04,RY1,692,4926,1114921,"REUTER, TIMOTHY J",268,BS,Timothy,Reuter,Team 24,57.5,0.0,0.0,"November 28 - December 4, 2021"
2021-11-30,3,11,November,False,935,202111,2021-11-28,2021-12-04,RY1,700,3098,184920,"LENE, RYAN",267,BS,Ryan,Lene,Hourly,0.0,0.0,0.0,"November 28 - December 4, 2021"
2021-11-30,3,11,November,False,935,202111,2021-11-28,2021-12-04,RY1,699,3101,1106400,"OLSON, JUSTIN S",255,BS,Justin,Olson,Team 6,27.6,0.0,0.0,"November 28 - December 4, 2021"
2021-11-30,3,11,November,False,935,202111,2021-11-28,2021-12-04,RY1,687,3096,150105,"GARDNER, CHAD A",251,BS,Chad,Gardner,Team 3,16.2,0.0,0.0,"November 28 - December 4, 2021"
2021-11-30,3,11,November,False,935,202111,2021-11-28,2021-12-04,RY1,696,3097,171055,"JACOBSON, PETER A",249,BS,Peter,Jacobson,Paint Team,50.9,0.0,0.0,"November 28 - December 4, 2021"
2021-11-30,3,11,November,False,935,202111,2021-11-28,2021-12-04,RY1,685,3111,1147061,"WALTON, JOSHUA",246,BS,Joshua,Walton,Team 3,64.3,0.0,0.0,"November 28 - December 4, 2021"
2021-11-30,3,11,November,False,935,202111,2021-11-28,2021-12-04,RY1,695,3108,1125565,"SEVIGNY, SCOTT",241,BS,Scott,Sevigny,Team 7,27.1,0.0,0.0,"November 28 - December 4, 2021"
2021-11-30,3,11,November,False,935,202111,2021-11-28,2021-12-04,RY1,694,4287,1126040,"SHERECK, LOREN",235,BS,Loren,Shereck,Hourly,0.0,0.0,0.0,"November 28 - December 4, 2021"
2021-11-30,3,11,November,False,935,202111,2021-11-28,2021-12-04,RY1,684,3106,1118722,"ROSE, CORY",234,BS,Cory,Rose,Hourly,0.0,0.0,0.0,"November 28 - December 4, 2021"
2021-11-30,3,11,November,False,935,202111,2021-11-28,2021-12-04,RY1,979,5523,184620,"JOHNSON, BENJAMIN R",232,BS,Benjamin,Johnson,Team 21,37.5,0.0,0.0,"November 28 - December 4, 2021"
2021-11-30,3,11,November,False,935,202111,2021-11-28,2021-12-04,RY1,686,4519,135770,"DRISCOLL, TERRANCE",221,BS,Terrance,Driscoll,Team 12,41.7,0.0,0.0,"November 28 - December 4, 2021"
2021-11-30,3,11,November,False,935,202111,2021-11-28,2021-12-04,RY1,681,3104,1110425,"PETERSON, BRIAN D",213,BS,Brian,Peterson,Team 22,79.6,0.0,0.0,"November 28 - December 4, 2021"
2021-11-30,3,11,November,False,935,202111,2021-11-28,2021-12-04,RY1,682,3110,1146991,"WALDEN, CHRIS W",204,BS,Chris,Walden,Paint Team,37.5,0.0,0.0,"November 28 - December 4, 2021"
