~division_id~,~division_name~,~country~,~language~
~43~,~Alfa Romeo~,~US~,~en~
~157~,~American Motors (AMC)~,~US~,~en~
~4~,~Audi~,~US~,~en~
~5~,~BMW~,~US~,~en~
~6~,~Buick~,~US~,~en~
~7~,~Cadillac~,~US~,~en~
~8~,~Chevrolet~,~US~,~en~
~9~,~Chrysler~,~US~,~en~
~167~,~Datsun~,~US~,~en~
~11~,~Dodge~,~US~,~en~
~168~,~Fiat~,~US~,~en~
~13~,~Ford~,~US~,~en~
~15~,~GMC~,~US~,~en~
~16~,~Honda~,~US~,~en~
~19~,~Isuzu~,~US~,~en~
~20~,~Jaguar~,~US~,~en~
~21~,~Jeep~,~US~,~en~
~25~,~Lincoln~,~US~,~en~
~26~,~Mazda~,~US~,~en~
~27~,~Mercedes-Benz~,~US~,~en~
~28~,~Mercury~,~US~,~en~
~31~,~Oldsmobile~,~US~,~en~
~159~,~Peugeot~,~US~,~en~
~32~,~Plymouth~,~US~,~en~
~33~,~Pontiac~,~US~,~en~
~34~,~Porsche~,~US~,~en~
~160~,~Renault~,~US~,~en~
~35~,~Saab~,~US~,~en~
~37~,~Subaru~,~US~,~en~
~38~,~Suzuki~,~US~,~en~
~39~,~Toyota~,~US~,~en~
~40~,~Volkswagen~,~US~,~en~
~41~,~Volvo~,~US~,~en~
~29~,~Mitsubishi~,~US~,~en~
~30~,~Nissan~,~US~,~en~
~161~,~Merkur~,~US~,~en~
~1~,~Acura~,~US~,~en~
~17~,~Hyundai~,~US~,~en~
~23~,~Land Rover~,~US~,~en~
~165~,~Sterling~,~US~,~en~
~166~,~Yugo~,~US~,~en~
~12~,~Eagle~,~US~,~en~
~158~,~Daihatsu~,~US~,~en~
~50~,~Geo~,~US~,~en~
~18~,~INFINITI~,~US~,~en~
~24~,~Lexus~,~US~,~en~
~36~,~Saturn~,~US~,~en~
~3~,~AM General~,~US~,~en~
~22~,~Kia~,~US~,~en~
~55~,~Daewoo~,~US~,~en~
~44~,~Aston Martin~,~US~,~en~
~45~,~Bentley~,~US~,~en~
~46~,~Ferrari~,~US~,~en~
~14~,~HUMMER~,~US~,~en~
~47~,~Lamborghini~,~US~,~en~
~48~,~Lotus~,~US~,~en~
~2~,~MINI~,~US~,~en~
~49~,~Rolls-Royce~,~US~,~en~
~53~,~Maserati~,~US~,~en~
~51~,~Maybach~,~US~,~en~
~54~,~Panoz~,~US~,~en~
~52~,~Scion~,~US~,~en~
~42~,~smart~,~US~,~en~
~56~,~Tesla~,~US~,~en~
~57~,~Ram~,~US~,~en~
~59~,~FIAT~,~US~,~en~
~60~,~Fisker~,~US~,~en~
~170~,~Freightliner~,~US~,~en~
~61~,~McLaren~,~US~,~en~
~62~,~Genesis~,~US~,~en~
~63~,~Karma~,~US~,~en~
~64~,~Polestar~,~US~,~en~