NEW CONSTRAINTS,,,,,,
Allocation Group,Constraint Number,Option/Model Code,Description,% of National Allocation Quantity,Constraint Duration,Comments
2019 XT5 (XT5),2401.0,&XLG,XLG Sport Edition Package,0.01,LESS Than 4 Weeks,Startup Restriction
2019 EQUINOX (EQUINX),286.0,&3LT/3LZ,1.6L Diesel Engine,0.0,Model Year,Final MY Orders Received*
2019 SILVERADO LD DOUBLE CAB - NEXT GEN (CLDDBL),559.0,&LM2,Duramax 3.0L Turbo Diesel,0.1,Model Year,Material Restriction
2019 COLORADO (COLRDO),1398.0,&LWN,Diesel Engine,0.03,Model Year,Buildout Restriction
2019 TAHOE/SUBURBAN ALL (TAHSUB),2398.0,CK15906,Chevrolet Suburban Model,0.0,Model Year,Final MY Orders Received*
2019 CANYON (CANYON),1400.0,&LWN,Diesel Engine,0.03,Model Year,Buildout Restriction
2019 TERRAIN (TERAIN),322.0,&3SB/4SB,1.6L Diesel Engine,0.0,Model Year,Final MY Orders Received*
2020 SIERRA HD CREW CAB (GHDCRW),345.0,&1SA,1SA,0.0,LESS Than 4 Weeks,Marketing Restriction
2020 SIERRA HD CREW CAB (GHDCRW),374.0,&3SA,SLE,0.0,LESS Than 4 Weeks,Marketing Restriction
2020 SIERRA HD CREW CAB (GHDCRW),391.0,&4SB,AT4,0.15,LESS Than 4 Weeks,Marketing Restriction
2020 SIERRA HD CREW CAB (GHDCRW),394.0,&5SA,Denali,0.7,LESS Than 4 Weeks,Marketing Restriction
2020 SIERRA HD PICKUP (HDSIER),354.0,&1SA,1SA,0.0,LESS Than 4 Weeks,Marketing Restriction
2020 SIERRA HD PICKUP (HDSIER),383.0,&3SA,SLE,0.0,LESS Than 4 Weeks,Marketing Restriction
2020 SIERRA HD PICKUP (HDSIER),389.0,&4SB,AT4,0.15,LESS Than 4 Weeks,Marketing Restriction
2020 SIERRA HD PICKUP (HDSIER),368.0,&5SA,Denali,0.7,LESS Than 4 Weeks,Marketing Restriction
,,,,,,
CHANGED CONSTRAINTS,,,,,,
Allocation Group,Constraint Number,Option/Model Code,Description,% of National Allocation Quantity,Constraint Duration,Comments
2019 XT4 (XT4),2348.0,G6O,G6O- Atlantic Metallic,0.0,Model Year,Final MY Orders Received*
2019 XT5 (XT5),2355.0,&G35,G35 - Harbor Blue Metallic Exterior Color,0.05,LESS Than 4 Weeks,Buildout Restriction
2019 XT5 (XT5),2357.0,&GMU,GMU - Pepperdust Exterior Color,0.06,LESS Than 4 Weeks,Buildout Restriction
2019 IMPALA (IMPALA),2381.0,&GB8,Mosaic Black Metallic,0.03,LESS Than 4 Weeks,Buildout Restriction
2019 IMPALA (IMPALA),2382.0,&HV9,Blk/Wheat Leather Trim,0.0,Model Year,Final MY Orders Received*
2019 IMPALA (IMPALA),2383.0,&HG0,Blk/Wheat  Leather on Premier,0.01,LESS Than 4 Weeks,Buildout Restriction
2019 IMPALA (IMPALA),914.0,&HCR,Midnight Edition ,0.01,LESS Than 4 Weeks,Buildout Restriction
2019 BLAZER (BLAZER),2076.0,&PDN-3LT.,PDN Package less 3LT,0.75,LESS Than 4 Weeks,Supplier Restriction
2019 SILVERADO LD CREW CAB - NEXT GEN (CLDCRW),540.0,&1LZ/3LZ&L87 ,Equates to L87 6.2L availability of 50%,0.06,Model Year,Material Restriction
2019 SILVERADO LD CREW CAB - NEXT GEN (CLDCRW),1822.0,&1LT/1SP &L84,Equates to L84 5.3L availability of 85%,0.55,Model Year,Supplier Restriction
2019 SILVERADO LD DOUBLE CAB - NEXT GEN (CLDDBL),2247.0,&1LZ,LTZ Package,0.01,Model Year,Marketing Restriction
2019 SILVERADO LD DOUBLE CAB - NEXT GEN (CLDDBL),1803.0,&1LT/1SP&L84,Equates to L84 5.3L availability of 75%,0.63,Model Year,Material Restriction
2019 SILVERADO LD DOUBLE CAB - NEXT GEN (CLDDBL),1956.0,&1WT/1CX&L82,Equates to L82 5.3L availability of 5%,0.05,Model Year,Material Restriction
2019 COLORADO (COLRDO),1732.0,&ULV,ZR2 Bison Edition,0.02,Model Year,Marketing Restriction
2019 COLORADO (COLRDO),2116.0,&LCV,2.5L Engine,0.1,Model Year,Supplier Restriction
2019 EXPRESS VAN (EXPVAN),1870.0,YA2,Sliding door,0.25,July,Plant Restriction
2019 EXPRESS VAN (EXPVAN),2120.0,*****06,Passenger van,0.15,July,Plant Restriction
2019 EXPRESS VAN (EXPVAN),1750.0,DE5,Power mirror,0.5,July,Plant Restriction
2019 EXPRESS VAN (EXPVAN),1752.0,WPD,Safety Package,0.5,July,Plant Restriction
2019 EXPRESS VAN (EXPVAN),1754.0,ZL3,Enhanced Convenience Package,0.5,July,Plant Restriction
2019 EXPRESS VAN (EXPVAN),1756.0,PCH,Shuttle Bus Package,0.5,July,Plant Restriction
2019 SILVERADO LD PICKUP - NEXT GEN (LDSILV),1824.0,&1LT/1SP &L84,Equates to L84 5.3L availability of 89%,0.55,Model Year,Supplier Restriction
2019 SILVERADO MEDIUM DUTY (SILVMD),1613.0,CK****3,4WD Model,0.25,Model Year,Plant Restriction
2019 SILVERADO MEDIUM DUTY (SILVMD),1614.0,C****43,Crew Cab Model,0.3,Model Year,Plant Restriction
2019 TRAVERSE (TRAVRS),845.0,&WBL,WBL - RedLine Edition,0.12,Model Year,Supplier Restriction
2020 SILVERADO HD CREW CAB (CHDCRW),591.0,&GNK,Oxford Mettalic Paint,0.01,LESS Than 4 Weeks,Interim Color Introduction
2020 SILVERADO HD CREW CAB (CHDCRW),752.0,&1WT/1LT&L5P,1WT/1LT PEG and Diesel Engine,0.05,June,Marketing Launch Plan
2020 SILVERADO HD PICKUP (HDSILV),600.0,&GNK,Oxford Mettalic Paint,0.01,LESS Than 4 Weeks,Interim Color Introduction
2020 SILVERADO HD PICKUP (HDSILV),761.0,&1WT/1LT&L5P,1WT/1LT PEG and Diesel Engine,0.05,June,Marketing Launch Plan
2019 ACADIA (ACADIA),2351.0,&G35,G35 Harbor Blue Metallic Exterior Color,0.05,LESS Than 4 Weeks,Buildout Restriction
2019 ACADIA (ACADIA),2353.0,&GMU,GMU Pepperdust Exterior Color,0.06,LESS Than 4 Weeks,Buildout Restriction
2019 CANYON (CANYON),2118.0,&LCV,2.5L Engine,0.1,Model Year,Supplier Restriction
2019 SIERRA LD CREW CAB - NEXT GEN (GLDCRW),864.0,&4SA,SLT,0.45,Model Year,Marketing Restriction
2019 SIERRA LD DOUBLE CAB - NEXT GEN (GLDDBL),819.0,&LM2,Duramax 3.0L Turbo Diesel,0.05,May,Material Restriction
2019 SIERRA LD PICKUP - NEXT GEN (LDSIER),870.0,&4SA,SLT,0.45,Model Year,Marketing Restriction
2019 SAVANA VAN (SAVVAN),1872.0,YA2,Sliding door,0.25,July,Plant Restriction
2019 SAVANA VAN (SAVVAN),2122.0,*****06,Passenger van,0.15,July,Plant Restriction
2019 SAVANA VAN (SAVVAN),1758.0,DE5,Power mirror,0.5,July,Plant Restriction
2019 SAVANA VAN (SAVVAN),1760.0,WPD,Safety Package,0.5,July,Plant Restriction
2019 SAVANA VAN (SAVVAN),1762.0,ZL3,Enhanced Convenience Package,0.5,July,Plant Restriction
2019 SAVANA VAN (SAVVAN),1764.0,PCH,Shuttle Bus Package,0.5,July,Plant Restriction
2020 SIERRA HD CREW CAB (GHDCRW),493.0,&GNK,Brownstone Metallic Paint,0.01,LESS Than 4 Weeks,Interim Color Introduction
2020 SIERRA HD PICKUP (HDSIER),491.0,&GNK,Brownstone Metallic Paint,0.01,LESS Than 4 Weeks,Interim Color Introduction
,,,,,,
DELETED CONSTRAINTS,,,,,,
Allocation Group,Constraint Number,Option/Model Code,Description,% of National Allocation Quantity,Constraint Duration,Comments
2019 SIERRA LD DOUBLE CAB - NEXT GEN (GLDDBL),1703.0,&L84,L84 Engine V-8 Engine,,,Not Constrained This Week*
