"store","employee_number","name","distrib_code","hire_date","term_date","payroll_class","full_part","2/10-2/16","employed","fte","2/17-2/23","employed","fte","2/24-3/2","employed","fte","3/3-3/9","employed","fte","3/10-3/16","employed","fte","3/17-3/23","employed","fte","3/24-3/30","employed","fte","3/31-4/6","employed","fte","4/7-4/13","employed","fte","4/14-4/20","employed","fte","4/21-4/27","employed","fte","4/28-5/4","employed","fte","5/5-5/11","employed","fte","5/12-5/18","employed","fte","5/19-5/25","employed","fte","5/26-6/1","employed","fte","6/2-6/8","employed","fte","6/9-6/15","employed","fte","6/16-6/22","employed","fte","6/23-6/29","employed","fte","6/30-7/6","employed","fte"
"RY1","134679","ADAM, NICHOLAS","PTEC","2019-06-17","","H","part",0,f,0,0,f,0,0,f,0,0,f,0,0,f,0,0,f,0,0,f,0,0,f,0,0,f,0,0,f,0,0,f,0,0,f,0,0,f,0,0,f,0,0,f,0,0,f,0,0,f,0,0,f,0,30.08,t,1,33.62,t,1,12.55,t,0.4
"RY1","11660","ADAM, PATRICK","BTEC","2016-04-25","","C","full",47.44,t,1,50.83,t,1,49.15,t,1,48.62,t,1,48.39,t,1,56.23,t,1,48.88,t,1,49.09,t,1,50.29,t,1,47.90,t,1,49.64,t,1,48.45,t,1,47.89,t,1,52.31,t,1,48.21,t,1,46.87,t,1,49.10,t,1,46.84,t,1,42.19,t,1,49.14,t,1,46.18,t,1
"RY1","197642","ADHIKARI, OM","RAY","2019-06-17","","H","full",0,f,0,0,f,0,0,f,0,0,f,0,0,f,0,0,f,0,0,f,0,0,f,0,0,f,0,0,f,0,0,f,0,0,f,0,0,f,0,0,f,0,0,f,0,0,f,0,0,f,0,0,f,0,28.61,t,1.0,48.57,t,1,40.53,t,1
"RY1","11732","AGUILAR, ANNA","BOFF","2015-09-08","","H","full",40.11,t,1,40.58,t,1,41.33,t,1,43.18,t,1,43.47,t,1,43.15,t,1,46.04,t,1,41.60,t,1,40.83,t,1,40.17,t,1,41.54,t,1,40.61,t,1,40.36,t,1,40.30,t,1,41.75,t,1,39.68,t,1,39.55,t,1,44.56,t,1,40.69,t,1,42.02,t,1,41.76,t,1
"RY1","10568","AKER, CADEN","STEC","2017-11-06","","H","full",38.63,t,1,37.63,t,1,40.00,t,1,38.27,t,1,34.28,t,1,48.79,t,1,38.39,t,1,53.80,t,1,42.80,t,1,53.71,t,1,28.02,t,0.9,28.91,t,1.0,34.74,t,1,45.66,t,1,0,t,0,43.40,t,1,45.16,t,1,45.86,t,1,35.83,t,1,46.83,t,1,27.66,t,0.9
"RY1","12725","ALSLEBEN, DEVIN R","PTEC","2017-08-18","","H","part",29.35,t,1.0,52.51,t,1,49.44,t,1,47.98,t,1,36.25,t,1,49.78,t,1,50.81,t,1,33.34,t,1,44.07,t,1,41.73,t,1,48.78,t,1,45.40,t,1,16.93,t,0.6,44.96,t,1,33.73,t,1,49.68,t,1,53.13,t,1,42.08,t,1,23.10,t,0.8,52.79,t,1,54.87,t,1
"RY1","12800","ANDERSON, HAILEE","SOFF","2016-10-24","2019-03-08","H","full",41.23,t,1,36.91,t,1,39.12,t,1,34.24,t,1,0,f,0,0,f,0,0,f,0,0,f,0,0,f,0,0,f,0,0,f,0,0,f,0,0,f,0,0,f,0,0,f,0,0,f,0,0,f,0,0,f,0,0,f,0,0,f,0,0,f,0
"RY1","167912","ANDERSON, HANNAH","OPE","2019-05-13","2019-06-28","H","part",0,f,0,0,f,0,0,f,0,0,f,0,0,f,0,0,f,0,0,f,0,0,f,0,0,f,0,0,f,0,0,f,0,0,f,0,0,f,0,25.07,t,0.8,13.90,t,0.5,24.76,t,0.8,7.95,t,0.3,7.73,t,0.3,7.93,t,0.3,11.81,t,0.4,0,f,0
"RY1","165873","ANDERSON, NICHOLAS","PTEC","2018-06-18","","H","full",29.78,t,1.0,49.69,t,1,37.92,t,1,40.71,t,1,19.07,t,0.6,31.97,t,1,36.95,t,1,35.24,t,1,34.77,t,1,48.92,t,1,24.04,t,0.8,51.87,t,1,45.01,t,1,34.95,t,1,34.80,t,1,52.62,t,1,43.71,t,1,44.97,t,1,33.64,t,1,40.00,t,1,44.43,t,1
"RY1","13725","ANDERSON, SHAWN W","STEC","2015-02-02","","C","full",48.59,t,1,51.54,t,1,49.10,t,1,50.71,t,1,46.27,t,1,46.42,t,1,49.70,t,1,45.60,t,1,54.63,t,1,47.50,t,1,49.63,t,1,51.11,t,1,50.25,t,1,55.59,t,1,43.99,t,1,46.12,t,1,55.05,t,1,45.15,t,1,54.28,t,1,46.27,t,1,36.47,t,1
"RY1","13815","ANDERSON, STEVEN L","DRI","2014-03-10","","H","part",40.00,t,1,12.50,t,0.4,40.00,t,1,21.50,t,0.7,18.00,t,0.6,21.00,t,0.7,28.50,t,1.0,12.00,t,0.4,3.00,t,0.1,29.50,t,1.0,20.50,t,0.7,36.00,t,1,19.00,t,0.6,0,t,0,14.00,t,0.5,13.00,t,0.4,9.00,t,0.3,28.00,t,0.9,29.50,t,1.0,27.50,t,0.9,18.00,t,0.6
"RY1","16425","ANDREWS, JON","29","2006-04-11","","S","full",0,t,1,0,t,1,0,t,1,0,t,1,0,t,1,0,t,1,0,t,1,0,t,1,0,t,1,0,t,1,0,t,1,0,t,1,0,t,1,0,t,1,0,t,1,0,t,1,0,t,1,0,t,1,0,t,1,0,t,1,0,t,1
"RY1","16450","APPLING, DAVID J","22","2015-01-27","","H","part",0,t,0,0,t,0,0,t,0,6.25,t,0.2,0,t,0,27.60,t,0.9,20.44,t,0.7,27.99,t,0.9,12.65,t,0.4,0,t,0,35.49,t,1,14.43,t,0.5,21.60,t,0.7,22.66,t,0.8,0,t,0,0,t,0,0,t,0,0,t,0,0,t,0,0,t,0,0,t,0
"RY1","164821","ARNOLD, SAMANTHA","SALE","2019-04-29","","H","full",0,f,0,0,f,0,0,f,0,0,f,0,0,f,0,0,f,0,0,f,0,0,f,0,0,f,0,0,f,0,0,f,0,36.00,t,1,32.39,t,1,36.35,t,1,40.29,t,1,32.07,t,1,38.30,t,1,39.79,t,1,38.81,t,1,41.11,t,1,42.55,t,1
"RY1","126547","ASHBURN, BRYSON","WTEC","2019-01-28","","H","part",15.01,t,0.5,17.55,t,0.6,19.71,t,0.7,14.68,t,0.5,0,t,0,20.08,t,0.7,14.49,t,0.5,16.85,t,0.6,11.81,t,0.4,17.98,t,0.6,12.70,t,0.4,18.51,t,0.6,18.82,t,0.6,15.94,t,0.5,16.21,t,0.5,11.89,t,0.4,16.27,t,0.5,15.73,t,0.5,16.28,t,0.5,20.67,t,0.7,16.13,t,0.5
"RY1","17534","AUBOL, THOMAS B","TEAM","1998-11-09","","C","full",0,t,1,0,t,1,0,t,1,0,t,1,0,t,1,0,t,1,0,t,1,0,t,1,0,t,1,0,t,1,0,t,1,0,t,1,0,t,1,0,t,1,0,t,1,0,t,1,0,t,1,0,t,1,0,t,1,0,t,1,0,t,1
"RY1","18005","AXTMAN, DALE M","STEC","2001-05-01","","H","full",40.38,t,1,50.21,t,1,44.34,t,1,40.00,t,1,40.15,t,1,40.16,t,1,41.09,t,1,40.69,t,1,39.11,t,1,40.17,t,1,40.07,t,1,40.74,t,1,40.43,t,1,40.81,t,1,41.00,t,1,40.36,t,1,40.30,t,1,40.31,t,1,40.28,t,1,42.92,t,1,40.59,t,1
"RY1","110052","BARKER, JOSHUA D","SALE","2010-11-01","","C","full",0,t,1,0,t,1,0,t,1,0,t,1,0,t,1,0,t,1,0,t,1,0,t,1,0,t,1,0,t,1,0,t,1,0,t,1,0,t,1,0,t,1,0,t,1,0,t,1,0,t,1,0,t,1,40.00,t,1,0,t,1,0,t,1
"RY1","111210","BEAR, JEFFERY L","STEC","2014-10-14","","C","full",40.36,t,1,42.29,t,1,33.79,t,1,42.09,t,1,41.97,t,1,48.44,t,1,39.32,t,1,40.28,t,1,34.52,t,1,38.66,t,1,39.78,t,1,34.66,t,1,28.36,t,0.9,36.33,t,1,40.63,t,1,39.95,t,1,38.54,t,1,38.13,t,1,37.86,t,1,32.26,t,1,33.92,t,1
"RY1","165792","BEDNEY, JACOB","CWAS","2019-02-11","2019-03-13","H","part",10.04,t,0.3,0,t,0,15.00,t,0.5,10.22,t,0.3,10.37,t,0.3,0,f,0,0,f,0,0,f,0,0,f,0,0,f,0,0,f,0,0,f,0,0,f,0,0,f,0,0,f,0,0,f,0,0,f,0,0,f,0,0,f,0,0,f,0,0,f,0
"RY1","187564","BEHM, PAUL","SALE","2018-04-23","","C","full",0,t,1,0,t,1,0,t,1,0,t,1,0,t,1,0,t,1,0,t,1,0,t,1,0,t,1,0,t,1,0,t,1,0,t,1,0,t,1,0,t,1,0,t,1,0,t,1,0,t,1,0,t,1,0,t,1,0,t,1,0,t,1
"RY1","111250","BEISWENGER, LYLE W","DRI","2012-11-13","","H","part",6.50,t,0.2,5.00,t,0.2,3.00,t,0.1,9.50,t,0.3,8.00,t,0.3,4.50,t,0.2,0,t,0,0,t,0,3.00,t,0.1,9.00,t,0.3,8.50,t,0.3,0,t,0,0,t,0,0,t,0,3.00,t,0.1,0,t,0,0,t,0,3.00,t,0.1,3.00,t,0.1,5.00,t,0.2,0,t,0
"RY1","112273","BENTH, MORGAN D","BOFF","2015-08-03","2019-03-11","H","full",41.59,t,1,41.79,t,1,40.47,t,1,32.46,t,1,0,t,0,0,f,0,0,f,0,0,f,0,0,f,0,0,f,0,0,f,0,0,f,0,0,f,0,0,f,0,0,f,0,0,f,0,0,f,0,0,f,0,0,f,0,0,f,0,0,f,0
"RY1","195359","BERGE, THOMAS","PTEC","2018-07-16","","H","full",32.64,t,1,30.83,t,1,43.92,t,1,17.73,t,0.6,39.56,t,1,40.38,t,1,21.85,t,0.7,36.03,t,1,28.69,t,1.0,24.07,t,0.8,30.87,t,1,27.54,t,0.9,26.63,t,0.9,41.54,t,1,27.88,t,0.9,34.64,t,1,17.88,t,0.6,27.25,t,0.9,30.73,t,1,37.53,t,1,22.40,t,0.7
"RY1","113085","BERGH, STEVEN","CMGR","2014-06-30","","S","full",0,t,1,0,t,1,0,t,1,0,t,1,0,t,1,0,t,1,0,t,1,0,t,1,0,t,1,0,t,1,0,t,1,0,t,1,0,t,1,0,t,1,0,t,1,0,t,1,0,t,1,0,t,1,0,t,1,0,t,1,0,t,1
"RY1","165943","BERNHAGEN-VANG, PAIGE","CWAS","2019-04-29","2019-05-16","H","full",0,f,0,0,f,0,0,f,0,0,f,0,0,f,0,0,f,0,0,f,0,0,f,0,0,f,0,0,f,0,0,f,0,29.87,t,1.0,13.51,t,0.5,10.45,t,0.3,0,f,0,0,f,0,0,f,0,0,f,0,0,f,0,0,f,0,0,f,0
"RY1","157953","BIES II, DAVID","BTEC","2019-01-28","","H","full",46.25,t,1,48.74,t,1,46.58,t,1,46.23,t,1,44.65,t,1,46.07,t,1,45.60,t,1,45.62,t,1,50.67,t,1,46.16,t,1,45.80,t,1,46.48,t,1,45.59,t,1,53.33,t,1,47.00,t,1,43.76,t,1,46.79,t,1,45.75,t,1,46.66,t,1,47.30,t,1,44.69,t,1
"RY1","147741","BJARNASON, JUSTIN","SALE","2017-06-05","","C","full",0,t,1,0,t,1,0,t,1,16.00,t,1,8.00,t,1,0,t,1,0,t,1,0,t,1,0,t,1,0,t,1,0,t,1,0,t,1,8.00,t,1,8.00,t,1,0,t,1,0,t,1,0,t,1,0,t,1,0,t,1,0,t,1,0,t,1
"RY1","115255","BJORNSETH, MARK L","PART","1989-09-25","","S","full",0,t,1,0,t,1,0,t,1,0,t,1,0,t,1,0,t,1,0,t,1,0,t,1,0,t,1,0,t,1,0,t,1,0,t,1,0,t,1,0,t,1,0,t,1,0,t,1,0,t,1,0,t,1,0,t,1,0,t,1,0,t,1
"RY1","160930","BLUMHAGEN, KATHERINE M","BSPA","2002-08-19","","H","full",46.71,t,1,57.76,t,1,49.99,t,1,51.75,t,1,45.64,t,1,50.96,t,1,49.27,t,1,48.21,t,1,49.03,t,1,54.48,t,1,49.29,t,1,49.94,t,1,49.39,t,1,49.01,t,1,48.15,t,1,47.39,t,1,50.86,t,1,57.40,t,1,46.22,t,1,43.50,t,1,32.00,t,1
"RY1","116185","BOHM, DOUGLAS","STEC","1993-03-01","","H","full",51.57,t,1,36.52,t,1,41.29,t,1,39.42,t,1,32.57,t,1,48.53,t,1,41.34,t,1,41.26,t,1,40.79,t,1,30.32,t,1,50.45,t,1,37.25,t,1,39.92,t,1,41.52,t,1,36.87,t,1,36.23,t,1,41.17,t,1,42.36,t,1,39.48,t,1,42.65,t,1,45.48,t,1
"RY1","156887","BOLL, RYAN","PDQW","2018-11-12","2019-05-25","H","full",42.17,t,1,54.11,t,1,43.55,t,1,51.35,t,1,43.50,t,1,52.32,t,1,44.50,t,1,51.47,t,1,42.67,t,1,35.67,t,1,42.31,t,1,50.20,t,1,41.90,t,1,26.26,t,0.9,52.42,t,1,0,f,0,0,f,0,0,f,0,0,f,0,0,f,0,0,f,0
"RY1","118010","BRAATEN, DEAN T","PART","2017-04-24","","H","full",54.97,t,1,49.23,t,1,53.57,t,1,51.92,t,1,48.87,t,1,53.35,t,1,53.17,t,1,50.45,t,1,55.96,t,1,40.00,t,1,51.59,t,1,51.51,t,1,51.84,t,1,50.88,t,1,50.46,t,1,44.10,t,1,51.71,t,1,52.68,t,1,55.35,t,1,40.97,t,1,36.27,t,1
"RY1","118520","BROOKS JR, DREW","PDQW","2017-04-02","","H","full",46.94,t,1,34.40,t,1,33.23,t,1,35.59,t,1,40.40,t,1,28.08,t,0.9,42.79,t,1,36.75,t,1,46.94,t,1,52.37,t,1,56.19,t,1,36.86,t,1,49.51,t,1,47.32,t,1,24.00,t,0.8,40.54,t,1,48.16,t,1,39.86,t,1,43.43,t,1,43.53,t,1,34.78,t,1
"RY1","121063","BRORBY, BO","94","2015-11-23","","H","full",42.42,t,1,42.01,t,1,44.05,t,1,40.67,t,1,47.45,t,1,43.71,t,1,43.17,t,1,43.58,t,1,44.76,t,1,42.77,t,1,42.46,t,1,43.75,t,1,44.11,t,1,43.33,t,1,55.48,t,1,54.01,t,1,43.85,t,1,43.81,t,1,43.50,t,1,44.53,t,1,45.48,t,1
"RY1","132679","BROSSEAU, LOGAN","BTEC","2018-11-05","","H","part",17.38,t,0.6,17.98,t,0.6,16.90,t,0.6,9.43,t,0.3,27.61,t,0.9,25.59,t,0.9,18.75,t,0.6,19.55,t,0.7,9.73,t,0.3,0,t,0,0,t,0,0,t,0,0,t,0,0,t,0,0,t,0,0,t,0,0,t,0,0,t,0,0,t,0,0,t,0,38.03,t,1
"RY1","123896","BROWN, SETH","DPOT","2018-07-26","2019-05-31","H","full",31.99,t,1,40.33,t,1,44.15,t,1,35.48,t,1,42.87,t,1,30.35,t,1,35.17,t,1,30.70,t,1,35.29,t,1,34.22,t,1,35.05,t,1,29.33,t,1.0,21.43,t,0.7,37.08,t,1,32.83,t,1,31.40,t,1,0,f,0,0,f,0,0,f,0,0,f,0,0,f,0
"RY1","123211","BRUGGEMAN, AFTON","29","2016-08-01","","S","full",0,t,1,0,t,1,0,t,1,0,t,1,0,t,1,0,t,1,0,t,1,0,t,1,0,t,1,0,t,1,0,t,1,0,t,1,0,t,1,0,t,1,0,t,1,0,t,1,0,t,1,0,t,1,0,t,1,0,t,1,0,t,1
"RY1","158763","BRUNK, JUSTIN","SALE","2018-02-26","","C","full",0,t,1,0,t,1,0,t,1,0,t,1,0,t,1,0,t,1,0,t,1,0,t,1,0,t,1,0,t,1,0,t,1,0,t,1,0,t,1,0,t,1,0,t,1,0,t,1,0,t,1,0,t,1,0,t,1,0,t,1,0,t,1
"RY1","145789","BUCHANAN, KYLE","BTEC","2017-05-08","","C","full",43.46,t,1,50.88,t,1,44.88,t,1,48.97,t,1,39.35,t,1,44.50,t,1,49.72,t,1,44.65,t,1,44.14,t,1,42.85,t,1,50.92,t,1,40.19,t,1,41.82,t,1,43.19,t,1,42.77,t,1,48.32,t,1,40.48,t,1,44.65,t,1,43.63,t,1,47.16,t,1,43.04,t,1
"RY1","155477","BUCKHOLZ, ZACHARY","PTEC","2017-04-10","","H","full",46.46,t,1,28.04,t,0.9,40.89,t,1,20.90,t,0.7,40.90,t,1,25.03,t,0.8,34.05,t,1,26.32,t,0.9,31.59,t,1,39.88,t,1,45.66,t,1,25.81,t,0.9,34.74,t,1,24.67,t,0.8,30.45,t,1,25.75,t,0.9,30.52,t,1,21.82,t,0.7,29.95,t,1.0,18.27,t,0.6,48.90,t,1
"RY1","121362","BURSINGER, TRAVIS C","STL","2004-07-16","2019-04-12","H","full",45.35,t,1,45.17,t,1,44.65,t,1,41.01,t,1,32.86,t,1,44.32,t,1,43.30,t,1,43.56,t,1,43.95,t,1,0,f,0,0,f,0,0,f,0,0,f,0,0,f,0,0,f,0,0,f,0,0,f,0,0,f,0,0,f,0,0,f,0,0,f,0
"RY1","123100","CAHALAN, BENJAMIN C","GM","2011-08-03","","S","full",0,t,1,0,t,1,0,t,1,0,t,1,0,t,1,0,t,1,0,t,1,0,t,1,0,t,1,0,t,1,0,t,1,0,t,1,0,t,1,0,t,1,0,t,1,0,t,1,0,t,1,0,t,1,0,t,1,0,t,1,0,t,1
"RY1","123525","CARLSON, KENNETH A","STL","2010-01-01","","H","part",27.69,t,0.9,19.45,t,0.6,29.91,t,1.0,19.21,t,0.6,29.29,t,1.0,19.03,t,0.6,30.06,t,1,19.07,t,0.6,29.00,t,1.0,19.16,t,0.6,24.97,t,0.8,19.58,t,0.7,31.40,t,1,19.72,t,0.7,26.78,t,0.9,15.33,t,0.5,30.19,t,1,32.35,t,1,15.83,t,0.5,16.00,t,0.5,25.98,t,0.9
"RY1","123538","CARLSON, ROBERT","25","1997-04-01","","C","full",0,t,1,0,t,1,0,t,1,0,t,1,0,t,1,0,t,1,0,t,1,0,t,1,0,t,1,0,t,1,0,t,1,0,t,1,0,t,1,0,t,1,0,t,1,0,t,1,0,t,1,0,t,1,0,t,1,0,t,1,0,t,1
"RY1","187539","CARLTON, JOHN","PTEC","2018-10-22","2019-04-27","H","part",13.92,t,0.5,12.13,t,0.4,25.89,t,0.9,14.24,t,0.5,0,t,0,15.05,t,0.5,23.87,t,0.8,24.19,t,0.8,13.14,t,0.4,9.98,t,0.3,23.38,t,0.8,0,f,0,0,f,0,0,f,0,0,f,0,0,f,0,0,f,0,0,f,0,0,f,0,0,f,0,0,f,0
"RY1","1114010","CARTER, TYUS","CWAS","2017-04-10","","H","part",10.00,t,0.3,7.46,t,0.2,7.17,t,0.2,0,t,0,0,t,0,0,t,0,6.51,t,0.2,7.58,t,0.3,6.29,t,0.2,7.58,t,0.3,6.19,t,0.2,7.02,t,0.2,0,t,0,0,t,0,0,t,0,6.39,t,0.2,0,t,0,0,t,0,0,t,0,0,t,0,0,t,0
"RY1","124101","CHAMPAGNE, LESLIE","DCAS","2014-08-25","","H","full",51.64,t,1,51.27,t,1,54.45,t,1,41.98,t,1,50.06,t,1,45.66,t,1,54.19,t,1,48.20,t,1,55.29,t,1,51.01,t,1,50.80,t,1,53.41,t,1,49.23,t,1,54.43,t,1,53.00,t,1,50.98,t,1,57.22,t,1,53.41,t,1,54.90,t,1,52.27,t,1,59.45,t,1
"RY1","124120","CHAVEZ, JESSE","SALE","2014-06-30","2019-02-19","C","full",0,t,1,0,t,1,0,f,0,0,f,0,0,f,0,0,f,0,0,f,0,0,f,0,0,f,0,0,f,0,0,f,0,0,f,0,0,f,0,0,f,0,0,f,0,0,f,0,0,f,0,0,f,0,0,f,0,0,f,0,0,f,0
"RY1","135987","CLARK, ADAM","PTEC","2018-02-01","","H","part",18.06,t,0.6,8.87,t,0.3,17.80,t,0.6,8.86,t,0.3,17.47,t,0.6,4.78,t,0.2,0,t,0,8.86,t,0.3,17.94,t,0.6,8.26,t,0.3,18.26,t,0.6,13.20,t,0.4,18.89,t,0.6,29.13,t,1.0,50.49,t,1,41.55,t,1,43.86,t,1,38.95,t,1,48.85,t,1,0,t,0,50.73,t,1
"RY1","165980","CLASEMAN, JAMIE","16","2018-12-03","","H","full",35.99,t,1,33.56,t,1,37.97,t,1,38.59,t,1,28.73,t,1.0,37.27,t,1,38.86,t,1,35.76,t,1,34.46,t,1,34.68,t,1,37.97,t,1,46.59,t,1,34.16,t,1,42.59,t,1,40.07,t,1,42.56,t,1,46.35,t,1,36.20,t,1,47.09,t,1,42.18,t,1,51.20,t,1
"RY1","126200","COCHRAN, MICHELLE C","ADMI","2011-01-24","","S","full",0,t,1,0,t,1,0,t,1,0,t,1,0,t,1,0,t,1,0,t,1,0,t,1,0,t,1,0,t,1,0,t,1,0,t,1,0,t,1,0,t,1,0,t,1,0,t,1,0,t,1,0,t,1,0,t,1,0,t,1,0,t,1
"RY1","158963","COOK, MATTHEW","WTEC","2019-06-03","","H","full",0,f,0,0,f,0,0,f,0,0,f,0,0,f,0,0,f,0,0,f,0,0,f,0,0,f,0,0,f,0,0,f,0,0,f,0,0,f,0,0,f,0,0,f,0,0,f,0,42.18,t,1,25.31,t,0.8,16.14,t,0.5,9.12,t,0.3,35.66,t,1
"RY1","196325","COOLEY, CONNOR","CWAS","2018-08-27","","H","part",0,t,0,0,t,0,0,t,0,0,t,0,0,t,0,0,t,0,0,t,0,0,t,0,0,t,0,0,t,0,0,t,0,0,t,0,0,t,0,0,t,0,0,t,0,0,t,0,0,t,0,0,t,0,0,t,0,0,t,0,0,t,0
"RY1","186724","CORY, CLAIRE","CWAS","2019-05-24","","H","part",0,f,0,0,f,0,0,f,0,0,f,0,0,f,0,0,f,0,0,f,0,0,f,0,0,f,0,0,f,0,0,f,0,0,f,0,0,f,0,0,f,0,1.50,t,0.1,20.31,t,0.7,26.71,t,0.9,17.61,t,0.6,21.86,t,0.7,16.90,t,0.6,18.63,t,0.6
"RY1","126250","COULTER, DONALD R","22","2015-01-27","","H","part",0,t,0,0,t,0,17.73,t,0.6,18.91,t,0.6,8.04,t,0.3,13.23,t,0.4,12.41,t,0.4,26.50,t,0.9,12.65,t,0.4,0,t,0,16.87,t,0.6,8.64,t,0.3,6.48,t,0.2,22.67,t,0.8,0.01,t,0.0,0,t,0,0,t,0,0,t,0,0,t,0,0,t,0,0,t,0
"RY1","128530","CROAKER, CRAIG R","SALE","2007-01-30","","C","full",0,t,1,0,t,1,0,t,1,0,t,1,0,t,1,0,t,1,0,t,1,0,t,1,0,t,1,0,t,1,0,t,1,0,t,1,0,t,1,0,t,1,0,t,1,0,t,1,0,t,1,0,t,1,0,t,1,0,t,1,0,t,1
"RY1","125774","DAHLEN, DANA","14","2017-09-29","2019-02-18","H","full",22.50,t,0.8,1.83,t,0.1,0,f,0,0,f,0,0,f,0,0,f,0,0,f,0,0,f,0,0,f,0,0,f,0,0,f,0,0,f,0,0,f,0,0,f,0,0,f,0,0,f,0,0,f,0,0,f,0,0,f,0,0,f,0,0,f,0
"RY1","145369","DAKU, ALTIN","CWAS","2018-07-26","","H","full",0,t,0,0,t,0,0,t,0,0,t,0,0,t,0,0,t,0,0,t,0,0,t,0,0,t,0,0,t,0,0,t,0,0,t,0,0,t,0,0,t,0,0,t,0,0,t,0,0,t,0,0,t,0,0,t,0,0,t,0,0,t,0
"RY1","131370","DAVID, GORDON","STEC","1995-06-07","","C","full",42.05,t,1,54.18,t,1,45.96,t,1,41.33,t,1,40.14,t,1,41.43,t,1,48.70,t,1,40.98,t,1,40.04,t,1,40.00,t,1,40.73,t,1,47.13,t,1,39.75,t,1,40.43,t,1,40.00,t,1,39.04,t,1,47.27,t,1,39.24,t,1,38.33,t,1,40.44,t,1,39.86,t,1
"RY1","131315","DAVIS, ERIC A","WTEC","2014-08-11","","C","full",38.88,t,1,40.29,t,1,40.38,t,1,40.28,t,1,39.13,t,1,39.47,t,1,40.50,t,1,38.31,t,1,40.52,t,1,39.38,t,1,40.01,t,1,40.44,t,1,40.83,t,1,39.83,t,1,39.70,t,1,40.16,t,1,40.07,t,1,39.35,t,1,39.83,t,1,31.91,t,1,39.58,t,1
"RY1","15552","DECOUTEAU, FRANK A","SALE","2017-09-25","","C","full",0,t,1,0,t,1,0,t,1,0,t,1,0,t,1,0,t,1,0,t,1,0,t,1,0,t,1,0,t,1,0,t,1,0,t,1,0,t,1,0,t,1,0,t,1,0,t,1,0,t,1,0,t,1,0,t,1,0,t,1,0,t,1
"RY1","152398","DELAURIER, JAMES","SALE","2018-12-17","2019-02-14","C","full",0,t,1,0,f,0,0,f,0,0,f,0,0,f,0,0,f,0,0,f,0,0,f,0,0,f,0,0,f,0,0,f,0,0,f,0,0,f,0,0,f,0,0,f,0,0,f,0,0,f,0,0,f,0,0,f,0,0,f,0,0,f,0
"RY1","132500","DELOHERY, MICHAEL J","15","2010-05-03","","S","full",0,t,1,0,t,1,0,t,1,0,t,1,0,t,1,0,t,1,0,t,1,0,t,1,0,t,1,0,t,1,0,t,1,0,t,1,0,t,1,0,t,1,0,t,1,0,t,1,0,t,1,0,t,1,0,t,1,0,t,1,0,t,1
"RY1","154983","DEVIER, RYLIE","CWAS","2018-12-03","","H","part",14.16,t,0.5,4.72,t,0.2,15.30,t,0.5,7.70,t,0.3,18.62,t,0.6,14.14,t,0.5,12.85,t,0.4,7.56,t,0.3,18.00,t,0.6,13.52,t,0.5,8.20,t,0.3,1.74,t,0.1,2.26,t,0.1,3.47,t,0.1,1.64,t,0.1,0,t,0,0,t,0,0,t,0,0,t,0,0,t,0,0,t,0
"RY1","154225","DEZIEL, DYLAN","PTDR","2019-02-21","","H","full",0,f,0,20.17,t,0.7,36.32,t,1,47.94,t,1,41.48,t,1,43.06,t,1,42.39,t,1,41.67,t,1,35.76,t,1,34.66,t,1,43.11,t,1,41.31,t,1,41.79,t,1,43.01,t,1,39.79,t,1,38.30,t,1,43.15,t,1,45.77,t,1,48.58,t,1,37.52,t,1,42.79,t,1
"RY1","15648","DIBI, ANDREW","BTEC","2017-10-23","","H","full",49.49,t,1,43.57,t,1,45.12,t,1,43.63,t,1,20.04,t,0.7,48.84,t,1,47.80,t,1,48.64,t,1,51.73,t,1,46.40,t,1,48.60,t,1,50.54,t,1,46.34,t,1,49.18,t,1,42.51,t,1,46.76,t,1,51.76,t,1,52.56,t,1,47.74,t,1,48.92,t,1,47.64,t,1
"RY1","133017","DOCKENDORF, NATE J","TEAM","2015-05-18","","C","full",0,t,1,0,t,1,0,t,1,0,t,1,0,t,1,0,t,1,0,t,1,0,t,1,0,t,1,0,t,1,0,t,1,0,t,1,0,t,1,0,t,1,0,t,1,0,t,1,0,t,1,0,t,1,0,t,1,0,t,1,0,t,1
"RY1","135770","DRISCOLL, TERRANCE","BTEC","2002-11-04","","C","full",46.45,t,1,47.24,t,1,45.42,t,1,51.93,t,1,50.72,t,1,47.94,t,1,47.41,t,1,48.34,t,1,47.01,t,1,44.33,t,1,47.79,t,1,44.81,t,1,46.77,t,1,47.28,t,1,42.71,t,1,46.92,t,1,47.26,t,1,45.31,t,1,46.01,t,1,47.34,t,1,43.11,t,1
"RY1","136170","DUCKSTAD, JARED J","STEC","2002-09-30","","H","full",45.90,t,1,42.81,t,1,45.10,t,1,41.11,t,1,41.10,t,1,50.96,t,1,40.51,t,1,38.56,t,1,38.15,t,1,40.15,t,1,48.31,t,1,41.05,t,1,40.78,t,1,38.33,t,1,41.54,t,1,48.81,t,1,41.17,t,1,38.31,t,1,38.97,t,1,40.23,t,1,50.51,t,1
"RY1","136510","DUSEK, TIMOTHY R","11","2018-11-19","","H","part",42.88,t,1,40.73,t,1,30.52,t,1,30.28,t,1,10.37,t,0.3,28.29,t,0.9,55.35,t,1,21.71,t,0.7,40.91,t,1,22.56,t,0.8,21.15,t,0.7,3.92,t,0.1,0,t,0,50.00,t,1,50.28,t,1,0,t,0,47.77,t,1,47.75,t,1,45.79,t,1,30.48,t,1,18.85,t,0.6
"RY1","198523","EASLEY, DARREN","WTEC","2019-06-17","","H","full",0,f,0,0,f,0,0,f,0,0,f,0,0,f,0,0,f,0,0,f,0,0,f,0,0,f,0,0,f,0,0,f,0,0,f,0,0,f,0,0,f,0,0,f,0,0,f,0,0,f,0,0,f,0,41.66,t,1,35.39,t,1,8.00,t,0.3
"RY1","137101","EBERLE, MARCUS M","BTEC","2016-08-15","","C","full",42.88,t,1,43.53,t,1,42.91,t,1,42.99,t,1,42.46,t,1,49.82,t,1,43.63,t,1,44.31,t,1,43.30,t,1,42.02,t,1,44.35,t,1,47.83,t,1,43.37,t,1,43.23,t,1,41.94,t,1,42.78,t,1,42.30,t,1,43.21,t,1,41.66,t,1,42.40,t,1,42.99,t,1
"RY1","138380","EICHHORST, NOEL E","RAY","1978-08-30","","H","full",48.41,t,1,43.53,t,1,40.83,t,1,37.59,t,1,40.47,t,1,36.72,t,1,39.94,t,1,35.80,t,1,40.78,t,1,31.69,t,1,37.65,t,1,36.04,t,1,36.08,t,1,32.93,t,1,40.46,t,1,36.52,t,1,40.51,t,1,37.31,t,1,37.16,t,1,25.56,t,0.9,45.02,t,1
"RY1","132963","ERICKSON, DENNIS","DRI","2019-04-03","","H","part",0,f,0,0,f,0,0,f,0,0,f,0,0,f,0,0,f,0,0,f,0,1.00,t,0.0,0,t,0,9.00,t,0.3,6.00,t,0.2,0,t,0,0,t,0,19.00,t,0.6,0,t,0,0,t,0,0,t,0,0,t,0,0,t,0,0,t,0,0,t,0
"RY1","140500","ERICKSON, RONALD J","USED","2009-10-12","","C","full",0,t,1,0,t,1,0,t,1,0,t,1,0,t,1,0,t,1,0,t,1,0,t,1,0,t,1,0,t,1,0,t,1,0,t,1,0,t,1,0,t,1,0,t,1,0,t,1,0,t,1,0,t,1,0,t,1,0,t,1,0,t,1
"RY1","140790","ESPELUND, KENNETH M","STEC","2005-09-19","","S","full",0,t,1,0,t,1,0,t,1,0,t,1,0,t,1,0,t,1,0,t,1,0,t,1,0,t,1,0,t,1,12.00,t,1,0,t,1,0,t,1,0,t,1,0,t,1,8.00,t,1,8.00,t,1,0,t,1,0,t,1,0,t,1,8.00,t,1
"RY1","141060","EULISS, NED","STL","2004-11-02","","H","full",42.29,t,1,42.85,t,1,46.83,t,1,56.49,t,1,42.40,t,1,46.42,t,1,42.94,t,1,53.92,t,1,33.53,t,1,40.00,t,1,42.44,t,1,56.04,t,1,46.06,t,1,47.04,t,1,46.32,t,1,55.13,t,1,47.04,t,1,47.52,t,1,44.99,t,1,18.00,t,0.6,30.00,t,1
"RY1","141069","EVAVOLD, DANIEL J","BTEA","2007-01-23","","H","full",52.53,t,1,54.62,t,1,51.66,t,1,41.81,t,1,47.43,t,1,53.84,t,1,49.70,t,1,46.59,t,1,44.12,t,1,45.14,t,1,46.59,t,1,44.52,t,1,46.15,t,1,45.11,t,1,46.28,t,1,44.03,t,1,47.87,t,1,43.60,t,1,43.32,t,1,43.67,t,1,43.26,t,1
"RY1","187325","FAULHABER, DAVID","PTSR","2018-08-27","","H","part",30.36,t,1,25.26,t,0.8,20.37,t,0.7,23.64,t,0.8,26.14,t,0.9,24.12,t,0.8,19.45,t,0.6,14.20,t,0.5,23.30,t,0.8,28.25,t,0.9,18.99,t,0.6,15.52,t,0.5,27.75,t,0.9,26.94,t,0.9,19.33,t,0.6,14.73,t,0.5,26.24,t,0.9,19.60,t,0.7,26.15,t,0.9,21.69,t,0.7,17.75,t,0.6
"RY1","159863","FERRY, CARTER","STEC","2018-02-12","","C","full",44.30,t,1,47.65,t,1,37.28,t,1,54.60,t,1,46.14,t,1,47.29,t,1,44.44,t,1,45.74,t,1,56.67,t,1,45.49,t,1,49.34,t,1,43.64,t,1,44.92,t,1,57.47,t,1,44.33,t,1,40.42,t,1,47.39,t,1,44.40,t,1,43.51,t,1,45.88,t,1,40.97,t,1
"RY1","145801","FLAAT, GAVIN","STEC","2016-04-11","","C","full",40.61,t,1,26.21,t,0.9,45.53,t,1,51.13,t,1,44.51,t,1,43.47,t,1,43.19,t,1,44.44,t,1,30.76,t,1,41.64,t,1,42.79,t,1,44.91,t,1,37.56,t,1,0.49,t,0.0,22.49,t,0.7,42.19,t,1,43.00,t,1,41.87,t,1,44.46,t,1,41.71,t,1,41.31,t,1
"RY1","145840","FLAAT, STEPHEN C","SALE","2005-02-01","","C","full",0,t,1,0,t,1,0,t,1,0,t,1,0,t,1,0,t,1,0,t,1,0,t,1,0,t,1,0,t,1,0,t,1,0,t,1,0,t,1,0,t,1,0,t,1,0,t,1,0,t,1,0,t,1,0,t,1,0,t,1,0,t,1
"RY1","135791","FLEMING, RACHEL","DCAS","2019-02-25","","H","part",0,f,0,0,f,0,23.10,t,0.8,27.08,t,0.9,25.33,t,0.8,26.85,t,0.9,15.79,t,0.5,21.52,t,0.7,19.26,t,0.6,20.74,t,0.7,20.88,t,0.7,20.18,t,0.7,26.87,t,0.9,19.41,t,0.6,23.64,t,0.8,18.05,t,0.6,23.65,t,0.8,15.05,t,0.5,17.17,t,0.6,18.57,t,0.6,7.98,t,0.3
"RY1","146450","FOERSTER, KELLY J","NCI","1985-02-18","","S","full",40.00,t,1,0,t,1,0,t,1,0,t,1,16.00,t,1,0,t,1,4.00,t,1,0,t,1,0,t,1,4.00,t,1,0,t,1,0,t,1,0,t,1,0,t,1,0,t,1,8.00,t,1,8.00,t,1,40.00,t,1,0,t,1,0,t,1,0,t,1
"RY1","148050","FOSTER, BENJAMIN F","94","2013-10-21","","S","full",0,t,1,0,t,1,0,t,1,0,t,1,0,t,1,0,t,1,0,t,1,0,t,1,0,t,1,0,t,1,0,t,1,0,t,1,0,t,1,0,t,1,0,t,1,0,t,1,0,t,1,0,t,1,0,t,1,0,t,1,0,t,1
"RY1","148075","FOSTER, KEVIN B","94","2006-06-05","","S","full",0,t,1,0,t,1,0,t,1,0,t,1,0,t,1,0,t,1,0,t,1,0,t,1,0,t,1,0,t,1,0,t,1,0,t,1,0,t,1,0,t,1,0,t,1,0,t,1,0,t,1,0,t,1,0,t,1,0,t,1,0,t,1
"RY1","148080","FOSTER, SAMUEL T","SALE","2014-11-17","","C","full",0,t,1,0,t,1,0,t,1,0,t,1,0,t,1,0,t,1,0,t,1,0,t,1,40.00,t,1,0,t,1,0,t,1,0,t,1,0,t,1,0,t,1,0,t,1,0,t,1,0,t,1,0,t,1,0,t,1,0,t,1,0,t,1
"RY1","148275","FRANKS, RAYMOND","DRI","1966-02-01","","H","part",40.50,t,1,43.50,t,1,43.50,t,1,42.00,t,1,3.50,t,0.1,6.08,t,0.2,0,t,0,24.00,t,0.8,22.50,t,0.8,36.00,t,1,25.00,t,0.8,19.00,t,0.6,58.50,t,1,31.00,t,1,39.00,t,1,29.00,t,1.0,16.50,t,0.6,30.50,t,1,10.50,t,0.4,17.00,t,0.6,28.00,t,0.9
"RY1","111254","FRAZIER, TRAYLIN","SOFF","2017-03-27","","H","full",45.17,t,1,45.19,t,1,45.05,t,1,41.81,t,1,41.17,t,1,43.08,t,1,46.55,t,1,41.10,t,1,39.94,t,1,46.26,t,1,47.37,t,1,47.38,t,1,46.42,t,1,46.42,t,1,52.68,t,1,38.41,t,1,43.25,t,1,41.07,t,1,40.41,t,1,40.59,t,1,42.41,t,1
"RY1","165783","FREITAG, TALON","PTSR","2018-05-21","","H","part",42.42,t,1,31.67,t,1,28.89,t,1.0,33.28,t,1,29.39,t,1.0,30.17,t,1,25.73,t,0.9,30.18,t,1,28.29,t,0.9,25.56,t,0.9,28.53,t,1.0,28.98,t,1.0,40.11,t,1,37.96,t,1,42.96,t,1,40.05,t,1,41.18,t,1,40.03,t,1,41.92,t,1,16.05,t,0.5,34.56,t,1
"RY1","154328","FREKING, NICOLAS","PTDR","2018-10-08","","H","part",22.55,t,0.8,15.60,t,0.5,17.57,t,0.6,15.07,t,0.5,19.99,t,0.7,19.04,t,0.6,7.69,t,0.3,17.66,t,0.6,16.14,t,0.5,18.63,t,0.6,15.25,t,0.5,11.66,t,0.4,13.95,t,0.5,16.25,t,0.5,14.32,t,0.5,11.96,t,0.4,32.29,t,1,29.52,t,1.0,24.80,t,0.8,26.41,t,0.9,18.06,t,0.6
"RY1","155214","GAGNON, ANASTASIA","16","2018-05-27","","H","full",39.63,t,1,34.36,t,1,39.64,t,1,39.89,t,1,0,t,0,40.18,t,1,41.40,t,1,39.45,t,1,40.53,t,1,36.13,t,1,39.88,t,1,40.40,t,1,40.52,t,1,40.04,t,1,38.42,t,1,40.49,t,1,0,t,0,0,t,0,0,t,0,0,t,0,0,t,0
"RY1","157995","GAGNON, JUNE","14","2008-02-11","","S","full",0,t,1,0,t,1,0,t,1,0,t,1,0,t,1,0,t,1,0,t,1,0,t,1,0,t,1,0,t,1,0,t,1,0,t,1,0,t,1,0,t,1,0,t,1,0,t,1,0,t,1,0,t,1,0,t,1,0,t,1,0,t,1
"RY1","1254668","GAGNON, TAYLOR","16","2017-05-23","2019-05-25","H","part",0,t,0,3.91,t,0.1,13.13,t,0.4,4.03,t,0.1,16.25,t,0.5,12.99,t,0.4,4.05,t,0.1,12.08,t,0.4,20.15,t,0.7,29.51,t,1.0,29.59,t,1.0,16.22,t,0.5,29.61,t,1.0,29.28,t,1.0,17.06,t,0.6,0,f,0,0,f,0,0,f,0,0,f,0,0,f,0,0,f,0
"RY1","149878","GAGNON, TRACI L","SOFF","2008-10-30","","H","full",42.20,t,1,40.69,t,1,42.62,t,1,41.70,t,1,42.11,t,1,42.18,t,1,41.44,t,1,42.84,t,1,50.02,t,1,38.40,t,1,42.58,t,1,42.27,t,1,40.28,t,1,43.55,t,1,43.34,t,1,39.98,t,1,40.95,t,1,41.19,t,1,40.15,t,1,40.55,t,1,40.13,t,1
"RY1","150105","GARDNER, CHAD A","BTEC","2011-04-04","","C","full",41.46,t,1,43.18,t,1,43.88,t,1,50.80,t,1,39.70,t,1,42.87,t,1,42.26,t,1,44.79,t,1,44.67,t,1,43.06,t,1,44.86,t,1,44.62,t,1,43.04,t,1,42.64,t,1,42.67,t,1,43.12,t,1,43.93,t,1,44.41,t,1,43.56,t,1,47.43,t,1,41.59,t,1
"RY1","150120","GARDNER, JOHN T","BSM","2014-06-01","","S","full",0,t,1,0,t,1,0,t,1,0,t,1,0,t,1,0,t,1,0,t,1,0,t,1,0,t,1,0,t,1,0,t,1,0,t,1,0,t,1,0,t,1,0,t,1,0,t,1,0,t,1,0,t,1,0,t,1,0,t,1,0,t,1
"RY1","150126","GEHRTZ, CLAYTON J","STEC","2014-12-29","","C","full",53.30,t,1,53.07,t,1,54.88,t,1,64.52,t,1,51.86,t,1,53.51,t,1,54.62,t,1,52.24,t,1,62.23,t,1,53.03,t,1,54.51,t,1,53.63,t,1,55.47,t,1,62.81,t,1,57.18,t,1,54.98,t,1,51.12,t,1,40.00,t,1,62.31,t,1,52.25,t,1,49.98,t,1
"RY1","156988","GIESLER, MEGAN","PDQW","2017-07-17","","H","part",17.32,t,0.6,31.17,t,1,20.89,t,0.7,35.80,t,1,30.89,t,1,21.27,t,0.7,17.33,t,0.6,31.16,t,1,21.26,t,0.7,18.72,t,0.6,17.27,t,0.6,23.38,t,0.8,17.13,t,0.6,40.28,t,1,30.88,t,1,30.09,t,1,22.12,t,0.7,45.65,t,1,39.07,t,1,51.78,t,1,40.23,t,1
"RY1","152235","GIRODAT, JEFF S","STEC","1986-05-05","","C","full",49.91,t,1,49.36,t,1,49.10,t,1,45.77,t,1,57.57,t,1,44.29,t,1,45.35,t,1,41.82,t,1,42.18,t,1,43.01,t,1,42.04,t,1,40.00,t,1,43.53,t,1,43.94,t,1,52.67,t,1,41.95,t,1,43.37,t,1,41.39,t,1,43.81,t,1,49.07,t,1,40.67,t,1
"RY1","152480","GOETZ, DUANE E","25","2012-10-01","","C","part",0,t,1,0,t,1,0,t,1,0,t,1,0,t,1,0,t,1,0,t,1,0,t,1,0,t,1,0,t,1,0,t,1,0,t,1,0,t,1,0,t,1,0,t,1,0,t,1,0,t,1,0,t,1,0,t,1,0,t,1,0,t,1
"RY1","165289","GOLDADE, BRANDON","PART","2018-12-31","2019-04-24","H","full",39.76,t,1,31.75,t,1,39.66,t,1,31.78,t,1,0,t,0,40.34,t,1,39.81,t,1,39.60,t,1,40.29,t,1,34.87,t,1,18.74,t,0.6,0,f,0,0,f,0,0,f,0,0,f,0,0,f,0,0,f,0,0,f,0,0,f,0,0,f,0,0,f,0
"RY1","152490","GONZALEZ, ANTHONY J","CWAS","2019-01-14","","H","full",14.47,t,0.5,13.71,t,0.5,8.94,t,0.3,13.62,t,0.5,13.25,t,0.4,15.01,t,0.5,19.83,t,0.7,14.11,t,0.5,12.30,t,0.4,26.52,t,0.9,19.12,t,0.6,26.11,t,0.9,26.48,t,0.9,26.62,t,0.9,20.32,t,0.7,15.25,t,0.5,23.40,t,0.8,20.43,t,0.7,18.88,t,0.6,27.89,t,0.9,8.44,t,0.3
"RY1","152499","GOTHBERG, CONNER J","STL","2015-09-01","","H","full",57.81,t,1,52.89,t,1,51.38,t,1,57.09,t,1,46.91,t,1,46.79,t,1,46.96,t,1,56.96,t,1,47.52,t,1,45.88,t,1,40.49,t,1,58.13,t,1,55.67,t,1,48.41,t,1,48.20,t,1,55.43,t,1,57.03,t,1,45.19,t,1,45.93,t,1,55.01,t,1,54.33,t,1
"RY1","152510","GOULET, SHANE A","CWAS","2014-03-31","","H","full",36.76,t,1,38.95,t,1,38.96,t,1,38.02,t,1,29.00,t,1.0,39.01,t,1,38.52,t,1,38.31,t,1,39.10,t,1,40.79,t,1,38.96,t,1,40.13,t,1,33.89,t,1,38.80,t,1,37.64,t,1,49.54,t,1,39.11,t,1,39.79,t,1,38.66,t,1,38.39,t,1,49.46,t,1
"RY1","152525","GRANT, DESIREE L","STEC","2014-05-19","","C","full",40.28,t,1,38.31,t,1,43.89,t,1,54.55,t,1,47.02,t,1,45.55,t,1,40.70,t,1,40.50,t,1,36.74,t,1,21.00,t,0.7,31.47,t,1,26.02,t,0.9,39.65,t,1,33.87,t,1,40.03,t,1,38.80,t,1,48.16,t,1,35.35,t,1,44.05,t,1,41.52,t,1,40.98,t,1
"RY1","152410","GRAY, NATHAN J","STEC","2011-08-22","","C","full",42.43,t,1,60.13,t,1,40.00,t,1,0,t,0,0,t,0,40.51,t,1,48.45,t,1,41.18,t,1,38.07,t,1,41.55,t,1,41.19,t,1,56.31,t,1,43.70,t,1,40.03,t,1,42.53,t,1,42.76,t,1,54.50,t,1,42.40,t,1,39.89,t,1,42.23,t,1,31.64,t,1
"RY1","152432","GREEN, HARRISON","PDQW","2016-02-15","","H","full",17.24,t,0.6,41.29,t,1,37.40,t,1,29.43,t,1.0,40.94,t,1,41.65,t,1,30.62,t,1,37.87,t,1,35.77,t,1,38.55,t,1,35.53,t,1,39.05,t,1,36.41,t,1,33.73,t,1,40.00,t,1,49.90,t,1,52.44,t,1,23.76,t,0.8,41.45,t,1,44.07,t,1,45.96,t,1
"RY1","152512","GREICAR, JESSICA","12","2016-08-29","","H","part",20.36,t,0.7,21.42,t,0.7,0,t,0,0,t,0,25.23,t,0.8,26.62,t,0.9,24.17,t,0.8,23.05,t,0.8,19.16,t,0.6,9.91,t,0.3,20.13,t,0.7,20.73,t,0.7,21.02,t,0.7,17.60,t,0.6,20.79,t,0.7,19.96,t,0.7,20.60,t,0.7,18.81,t,0.6,21.01,t,0.7,18.61,t,0.6,16.63,t,0.6
"RY1","165984","GROSSKREUTZ, NADIA","CWAS","2019-06-26","2019-07-03","H","full",0,f,0,0,f,0,0,f,0,0,f,0,0,f,0,0,f,0,0,f,0,0,f,0,0,f,0,0,f,0,0,f,0,0,f,0,0,f,0,0,f,0,0,f,0,0,f,0,0,f,0,0,f,0,0,f,0,4.00,t,0.1,21.24,t,0.7
"RY1","198531","GROVE, ALEXANDER","PTEC","2019-06-17","","H","part",0,f,0,0,f,0,0,f,0,0,f,0,0,f,0,0,f,0,0,f,0,0,f,0,0,f,0,0,f,0,0,f,0,0,f,0,0,f,0,0,f,0,0,f,0,0,f,0,0,f,0,0,f,0,38.81,t,1,26.34,t,0.9,12.17,t,0.4
"RY1","122558","GRYSKIEWICZ, JONATHAN","BTEC","2017-05-22","","C","full",43.53,t,1,46.37,t,1,44.30,t,1,57.64,t,1,43.07,t,1,51.78,t,1,38.21,t,1,45.19,t,1,44.59,t,1,44.49,t,1,49.75,t,1,45.39,t,1,48.99,t,1,40.41,t,1,45.52,t,1,42.49,t,1,36.65,t,1,44.89,t,1,45.49,t,1,54.29,t,1,42.15,t,1
"RY1","165327","GUST, MICAH","CWAS","2018-08-13","","H","part",4.83,t,0.2,17.80,t,0.6,13.93,t,0.5,6.97,t,0.2,0,t,0,5.80,t,0.2,7.52,t,0.3,14.59,t,0.5,6.01,t,0.2,20.63,t,0.7,12.03,t,0.4,15.64,t,0.5,15.74,t,0.5,9.97,t,0.3,11.48,t,0.4,16.95,t,0.6,29.28,t,1.0,20.00,t,0.7,7.26,t,0.2,31.86,t,1,26.68,t,0.9
"RY1","161010","HAGA, MASON C","PTEC","2015-06-01","","H","part",18.17,t,0.6,4.36,t,0.1,18.21,t,0.6,8.78,t,0.3,24.18,t,0.8,8.51,t,0.3,8.63,t,0.3,8.22,t,0.3,13.73,t,0.5,8.50,t,0.3,18.21,t,0.6,4.39,t,0.1,17.78,t,0.6,31.04,t,1,40.34,t,1,27.01,t,0.9,14.51,t,0.5,18.98,t,0.6,41.84,t,1,32.17,t,1,19.81,t,0.7
"RY1","164328","HAHN, BRIDGER","DPOT","2018-12-17","","H","part",17.36,t,0.6,19.88,t,0.7,17.87,t,0.6,14.26,t,0.5,0,t,0,20.99,t,0.7,20.55,t,0.7,15.85,t,0.5,13.58,t,0.5,13.89,t,0.5,11.79,t,0.4,13.09,t,0.4,7.08,t,0.2,0,t,0,0,t,0,0,t,0,0,t,0,0,t,0,0,t,0,0,t,0,0,t,0
"RY1","163700","HALEY, DYLANGER","SALE","2016-09-26","","C","full",0,t,1,0,t,1,0,t,1,0,t,1,0,t,1,0,t,1,0,t,1,0,t,1,0,t,1,0,t,1,0,t,1,0,t,1,0,t,1,16.00,t,1,0,t,1,0,t,1,0,t,1,0,t,1,0,t,1,16.00,t,1,32.00,t,1
"RY1","198521","HALL, MICHAEL","SALE","2019-06-03","","C","full",0,f,0,0,f,0,0,f,0,0,f,0,0,f,0,0,f,0,0,f,0,0,f,0,0,f,0,0,f,0,0,f,0,0,f,0,0,f,0,0,f,0,0,f,0,0,f,0,0,t,1,0,t,1,0,t,1,0,t,1,0,t,1
"RY1","175369","HALVORSON, OLIVIA","OPE","2019-05-13","","H","full",0,f,0,0,f,0,0,f,0,0,f,0,0,f,0,0,f,0,0,f,0,0,f,0,0,f,0,0,f,0,0,f,0,0,f,0,0,f,0,35.14,t,1,40.43,t,1,46.43,t,1,40.24,t,1,40.31,t,1,40.25,t,1,35.56,t,1,38.97,t,1
"RY1","162428","HARMON, TERRENCE J","PART","2001-10-01","","H","full",38.26,t,1,51.19,t,1,43.98,t,1,50.46,t,1,50.22,t,1,42.98,t,1,51.51,t,1,41.68,t,1,42.00,t,1,41.29,t,1,40.63,t,1,39.98,t,1,43.06,t,1,49.85,t,1,39.50,t,1,42.12,t,1,41.34,t,1,40.92,t,1,40.11,t,1,40.50,t,1,39.70,t,1
"RY1","145397","HARRIS, JACK","DCAS","2019-02-25","2019-04-23","H","part",0,f,0,0,f,0,6.80,t,0.2,7.42,t,0.2,0,t,0,7.92,t,0.3,7.17,t,0.2,10.18,t,0.3,7.64,t,0.3,0,t,0,2.82,t,0.1,0,f,0,0,f,0,0,f,0,0,f,0,0,f,0,0,f,0,0,f,0,0,f,0,0,f,0,0,f,0
"RY1","162800","HARRIS, SHERIDAN","DRI","1955-09-01","","H","part",0,t,0,0,t,0,0,t,0,0,t,0,0,t,0,0,t,0,0,t,0,0,t,0,0,t,0,31.00,t,1,10.50,t,0.4,0,t,0,21.50,t,0.7,9.00,t,0.3,0,t,0,0,t,0,7.00,t,0.2,19.25,t,0.6,11.00,t,0.4,15.50,t,0.5,5.00,t,0.2
"RY1","163096","HASTINGS, DAWN","12","1986-01-06","","H","full",42.87,t,1,44.65,t,1,40.00,t,1,40.00,t,1,46.40,t,1,40.89,t,1,47.56,t,1,47.02,t,1,44.49,t,1,44.86,t,1,44.26,t,1,50.06,t,1,44.97,t,1,44.01,t,1,43.07,t,1,42.21,t,1,44.30,t,1,44.56,t,1,44.53,t,1,44.45,t,1,41.84,t,1
"RY1","154760","HATLOY, CHARTON","PTDR","2018-11-05","","H","part",9.49,t,0.3,13.46,t,0.4,12.61,t,0.4,13.57,t,0.5,13.42,t,0.4,13.31,t,0.4,10.21,t,0.3,7.45,t,0.2,7.32,t,0.2,0,t,0,3.12,t,0.1,7.73,t,0.3,6.79,t,0.2,6.86,t,0.2,8.81,t,0.3,3.57,t,0.1,0,t,0,0,t,0,0,t,0,0,t,0,0,t,0
"RY1","165789","HECK, SETH","SALE","2019-01-14","","C","full",0,t,1,0,t,1,0,t,1,0,t,1,0,t,1,0,t,1,0,t,1,0,t,1,0,t,1,0,t,1,0,t,1,0,t,1,0,t,1,0,t,1,0,t,1,0,t,1,0,t,1,0,t,1,0,t,1,0,t,1,0,t,1
"RY1","164015","HEFFERNAN, JOSH","STEC","1995-07-15","","C","full",48.90,t,1,50.24,t,1,55.40,t,1,46.87,t,1,48.73,t,1,46.56,t,1,46.96,t,1,57.98,t,1,47.30,t,1,44.63,t,1,46.83,t,1,45.93,t,1,58.40,t,1,45.81,t,1,45.03,t,1,45.17,t,1,44.29,t,1,58.10,t,1,47.13,t,1,40.00,t,1,44.77,t,1
"RY1","164202","HELGESON, HERB","DRI","2005-01-13","","H","part",0,t,0,0,t,0,0,t,0,0,t,0,0,t,0,0,t,0,0,t,0,0,t,0,0,t,0,0,t,0,0,t,0,0,t,0,0,t,0,0,t,0,0,t,0,0,t,0,0,t,0,0,t,0,0,t,0,0,t,0,0,t,0
"RY1","181876","HENRY, JUDY","84","1994-02-01","","S","full",0,t,1,0,t,1,0,t,1,0,t,1,0,t,1,0,t,1,0,t,1,0,t,1,0,t,1,0,t,1,0,t,1,0,t,1,0,t,1,0,t,1,0,t,1,0,t,1,0,t,1,0,t,1,0,t,1,0,t,1,0,t,1
"RY1","164920","HEPOLA, JAMES W","WTEC","2010-11-15","","C","part",15.40,t,0.5,12.94,t,0.4,17.45,t,0.6,18.60,t,0.6,14.98,t,0.5,20.95,t,0.7,13.59,t,0.5,11.42,t,0.4,11.92,t,0.4,12.97,t,0.4,10.56,t,0.4,15.77,t,0.5,7.85,t,0.3,9.50,t,0.3,9.84,t,0.3,11.60,t,0.4,14.25,t,0.5,20.62,t,0.7,12.00,t,0.4,24.05,t,0.8,0,t,0
"RY1","185600","HIBMA, MORGAN E","15","2016-08-01","","S","full",0,t,1,0,t,1,0,t,1,0,t,1,0,t,1,0,t,1,0,t,1,0,t,1,0,t,1,0,t,1,0,t,1,0,t,1,0,t,1,0,t,1,0,t,1,0,t,1,0,t,1,0,t,1,0,t,1,0,t,1,0,t,1
"RY1","165275","HICKS, EMILY","BTEC","2016-09-12","","H","full",36.80,t,1,39.99,t,1,42.37,t,1,42.34,t,1,40.21,t,1,40.78,t,1,42.22,t,1,42.94,t,1,41.92,t,1,42.66,t,1,42.49,t,1,43.74,t,1,41.56,t,1,43.02,t,1,45.18,t,1,41.29,t,1,45.49,t,1,41.02,t,1,43.70,t,1,41.88,t,1,43.22,t,1
"RY1","165357","HILL, BRIAN","BTEA","2006-08-28","","H","full",54.25,t,1,50.08,t,1,43.65,t,1,44.57,t,1,47.67,t,1,46.37,t,1,43.65,t,1,49.56,t,1,46.69,t,1,45.04,t,1,46.05,t,1,43.75,t,1,45.74,t,1,43.89,t,1,43.61,t,1,42.32,t,1,41.89,t,1,48.32,t,1,46.24,t,1,41.77,t,1,43.95,t,1
"RY1","165400","HILLEBRAND, BROCK D","STHP","2011-04-06","","H","full",41.41,t,1,40.39,t,1,42.44,t,1,40.29,t,1,39.20,t,1,40.89,t,1,40.72,t,1,40.50,t,1,39.51,t,1,39.79,t,1,42.22,t,1,39.93,t,1,41.69,t,1,40.14,t,1,42.52,t,1,30.96,t,1,38.12,t,1,40.18,t,1,39.52,t,1,37.64,t,1,39.00,t,1
"RY1","164329","HINTZ, MATTHEW","RAY","2019-06-26","","H","part",0,f,0,0,f,0,0,f,0,0,f,0,0,f,0,0,f,0,0,f,0,0,f,0,0,f,0,0,f,0,0,f,0,0,f,0,0,f,0,0,f,0,0,f,0,0,f,0,0,f,0,0,f,0,0,f,0,20.00,t,0.7,28.38,t,0.9
"RY1","12555","HOBEN, BRENDAN","CWAS","2017-08-28","2019-05-08","H","part",21.72,t,0.7,17.52,t,0.6,16.23,t,0.5,18.24,t,0.6,5.15,t,0.2,15.56,t,0.5,17.97,t,0.6,17.83,t,0.6,14.76,t,0.5,18.90,t,0.6,10.46,t,0.3,0,t,0,5.15,t,0.2,0,f,0,0,f,0,0,f,0,0,f,0,0,f,0,0,f,0,0,f,0,0,f,0
"RY1","167812","HOLWEGER, AMANDA J","14","2011-04-25","","H","part",5.75,t,0.2,5.68,t,0.2,10.87,t,0.4,2.12,t,0.1,9.03,t,0.3,8.64,t,0.3,7.92,t,0.3,9.01,t,0.3,1.40,t,0.0,5.94,t,0.2,8.02,t,0.3,11.03,t,0.4,4.58,t,0.2,7.78,t,0.3,3.96,t,0.1,6.54,t,0.2,5.64,t,0.2,6.65,t,0.2,5.87,t,0.2,7.26,t,0.2,7.06,t,0.2
"RY1","167580","HOLWERDA, KIRBY W","STEC","2011-05-18","","C","full",47.13,t,1,42.04,t,1,46.32,t,1,44.42,t,1,41.31,t,1,43.62,t,1,42.81,t,1,41.95,t,1,34.16,t,1,47.06,t,1,42.25,t,1,40.33,t,1,41.91,t,1,44.60,t,1,49.15,t,1,41.34,t,1,40.43,t,1,43.61,t,1,37.05,t,1,49.38,t,1,42.69,t,1
"RY1","167906","HULL, DAVID","PTSR","2015-04-27","","H","full",55.92,t,1,51.89,t,1,46.88,t,1,50.03,t,1,45.47,t,1,53.02,t,1,42.71,t,1,43.46,t,1,41.16,t,1,51.07,t,1,44.09,t,1,42.57,t,1,47.14,t,1,45.57,t,1,53.03,t,1,40.50,t,1,40.88,t,1,42.80,t,1,45.13,t,1,41.36,t,1,41.00,t,1
"RY1","168815","HUNTER, JASON W","PTDR","2018-08-23","","H","part",12.47,t,0.4,13.78,t,0.5,7.17,t,0.2,11.89,t,0.4,7.46,t,0.2,7.82,t,0.3,8.97,t,0.3,6.26,t,0.2,7.40,t,0.2,11.62,t,0.4,13.57,t,0.5,0,t,0,8.71,t,0.3,5.58,t,0.2,12.22,t,0.4,3.71,t,0.1,5.59,t,0.2,10.95,t,0.4,5.56,t,0.2,6.74,t,0.2,0,t,0
"RY1","170150","IVERSON, ARNOLD W","DRI","2017-11-17","","H","part",33.50,t,1,6.00,t,0.2,0,t,0,0,t,0,0,t,0,15.00,t,0.5,0,t,0,15.50,t,0.5,0,t,0,14.25,t,0.5,19.00,t,0.6,13.00,t,0.4,18.50,t,0.6,17.00,t,0.6,7.50,t,0.3,15.25,t,0.5,0,t,0,3.00,t,0.1,8.00,t,0.3,16.25,t,0.5,3.00,t,0.1
"RY1","171055","JACOBSON, PETER A","BTEC","2010-12-13","","C","full",42.61,t,1,48.01,t,1,49.15,t,1,47.90,t,1,42.54,t,1,54.21,t,1,49.93,t,1,53.39,t,1,50.33,t,1,46.88,t,1,56.03,t,1,45.35,t,1,52.71,t,1,46.54,t,1,50.90,t,1,39.52,t,1,48.03,t,1,42.19,t,1,42.24,t,1,50.47,t,1,45.97,t,1
"RY1","172077","JERSTAD, KENNETH","PART","2002-06-10","","H","full",54.51,t,1,48.50,t,1,44.91,t,1,42.38,t,1,41.49,t,1,50.89,t,1,41.61,t,1,41.08,t,1,40.53,t,1,40.26,t,1,41.72,t,1,40.80,t,1,40.98,t,1,40.00,t,1,40.00,t,1,49.91,t,1,40.00,t,1,40.55,t,1,40.65,t,1,40.50,t,1,49.60,t,1
"RY1","175421","JOHNKE, ALLISON","PDQW","2018-09-04","2019-07-05","H","full",47.10,t,1,38.69,t,1,31.59,t,1,31.17,t,1,31.67,t,1,39.52,t,1,44.75,t,1,39.55,t,1,46.96,t,1,40.42,t,1,33.45,t,1,39.48,t,1,49.38,t,1,40.91,t,1,49.46,t,1,40.71,t,1,49.83,t,1,35.64,t,1,33.35,t,1,39.84,t,1,39.96,t,1
"RY1","184620","JOHNSON, BENJAMIN R","WTEC","2017-01-20","","C","full",34.36,t,1,40.63,t,1,42.84,t,1,44.05,t,1,35.41,t,1,43.36,t,1,41.86,t,1,41.21,t,1,37.99,t,1,41.84,t,1,33.99,t,1,41.01,t,1,36.94,t,1,40.02,t,1,24.09,t,0.8,41.12,t,1,30.62,t,1,39.32,t,1,42.41,t,1,40.81,t,1,38.59,t,1
"RY1","165329","JOHNSON, CHASE","SRVM","2018-09-24","2019-06-22","H","part",30.39,t,1,33.99,t,1,40.47,t,1,30.13,t,1,32.83,t,1,18.02,t,0.6,27.81,t,0.9,39.57,t,1,30.11,t,1,33.46,t,1,28.76,t,1.0,9.06,t,0.3,6.31,t,0.2,1.90,t,0.1,0,t,0,0,t,0,0,t,0,0,t,0,5.49,t,0.2,0,f,0,0,f,0
"RY1","156844","JOHNSON, DAVID","RAY","2017-11-06","","H","full",41.03,t,1,45.08,t,1,40.90,t,1,40.53,t,1,52.90,t,1,40.78,t,1,40.66,t,1,40.42,t,1,43.64,t,1,41.24,t,1,40.45,t,1,36.61,t,1,40.58,t,1,40.52,t,1,40.41,t,1,40.67,t,1,41.13,t,1,40.33,t,1,40.46,t,1,40.52,t,1,40.00,t,1
"RY1","164286","JOHNSON, LOGAN","CWAS","2019-05-17","","H","part",0,f,0,0,f,0,0,f,0,0,f,0,0,f,0,0,f,0,0,f,0,0,f,0,0,f,0,0,f,0,0,f,0,0,f,0,0,f,0,7.17,t,0.2,23.03,t,0.8,23.06,t,0.8,16.00,t,0.5,23.64,t,0.8,21.47,t,0.7,25.05,t,0.8,22.81,t,0.8
"RY1","177950","KHATIWODA, TEK","STEC","2017-01-25","2019-06-14","H","full",45.99,t,1,39.22,t,1,41.35,t,1,48.05,t,1,43.74,t,1,42.32,t,1,45.60,t,1,45.50,t,1,42.39,t,1,41.74,t,1,42.68,t,1,41.12,t,1,44.90,t,1,31.83,t,1,42.74,t,1,48.42,t,1,16.50,t,0.6,28.12,t,0.9,0,f,0,0,f,0,0,f,0
"RY1","178050","KIEFER, LUCAS M","STEC","2014-05-19","","C","full",40.46,t,1,42.23,t,1,41.19,t,1,39.50,t,1,44.02,t,1,36.81,t,1,39.23,t,1,43.78,t,1,43.94,t,1,32.65,t,1,44.82,t,1,38.45,t,1,39.36,t,1,44.88,t,1,40.17,t,1,37.92,t,1,43.89,t,1,39.57,t,1,37.19,t,1,42.23,t,1,39.97,t,1
"RY1","178060","KILEY, COLTON","CWAS","2016-06-06","","H","part",6.91,t,0.2,0,t,0,1.00,t,0.0,0,t,0,5.71,t,0.2,6.08,t,0.2,0,t,0,5.67,t,0.2,12.83,t,0.4,12.62,t,0.4,7.28,t,0.2,3.27,t,0.1,19.83,t,0.7,25.51,t,0.9,16.10,t,0.5,0,t,0,14.65,t,0.5,27.01,t,0.9,23.17,t,0.8,5.28,t,0.2,10.17,t,0.3
"RY1","178079","KILMER, JUSTIN","SOFF","2007-02-01","","H","full",42.87,t,1,42.07,t,1,42.32,t,1,44.86,t,1,43.71,t,1,42.76,t,1,43.82,t,1,40.93,t,1,42.95,t,1,41.94,t,1,39.84,t,1,41.88,t,1,42.19,t,1,40.82,t,1,42.15,t,1,43.67,t,1,41.60,t,1,41.95,t,1,40.71,t,1,39.43,t,1,45.33,t,1
"RY1","165732","KLOETY, HALEY","STL","2019-04-29","","H","full",0,f,0,0,f,0,0,f,0,0,f,0,0,f,0,0,f,0,0,f,0,0,f,0,0,f,0,0,f,0,0,f,0,7.43,t,0.2,44.57,t,1,47.95,t,1,46.88,t,1,48.05,t,1,39.98,t,1,36.95,t,1,46.53,t,1,47.54,t,1,37.45,t,1
"RY1","175319","KLOHN, GARRETT","PTDR","2018-12-03","2019-05-24","H","part",10.56,t,0.4,5.35,t,0.2,6.01,t,0.2,6.80,t,0.2,0,t,0,3.93,t,0.1,5.75,t,0.2,4.32,t,0.1,4.03,t,0.1,0,t,0,6.59,t,0.2,9.26,t,0.3,4.90,t,0.2,7.50,t,0.3,5.00,t,0.2,0,f,0,0,f,0,0,f,0,0,f,0,0,f,0,0,f,0
"RY1","132987","KNOWLES, MAYHAYLA","SOFF","2017-12-18","","H","full",41.04,t,1,41.35,t,1,40.98,t,1,40.54,t,1,40.27,t,1,50.93,t,1,42.66,t,1,41.36,t,1,42.58,t,1,41.53,t,1,37.62,t,1,40.24,t,1,50.98,t,1,40.17,t,1,37.67,t,1,41.04,t,1,41.22,t,1,38.32,t,1,41.51,t,1,40.35,t,1,41.13,t,1
"RY1","179380","KNUDSON, BENJAMIN L","UCM","2009-08-12","","C","full",0,t,1,0,t,1,0,t,1,0,t,1,0,t,1,0,t,1,0,t,1,0,t,1,0,t,1,0,t,1,0,t,1,0,t,1,0,t,1,0,t,1,0,t,1,0,t,1,0,t,1,0,t,1,0,t,1,0,t,1,0,t,1
"RY1","154219","KOBAYASHI-DYER, NARUMI","SALE","2018-10-01","","C","full",40.00,t,1,24.00,t,1,0,t,1,0,t,1,0,t,1,0,t,1,0,t,1,0,t,1,0,t,1,0,t,1,0,t,1,0,t,1,0,t,1,0,t,1,0,t,1,0,t,1,0,t,1,0,t,1,0,t,1,0,t,1,0,t,1
"RY1","179693","KOENEN, DEBRA M","16","2008-08-04","","H","full",40.11,t,1,41.02,t,1,41.35,t,1,41.23,t,1,40.25,t,1,38.66,t,1,40.92,t,1,41.24,t,1,39.48,t,1,40.97,t,1,41.45,t,1,41.52,t,1,41.24,t,1,41.62,t,1,38.47,t,1,39.40,t,1,39.35,t,1,35.08,t,1,40.18,t,1,40.45,t,1,40.51,t,1
"RY1","167834","KOHLS, ADAM","WTEC","2018-04-11","","C","part",4.41,t,0.1,0,t,0,0,t,0,13.71,t,0.5,9.15,t,0.3,9.08,t,0.3,9.37,t,0.3,7.24,t,0.2,8.77,t,0.3,5.22,t,0.2,9.16,t,0.3,15.32,t,0.5,4.60,t,0.2,5.24,t,0.2,17.74,t,0.6,20.30,t,0.7,21.58,t,0.7,0,t,0,40.57,t,1,0,t,0,5.67,t,0.2
"RY1","179775","KOLSTAD, KIRK R","PART","1980-03-01","","H","full",40.10,t,1,42.43,t,1,50.52,t,1,40.82,t,1,39.12,t,1,41.33,t,1,38.21,t,1,42.23,t,1,39.95,t,1,39.76,t,1,40.81,t,1,40.39,t,1,42.18,t,1,42.09,t,1,40.70,t,1,41.42,t,1,41.40,t,1,42.70,t,1,40.30,t,1,38.55,t,1,40.76,t,1
"RY1","179790","KOWALSKI, JASON","AFTE","2014-06-16","","H","full",47.51,t,1,44.95,t,1,47.61,t,1,46.37,t,1,43.14,t,1,55.81,t,1,53.49,t,1,54.80,t,1,37.49,t,1,54.16,t,1,47.81,t,1,56.63,t,1,54.40,t,1,56.37,t,1,47.59,t,1,46.78,t,1,48.26,t,1,48.23,t,1,46.53,t,1,77.53,t,1,87.18,t,1
"RY1","198543","KROGSTAD, LARRY","DRI","2019-04-03","","H","part",0,f,0,0,f,0,0,f,0,0,f,0,0,f,0,0,f,0,0,f,0,1.00,t,0.0,9.42,t,0.3,0,t,0,0,t,0,2.53,t,0.1,0,t,0,10.25,t,0.3,0,t,0,0,t,0,0,t,0,0,t,0,0,t,0,6.75,t,0.2,0,t,0
"RY1","184605","LABELLE, KODI L","WTEC","2018-12-17","","H","full",39.06,t,1,42.89,t,1,40.75,t,1,45.93,t,1,35.09,t,1,43.61,t,1,42.17,t,1,42.67,t,1,41.22,t,1,41.82,t,1,33.55,t,1,33.68,t,1,34.04,t,1,41.75,t,1,42.22,t,1,40.52,t,1,42.95,t,1,43.75,t,1,39.87,t,1,41.33,t,1,33.90,t,1
"RY1","186531","LADWIG, NICHOLAS","SALE","2018-09-04","","C","full",39.90,t,1,29.85,t,1,41.99,t,1,40.07,t,1,30.32,t,1,31.37,t,1,36.38,t,1,40.05,t,1,39.87,t,1,39.74,t,1,23.25,t,1,12.12,t,1,0,t,1,0,t,1,0,t,1,0,t,1,0,t,1,0,t,1,0,t,1,0,t,1,0,t,1
"RY1","184614","LAMONT, BRANDON","BTEC","2015-10-12","","C","full",38.34,t,1,46.39,t,1,47.87,t,1,43.93,t,1,41.96,t,1,48.55,t,1,42.37,t,1,43.91,t,1,47.06,t,1,45.59,t,1,51.35,t,1,45.23,t,1,40.70,t,1,45.86,t,1,39.46,t,1,43.99,t,1,26.89,t,0.9,44.36,t,1,43.52,t,1,45.34,t,1,45.69,t,1
"RY1","165784","LANDA, SAMUEL","CWAS","2019-01-18","2019-05-03","H","part",15.24,t,0.5,15.38,t,0.5,16.54,t,0.6,17.18,t,0.6,16.50,t,0.6,18.75,t,0.6,16.56,t,0.6,29.66,t,1.0,14.14,t,0.5,16.73,t,0.6,19.84,t,0.7,22.33,t,0.7,0,f,0,0,f,0,0,f,0,0,f,0,0,f,0,0,f,0,0,f,0,0,f,0,0,f,0
"RY1","182713","LARSON, CODY J","RAY","2018-09-24","","H","full",41.45,t,1,42.09,t,1,40.14,t,1,40.71,t,1,54.22,t,1,38.20,t,1,39.85,t,1,41.91,t,1,47.99,t,1,40.09,t,1,37.81,t,1,38.11,t,1,45.07,t,1,44.80,t,1,43.64,t,1,41.91,t,1,40.81,t,1,40.09,t,1,40.66,t,1,38.11,t,1,39.70,t,1
"RY1","184610","LAUGHLIN, LARRY J","PART","1998-10-16","","H","full",53.35,t,1,56.68,t,1,51.80,t,1,52.29,t,1,50.77,t,1,48.67,t,1,40.50,t,1,49.29,t,1,46.69,t,1,45.72,t,1,46.37,t,1,44.08,t,1,44.60,t,1,47.77,t,1,54.54,t,1,45.29,t,1,50.07,t,1,46.44,t,1,45.78,t,1,42.33,t,1,43.44,t,1
"RY1","184806","LEAVY, PAUL M","WTEC","2014-08-25","","C","full",37.41,t,1,40.27,t,1,39.81,t,1,39.92,t,1,35.00,t,1,31.79,t,1,38.45,t,1,38.87,t,1,39.36,t,1,38.05,t,1,39.98,t,1,40.39,t,1,39.83,t,1,39.85,t,1,38.31,t,1,38.52,t,1,40.02,t,1,40.11,t,1,41.09,t,1,44.97,t,1,38.99,t,1
"RY1","165972","LECLAIR, AUSTIN","11","2018-11-19","","H","part",13.50,t,0.5,35.25,t,1,23.71,t,0.8,20.30,t,0.7,0,t,0,23.62,t,0.8,27.68,t,0.9,29.67,t,1.0,23.32,t,0.8,30.94,t,1,20.68,t,0.7,25.38,t,0.8,22.42,t,0.7,30.37,t,1,29.68,t,1.0,30.25,t,1,29.83,t,1.0,25.79,t,0.9,16.87,t,0.6,25.09,t,0.8,25.99,t,0.9
"RY1","140882","LEEDAHL, GLENNA","DRI","2018-05-07","","H","part",0,t,0,0,t,0,40.00,t,1,8.50,t,0.3,11.00,t,0.4,4.50,t,0.2,0,t,0,2.50,t,0.1,0,t,0,2.50,t,0.1,0,t,0,0,t,0,3.00,t,0.1,4.00,t,0.1,0,t,0,3.00,t,0.1,24.50,t,0.8,0,t,0,0,t,0,0,t,0,0,t,0
"RY1","176239","LEMBCKE, CURTIS","CWAS","2019-04-28","","H","part",0,f,0,0,f,0,0,f,0,0,f,0,0,f,0,0,f,0,0,f,0,0,f,0,0,f,0,0,f,0,0,f,0,2.80,t,0.1,3.00,t,0.1,4.08,t,0.1,9.44,t,0.3,0,t,0,1.00,t,0.0,5.95,t,0.2,4.30,t,0.1,4.10,t,0.1,4.53,t,0.2
"RY1","184920","LENE, RYAN","BTEC","2015-01-05","","C","full",48.71,t,1,44.43,t,1,45.48,t,1,45.24,t,1,44.89,t,1,49.35,t,1,45.23,t,1,50.29,t,1,44.23,t,1,44.74,t,1,45.58,t,1,43.89,t,1,44.97,t,1,41.94,t,1,42.14,t,1,43.15,t,1,47.48,t,1,43.30,t,1,45.24,t,1,43.82,t,1,42.42,t,1
"RY1","15668","LINDEMANN, TASHA","NCR","2017-09-11","","H","full",47.08,t,1,45.19,t,1,46.90,t,1,45.61,t,1,46.41,t,1,47.10,t,1,44.74,t,1,44.43,t,1,44.32,t,1,40.87,t,1,40.24,t,1,34.06,t,1,43.27,t,1,47.37,t,1,23.39,t,0.8,41.72,t,1,41.72,t,1,41.13,t,1,41.78,t,1,41.74,t,1,43.62,t,1
"RY1","186100","LIND, KATHERINE","LIND","1983-11-22","","S","full",0,t,1,0,t,1,0,t,1,0,t,1,0,t,1,0,t,1,0,t,1,0,t,1,0,t,1,0,t,1,0,t,1,0,t,1,0,t,1,0,t,1,0,t,1,0,t,1,0,t,1,0,t,1,0,t,1,0,t,1,0,t,1
"RY1","185801","LINDQUIST, ADAM J","PTSR","2017-04-24","","H","part",0,t,0,1.89,t,0.1,2.54,t,0.1,2.53,t,0.1,0,t,0,2.42,t,0.1,1.92,t,0.1,0,t,0,0,t,0,0,t,0,0,t,0,2.38,t,0.1,0,t,0,0,t,0,0,t,0,0,t,0,0,t,0,0,t,0,0,t,0,0,t,0,0,t,0
"RY1","187675","LONGORIA, BEVERLEY A","STEC","2005-02-21","","S","full",53.72,t,1,52.90,t,1,51.41,t,1,47.74,t,1,51.35,t,1,48.74,t,1,40.00,t,1,49.60,t,1,49.41,t,1,48.64,t,1,51.22,t,1,49.31,t,1,50.37,t,1,49.33,t,1,48.11,t,1,45.66,t,1,47.51,t,1,43.88,t,1,46.87,t,1,43.36,t,1,43.70,t,1
"RY1","165328","LONGORIA, MICHAEL","SALM","2018-07-30","","C","full",0,t,1,0,t,1,0,t,1,0,t,1,0,t,1,0,t,1,0,t,1,0,t,1,0,t,1,0,t,1,0,t,1,0,t,1,0,t,1,0,t,1,0,t,1,0,t,1,0,t,1,0,t,1,0,t,1,0,t,1,0,t,1
"RY1","189100","LOVEN, ARDEN","SALE","2010-03-08","","C","full",0,t,1,0,t,1,0,t,1,0,t,1,0,t,1,0,t,1,0,t,1,0,t,1,0,t,1,0,t,1,0,t,1,0,t,1,0,t,1,0,t,1,0,t,1,0,t,1,0,t,1,16.00,t,1,0,t,1,0,t,1,0,t,1
"RY1","169852","LUDWIG, CHRISTYN","BOFF","2019-04-01","","H","full",0,f,0,0,f,0,0,f,0,0,f,0,0,f,0,0,f,0,0,f,0,40.81,t,1,40.71,t,1,39.37,t,1,23.14,t,0.8,40.16,t,1,40.46,t,1,40.90,t,1,34.12,t,1,32.51,t,1,48.88,t,1,30.88,t,1,40.25,t,1,40.11,t,1,24.23,t,0.8
"RY1","188338","LUEKER, DAVID C","BTEA","2003-06-16","","H","full",46.29,t,1,45.15,t,1,46.97,t,1,55.70,t,1,43.97,t,1,44.98,t,1,46.10,t,1,46.45,t,1,44.02,t,1,46.87,t,1,41.68,t,1,52.15,t,1,45.70,t,1,46.05,t,1,45.76,t,1,43.86,t,1,46.42,t,1,47.37,t,1,47.52,t,1,51.92,t,1,40.00,t,1
"RY1","189295","LYNCH, JAMES J","94","2007-12-03","2019-04-30","S","full",0,t,1,0,t,1,0,t,1,0,t,1,0,t,1,0,t,1,0,t,1,0,t,1,0,t,1,0,t,1,0,t,1,0,t,1,0,f,0,0,f,0,0,f,0,0,f,0,0,f,0,0,f,0,0,f,0,0,f,0,0,f,0
"RY1","163579","MACHO, DAMION","CWAS","2019-04-15","2019-04-15","H","full",0,f,0,0,f,0,0,f,0,0,f,0,0,f,0,0,f,0,0,f,0,0,f,0,0,f,0,3.00,t,0.1,0,f,0,0,f,0,0,f,0,0,f,0,0,f,0,0,f,0,0,f,0,0,f,0,0,f,0,0,f,0,0,f,0
"RY1","190600","MAGNUSON, TYLER D","BTEC","2011-04-06","2019-03-18","H","full",40.17,t,1,42.22,t,1,41.96,t,1,41.95,t,1,45.84,t,1,17.42,t,0.6,0,f,0,0,f,0,0,f,0,0,f,0,0,f,0,0,f,0,0,f,0,0,f,0,0,f,0,0,f,0,0,f,0,0,f,0,0,f,0,0,f,0,0,f,0
"RY1","187634","MAHUTGA, COLTON","WTEC","2018-05-21","","H","full",44.94,t,1,44.13,t,1,42.84,t,1,41.81,t,1,43.55,t,1,43.28,t,1,47.04,t,1,45.43,t,1,40.96,t,1,34.40,t,1,47.11,t,1,46.71,t,1,28.56,t,1.0,45.39,t,1,46.87,t,1,41.35,t,1,42.87,t,1,44.95,t,1,45.55,t,1,44.25,t,1,42.57,t,1
"RY1","190892","MANGAN, RICHARD","PTSR","2002-09-23","","H","full",66.83,t,1,54.28,t,1,66.58,t,1,60.68,t,1,56.98,t,1,63.02,t,1,57.44,t,1,43.69,t,1,43.31,t,1,42.95,t,1,48.10,t,1,45.99,t,1,56.30,t,1,46.52,t,1,40.00,t,1,42.37,t,1,42.50,t,1,45.34,t,1,44.08,t,1,52.47,t,1,47.96,t,1
"RY1","190918","MARCOTTE, THOMAS H","22","1985-07-28","","H","full",39.59,t,1,53.50,t,1,47.76,t,1,41.75,t,1,50.99,t,1,49.85,t,1,51.18,t,1,36.67,t,1,46.18,t,1,40.53,t,1,41.07,t,1,44.80,t,1,51.06,t,1,41.64,t,1,41.00,t,1,40.00,t,1,41.80,t,1,49.22,t,1,46.78,t,1,47.98,t,1,38.38,t,1
"RY1","190910","MAREK, DAYTON C","DEMG","2017-05-05","","S","full",0,t,1,0,t,1,0,t,1,0,t,1,0,t,1,0,t,1,0,t,1,0,t,1,0,t,1,0,t,1,0,t,1,0,t,1,0,t,1,0,t,1,0,t,1,0,t,1,0,t,1,0,t,1,0,t,1,0,t,1,0,t,1
"RY1","168351","MARESCA, ROMAO","PTSM","2018-08-27","","S","full",0,t,1,0,t,1,0,t,1,0,t,1,0,t,1,0,t,1,0,t,1,0,t,1,0,t,1,0,t,1,0,t,1,0,t,1,0,t,1,0,t,1,0,t,1,0,t,1,0,t,1,0,t,1,0,t,1,0,t,1,0,t,1
"RY1","191060","MARO, NICHOLAS","STL","2014-01-20","","H","full",45.88,t,1,58.55,t,1,46.21,t,1,47.68,t,1,43.37,t,1,57.28,t,1,43.89,t,1,40.00,t,1,46.58,t,1,56.07,t,1,46.16,t,1,0,t,0,44.33,t,1,55.93,t,1,6.98,t,0.2,29.62,t,1.0,35.21,t,1,57.55,t,1,42.60,t,1,51.19,t,1,47.93,t,1
"RY1","198432","MASON, MYRON","PDQW","2019-04-29","2019-06-02","H","full",0,f,0,0,f,0,0,f,0,0,f,0,0,f,0,0,f,0,0,f,0,0,f,0,0,f,0,0,f,0,0,f,0,35.73,t,1,47.61,t,1,41.30,t,1,52.27,t,1,19.50,t,0.7,0,t,0,0,f,0,0,f,0,0,f,0,0,f,0
"RY1","191350","MAVITY, ROBERT","BTEC","2008-01-01","","C","full",41.93,t,1,45.54,t,1,42.82,t,1,43.73,t,1,42.82,t,1,46.11,t,1,51.70,t,1,43.86,t,1,44.16,t,1,42.78,t,1,44.21,t,1,44.29,t,1,43.97,t,1,43.56,t,1,46.84,t,1,47.07,t,1,42.16,t,1,42.86,t,1,42.48,t,1,42.36,t,1,43.72,t,1
"RY1","129874","MCCOY, KYLER","WTEC","2019-06-26","","H","part",0,f,0,0,f,0,0,f,0,0,f,0,0,f,0,0,f,0,0,f,0,0,f,0,0,f,0,0,f,0,0,f,0,0,f,0,0,f,0,0,f,0,0,f,0,0,f,0,0,f,0,0,f,0,0,f,0,24.00,t,0.8,24.92,t,0.8
"RY1","18574","MCLAUGHLIN, JOHN","22","2017-12-11","","S","full",0,t,1,0,t,1,0,t,1,0,t,1,0,t,1,0,t,1,0,t,1,0,t,1,0,t,1,0,t,1,0,t,1,0,t,1,0,t,1,0,t,1,0,t,1,0,t,1,0,t,1,0,t,1,0,t,1,0,t,1,0,t,1
"RY1","198542","MCMILLIAN, TARA","BTEA","2018-09-10","","H","full",45.64,t,1,45.49,t,1,29.55,t,1.0,46.68,t,1,36.36,t,1,45.96,t,1,37.16,t,1,44.45,t,1,43.95,t,1,44.32,t,1,50.84,t,1,35.76,t,1,45.82,t,1,36.80,t,1,45.68,t,1,44.40,t,1,46.01,t,1,19.36,t,0.6,50.98,t,1,45.56,t,1,43.78,t,1
"RY1","194675","MCVEIGH, DENNIS","STEC","2007-11-13","","C","full",51.06,t,1,50.24,t,1,50.25,t,1,47.23,t,1,58.58,t,1,46.28,t,1,46.90,t,1,47.55,t,1,44.36,t,1,57.32,t,1,46.22,t,1,44.58,t,1,44.63,t,1,46.96,t,1,58.71,t,1,45.35,t,1,44.25,t,1,47.54,t,1,39.99,t,1,51.97,t,1,42.69,t,1
"RY1","132875","MELLING, MICHAEL","CWAS","2018-06-11","","H","part",17.49,t,0.6,16.20,t,0.5,16.72,t,0.6,15.29,t,0.5,7.77,t,0.3,21.98,t,0.7,18.35,t,0.6,16.19,t,0.5,23.54,t,0.8,16.28,t,0.5,22.86,t,0.8,21.67,t,0.7,15.88,t,0.5,11.26,t,0.4,29.13,t,1.0,16.63,t,0.6,24.49,t,0.8,18.43,t,0.6,12.69,t,0.4,10.92,t,0.4,17.27,t,0.6
"RY1","165983","MENARD, MICHAEL","SALE","2018-02-12","","C","full",0,t,1,0,t,1,0,t,1,0,t,1,0,t,1,0,t,1,0,t,1,0,t,1,0,t,1,0,t,1,0,t,1,0,t,1,0,t,1,0,t,1,0,t,1,0,t,1,0,t,1,0,t,1,0,t,1,0,t,1,8.00,t,1
"RY1","165870","METZGER, JOHN","BTEA","2019-02-11","2019-04-02","H","full",3.00,t,0.1,47.46,t,1,46.57,t,1,48.95,t,1,38.10,t,1,48.26,t,1,30.04,t,1,17.78,t,0.6,0,f,0,0,f,0,0,f,0,0,f,0,0,f,0,0,f,0,0,f,0,0,f,0,0,f,0,0,f,0,0,f,0,0,f,0,0,f,0
"RY1","195401","METZGER, JUSTIN","PTDR","2010-05-24","","H","full",43.75,t,1,43.17,t,1,47.50,t,1,47.42,t,1,42.33,t,1,46.59,t,1,45.08,t,1,43.92,t,1,40.50,t,1,42.16,t,1,44.34,t,1,41.66,t,1,43.92,t,1,40.00,t,1,41.00,t,1,43.25,t,1,44.33,t,1,51.25,t,1,43.17,t,1,43.75,t,1,37.25,t,1
"RY1","181520","METZGER, KAYLE M","14","2013-11-20","","H","full",42.00,t,1,40.98,t,1,51.17,t,1,47.61,t,1,37.95,t,1,47.79,t,1,60.76,t,1,44.28,t,1,43.65,t,1,50.53,t,1,44.26,t,1,44.75,t,1,35.67,t,1,24.31,t,0.8,0,t,0,8.00,t,0.3,0,t,0,0,t,0,8.00,t,0.3,5.87,t,0.2,19.05,t,0.6
"RY1","195413","MEYERS, JAMES","PTSR","2017-08-28","2019-04-05","H","part",15.26,t,0.5,15.55,t,0.5,13.62,t,0.5,19.30,t,0.6,10.01,t,0.3,11.76,t,0.4,10.06,t,0.3,14.90,t,0.5,0,f,0,0,f,0,0,f,0,0,f,0,0,f,0,0,f,0,0,f,0,0,f,0,0,f,0,0,f,0,0,f,0,0,f,0,0,f,0
"RY1","195460","MICHAEL, ANTHONY E","TEAM","2010-10-25","","C","full",0,t,1,0,t,1,0,t,1,0,t,1,0,t,1,0,t,1,0,t,1,0,t,1,0,t,1,0,t,1,0,t,1,0,t,1,0,t,1,0,t,1,0,t,1,0,t,1,0,t,1,0,t,1,0,t,1,0,t,1,0,t,1
"RY1","196205","MILLER, DILLAN","PTEC","2016-11-21","","H","full",40.00,t,1,28.92,t,1.0,37.09,t,1,22.80,t,0.8,22.70,t,0.8,23.34,t,0.8,22.44,t,0.7,30.98,t,1,35.77,t,1,23.00,t,0.8,47.64,t,1,30.61,t,1,22.78,t,0.8,19.06,t,0.6,28.53,t,1.0,33.43,t,1,23.21,t,0.8,23.50,t,0.8,33.45,t,1,36.91,t,1,32.06,t,1
"RY1","196341","MILLER, KIM M","14","1985-01-02","","H","full",40.00,t,1,49.09,t,1,51.39,t,1,52.02,t,1,47.48,t,1,47.94,t,1,47.70,t,1,49.51,t,1,41.94,t,1,43.03,t,1,42.83,t,1,47.82,t,1,42.11,t,1,43.02,t,1,41.11,t,1,46.79,t,1,45.25,t,1,41.12,t,1,42.69,t,1,48.09,t,1,43.90,t,1
"RY1","112098","MOHAMOUD, MOHAMED F","BTEC","2017-01-23","2019-04-23","H","full",49.21,t,1,48.14,t,1,52.32,t,1,47.73,t,1,48.08,t,1,44.75,t,1,44.06,t,1,39.70,t,1,45.48,t,1,42.22,t,1,0,t,0,0,f,0,0,f,0,0,f,0,0,f,0,0,f,0,0,f,0,0,f,0,0,f,0,0,f,0,0,f,0
"RY1","118030","MONSON, TAYLOR","NCI","2014-06-30","","S","full",0,t,1,0,t,1,0,t,1,0,t,1,0,t,1,0,t,1,0,t,1,0,t,1,0,t,1,0,t,1,0,t,1,8.00,t,1,0,t,1,0,t,1,0,t,1,0,t,1,0,t,1,0,t,1,0,t,1,0,t,1,8.00,t,1
"RY1","118746","MONTGOMERY, CODY","PART","2017-09-03","","H","full",43.35,t,1,43.82,t,1,52.39,t,1,46.43,t,1,44.61,t,1,44.02,t,1,42.90,t,1,42.47,t,1,40.74,t,1,50.71,t,1,42.01,t,1,40.96,t,1,42.47,t,1,42.63,t,1,38.42,t,1,39.81,t,1,44.77,t,1,33.40,t,1,42.62,t,1,38.48,t,1,40.35,t,1
"RY1","115444","MOORE, LANNY","22","2017-08-21","","H","part",10.76,t,0.4,28.41,t,0.9,16.59,t,0.6,0,t,0,0,t,0,19.17,t,0.6,11.00,t,0.4,0,t,0,0,t,0,0,t,0,0,t,0,0,t,0,0,t,0,0,t,0,0,t,0,0,t,0,0,t,0,0,t,0,0,t,0,0,t,0,0,t,0
"RY1","113011","MORLOCK, BRUCE A","DRI","2012-08-30","","H","part",22.75,t,0.8,0,t,0,6.00,t,0.2,22.00,t,0.7,8.00,t,0.3,13.00,t,0.4,12.50,t,0.4,12.50,t,0.4,10.50,t,0.4,8.50,t,0.3,0,t,0,24.50,t,0.8,18.50,t,0.6,5.50,t,0.2,0,t,0,11.75,t,0.4,9.00,t,0.3,0,t,0,0,t,0,5.00,t,0.2,0,t,0
"RY1","113020","MORRIS, GREG","PART","2010-04-19","","S","full",0,t,1,0,t,1,0,t,1,0,t,1,0,t,1,0,t,1,0,t,1,0,t,1,0,t,1,0,t,1,0,t,1,0,t,1,0,t,1,0,t,1,0,t,1,0,t,1,0,t,1,0,t,1,0,t,1,0,t,1,0,t,1
"RY1","151410","MOULDS, CRYSTAL D","WARR","2011-01-27","2019-06-18","H","full",42.40,t,1,38.11,t,1,46.39,t,1,42.43,t,1,34.68,t,1,41.10,t,1,40.61,t,1,36.95,t,1,38.12,t,1,38.50,t,1,45.41,t,1,32.84,t,1,40.82,t,1,39.36,t,1,36.41,t,1,43.11,t,1,38.59,t,1,32.28,t,1,9.24,t,0.3,0,f,0,0,f,0
"RY1","151702","MULHERN, ALAN","WTEC","2017-01-05","","C","full",40.99,t,1,45.01,t,1,43.35,t,1,42.64,t,1,41.26,t,1,44.49,t,1,43.19,t,1,47.47,t,1,45.57,t,1,49.77,t,1,48.06,t,1,48.51,t,1,51.92,t,1,49.44,t,1,48.76,t,1,52.39,t,1,55.71,t,1,52.44,t,1,47.66,t,1,52.70,t,1,48.35,t,1
"RY1","198532","NAVARRO, ALEXANDER","CWAS","2019-04-29","","H","part",0,f,0,0,f,0,0,f,0,0,f,0,0,f,0,0,f,0,0,f,0,0,f,0,0,f,0,0,f,0,0,f,0,9.85,t,0.3,12.40,t,0.4,3.04,t,0.1,16.46,t,0.5,18.39,t,0.6,10.63,t,0.4,19.50,t,0.7,15.50,t,0.5,29.48,t,1.0,17.74,t,0.6
"RY1","1100710","NEFS, GERALD F","DRI","2010-07-21","","H","part",0,t,0,0,t,0,0,t,0,0,t,0,0,t,0,0,t,0,0,t,0,0,t,0,0,t,0,0,t,0,0,t,0,0,t,0,0,t,0,0,t,0,0,t,0,0,t,0,0,t,0,0,t,0,0,t,0,0,t,0,0,t,0
"RY1","1123355","NELSON, ALLISON","CWAS","2014-06-16","","H","full",17.82,t,0.6,29.73,t,1.0,29.18,t,1.0,23.49,t,0.8,21.43,t,0.7,18.35,t,0.6,20.24,t,0.7,25.03,t,0.8,14.67,t,0.5,42.08,t,1,28.82,t,1.0,37.05,t,1,32.76,t,1,50.38,t,1,44.56,t,1,57.44,t,1,48.49,t,1,40.54,t,1,49.43,t,1,46.18,t,1,52.05,t,1
"RY1","1577890","NELSON, ISAAK","CWAS","2018-01-10","2019-03-16","H","part",15.40,t,0.5,0,t,0,5.16,t,0.2,4.93,t,0.2,0,t,0,0,f,0,0,f,0,0,f,0,0,f,0,0,f,0,0,f,0,0,f,0,0,f,0,0,f,0,0,f,0,0,f,0,0,f,0,0,f,0,0,f,0,0,f,0,0,f,0
"RY1","1100820","NELSON, KORDELL","CWAS","2014-06-02","","H","part",0,t,0,12.13,t,0.4,33.42,t,1,32.27,t,1,28.25,t,0.9,41.14,t,1,46.48,t,1,46.75,t,1,37.70,t,1,34.63,t,1,42.64,t,1,28.50,t,1.0,34.09,t,1,38.13,t,1,46.27,t,1,57.88,t,1,49.35,t,1,43.53,t,1,45.61,t,1,47.65,t,1,46.01,t,1
"RY1","152789","NELSON, TY","PTEC","2019-01-14","2019-05-11","H","part",28.30,t,0.9,16.51,t,0.6,29.87,t,1.0,16.51,t,0.6,39.86,t,1,16.29,t,0.5,28.38,t,0.9,11.68,t,0.4,26.13,t,0.9,20.77,t,0.7,31.00,t,1,18.13,t,0.6,25.04,t,0.8,0,f,0,0,f,0,0,f,0,0,f,0,0,f,0,0,f,0,0,f,0,0,f,0
"RY1","198534","NESS, NEVIN","PTEC","2019-04-29","2019-07-03","H","part",0,f,0,0,f,0,0,f,0,0,f,0,0,f,0,0,f,0,0,f,0,0,f,0,0,f,0,0,f,0,0,f,0,3.00,t,0.1,0,t,0,18.36,t,0.6,14.83,t,0.5,32.48,t,1,48.42,t,1,48.29,t,1,33.90,t,1,41.18,t,1,18.08,t,0.6
"RY1","1102195","NEUMANN, ANDREW D","SMRG","2014-05-18","","S","full",0,t,1,0,t,1,0,t,1,0,t,1,0,t,1,0,t,1,0,t,1,0,t,1,0,t,1,0,t,1,0,t,1,0,t,1,0,t,1,0,t,1,0,t,1,0,t,1,0,t,1,0,t,1,0,t,1,0,t,1,0,t,1
"RY1","1102198","NEUMANN, NICKOLAS J","PDQO","2015-08-03","","S","full",50.49,t,1,52.31,t,1,37.31,t,1,47.97,t,1,52.31,t,1,52.86,t,1,47.96,t,1,52.88,t,1,42.61,t,1,44.61,t,1,49.21,t,1,51.26,t,1,53.45,t,1,51.38,t,1,41.65,t,1,49.56,t,1,42.24,t,1,48.79,t,1,47.18,t,1,52.11,t,1,50.17,t,1
"RY1","1103050","NOKELBY, RONALD J","29","1978-05-05","","S","full",0,t,1,0,t,1,0,t,1,0,t,1,0,t,1,0,t,1,0,t,1,0,t,1,0,t,1,0,t,1,0,t,1,0,t,1,0,t,1,0,t,1,0,t,1,0,t,1,0,t,1,0,t,1,0,t,1,0,t,1,0,t,1
"RY1","187651","NOREIKIS, TIFFANY","SALE","2018-09-10","","C","full",0,t,1,0,t,1,0,t,1,0,t,1,0,t,1,0,t,1,0,t,1,0,t,1,0,t,1,0,t,1,0,t,1,0,t,1,0,t,1,0,t,1,0,t,1,0,t,1,0,t,1,0,t,1,0,t,1,0,t,1,0,t,1
"RY1","168753","NORTHAGEN, JOSHUA","STEC","2019-03-12","","H","full",0,f,0,0,f,0,0,f,0,0,f,0,10.51,t,0.4,42.97,t,1,44.27,t,1,43.89,t,1,35.42,t,1,34.21,t,1,42.44,t,1,45.22,t,1,45.31,t,1,44.63,t,1,43.37,t,1,39.19,t,1,48.32,t,1,50.57,t,1,52.11,t,1,49.75,t,1,38.91,t,1
"RY1","1103065","NYGAARD, KENT A","LOT","2015-01-26","","H","full",49.28,t,1,48.42,t,1,47.87,t,1,42.98,t,1,38.91,t,1,37.80,t,1,44.58,t,1,46.26,t,1,35.59,t,1,46.31,t,1,42.64,t,1,43.06,t,1,37.40,t,1,47.24,t,1,45.68,t,1,43.08,t,1,46.14,t,1,44.93,t,1,43.37,t,1,44.68,t,1,42.24,t,1
"RY1","1106225","OLDERBAK, JOHN","RAO","2016-02-16","","C","full",0,t,1,0,t,1,8.00,t,1,48.00,t,1,0,t,1,0,t,1,0,t,1,0,t,1,0,t,1,0,t,1,0,t,1,0,t,1,0,t,1,0,t,1,0,t,1,0,t,1,0,t,1,0,t,1,0,t,1,0,t,1,8.00,t,1
"RY1","1100625","OLSON, CODEY","BTEC","2016-08-01","","C","full",45.30,t,1,41.02,t,1,44.81,t,1,46.03,t,1,46.63,t,1,45.43,t,1,44.68,t,1,46.20,t,1,44.08,t,1,46.82,t,1,46.12,t,1,46.05,t,1,48.31,t,1,45.23,t,1,46.16,t,1,43.45,t,1,44.57,t,1,45.32,t,1,40.36,t,1,48.48,t,1,47.17,t,1
"RY1","1106399","OLSON, JAY P","STEC","2002-02-11","","C","full",49.54,t,1,49.07,t,1,40.00,t,1,45.97,t,1,54.20,t,1,45.97,t,1,45.71,t,1,51.00,t,1,46.05,t,1,45.52,t,1,44.63,t,1,45.20,t,1,55.11,t,1,46.06,t,1,43.10,t,1,45.11,t,1,42.99,t,1,55.20,t,1,43.71,t,1,43.12,t,1,43.17,t,1
"RY1","1106400","OLSON, JUSTIN S","BTEC","2012-11-12","","C","full",44.51,t,1,47.80,t,1,51.46,t,1,40.00,t,1,40.97,t,1,46.16,t,1,46.63,t,1,46.65,t,1,46.54,t,1,43.95,t,1,51.43,t,1,45.16,t,1,46.73,t,1,45.59,t,1,45.95,t,1,43.54,t,1,44.65,t,1,45.22,t,1,47.64,t,1,48.26,t,1,43.23,t,1
"RY1","164732","OLSON, RACHEL","14","2019-04-22","","H","full",0,f,0,0,f,0,0,f,0,0,f,0,0,f,0,0,f,0,0,f,0,0,f,0,0,f,0,0,f,0,36.32,t,1,38.86,t,1,40.29,t,1,40.28,t,1,40.61,t,1,40.62,t,1,40.82,t,1,39.23,t,1,39.27,t,1,41.84,t,1,37.59,t,1
"RY1","144788","OLSON, WYATT","PDQM","2017-04-10","","S","full",54.76,t,1,52.68,t,1,51.53,t,1,51.77,t,1,50.33,t,1,50.96,t,1,51.13,t,1,49.35,t,1,50.55,t,1,50.93,t,1,51.44,t,1,52.21,t,1,49.92,t,1,51.44,t,1,51.94,t,1,50.30,t,1,52.39,t,1,52.90,t,1,52.87,t,1,52.68,t,1,49.48,t,1
"RY1","1106421","O'NEIL, TIMOTHY J","STEC","2014-08-11","","C","full",44.74,t,1,46.69,t,1,52.76,t,1,46.35,t,1,45.37,t,1,43.55,t,1,45.49,t,1,46.32,t,1,42.29,t,1,52.46,t,1,48.04,t,1,43.99,t,1,45.57,t,1,47.58,t,1,51.01,t,1,43.53,t,1,41.96,t,1,43.67,t,1,41.83,t,1,49.48,t,1,43.66,t,1
"RY1","143895","O'REILLY, EDWARD","PTEC","2018-01-03","","H","part",22.65,t,0.8,22.39,t,0.7,39.68,t,1,29.69,t,1.0,18.57,t,0.6,22.43,t,0.7,27.31,t,0.9,14.43,t,0.5,46.54,t,1,49.06,t,1,29.23,t,1.0,48.93,t,1,37.62,t,1,44.95,t,1,30.10,t,1,38.19,t,1,31.64,t,1,39.56,t,1,22.96,t,0.8,47.48,t,1,36.95,t,1
"RY1","1107950","ORTIZ, GUADALUPE","BTEC","2012-11-12","","H","full",42.68,t,1,41.54,t,1,39.42,t,1,42.05,t,1,27.39,t,0.9,42.29,t,1,45.62,t,1,43.46,t,1,43.06,t,1,40.35,t,1,45.54,t,1,43.49,t,1,44.54,t,1,45.09,t,1,46.71,t,1,40.66,t,1,40.35,t,1,36.39,t,1,44.29,t,1,41.44,t,1,45.16,t,1
"RY1","1108200","OSTLUND, ANNE B","BTEA","2011-01-17","","H","full",56.67,t,1,46.12,t,1,46.87,t,1,48.63,t,1,45.75,t,1,46.84,t,1,48.98,t,1,44.53,t,1,44.05,t,1,46.52,t,1,46.36,t,1,45.98,t,1,41.75,t,1,52.28,t,1,45.38,t,1,44.48,t,1,46.89,t,1,46.17,t,1,43.93,t,1,45.66,t,1,42.97,t,1
"RY1","123564","PESEK, BENJAMIN","CWAS","2017-07-10","","H","part",17.50,t,0.6,15.66,t,0.5,18.52,t,0.6,21.82,t,0.7,20.02,t,0.7,10.07,t,0.3,15.91,t,0.5,16.56,t,0.6,13.20,t,0.4,12.27,t,0.4,21.12,t,0.7,5.16,t,0.2,16.58,t,0.6,21.76,t,0.7,16.44,t,0.5,12.59,t,0.4,10.98,t,0.4,13.72,t,0.5,28.99,t,1.0,0,t,0,10.82,t,0.4
"RY1","1110425","PETERSON, BRIAN D","BTEC","1999-03-15","","C","full",56.27,t,1,45.74,t,1,51.10,t,1,47.10,t,1,44.47,t,1,47.93,t,1,47.79,t,1,49.45,t,1,41.32,t,1,49.85,t,1,47.92,t,1,47.44,t,1,45.61,t,1,48.26,t,1,46.22,t,1,47.21,t,1,40.00,t,1,50.24,t,1,48.03,t,1,47.11,t,1,46.45,t,1
"RY1","1110542","PETERSON, DOUG","22","1995-12-04","","S","full",0,t,1,0,t,1,0,t,1,0,t,1,0,t,1,0,t,1,0,t,1,0,t,1,0,t,1,0,t,1,0,t,1,0,t,1,0,t,1,0,t,1,0,t,1,0,t,1,0,t,1,0,t,1,0,t,1,0,t,1,0,t,1
"RY1","1110650","PETERSON, MAVRIK","BTEC","2010-11-15","2019-04-12","C","full",45.17,t,1,54.84,t,1,44.69,t,1,47.28,t,1,45.72,t,1,40.00,t,1,47.39,t,1,41.12,t,1,40.24,t,1,0,f,0,0,f,0,0,f,0,0,f,0,0,f,0,0,f,0,0,f,0,0,f,0,0,f,0,0,f,0,0,f,0,0,f,0
"RY1","1110660","PETERSON, TYLER","11","2015-11-23","","H","full",38.04,t,1,44.54,t,1,44.38,t,1,45.47,t,1,45.01,t,1,42.34,t,1,42.61,t,1,47.37,t,1,47.28,t,1,50.98,t,1,40.60,t,1,41.46,t,1,40.62,t,1,42.00,t,1,42.50,t,1,39.89,t,1,41.01,t,1,41.16,t,1,35.74,t,1,39.23,t,1,41.08,t,1
"RY1","167934","PFAFF, JONATHAN","SALE","2019-01-06","","H","full",39.87,t,1,40.03,t,1,40.35,t,1,39.62,t,1,39.75,t,1,42.25,t,1,40.04,t,1,40.77,t,1,40.57,t,1,39.48,t,1,37.77,t,1,42.21,t,1,41.48,t,1,39.93,t,1,40.54,t,1,32.62,t,1,33.60,t,1,39.24,t,1,39.28,t,1,34.98,t,1,39.87,t,1
"RY1","1110800","PICHE, STACEY","PDQW","2015-05-11","","H","full",31.62,t,1,26.54,t,0.9,41.57,t,1,33.63,t,1,19.08,t,0.6,41.28,t,1,39.38,t,1,31.51,t,1,26.64,t,0.9,35.00,t,1,41.55,t,1,30.84,t,1,39.89,t,1,43.41,t,1,23.92,t,0.8,11.03,t,0.4,25.80,t,0.9,23.41,t,0.8,24.63,t,0.8,40.38,t,1,49.54,t,1
"RY1","187526","POKHREL, CHANDRA","RAY","2018-12-17","","H","full",36.91,t,1,38.01,t,1,40.55,t,1,40.46,t,1,40.15,t,1,40.11,t,1,41.76,t,1,41.09,t,1,40.31,t,1,40.25,t,1,40.42,t,1,40.36,t,1,40.43,t,1,40.67,t,1,40.34,t,1,32.27,t,1,40.72,t,1,40.66,t,1,41.04,t,1,41.12,t,1,41.40,t,1
"RY1","165478","POLUM, MAXWELL","PTEC","2018-12-31","","H","part",12.33,t,0.4,21.50,t,0.7,12.07,t,0.4,17.07,t,0.6,8.39,t,0.3,21.81,t,0.7,12.33,t,0.4,21.46,t,0.7,12.32,t,0.4,21.87,t,0.7,12.86,t,0.4,17.88,t,0.6,22.00,t,0.7,8.41,t,0.3,12.44,t,0.4,17.48,t,0.6,43.29,t,1,42.91,t,1,42.27,t,1,32.11,t,1,32.80,t,1
"RY1","1111325","POWELL, GAYLA R","BOFF","2011-08-29","","H","full",48.32,t,1,47.63,t,1,49.28,t,1,48.88,t,1,51.77,t,1,51.95,t,1,53.95,t,1,51.59,t,1,50.28,t,1,51.29,t,1,52.59,t,1,50.42,t,1,52.97,t,1,49.39,t,1,47.26,t,1,47.01,t,1,47.57,t,1,46.40,t,1,47.43,t,1,50.02,t,1,48.17,t,1
"RY1","1112410","PRESTON, ALLEN E","AFTE","2014-02-10","","C","full",0,t,1,0,t,1,0,t,1,0,t,1,0,t,1,0,t,1,0,t,1,0,t,1,0,t,1,0,t,1,0,t,1,0,t,1,0,t,1,0,t,1,0,t,1,0,t,1,0,t,1,0,t,1,0,t,1,0,t,1,0,t,1
"RY1","1112411","PRESTON, APRIL","WTEC","2015-07-20","","H","full",33.74,t,1,35.89,t,1,34.65,t,1,28.20,t,0.9,30.20,t,1,37.69,t,1,33.96,t,1,27.78,t,0.9,34.28,t,1,42.04,t,1,27.40,t,0.9,25.84,t,0.9,32.24,t,1,27.72,t,0.9,31.10,t,1,35.55,t,1,42.31,t,1,36.14,t,1,38.39,t,1,40.00,t,1,38.17,t,1
"RY1","1113940","RADKE, DUANE","STEC","1966-05-01","","H","full",43.03,t,1,46.75,t,1,44.31,t,1,42.03,t,1,42.10,t,1,41.70,t,1,43.03,t,1,44.72,t,1,43.03,t,1,40.00,t,1,40.00,t,1,43.49,t,1,41.43,t,1,40.00,t,1,40.00,t,1,40.00,t,1,40.39,t,1,42.19,t,1,41.55,t,1,42.62,t,1,40.98,t,1
"RY1","12447","RAI, BIR","PTEC","2017-07-31","","H","full",43.11,t,1,49.90,t,1,37.17,t,1,49.46,t,1,39.12,t,1,48.21,t,1,34.72,t,1,48.97,t,1,40.01,t,1,44.17,t,1,40.63,t,1,47.06,t,1,39.90,t,1,48.72,t,1,37.09,t,1,40.27,t,1,30.10,t,1,39.76,t,1,37.93,t,1,44.55,t,1,48.45,t,1
"RY1","145987","RAI, SAN","PTEC","2018-11-25","","H","full",42.82,t,1,43.02,t,1,35.23,t,1,44.29,t,1,32.82,t,1,41.54,t,1,44.30,t,1,53.19,t,1,34.95,t,1,0,t,0,8.27,t,0.3,51.03,t,1,41.57,t,1,50.60,t,1,38.32,t,1,47.95,t,1,48.89,t,1,49.30,t,1,31.67,t,1,40.01,t,1,35.50,t,1
"RY1","165473","RAI, SANTI","PTEC","2018-04-23","","H","full",34.11,t,1,43.96,t,1,29.79,t,1.0,45.22,t,1,41.68,t,1,52.70,t,1,53.54,t,1,51.16,t,1,0,t,0,0,t,0,42.81,t,1,42.32,t,1,27.65,t,0.9,38.53,t,1,49.59,t,1,34.13,t,1,27.91,t,0.9,49.29,t,1,32.69,t,1,38.99,t,1,30.28,t,1
"RY1","132549","RAMSEY, COLTON","SALE","2018-10-08","2019-04-22","C","full",0,t,1,0,t,1,0,t,1,0,t,1,0,t,1,0,t,1,0,t,1,0,t,1,0,t,1,0,t,1,0,t,1,0,f,0,0,f,0,0,f,0,0,f,0,0,f,0,0,f,0,0,f,0,0,f,0,0,f,0,0,f,0
"RY1","1588879","RAUNER, VALERIE","14","2017-06-19","","H","full",0,t,0,46.47,t,1,19.01,t,0.6,0,t,0,0,t,0,0,t,0,20.74,t,0.7,43.80,t,1,41.85,t,1,42.99,t,1,45.82,t,1,45.01,t,1,41.57,t,1,43.15,t,1,30.25,t,1,41.10,t,1,41.78,t,1,41.63,t,1,41.33,t,1,40.50,t,1,40.00,t,1
"RY1","1114831","REED, DALE","PTDR","2015-12-21","","H","part",22.46,t,0.7,22.61,t,0.8,19.83,t,0.7,14.17,t,0.5,0,t,0,22.07,t,0.7,22.41,t,0.7,13.10,t,0.4,17.63,t,0.6,22.49,t,0.7,21.90,t,0.7,21.91,t,0.7,21.72,t,0.7,17.31,t,0.6,21.76,t,0.7,17.66,t,0.6,22.51,t,0.8,21.78,t,0.7,20.33,t,0.7,22.17,t,0.7,13.36,t,0.4
"RY1","1114921","REUTER, TIMOTHY J","BTEC","2015-01-26","","H","full",45.60,t,1,41.10,t,1,44.92,t,1,43.72,t,1,44.18,t,1,45.04,t,1,44.32,t,1,44.44,t,1,45.35,t,1,43.59,t,1,41.75,t,1,45.23,t,1,37.33,t,1,43.65,t,1,36.20,t,1,42.57,t,1,46.34,t,1,44.45,t,1,43.66,t,1,44.60,t,1,41.15,t,1
"RY1","1116800","RICHARDSON, DARRICK J","WTEC","2015-09-29","","C","full",30.94,t,1,37.16,t,1,32.97,t,1,29.95,t,1.0,31.33,t,1,29.92,t,1.0,22.88,t,0.8,25.05,t,0.8,31.06,t,1,31.49,t,1,22.58,t,0.8,29.75,t,1.0,32.40,t,1,29.27,t,1.0,31.07,t,1,32.35,t,1,33.19,t,1,33.42,t,1,32.08,t,1,31.99,t,1,30.06,t,1
"RY1","195123","RIVERA, ROLANDO","SRVM","2018-12-17","","H","full",48.66,t,1,30.13,t,1,47.63,t,1,39.63,t,1,43.78,t,1,46.43,t,1,33.60,t,1,43.64,t,1,28.95,t,1.0,43.23,t,1,40.38,t,1,43.99,t,1,44.15,t,1,31.11,t,1,54.67,t,1,41.44,t,1,49.73,t,1,32.23,t,1,28.26,t,0.9,33.64,t,1,38.83,t,1
"RY1","122332","ROBINSON, AARON","PART","2017-09-25","","H","full",40.74,t,1,41.52,t,1,41.71,t,1,50.32,t,1,42.68,t,1,39.62,t,1,38.84,t,1,40.74,t,1,38.15,t,1,45.42,t,1,53.24,t,1,50.74,t,1,39.67,t,1,43.17,t,1,36.51,t,1,41.15,t,1,41.17,t,1,43.55,t,1,44.75,t,1,39.83,t,1,38.72,t,1
"RY1","192348","ROBINSON, CARSON","SALE","2018-05-07","","C","full",0,t,1,0,t,1,0,t,1,0,t,1,0,t,1,0,t,1,0,t,1,0,t,1,0,t,1,0,t,1,0,t,1,0,t,1,0,t,1,0,t,1,0,t,1,0,t,1,0,t,1,0,t,1,0,t,1,0,t,1,0,t,1
"RY1","1117600","ROBLES, RUDOLPH","PDQW","2000-07-12","","H","full",54.92,t,1,56.98,t,1,58.02,t,1,59.00,t,1,59.02,t,1,51.63,t,1,58.87,t,1,61.18,t,1,59.88,t,1,60.54,t,1,59.70,t,1,49.50,t,1,42.45,t,1,55.96,t,1,55.46,t,1,57.05,t,1,62.54,t,1,47.24,t,1,52.69,t,1,52.79,t,1,45.46,t,1
"RY1","1117842","RODRIGUEZ, JUSTIN","STL","2015-11-23","","H","full",41.72,t,1,41.33,t,1,49.10,t,1,40.88,t,1,40.60,t,1,41.67,t,1,50.55,t,1,46.80,t,1,45.12,t,1,44.71,t,1,56.13,t,1,47.14,t,1,45.30,t,1,47.03,t,1,57.93,t,1,45.96,t,1,48.93,t,1,46.98,t,1,56.51,t,1,49.82,t,1,46.13,t,1
"RY1","1117901","ROGERS, MITCH A","STEC","2014-10-13","","C","full",45.36,t,1,47.36,t,1,43.48,t,1,44.02,t,1,51.80,t,1,42.47,t,1,42.26,t,1,45.82,t,1,41.12,t,1,40.09,t,1,42.79,t,1,41.08,t,1,41.88,t,1,43.09,t,1,51.04,t,1,42.63,t,1,43.46,t,1,42.99,t,1,37.16,t,1,50.18,t,1,40.00,t,1
"RY1","165780","ROGERS, SARA","WTEC","2018-10-22","","H","part",27.72,t,0.9,16.61,t,0.6,13.65,t,0.5,10.68,t,0.4,20.89,t,0.7,15.51,t,0.5,14.54,t,0.5,14.53,t,0.5,14.09,t,0.5,15.10,t,0.5,14.96,t,0.5,15.91,t,0.5,12.96,t,0.4,0,t,0,0,t,0,11.98,t,0.4,20.01,t,0.7,40.62,t,1,39.51,t,1,38.78,t,1,23.14,t,0.8
"RY1","1117960","ROGNE, CRAIG A","STEC","1988-06-13","","S","full",51.16,t,1,52.19,t,1,47.81,t,1,40.27,t,1,48.29,t,1,50.93,t,1,40.98,t,1,51.85,t,1,51.07,t,1,40.98,t,1,51.08,t,1,45.81,t,1,50.52,t,1,48.79,t,1,50.59,t,1,38.00,t,1,50.09,t,1,50.56,t,1,37.86,t,1,49.88,t,1,46.80,t,1
"RY1","1118722","ROSE, CORY","BTEC","2006-10-23","","C","full",45.91,t,1,45.14,t,1,44.89,t,1,46.22,t,1,46.89,t,1,46.24,t,1,45.14,t,1,47.90,t,1,45.45,t,1,49.91,t,1,46.44,t,1,44.80,t,1,44.95,t,1,45.60,t,1,45.35,t,1,45.13,t,1,44.92,t,1,50.55,t,1,44.66,t,1,46.74,t,1,43.16,t,1
"RY1","187934","ROSENBAUM, ANDREW","PTEC","2018-04-11","2019-04-24","H","full",56.88,t,1,46.35,t,1,38.03,t,1,32.95,t,1,52.46,t,1,46.81,t,1,38.85,t,1,27.48,t,0.9,46.01,t,1,41.42,t,1,26.94,t,0.9,0,f,0,0,f,0,0,f,0,0,f,0,0,f,0,0,f,0,0,f,0,0,f,0,0,f,0,0,f,0
"RY1","12236","ROTH, LAURA","11","2017-11-20","","S","full",0,t,1,0,t,1,0,t,1,0,t,1,0,t,1,0,t,1,0,t,1,0,t,1,0,t,1,0,t,1,0,t,1,0,t,1,0,t,1,0,t,1,0,t,1,0,t,1,0,t,1,0,t,1,0,t,1,0,t,1,0,t,1
"RY1","141082","RUMEN, ROBERT","SALE","2018-05-07","","C","full",0,t,1,0,t,1,0,t,1,0,t,1,0,t,1,0,t,1,0,t,1,0,t,1,0,t,1,0,t,1,0,t,1,0,t,1,0,t,1,0,t,1,0,t,1,0,t,1,0,t,1,0,t,1,0,t,1,0,t,1,0,t,1
"RY1","1120110","RYAN, ANTONIO R","CMGR","2012-03-29","","S","full",0,t,1,0,t,1,0,t,1,0,t,1,0,t,1,0,t,1,0,t,1,0,t,1,0,t,1,0,t,1,0,t,1,0,t,1,0,t,1,0,t,1,0,t,1,0,t,1,0,t,1,0,t,1,0,t,1,0,t,1,0,t,1
"RY1","1120225","RYDELL, BRIAN L","OWN","1999-06-28","","S","full",0,t,1,0,t,1,0,t,1,0,t,1,0,t,1,0,t,1,0,t,1,0,t,1,0,t,1,0,t,1,0,t,1,0,t,1,0,t,1,0,t,1,0,t,1,0,t,1,0,t,1,0,t,1,0,t,1,0,t,1,0,t,1
"RY1","103524","RYDELL, MARIO","WTEC","2019-06-17","2019-06-25","H","part",0,f,0,0,f,0,0,f,0,0,f,0,0,f,0,0,f,0,0,f,0,0,f,0,0,f,0,0,f,0,0,f,0,0,f,0,0,f,0,0,f,0,0,f,0,0,f,0,0,f,0,0,f,0,12.00,t,0.4,0,t,0,0,f,0
"RY1","1120800","RYDELL, WESLEY D","OWN","1962-06-01","","C","full",0,t,1,0,t,1,0,t,1,0,t,1,0,t,1,0,t,1,0,t,1,0,t,1,0,t,1,0,t,1,0,t,1,0,t,1,0,t,1,0,t,1,0,t,1,0,t,1,0,t,1,0,t,1,0,t,1,0,t,1,0,t,1
"RY1","1120120","RYGG, KEN C","PART","2012-11-21","","H","full",36.13,t,1,32.46,t,1,36.58,t,1,36.18,t,1,47.16,t,1,36.98,t,1,35.08,t,1,29.10,t,1.0,34.11,t,1,37.79,t,1,38.46,t,1,36.79,t,1,34.09,t,1,35.87,t,1,40.26,t,1,36.02,t,1,32.47,t,1,39.37,t,1,39.29,t,1,38.48,t,1,37.82,t,1
"RY1","1121240","SALBERG, GAYLEN K","DRI","2017-02-01","","H","part",52.00,t,1,21.00,t,0.7,34.50,t,1,28.00,t,0.9,30.00,t,1,17.50,t,0.6,3.00,t,0.1,41.00,t,1,16.00,t,0.5,38.50,t,1,3.00,t,0.1,20.00,t,0.7,17.00,t,0.6,4.50,t,0.2,0,t,0,16.00,t,0.5,10.00,t,0.3,15.50,t,0.5,30.50,t,1,19.50,t,0.7,16.00,t,0.5
"RY1","1121250","SALVIONE, SHAYLA K","AFTE","2014-08-25","","C","full",38.64,t,1,38.87,t,1,32.20,t,1,33.16,t,1,40.00,t,1,33.43,t,1,44.15,t,1,0,t,1,0,t,1,0,t,1,0,t,1,0,t,1,0,t,1,0,t,1,0,t,1,0,t,1,0,t,1,0,t,1,0,t,1,0,t,1,0,t,1
"RY1","1122110","SANCHEZ, ROGELIO","CWAS","2015-07-06","","S","full",0,t,1,0,t,1,0,t,1,0,t,1,0,t,1,0,t,1,0,t,1,0,t,1,0,t,1,0,t,1,0,t,1,0,t,1,0,t,1,0,t,1,0,t,1,0,t,1,0,t,1,0,t,1,0,t,1,0,t,1,0,t,1
"RY1","1122246","SAPP, CORDEAU I","PDQW","2015-08-17","","H","full",41.36,t,1,31.73,t,1,37.42,t,1,26.34,t,0.9,39.60,t,1,36.50,t,1,36.04,t,1,25.90,t,0.9,28.55,t,1.0,45.10,t,1,38.53,t,1,36.62,t,1,46.50,t,1,32.82,t,1,41.04,t,1,34.38,t,1,33.90,t,1,34.47,t,1,39.19,t,1,40.60,t,1,42.33,t,1
"RY1","1122342","SATTLER, RANDY J","BSM","2002-08-26","","C","full",0,t,1,0,t,1,0,t,1,0,t,1,0,t,1,0,t,1,0,t,1,0,t,1,0,t,1,0,t,1,0,t,1,0,t,1,0,t,1,0,t,1,0,t,1,0,t,1,0,t,1,0,t,1,0,t,1,0,t,1,0,t,1
"RY1","1122352","SAULS, THOMAS R","WTEC","2013-08-12","","C","full",36.35,t,1,43.63,t,1,39.56,t,1,30.53,t,1,32.50,t,1,32.68,t,1,39.33,t,1,39.68,t,1,40.00,t,1,42.25,t,1,40.16,t,1,41.31,t,1,40.12,t,1,39.89,t,1,37.75,t,1,41.37,t,1,31.23,t,1,36.30,t,1,43.81,t,1,46.61,t,1,40.39,t,1
"RY1","198431","SCHADT, MICHAEL","WTEC","2019-06-03","","H","part",0,f,0,0,f,0,0,f,0,0,f,0,0,f,0,0,f,0,0,f,0,0,f,0,0,f,0,0,f,0,0,f,0,0,f,0,0,f,0,0,f,0,0,f,0,0,f,0,35.27,t,1,40.04,t,1,20.30,t,0.7,36.79,t,1,31.15,t,1
"RY1","1123340","SCHMIESS PENAS, JERI L","14","2009-05-12","","S","full",0,t,1,0,t,1,0,t,1,0,t,1,0,t,1,0,t,1,0,t,1,0,t,1,0,t,1,0,t,1,0,t,1,0,t,1,0,t,1,0,t,1,0,t,1,0,t,1,0,t,1,0,t,1,0,t,1,0,t,1,0,t,1
"RY1","1566882","SCHNEIDER, BRIAN","WTEC","2017-06-05","","H","full",52.02,t,1,41.77,t,1,49.01,t,1,42.11,t,1,34.39,t,1,44.47,t,1,41.38,t,1,42.71,t,1,41.15,t,1,51.48,t,1,43.73,t,1,34.77,t,1,28.79,t,1.0,50.27,t,1,45.58,t,1,41.21,t,1,50.36,t,1,43.95,t,1,44.40,t,1,47.40,t,1,40.34,t,1
"RY1","1124400","SCHUPPERT, KODEY","STEC","2015-04-27","","H","full",51.86,t,1,48.83,t,1,43.44,t,1,39.50,t,1,31.20,t,1,47.31,t,1,37.05,t,1,40.21,t,1,38.26,t,1,38.45,t,1,31.53,t,1,38.45,t,1,36.61,t,1,31.78,t,1,40.16,t,1,47.43,t,1,39.47,t,1,43.50,t,1,38.16,t,1,38.43,t,1,46.89,t,1
"RY1","1124430","SCHWAN, JASON","STEC","2015-10-26","","H","full",49.99,t,1,46.48,t,1,49.82,t,1,45.59,t,1,44.26,t,1,49.09,t,1,46.56,t,1,47.46,t,1,42.72,t,1,40.74,t,1,43.25,t,1,38.93,t,1,47.26,t,1,38.98,t,1,45.05,t,1,38.95,t,1,47.57,t,1,46.29,t,1,45.22,t,1,44.18,t,1,43.02,t,1
"RY1","1124436","SCHWAN, MICHAEL","STEC","2012-02-27","","C","full",51.16,t,1,47.91,t,1,52.43,t,1,58.69,t,1,54.89,t,1,52.57,t,1,61.78,t,1,63.81,t,1,52.72,t,1,46.37,t,1,51.55,t,1,64.11,t,1,62.99,t,1,52.31,t,1,51.36,t,1,47.19,t,1,61.71,t,1,60.96,t,1,48.55,t,1,50.35,t,1,49.88,t,1
"RY1","1124625","SEAY, BRYN N","TEAM","2014-08-25","","C","full",0,t,1,0,t,1,0,t,1,0,t,1,0,t,1,0,t,1,0,t,1,0,t,1,0,t,1,0,t,1,0,t,1,0,t,1,0,t,1,0,t,1,0,t,1,0,t,1,0,t,1,0,t,1,0,t,1,0,t,1,0,t,1
"RY1","1124875","SEEBA, BRADLEY F","PART","1977-04-11","","H","full",39.50,t,1,39.69,t,1,39.79,t,1,39.82,t,1,39.54,t,1,40.08,t,1,42.20,t,1,40.01,t,1,38.82,t,1,37.07,t,1,39.22,t,1,39.36,t,1,39.29,t,1,40.33,t,1,39.05,t,1,40.66,t,1,40.54,t,1,38.03,t,1,40.46,t,1,39.01,t,1,40.03,t,1
"RY1","1125565","SEVIGNY, SCOTT","BTEC","2008-09-29","","C","full",44.16,t,1,45.57,t,1,44.38,t,1,44.04,t,1,49.48,t,1,44.83,t,1,44.50,t,1,45.85,t,1,44.37,t,1,43.69,t,1,45.18,t,1,45.72,t,1,44.13,t,1,43.83,t,1,45.68,t,1,41.47,t,1,43.36,t,1,44.03,t,1,44.70,t,1,44.27,t,1,47.62,t,1
"RY1","1126040","SHERECK, LOREN","BTEC","2016-11-07","","S","full",37.76,t,1,42.81,t,1,43.89,t,1,44.92,t,1,42.80,t,1,43.51,t,1,40.28,t,1,43.27,t,1,40.07,t,1,43.18,t,1,43.40,t,1,46.37,t,1,44.79,t,1,44.28,t,1,42.82,t,1,43.36,t,1,45.59,t,1,43.71,t,1,42.41,t,1,46.34,t,1,41.11,t,1
"RY1","198652","SHERRARD, MATTHEW","WTEC","2019-03-12","2019-05-09","H","full",0,f,0,0,f,0,0,f,0,0,f,0,2.50,t,0.1,32.96,t,1,36.99,t,1,36.84,t,1,33.22,t,1,34.19,t,1,35.39,t,1,30.61,t,1,17.11,t,0.6,0,f,0,0,f,0,0,f,0,0,f,0,0,f,0,0,f,0,0,f,0,0,f,0
"RY1","1126300","SHIREK, NICHOLAS","SALM","2018-02-01","","C","full",0,t,1,0,t,1,0,t,1,0,t,1,0,t,1,0,t,1,0,t,1,0,t,1,0,t,1,0,t,1,0,t,1,0,t,1,0,t,1,0,t,1,0,t,1,0,t,1,0,t,1,0,t,1,0,t,1,0,t,1,0,t,1
"RY1","115896","SHOULTS, DANIEL","SRVM","2017-05-08","","H","full",22.14,t,0.7,40.84,t,1,41.23,t,1,48.62,t,1,38.20,t,1,43.57,t,1,50.04,t,1,41.17,t,1,50.28,t,1,41.02,t,1,50.07,t,1,40.39,t,1,51.00,t,1,49.84,t,1,39.77,t,1,50.61,t,1,41.71,t,1,46.91,t,1,43.95,t,1,50.88,t,1,44.42,t,1
"RY1","197643","SHOWER, DUSTIN","SOFF","2018-08-20","","H","full",40.22,t,1,40.18,t,1,40.39,t,1,32.36,t,1,22.39,t,0.7,40.27,t,1,0,t,0,20.68,t,0.7,14.63,t,0.5,15.05,t,0.5,39.33,t,1,39.82,t,1,38.70,t,1,38.83,t,1,31.29,t,1,38.77,t,1,40.01,t,1,40.00,t,1,38.51,t,1,41.29,t,1,40.25,t,1
"RY1","1126055","SHROYER, RYAN G","PTDR","2013-04-10","2019-04-01","H","full",52.60,t,1,48.47,t,1,44.25,t,1,42.23,t,1,39.74,t,1,43.91,t,1,42.51,t,1,0,t,0,0,f,0,0,f,0,0,f,0,0,f,0,0,f,0,0,f,0,0,f,0,0,f,0,0,f,0,0,f,0,0,f,0,0,f,0,0,f,0
"RY1","1126060","SHUMAKER, MARTIN D","RAY","2013-07-01","","H","full",8.00,t,0.3,0,t,0,0,t,0,32.69,t,1,40.67,t,1,39.54,t,1,40.87,t,1,41.24,t,1,41.98,t,1,35.35,t,1,41.44,t,1,45.76,t,1,46.12,t,1,50.93,t,1,47.04,t,1,45.57,t,1,53.13,t,1,13.76,t,0.5,54.20,t,1,47.07,t,1,47.00,t,1
"RY1","19856","SIEDSCHLAG, JACOB L","PTEC","2019-06-10","","H","part",0,f,0,0,f,0,0,f,0,0,f,0,0,f,0,0,f,0,0,f,0,0,f,0,0,f,0,0,f,0,0,f,0,0,f,0,0,f,0,0,f,0,0,f,0,0,f,0,0,f,0,23.26,t,0.8,16.71,t,0.6,0,t,0,0,t,0
"RY1","198326","SIMMONS, NATHAN","PTEC","2019-05-29","","H","full",0,f,0,0,f,0,0,f,0,0,f,0,0,f,0,0,f,0,0,f,0,0,f,0,0,f,0,0,f,0,0,f,0,0,f,0,0,f,0,0,f,0,0,f,0,32.22,t,1,38.27,t,1,50.57,t,1,41.28,t,1,32.82,t,1,48.48,t,1
"RY1","115676","SINJEM, KATELYNN","CWAS","2017-09-04","","H","full",30.67,t,1,37.49,t,1,30.98,t,1,47.32,t,1,38.60,t,1,38.95,t,1,33.15,t,1,36.71,t,1,34.58,t,1,36.44,t,1,40.19,t,1,23.31,t,0.8,39.86,t,1,40.29,t,1,42.81,t,1,41.59,t,1,28.54,t,1.0,14.91,t,0.5,35.40,t,1,29.23,t,1.0,39.66,t,1
"RY1","167932","SLATOR, ANDREW","PTDR","2019-05-01","","H","full",0,f,0,0,f,0,0,f,0,0,f,0,0,f,0,0,f,0,0,f,0,0,f,0,0,f,0,0,f,0,0,f,0,26.06,t,0.9,47.22,t,1,42.68,t,1,41.37,t,1,39.98,t,1,40.81,t,1,42.20,t,1,41.94,t,1,41.02,t,1,41.00,t,1
"RY1","146803","SMERER, JASON","22","2019-05-20","","H","full",0,f,0,0,f,0,0,f,0,0,f,0,0,f,0,0,f,0,0,f,0,0,f,0,0,f,0,0,f,0,0,f,0,0,f,0,0,f,0,0,f,0,45.10,t,1,42.86,t,1,44.44,t,1,44.42,t,1,42.96,t,1,43.18,t,1,40.67,t,1
"RY1","176430","SMITH, TANER","LOT","2018-05-07","","H","full",53.62,t,1,45.34,t,1,49.43,t,1,42.39,t,1,0,t,0,45.83,t,1,46.83,t,1,43.91,t,1,41.87,t,1,48.07,t,1,35.80,t,1,0,t,0,18.20,t,0.6,40.12,t,1,42.10,t,1,43.28,t,1,43.60,t,1,42.10,t,1,42.04,t,1,43.41,t,1,42.65,t,1
"RY1","152964","SOBERG, NICHOLAS","STEC","2018-08-27","","H","part",41.01,t,1,50.65,t,1,42.02,t,1,41.96,t,1,44.53,t,1,44.54,t,1,48.80,t,1,39.47,t,1,41.89,t,1,21.72,t,0.7,40.96,t,1,47.22,t,1,41.70,t,1,40.68,t,1,52.90,t,1,42.28,t,1,24.78,t,0.8,32.71,t,1,40.31,t,1,40.94,t,1,49.54,t,1
"RY1","1129090","SOBOLIK, DILLON","PTEC","2018-09-24","2019-06-07","H","part",10.72,t,0.4,10.88,t,0.4,5.32,t,0.2,10.88,t,0.4,12.75,t,0.4,10.75,t,0.4,5.46,t,0.2,10.71,t,0.4,9.66,t,0.3,10.98,t,0.4,10.14,t,0.3,5.41,t,0.2,11.47,t,0.4,20.98,t,0.7,10.16,t,0.3,10.55,t,0.4,10.31,t,0.3,0,f,0,0,f,0,0,f,0,0,f,0
"RY1","1129560","SOENKSEN, LINDSEY","CWAS","2017-01-12","","H","full",31.77,t,1,30.08,t,1,32.02,t,1,29.45,t,1.0,30.88,t,1,31.17,t,1,24.92,t,0.8,33.59,t,1,27.34,t,0.9,27.27,t,0.9,31.50,t,1,31.29,t,1,38.16,t,1,34.05,t,1,19.41,t,0.6,35.20,t,1,25.75,t,0.9,22.53,t,0.8,20.15,t,0.7,22.26,t,0.7,22.05,t,0.7
"RY1","1130090","SOLEM, BEN G","PART","2013-09-16","","H","full",41.24,t,1,49.46,t,1,40.67,t,1,40.85,t,1,39.26,t,1,48.81,t,1,60.17,t,1,44.30,t,1,42.71,t,1,40.70,t,1,40.83,t,1,49.64,t,1,39.90,t,1,40.99,t,1,38.95,t,1,41.12,t,1,41.59,t,1,39.86,t,1,46.22,t,1,39.46,t,1,40.71,t,1
"RY1","165428","SOLHEIM, ARIK","RAY","2019-04-15","","S","full",0,f,0,0,f,0,0,f,0,0,f,0,0,f,0,0,f,0,0,f,0,0,f,0,0,f,0,3.00,t,1,0,t,1,0,t,1,0,t,1,0,t,1,0,t,1,0,t,1,0,t,1,0,t,1,0,t,1,0,t,1,0,t,1
"RY1","195623","SORENSEN, MICHAEL","WTEC","2018-09-10","2019-06-04","H","part",21.38,t,0.7,11.11,t,0.4,6.35,t,0.2,11.42,t,0.4,0,t,0,6.91,t,0.2,7.38,t,0.2,2.37,t,0.1,2.13,t,0.1,3.49,t,0.1,3.41,t,0.1,3.72,t,0.1,0,t,0,0,t,0,0,t,0,2.59,t,0.1,1.30,t,0.0,0,f,0,0,f,0,0,f,0,0,f,0
"RY1","154474","SORENSON, THOMAS","CWAS","2017-08-28","","H","part",5.96,t,0.2,6.30,t,0.2,6.32,t,0.2,5.86,t,0.2,4.17,t,0.1,5.91,t,0.2,6.04,t,0.2,4.22,t,0.1,5.49,t,0.2,5.95,t,0.2,5.54,t,0.2,6.37,t,0.2,5.84,t,0.2,5.88,t,0.2,5.67,t,0.2,5.90,t,0.2,6.36,t,0.2,4.44,t,0.1,0,t,0,3.95,t,0.1,4.30,t,0.1
"RY1","1130420","SORUM, ABIGAIL","29","2018-03-09","","H","part",13.29,t,0.4,20.43,t,0.7,18.30,t,0.6,20.32,t,0.7,4.09,t,0.1,2.01,t,0.1,20.51,t,0.7,4.99,t,0.2,19.91,t,0.7,15.88,t,0.5,13.56,t,0.5,20.34,t,0.7,10.26,t,0.3,12.65,t,0.4,23.94,t,0.8,20.85,t,0.7,23.54,t,0.8,34.00,t,1,31.66,t,1,22.35,t,0.7,12.26,t,0.4
"RY1","1130426","SORUM, GREG","29G","1996-01-01","","S","full",0,t,1,0,t,1,0,t,1,0,t,1,0,t,1,0,t,1,0,t,1,0,t,1,0,t,1,0,t,1,0,t,1,0,t,1,0,t,1,0,t,1,0,t,1,0,t,1,0,t,1,0,t,1,0,t,1,0,t,1,0,t,1
"RY1","154783","SORUM, JACOB","22","2019-06-03","","S","full",0,f,0,0,f,0,0,f,0,0,f,0,0,f,0,0,f,0,0,f,0,0,f,0,0,f,0,0,f,0,0,f,0,0,f,0,0,f,0,0,f,0,0,f,0,0,f,0,36.92,t,1,45.58,t,1,40.23,t,1,37.36,t,1,0,t,1
"RY1","1130430","SORUM, MICHAEL J","29","2002-11-04","","H","full",29.18,t,1.0,27.41,t,0.9,36.70,t,1,38.23,t,1,32.06,t,1,52.67,t,1,46.89,t,1,28.47,t,0.9,28.57,t,1.0,28.22,t,0.9,25.02,t,0.8,30.00,t,1,26.83,t,0.9,29.97,t,1.0,28.55,t,1.0,26.19,t,0.9,29.72,t,1.0,37.87,t,1,44.53,t,1,48.97,t,1,48.31,t,1
"RY1","198423","SPENCER, KADE","CWAS","2019-02-11","2019-04-20","H","part",12.79,t,0.4,16.63,t,0.6,6.37,t,0.2,0,t,0,0,t,0,6.22,t,0.2,6.62,t,0.2,0,t,0,5.76,t,0.2,5.99,t,0.2,0,f,0,0,f,0,0,f,0,0,f,0,0,f,0,0,f,0,0,f,0,0,f,0,0,f,0,0,f,0,0,f,0
"RY1","156874","SQUIRES, SHAWN","RAY","2017-11-06","2019-04-05","S","full",0,t,1,0,t,1,0,t,1,0,t,1,0,t,1,0,t,1,0,t,1,0,t,1,0,f,0,0,f,0,0,f,0,0,f,0,0,f,0,0,f,0,0,f,0,0,f,0,0,f,0,0,f,0,0,f,0,0,f,0,0,f,0
"RY1","1130690","STADSTAD, LARRY O","SALE","2015-01-01","","C","full",0,t,1,0,t,1,0,t,1,0,t,1,0,t,1,0,t,1,0,t,1,0,t,1,0,t,1,0,t,1,0,t,1,0,t,1,0,t,1,0,t,1,0,t,1,0,t,1,0,t,1,0,t,1,0,t,1,0,t,1,0,t,1
"RY1","1130700","STALLMO, RICHARD D","SRVM","2009-09-16","","H","full",44.36,t,1,42.75,t,1,42.46,t,1,39.59,t,1,40.00,t,1,33.93,t,1,41.87,t,1,38.67,t,1,41.56,t,1,39.65,t,1,41.50,t,1,42.70,t,1,38.66,t,1,42.88,t,1,39.83,t,1,41.34,t,1,42.54,t,1,41.09,t,1,42.81,t,1,41.94,t,1,41.36,t,1
"RY1","1132205","STEIN, DONALD W","PTDR","2012-08-13","","H","full",53.63,t,1,43.16,t,1,41.74,t,1,41.04,t,1,36.19,t,1,64.58,t,1,40.23,t,1,37.55,t,1,45.96,t,1,43.26,t,1,44.65,t,1,41.13,t,1,42.21,t,1,41.97,t,1,40.88,t,1,39.55,t,1,40.55,t,1,46.38,t,1,37.43,t,1,36.25,t,1,39.78,t,1
"RY1","1132590","STINAR, CORY","STL","2013-06-13","","H","full",48.48,t,1,53.48,t,1,40.56,t,1,44.24,t,1,42.37,t,1,52.15,t,1,43.73,t,1,43.19,t,1,42.86,t,1,52.71,t,1,44.13,t,1,44.59,t,1,44.93,t,1,51.62,t,1,44.33,t,1,43.35,t,1,43.31,t,1,40.18,t,1,48.72,t,1,40.00,t,1,42.12,t,1
"RY1","1132595","STINAR, DANIEL M","PTSM","2009-12-15","","S","full",0,t,1,0,t,1,0,t,1,0,t,1,0,t,1,0,t,1,0,t,1,0,t,1,0,t,1,0,t,1,0,t,1,0,t,1,0,t,1,0,t,1,0,t,1,0,t,1,0,t,1,0,t,1,0,t,1,0,t,1,0,t,1
"RY1","1132600","STOLEY, BETHANY","16","2015-11-12","","H","part",8.14,t,0.3,10.79,t,0.4,8.16,t,0.3,15.14,t,0.5,0,t,0,8.22,t,0.3,17.65,t,0.6,17.87,t,0.6,8.17,t,0.3,11.24,t,0.4,8.18,t,0.3,4.04,t,0.1,12.16,t,0.4,8.06,t,0.3,8.20,t,0.3,10.81,t,0.4,0,t,0,0,t,0,0,t,0,0,t,0,0,t,0
"RY1","1132700","STOUT, RICK","TEAM","2016-08-29","","C","full",0,t,1,24.00,t,1,0,t,1,0,t,1,0,t,1,0,t,1,0,t,1,0,t,1,0,t,1,0,t,1,0,t,1,0,t,1,0,t,1,0,t,1,0,t,1,0,t,1,0,t,1,40.00,t,1,0,t,1,0,t,1,0,t,1
"RY1","1133500","STRANDELL, TRAVIS J","STEC","2011-04-12","","C","full",33.10,t,1,37.11,t,1,35.83,t,1,38.22,t,1,42.17,t,1,45.50,t,1,41.93,t,1,28.49,t,0.9,45.21,t,1,43.85,t,1,46.62,t,1,46.59,t,1,37.65,t,1,41.36,t,1,41.85,t,1,42.10,t,1,39.93,t,1,41.91,t,1,36.34,t,1,38.60,t,1,39.75,t,1
"RY1","115355","STRAND, JETTIE","CWAS","2017-04-12","","H","part",25.61,t,0.9,19.09,t,0.6,20.32,t,0.7,32.60,t,1,50.72,t,1,31.39,t,1,16.71,t,0.6,30.45,t,1,30.12,t,1,14.33,t,0.5,38.66,t,1,31.99,t,1,33.47,t,1,35.97,t,1,50.32,t,1,22.16,t,0.7,31.53,t,1,37.55,t,1,31.67,t,1,40.15,t,1,39.26,t,1
"RY1","143659","STRAUS, TYLER","WTEC","2018-04-11","","C","part",8.20,t,0.3,20.62,t,0.7,12.10,t,0.4,7.56,t,0.3,4.72,t,0.2,19.07,t,0.6,8.42,t,0.3,21.52,t,0.7,12.03,t,0.4,9.75,t,0.3,21.34,t,0.7,7.41,t,0.2,12.33,t,0.4,31.66,t,1,16.13,t,0.5,7.85,t,0.3,31.92,t,1,16.09,t,0.5,8.04,t,0.3,32.59,t,1,16.19,t,0.5
"RY1","1133727","STREETER, TIMOTHY","PTDR","2007-03-28","","H","full",51.69,t,1,58.04,t,1,47.50,t,1,54.10,t,1,52.25,t,1,54.48,t,1,52.93,t,1,51.14,t,1,47.52,t,1,60.39,t,1,40.34,t,1,50.03,t,1,46.55,t,1,43.54,t,1,46.54,t,1,52.84,t,1,55.66,t,1,51.92,t,1,40.00,t,1,55.26,t,1,49.68,t,1
"RY1","16250","STREITZ, DANIELLE M","PART","2011-09-12","","H","full",31.19,t,1,39.74,t,1,36.74,t,1,37.46,t,1,30.71,t,1,21.74,t,0.7,39.85,t,1,38.40,t,1,30.93,t,1,37.92,t,1,39.56,t,1,38.04,t,1,36.72,t,1,38.09,t,1,45.69,t,1,44.67,t,1,38.66,t,1,34.67,t,1,27.87,t,0.9,34.68,t,1,39.59,t,1
"RY1","132658","STROPNICKY, DAVE","RAY","2019-02-11","2019-04-10","H","full",45.83,t,1,38.92,t,1,40.02,t,1,39.50,t,1,32.11,t,1,41.89,t,1,40.21,t,1,40.02,t,1,-0.50,t,0.0,0,f,0,0,f,0,0,f,0,0,f,0,0,f,0,0,f,0,0,f,0,0,f,0,0,f,0,0,f,0,0,f,0,0,f,0
"RY1","143769","SUNDBY, AMANDA","OPE","2019-06-03","","H","full",0,f,0,0,f,0,0,f,0,0,f,0,0,f,0,0,f,0,0,f,0,0,f,0,0,f,0,0,f,0,0,f,0,0,f,0,0,f,0,0,f,0,0,f,0,0,f,0,39.57,t,1,40.43,t,1,40.18,t,1,39.09,t,1,45.41,t,1
"RY1","145972","SVENSON, JAMES","LOT","2018-04-11","","H","part",4.81,t,0.2,10.14,t,0.3,4.14,t,0.1,0,t,0,3.25,t,0.1,0,t,0,0,t,0,3.40,t,0.1,5.30,t,0.2,1.27,t,0.0,2.29,t,0.1,2.66,t,0.1,2.43,t,0.1,2.34,t,0.1,21.81,t,0.7,22.90,t,0.8,17.58,t,0.6,5.85,t,0.2,13.69,t,0.5,11.61,t,0.4,0,t,0
"RY1","128945","SWANSON, ZACHARY","PTEC","2018-09-11","","H","full",48.31,t,1,52.43,t,1,49.44,t,1,58.81,t,1,42.98,t,1,50.72,t,1,41.32,t,1,51.30,t,1,44.32,t,1,60.65,t,1,43.62,t,1,54.50,t,1,40.66,t,1,53.32,t,1,42.07,t,1,56.14,t,1,44.90,t,1,52.28,t,1,41.64,t,1,31.71,t,1,52.41,t,1
"RY1","1135265","SYMONS, ELIZABETH R","29","2012-12-27","","S","full",0,t,1,0,t,1,0,t,1,0,t,1,0,t,1,0,t,1,0,t,1,0,t,1,0,t,1,0,t,1,0,t,1,0,t,1,0,t,1,0,t,1,0,t,1,0,t,1,0,t,1,0,t,1,0,t,1,0,t,1,0,t,1
"RY1","1135260","SYMONS, STEVEN","11","2010-11-22","","S","full",0,t,1,0,t,1,0,t,1,0,t,1,0,t,1,0,t,1,0,t,1,0,t,1,0,t,1,0,t,1,0,t,1,0,t,1,0,t,1,0,t,1,0,t,1,0,t,1,0,t,1,0,t,1,0,t,1,0,t,1,0,t,1
"RY1","1135410","SYVERSON, JOSHUA L","STEC","2012-06-11","","C","full",50.75,t,1,40.00,t,1,52.85,t,1,46.64,t,1,46.15,t,1,46.51,t,1,46.91,t,1,57.66,t,1,49.84,t,1,44.75,t,1,46.89,t,1,46.16,t,1,57.10,t,1,46.35,t,1,46.76,t,1,44.10,t,1,47.19,t,1,55.99,t,1,45.58,t,1,44.88,t,1,44.94,t,1
"RY1","1135450","TAMANG, CHATUR S","PTEC","2014-10-23","2019-06-01","H","part",9.34,t,0.3,20.13,t,0.7,20.80,t,0.7,21.37,t,0.7,19.30,t,0.6,20.69,t,0.7,20.89,t,0.7,21.15,t,0.7,21.22,t,0.7,11.21,t,0.4,29.53,t,1.0,41.78,t,1,43.77,t,1,32.06,t,1,46.59,t,1,37.26,t,1,0,f,0,0,f,0,0,f,0,0,f,0,0,f,0
"RY1","1141210","TANDESKI, HEATHER M","14","2014-06-02","2019-06-14","H","full",36.10,t,1,29.26,t,1.0,45.12,t,1,39.46,t,1,37.89,t,1,37.49,t,1,42.75,t,1,39.10,t,1,38.82,t,1,24.00,t,0.8,38.24,t,1,39.28,t,1,37.63,t,1,25.49,t,0.8,43.14,t,1,41.29,t,1,38.24,t,1,36.42,t,1,0,f,0,0,f,0,0,f,0
"RY1","1135518","TARR, JEFF D","SALE","1993-11-01","","C","full",0,t,1,0,t,1,0,t,1,24.00,t,1,40.00,t,1,0,t,1,0,t,1,0,t,1,0,t,1,0,t,1,0,t,1,0,t,1,0,t,1,0,t,1,0,t,1,0,t,1,0,t,1,0,t,1,0,t,1,0,t,1,0,t,1
"RY1","1135710","TELKEN, WYATT","WTEC","2017-06-28","","C","full",21.15,t,0.7,40.55,t,1,40.60,t,1,23.94,t,0.8,32.12,t,1,40.00,t,1,45.43,t,1,28.67,t,1.0,27.95,t,0.9,38.52,t,1,39.21,t,1,40.27,t,1,26.15,t,0.9,33.63,t,1,46.35,t,1,41.64,t,1,47.28,t,1,50.58,t,1,42.31,t,1,38.89,t,1,39.25,t,1
"RY1","123654","THIBERT, MASON","PTDR","2018-08-13","2019-04-27","H","full",37.12,t,1,40.65,t,1,40.40,t,1,43.15,t,1,26.01,t,0.9,40.86,t,1,25.70,t,0.9,34.09,t,1,34.73,t,1,39.62,t,1,42.17,t,1,0,f,0,0,f,0,0,f,0,0,f,0,0,f,0,0,f,0,0,f,0,0,f,0,0,f,0,0,f,0
"RY1","1137590","THOMPSON, WYATT","STEC","2007-05-14","","C","full",49.56,t,1,59.53,t,1,50.16,t,1,49.99,t,1,50.56,t,1,48.80,t,1,49.80,t,1,39.14,t,1,46.49,t,1,46.06,t,1,46.67,t,1,39.37,t,1,45.82,t,1,44.63,t,1,47.31,t,1,42.57,t,1,43.69,t,1,44.69,t,1,42.14,t,1,42.73,t,1,43.00,t,1
"RY1","1138125","THORSON, LYLE","DRI","2006-11-02","","H","part",9.50,t,0.3,2.50,t,0.1,0,t,0,2.00,t,0.1,0,t,0,0,t,0,0,t,0,0,t,0,0,t,0,10.50,t,0.4,0,t,0,4.00,t,0.1,0,t,0,0,t,0,0,t,0,0,t,0,0,t,0,0,t,0,0,t,0,0,t,0,0,t,0
"RY1","197560","TISI, CATHERINE","PDQW","2019-06-26","","H","part",0,f,0,0,f,0,0,f,0,0,f,0,0,f,0,0,f,0,0,f,0,0,f,0,0,f,0,0,f,0,0,f,0,0,f,0,0,f,0,0,f,0,0,f,0,0,f,0,0,f,0,0,f,0,0,f,0,9.07,t,0.3,33.74,t,1
"RY1","165287","TOMLIN, LUNDEAN","PTDR","2018-12-17","","H","full",45.51,t,1,41.20,t,1,40.07,t,1,46.11,t,1,35.42,t,1,46.22,t,1,41.64,t,1,39.94,t,1,35.60,t,1,41.72,t,1,44.88,t,1,42.85,t,1,40.86,t,1,46.11,t,1,50.73,t,1,42.26,t,1,42.80,t,1,24.57,t,0.8,7.76,t,0.3,38.81,t,1,40.68,t,1
"RY1","134956","TORGERSON, JOSEPH","WTEC","2019-01-28","","H","part",16.28,t,0.5,21.41,t,0.7,17.69,t,0.6,0,t,0,0,t,0,25.65,t,0.9,26.67,t,0.9,24.40,t,0.8,17.53,t,0.6,18.41,t,0.6,23.69,t,0.8,21.48,t,0.7,24.37,t,0.8,0,t,0,0,t,0,0,t,0,0,t,0,0,t,0,0,t,0,0,t,0,0,t,0
"RY1","1140870","TROFTGRUBEN, RODNEY","STL","1992-08-03","","H","full",61.74,t,1,49.27,t,1,48.92,t,1,49.74,t,1,59.38,t,1,50.90,t,1,47.53,t,1,49.60,t,1,55.35,t,1,49.49,t,1,44.48,t,1,49.05,t,1,48.24,t,1,47.53,t,1,47.15,t,1,47.97,t,1,46.37,t,1,46.20,t,1,48.46,t,1,48.43,t,1,47.16,t,1
"RY1","1143575","TROST, SETH","16","2017-01-16","","H","part",16.92,t,0.6,16.89,t,0.6,7.94,t,0.3,8.05,t,0.3,41.50,t,1,7.96,t,0.3,14.89,t,0.5,16.96,t,0.6,10.93,t,0.4,0,t,0,0,t,0,0,t,0,0,t,0,0,t,0,0,t,0,0,t,0,0,t,0,0,t,0,0,t,0,0,t,0,0,t,0
"RY1","154982","TUCHTENHAGEN, ADAM","SALE","2019-07-01","","C","full",0,f,0,0,f,0,0,f,0,0,f,0,0,f,0,0,f,0,0,f,0,0,f,0,0,f,0,0,f,0,0,f,0,0,f,0,0,f,0,0,f,0,0,f,0,0,f,0,0,f,0,0,f,0,0,f,0,0,f,0,0,t,1
"RY1","195231","TURNER, RICHARD J","SALE","2018-12-31","","C","full",0,t,1,0,t,1,0,t,1,0,t,1,0,t,1,0,t,1,0,t,1,0,t,1,0,t,1,0,t,1,0,t,1,0,t,1,0,t,1,0,t,1,0,t,1,0,t,1,0,t,1,0,t,1,0,t,1,0,t,1,0,t,1
"RY1","175642","VANCAMP, KEVIN S","SALE","2018-01-29","","C","full",0,t,1,0,t,1,0,t,1,0,t,1,0,t,1,0,t,1,0,t,1,0,t,1,0,t,1,0,t,1,0,t,1,0,t,1,0,t,1,0,t,1,40.00,t,1,0,t,1,0,t,1,0,t,1,0,t,1,0,t,1,0,t,1
"RY1","1144265","VANHESTE II, FRED E","PART","2007-05-15","","H","full",31.53,t,1,42.01,t,1,43.66,t,1,40.62,t,1,40.22,t,1,39.96,t,1,40.14,t,1,40.05,t,1,40.32,t,1,40.19,t,1,50.05,t,1,51.57,t,1,39.92,t,1,40.61,t,1,40.22,t,1,40.00,t,1,41.78,t,1,43.99,t,1,49.71,t,1,49.49,t,1,40.09,t,1
"RY1","122369","VANHORNE, JAY","WTEC","2017-04-10","2019-05-31","C","full",38.42,t,1,35.30,t,1,37.81,t,1,36.54,t,1,39.43,t,1,28.63,t,1.0,29.93,t,1.0,32.13,t,1,0,t,0,45.16,t,1,34.99,t,1,35.00,t,1,33.34,t,1,28.92,t,1.0,32.93,t,1,37.10,t,1,0,f,0,0,f,0,0,f,0,0,f,0,0,f,0
"RY1","178543","VANYO, DAVID","SALE","2017-12-18","","C","full",0,t,1,0,t,1,0,t,1,0,t,1,0,t,1,0,t,1,0,t,1,40.00,t,1,0,t,1,0,t,1,0,t,1,0,t,1,0,t,1,0,t,1,0,t,1,0,t,1,0,t,1,0,t,1,0,t,1,0,t,1,16.00,t,1
"RY1","1144901","VELA, GEORGE","PTEC","2016-04-11","2019-02-13","H","full",17.57,t,0.6,0,f,0,0,f,0,0,f,0,0,f,0,0,f,0,0,f,0,0,f,0,0,f,0,0,f,0,0,f,0,0,f,0,0,f,0,0,f,0,0,f,0,0,f,0,0,f,0,0,f,0,0,f,0,0,f,0,0,f,0
"RY1","15646","VELA, JUAN CARLOS","PTSR","2017-10-23","","H","full",54.10,t,1,53.12,t,1,52.94,t,1,54.65,t,1,40.09,t,1,52.52,t,1,42.53,t,1,40.53,t,1,38.21,t,1,47.05,t,1,42.33,t,1,39.45,t,1,46.43,t,1,40.38,t,1,40.81,t,1,41.45,t,1,41.45,t,1,42.11,t,1,50.22,t,1,54.60,t,1,40.11,t,1
"RY1","1145660","VIEN, NORMAN A","22","2007-07-27","","H","full",46.79,t,1,41.41,t,1,48.10,t,1,49.07,t,1,46.74,t,1,48.89,t,1,28.81,t,1.0,49.37,t,1,7.07,t,0.2,0,t,0,48.19,t,1,31.00,t,1,43.17,t,1,46.37,t,1,50.59,t,1,48.07,t,1,41.77,t,1,29.84,t,1.0,50.57,t,1,52.01,t,1,48.69,t,1
"RY1","1146751","WAGENER, SAMUEL L","25","2014-01-01","","S","full",0,t,1,0,t,1,0,t,1,0,t,1,0,t,1,0,t,1,0,t,1,0,t,1,0,t,1,0,t,1,0,t,1,0,t,1,0,t,1,0,t,1,0,t,1,0,t,1,0,t,1,0,t,1,0,t,1,0,t,1,0,t,1
"RY1","1146989","WALDBAUER, ALEX","STEC","2007-08-29","","C","full",45.91,t,1,42.44,t,1,45.09,t,1,48.39,t,1,36.77,t,1,41.30,t,1,46.73,t,1,37.55,t,1,42.15,t,1,47.92,t,1,43.39,t,1,42.38,t,1,48.83,t,1,42.72,t,1,40.26,t,1,46.61,t,1,43.61,t,1,42.75,t,1,45.45,t,1,41.06,t,1,40.38,t,1
"RY1","1146991","WALDEN, CHRIS W","BTEC","1994-09-06","","C","full",43.42,t,1,47.07,t,1,44.00,t,1,44.03,t,1,42.81,t,1,44.64,t,1,44.72,t,1,44.97,t,1,36.27,t,1,42.41,t,1,44.37,t,1,42.24,t,1,43.55,t,1,44.37,t,1,43.77,t,1,40.00,t,1,40.00,t,1,42.73,t,1,40.31,t,1,43.37,t,1,44.32,t,1
"RY1","1147062","WALIOR, SUSAN E","NCR","1997-03-03","","S","full",45.95,t,1,45.05,t,1,46.51,t,1,21.74,t,1,50.14,t,1,51.52,t,1,49.33,t,1,47.64,t,1,21.42,t,1,41.62,t,1,50.58,t,1,40.86,t,1,48.63,t,1,44.73,t,1,54.10,t,1,38.04,t,1,47.57,t,1,48.85,t,1,44.97,t,1,48.48,t,1,37.17,t,1
"RY1","132975","WALKER, BRYCE","STEC","2019-05-13","","H","part",0,f,0,0,f,0,0,f,0,0,f,0,0,f,0,0,f,0,0,f,0,0,f,0,0,f,0,0,f,0,0,f,0,0,f,0,0,f,0,22.71,t,0.8,32.15,t,1,34.45,t,1,37.47,t,1,32.08,t,1,36.22,t,1,44.00,t,1,36.87,t,1
"RY1","176439","WALKINGEAGLE, SHAY","WTEC","2019-03-26","","H","full",0,f,0,0,f,0,0,f,0,0,f,0,0,f,0,0,f,0,1.00,t,0.0,17.88,t,0.6,10.45,t,0.3,14.22,t,0.5,21.35,t,0.7,19.24,t,0.6,26.02,t,0.9,22.65,t,0.8,23.88,t,0.8,28.55,t,1.0,18.78,t,0.6,20.62,t,0.7,24.38,t,0.8,25.23,t,0.8,29.16,t,1.0
"RY1","1147061","WALTON, JOSHUA","BTEC","2006-12-27","","C","full",38.70,t,1,40.55,t,1,40.62,t,1,42.56,t,1,40.90,t,1,42.24,t,1,40.65,t,1,42.17,t,1,39.18,t,1,40.13,t,1,40.20,t,1,43.54,t,1,40.79,t,1,42.69,t,1,41.03,t,1,40.74,t,1,42.23,t,1,41.10,t,1,42.17,t,1,39.58,t,1,41.39,t,1
"RY1","1147250","WARMACK, JAMES H","SALE","2011-04-02","","C","full",32.00,t,1,0,t,1,0,t,1,0,t,1,0,t,1,0,t,1,0,t,1,0,t,1,0,t,1,0,t,1,0,t,1,0,t,1,0,t,1,0,t,1,0,t,1,32.00,t,1,0,t,1,0,t,1,0,t,1,0,t,1,0,t,1
"RY1","165872","WATERBURY, MOLLY","OPE","2019-05-07","","H","full",0,f,0,0,f,0,0,f,0,0,f,0,0,f,0,0,f,0,0,f,0,0,f,0,0,f,0,0,f,0,0,f,0,0,f,0,32.60,t,1,40.86,t,1,40.77,t,1,40.43,t,1,40.36,t,1,38.91,t,1,39.47,t,1,39.50,t,1,33.07,t,1
"RY1","169542","WEBER, BRANDON","SALE","2019-04-15","","C","part",0,f,0,0,f,0,0,f,0,0,f,0,0,f,0,0,f,0,0,f,0,0,f,0,1.00,f,0,0,t,1,0,t,1,0,t,1,0,t,1,0,t,1,0,t,1,0,t,1,0,t,1,0,t,1,35.00,t,1,4.74,t,1,34.37,t,1
"RY1","1147810","WEBER, JAMES A","SALE","2011-10-10","","C","full",0,t,1,0,t,1,0,t,1,0,t,1,24.00,t,1,0,t,1,0,t,1,0,t,1,0,t,1,16.00,t,1,0,t,1,0,t,1,0,t,1,0,t,1,0,t,1,0,t,1,0,t,1,0,t,1,0,t,1,0,t,1,0,t,1
"RY1","132574","WEIGEL, KAYDRA","OPE","2019-05-13","","H","part",0,f,0,0,f,0,0,f,0,0,f,0,0,f,0,0,f,0,0,f,0,0,f,0,0,f,0,0,f,0,0,f,0,0,f,0,0,f,0,3.75,t,0.1,7.83,t,0.3,15.80,t,0.5,12.35,t,0.4,21.40,t,0.7,21.20,t,0.7,16.97,t,0.6,12.23,t,0.4
"RY1","163278","WILDE, HUNTER","WTEC","2019-06-03","","H","full",0,f,0,0,f,0,0,f,0,0,f,0,0,f,0,0,f,0,0,f,0,0,f,0,0,f,0,0,f,0,0,f,0,0,f,0,0,f,0,0,f,0,0,f,0,0,f,0,28.48,t,0.9,33.66,t,1,6.39,t,0.2,30.25,t,1,28.67,t,1.0
"RY1","156882","WILEBSKI, LOGAN","PTEC","2018-10-15","2019-04-12","H","full",30.40,t,1,36.79,t,1,29.88,t,1.0,27.81,t,0.9,23.48,t,0.8,33.38,t,1,22.43,t,0.7,34.71,t,1,34.45,t,1,0,f,0,0,f,0,0,f,0,0,f,0,0,f,0,0,f,0,0,f,0,0,f,0,0,f,0,0,f,0,0,f,0,0,f,0
"RY1","1149160","WILKENING, RONALD","DRI","2011-01-01","","H","part",30.00,t,1,20.00,t,0.7,0,t,0,0,t,0,0,t,0,9.00,t,0.3,7.00,t,0.2,18.50,t,0.6,7.50,t,0.3,14.50,t,0.5,12.50,t,0.4,8.00,t,0.3,0,t,0,0,t,0,14.50,t,0.5,0,t,0,0,t,0,0,t,0,3.00,t,0.1,12.50,t,0.4,0,t,0
"RY1","1149180","WILKIE, DAVID","USED","1978-05-17","","C","full",0,t,1,0,t,1,0,t,1,0,t,1,0,t,1,0,t,1,0,t,1,0,t,1,0,t,1,0,t,1,0,t,1,0,t,1,0,t,1,0,t,1,0,t,1,0,t,1,0,t,1,0,t,1,0,t,1,0,t,1,0,t,1
"RY1","198753","WILSON, ORA","SALE","2019-04-15","2019-05-20","H","full",0,f,0,0,f,0,0,f,0,0,f,0,0,f,0,0,f,0,0,f,0,0,f,0,0,f,0,35.25,t,1,27.63,t,0.9,32.24,t,1,31.42,t,1,35.62,t,1,1.75,t,0.1,0,f,0,0,f,0,0,f,0,0,f,0,0,f,0,0,f,0
"RY1","1149300","WINKLER, ZACHARY S","STEC","2014-05-19","","C","full",43.30,t,1,62.91,t,1,62.29,t,1,43.53,t,1,42.06,t,1,32.31,t,1,38.52,t,1,40.06,t,1,40.55,t,1,31.52,t,1,44.66,t,1,56.34,t,1,49.57,t,1,42.37,t,1,40.00,t,1,41.32,t,1,56.42,t,1,44.40,t,1,38.46,t,1,41.90,t,1,43.19,t,1
"RY1","1149636","WINZER, CHRISTOPHER L","WTEC","2007-06-25","","H","full",46.92,t,1,41.18,t,1,43.99,t,1,44.67,t,1,42.37,t,1,46.70,t,1,40.59,t,1,46.14,t,1,41.46,t,1,45.72,t,1,45.85,t,1,43.82,t,1,43.69,t,1,45.11,t,1,43.55,t,1,43.91,t,1,44.56,t,1,45.30,t,1,44.69,t,1,42.65,t,1,40.00,t,1
"RY1","1149710","WOINAROWICZ, EMILEE M","SOFF","2013-07-29","","H","full",43.72,t,1,43.82,t,1,38.58,t,1,42.02,t,1,47.94,t,1,40.87,t,1,45.21,t,1,40.84,t,1,41.93,t,1,41.85,t,1,40.62,t,1,44.55,t,1,43.35,t,1,41.11,t,1,22.55,t,0.8,39.46,t,1,40.78,t,1,41.46,t,1,41.27,t,1,39.92,t,1,31.91,t,1
"RY1","196347","WOODS, JACK","CWAS","2019-02-11","2019-05-18","H","part",7.00,t,0.2,0,t,0,8.19,t,0.3,0,t,0,7.64,t,0.3,0,t,0,0,t,0,0,t,0,0,t,0,0,t,0,0,t,0,7.23,t,0.2,7.34,t,0.2,6.00,t,0.2,0,f,0,0,f,0,0,f,0,0,f,0,0,f,0,0,f,0,0,f,0
"RY1","115021","WOODS, SCOTT","STL","2019-06-24","","H","full",0,f,0,0,f,0,0,f,0,0,f,0,0,f,0,0,f,0,0,f,0,0,f,0,0,f,0,0,f,0,0,f,0,0,f,0,0,f,0,0,f,0,0,f,0,0,f,0,0,f,0,0,f,0,0,f,0,37.90,t,1,41.53,t,1
"RY1","1150510","YEM, RITHY M","94","2013-04-29","","S","full",0,t,1,0,t,1,0,t,1,0,t,1,0,t,1,0,t,1,0,t,1,0,t,1,0,t,1,0,t,1,0,t,1,0,t,1,0,t,1,0,t,1,0,t,1,0,t,1,0,t,1,0,t,1,0,t,1,0,t,1,0,t,1
"RY1","1151450","YUNKER, GEORGE P","SALE","2016-09-26","","C","full",0,t,1,0,t,1,0,t,1,32.00,t,1,16.00,t,1,0,t,1,0,t,1,0,t,1,24.00,t,1,16.00,t,1,0,t,1,0,t,1,0,t,1,0,t,1,0,t,1,16.00,t,1,0,t,1,0,t,1,0,t,1,0,t,1,0,t,1
"RY1","1150920","ZACHA, CHARLES J","STEC","2014-12-29","","C","full",46.77,t,1,29.94,t,1.0,33.21,t,1,37.19,t,1,41.42,t,1,40.10,t,1,39.00,t,1,37.24,t,1,42.56,t,1,31.53,t,1,36.75,t,1,32.83,t,1,27.82,t,0.9,36.39,t,1,28.31,t,0.9,37.67,t,1,30.32,t,1,25.68,t,0.9,29.22,t,1.0,31.08,t,1,30.61,t,1
"RY1","111568","ZEMAN, HUNTER","PTSR","2017-03-27","","H","full",33.64,t,1,36.60,t,1,41.22,t,1,43.51,t,1,40.81,t,1,41.78,t,1,37.67,t,1,26.52,t,0.9,37.94,t,1,39.52,t,1,33.92,t,1,36.34,t,1,45.12,t,1,16.57,t,0.6,23.13,t,0.8,39.51,t,1,40.89,t,1,42.44,t,1,37.79,t,1,43.99,t,1,39.17,t,1
"RY1","1160100","ZOELLICK, STEVE","OFF","2013-01-01","","S","full",0,t,1,0,t,1,0,t,1,0,t,1,0,t,1,0,t,1,0,t,1,0,t,1,0,t,1,0,t,1,0,t,1,0,t,1,0,t,1,0,t,1,0,t,1,0,t,1,0,t,1,0,t,1,0,t,1,0,t,1,0,t,1
"RY1","1122445","ZUNIGA, FELIX","PTEC","2018-01-23","","H","full",33.62,t,1,40.10,t,1,32.77,t,1,26.36,t,0.9,32.03,t,1,45.72,t,1,37.44,t,1,32.56,t,1,47.62,t,1,60.06,t,1,30.24,t,1,37.57,t,1,30.99,t,1,43.99,t,1,41.25,t,1,33.75,t,1,28.13,t,0.9,34.41,t,1,36.33,t,1,40.00,t,1,43.97,t,1
"z","z","","","","","","",,,291.4,,,289.0,,,291.6,,,285.8,,,276.1,,,288.3,,,284.6,,,289.4,,,280.8,,,281.8,,,285.3,,,280.8,,,283.5,,,284.6,,,281.0,,,282.5,,,285.4,,,284.8,,,286.4,,,288.5,,,286.5
