"store","employee_number","name","term_date","payroll_class","active_code","row_from_date"
"RY1","187564","BEHM, PAUL","9999-12-31","C","A","2019-07-11"
"RY1","187564","BEHM, PAUL","9999-12-31","H","A","2020-01-23"
"RY1","15648","DIBI, ANDREW","9999-12-31","C","A","2019-07-27"
"RY1","15648","DIBI, ANDREW","9999-12-31","H","A","2020-02-11"
"RY1","175393","ERICKSON, JUSTIN","9999-12-31","H","P","2019-11-22"
"RY1","175393","ERICKSON, JUSTIN","9999-12-31","C","P","2020-02-26"
"RY1","159863","FERRY, CARTER","9999-12-31","H","A","2019-12-24"
"RY1","159863","FERRY, CARTER","9999-12-31","C","A","2020-03-03"
"RY1","184620","JOHNSON, BENJAMIN R","9999-12-31","C","A","2019-03-28"
"RY1","184620","JOHNSON, BENJAMIN R","9999-12-31","H","A","2020-02-26"
"RY1","184614","LAMONT, BRANDON","9999-12-31","C","A","2018-08-23"
"RY1","184614","LAMONT, BRANDON","9999-12-31","H","A","2020-02-26"
"RY1","174384","MOGAVERO, MICHAEL","9999-12-31","H","A","2019-09-25"
"RY1","174384","MOGAVERO, MICHAEL","9999-12-31","C","A","2020-03-19"
"RY1","1111325","POWELL, GAYLA R","9999-12-31","H","A","2019-03-19"
"RY1","1111325","POWELL, GAYLA R","9999-12-31","S","A","2020-03-19"
"RY1","1117901","ROGERS, MITCH A","9999-12-31","C","A","2018-08-23"
"RY1","1117901","ROGERS, MITCH A","9999-12-31","H","A","2020-01-21"
"RY2","256845","SUTHERLAND, BROOKE","9999-12-31","S","A","2019-06-13"
"RY2","256845","SUTHERLAND, BROOKE","9999-12-31","H","A","2020-03-10"
"RY1","163278","WILDE, HUNTER","9999-12-31","H","A","2019-06-04"
"RY1","163278","WILDE, HUNTER","9999-12-31","C","A","2020-01-03"
"RY1","1150920","ZACHA, CHARLES J","9999-12-31","C","A","2018-08-23"
"RY1","1150920","ZACHA, CHARLES J","9999-12-31","H","A","2020-03-10"
