"store","employee_number","name","term_date","payroll_class","full_part","1/1-1/4","1/5-1/11","1/12-1/18","1/19-1/25","1/26-2/1","2/2-2/8","2/9-2-15","2/16-2/22","2/23-2/29","3/1-3/7","3/8-3/14","3/15-3/21","3/22-3/28","3/29-3/31"
"RY1","168573","AAMODT, MATTHEW","","H","full",0,40.28,40.87,44.19,52.94,43.16,43.68,34.70,47.10,42.91,43.25,50.32,42.33,14.76
"RY1","143769","AANENSON, AMANDA","","H","full",0,23.96,32.70,43.82,39.59,39.55,39.92,32.41,39.91,38.51,32.55,35.97,40.33,17.68
"RY1","159876","AANENSON, GENE","","H","part",0,0,3.50,0,12.50,0,0,3.50,14.00,0,18.00,0,0,0
"RY1","11660","ADAM, PATRICK","","C","full",0,59.26,47.84,43.81,50.16,57.80,48.14,50.05,0.00,50.30,47.91,49.75,49.53,18.96
"RY1","197642","ADHIKARI, OM","","H","full",0,40.76,40.78,40.80,41.09,40.77,40.67,40.69,40.66,40.85,41.07,41.00,37.01,16.41
"RY1","11732","AGUILAR, ANNA","","H","full",0,11.97,36.32,40.63,40.94,40.18,41.05,40.87,36.42,39.41,34.91,40.73,40.81,15.89
"RY1","10568","AKER, CADEN","","H","full",0,56.64,49.17,52.87,24.99,51.94,40.65,30.32,44.92,9.07,15.58,22.14,26.53,9.52
"RY1","175398","ALLARD, BROCK","","H","part",0,15.20,7.36,6.81,13.78,6.47,12.28,14.71,0,7.59,0,0,0,0
"RY1","168575","ALOISIO, MADYSON","","H","part",0,20.34,20.71,20.58,20.49,21.17,22.21,16.20,20.37,20.49,34.12,40.58,39.09,6.27
"RY1","12725","ALSLEBEN, DEVIN R","","H","part",0,39.88,52.36,45.22,54.37,28.90,46.52,46.41,39.29,52.52,39.87,21.00,23.48,0
"RY1","147832","ALTEPETER, GRAYSON","","H","full",0,42.22,41.28,42.15,42.59,40.62,31.74,33.40,37.76,39.95,40.48,39.09,36.39,16.85
"RY1","174937","ANDERSON, KEANDRE","","H","part",0,0,0,0,0,0,0,0,0,0,0,0,0,0
"RY1","165873","ANDERSON, NICHOLAS","","H","full",0,38.51,32.90,16.84,34.80,0,16.76,0,0,0,0,0,0,0
"RY1","13725","ANDERSON, SHAWN W","","C","full",0,51.07,50.74,50.66,50.25,39.01,52.89,60.20,44.57,39.09,36.76,45.18,56.14,15.28
"RY1","13815","ANDERSON, STEVEN L","","H","part",0,4.00,0,0,0,12.50,26.50,8.00,9.00,14.00,28.00,24.50,0,0
"RY1","16425","ANDREWS, JON","","S","full",0,0,0,0,0,0,0,0,0,0,0,0,0,0
"RY1","16450","APPLING, DAVID J","","H","part",0,23.05,28.11,38.18,23.33,26.34,31.61,35.63,31.02,23.25,20.22,0,0,0
"RY1","164821","ARNOLD, SAMANTHA","2020-01-30","H","full",0,2.75,0,0,2.14,0,0,0,0,0,0,0,0,0
"RY1","126547","ASHBURN, BRYSON","","H","part",0,0,0,0,0,0,0,0,0,0,0,0,0,0
"RY1","17534","AUBOL, THOMAS B","","C","full",0,0,0,0,0,0,0,0,0,0.00,0.00,0,0,0
"RY1","18005","AXTMAN, DALE M","","C","full",0,42.13,42.45,45.90,45.28,47.25,45.56,46.11,50.52,45.99,45.45,48.36,40.20,15.85
"RY1","176398","BALDWIN, BROCK","2020-01-23","C","full",0,0,0,0,0,0,0,0,0,0,0,0,0,0
"RY1","174738","BARBEAU, LUKE","","H","part",0,32.23,32.69,35.17,23.78,21.39,18.53,32.82,21.94,17.99,23.76,38.83,13.89,6.24
"RY1","158339","BARTYZAL, FRANK","","H","part",0,31.99,16.41,20.43,18.11,16.44,23.21,17.85,15.86,15.68,7.51,18.24,9.99,0
"RY1","111210","BEAR, JEFFERY L","","C","full",0,34.06,37.74,36.08,35.55,36.97,34.90,25.75,36.12,38.26,39.89,37.94,32.88,13.17
"RY1","112589","BEDNEY, TYLER","","C","full",0,0,0,0,0,0,0,0,0,0,0,0,0,0
"RY1","187564","BEHM, PAUL","","*","full",0,0,0,0,0,0,0,35.90,6.24,37.79,38.32,36.84,29.14,0
"RY1","111250","BEISWENGER, LYLE W","","H","part",0,10.50,0,11.50,0,10.50,3.50,3.00,0,0,0,3.00,0,0
"RY1","197523","BEITER, GABRIELLE","","H","full",0,36.47,41.31,37.50,45.08,44.40,45.11,41.97,43.55,28.44,46.85,39.66,37.06,14.57
"RY1","156398","BERG, ETHAN","","H","part",0,0,10.43,11.76,17.16,15.75,16.83,18.62,19.42,17.68,11.78,27.49,0,0
"RY1","195359","BERGE, THOMAS","","H","full",0,40.62,32.87,50.99,31.59,41.04,37.69,26.40,26.05,52.29,28.11,23.79,24.72,10.29
"RY1","113085","BERGH, STEVEN","","S","full",0,0,0,0,0,0,0,0,0,0,0,0,0,0
"RY1","157953","BIES II, DAVID","","C","full",0,51.85,44.28,37.03,47.11,48.37,47.38,49.22,42.63,51.75,33.44,47.99,45.31,19.26
"RY1","147741","BJARNASON, JUSTIN","","C","full",0,0,0,0,0,0,0,0,0,0,0,0,0,0
"RY1","115255","BJORNSETH, MARK L","","S","full",0,0,0,0,0,0,0,0,0,0,0,0,0,0
"RY1","149852","BLEWITT, ALEXIS","","H","part",0,21.38,16.65,23.36,5.34,11.90,16.86,18.87,18.99,18.67,17.25,0,0,0
"RY1","160930","BLUMHAGEN, KATHERINE M","","H","full",0,50.25,45.93,49.43,51.00,47.65,46.06,52.70,49.76,49.46,49.38,48.53,50.03,19.83
"RY1","116185","BOHM, DOUGLAS","","H","full",0,42.76,35.81,43.38,49.76,42.62,37.58,26.59,43.10,51.70,29.55,30.03,0,0
"RY1","169843","BOOKER, JEREMIAH","","H","full",0,0,0,0,0,40.71,40.80,39.53,45.30,45.57,28.43,26.18,40.30,15.90
"RY1","118010","BRAATEN, DEAN T","","H","full",0,47.16,40.45,45.37,43.86,35.71,52.48,53.25,51.84,42.27,50.37,52.95,49.24,18.36
"RY1","195436","BRAATEN, LOGAN","","H","part",0,0,0.71,24.09,15.11,14.25,14.79,7.94,14.94,13.65,10.81,0,0,0
"RY1","165823","BRODEN, MARK","","H","full",0,40.97,40.77,38.60,40.70,40.83,31.65,40.55,40.88,0,40.96,40.61,32.52,8.15
"RY1","118520","BROOKS JR, DREW","","H","full",0,53.23,55.40,54.33,51.03,40.77,57.15,51.12,50.94,49.30,51.09,47.88,39.86,16.11
"RY1","121063","BRORBY, BO","","H","full",0,47.95,46.05,57.19,48.28,45.14,44.12,46.37,45.85,45.43,46.40,47.06,44.89,18.04
"RY1","123211","BRUGGEMAN, AFTON","","S","full",0,0,0,0,0,0,0,0,0,0,0,0,0,0
"RY1","158763","BRUNK, JUSTIN","","C","full",0,0,0,0,0,0.00,0.00,0,0,0,0,0,0,0
"RY1","145789","BUCHANAN, KYLE","","C","full",0,45.26,27.37,34.48,45.23,45.51,51.23,44.82,52.80,43.78,43.81,44.32,45.54,16.88
"RY1","155477","BUCKHOLZ, ZACHARY","","H","full",0,31.19,44.01,32.99,35.85,31.80,34.48,33.44,41.94,34.00,40.02,26.17,35.37,15.53
"RY1","175873","BUDEAU, KAYLA","","H","full",0,32.18,41.63,40.57,40.60,40.61,41.41,40.47,29.68,41.18,14.28,40.52,40.60,16.02
"RY1","159375","BUSHEE, BRYCE","","H","part",0,15.92,12.13,20.69,17.29,17.45,17.35,0,3.96,20.02,3.93,15.33,0,0
"RY1","123100","CAHALAN, BENJAMIN C","","S","full",0,0,0,0,0,0,0,0,0,0,0,0,0,0
"RY1","185462","CARABALLO, CHRISTOPHER","","C","full",0,0,0,0,0,0,0,0,0,0,0,0.00,0.00,0.00
"RY1","123525","CARLSON, KENNETH A","","H","part",0,19.12,29.01,20.32,29.86,19.86,29.46,19.28,30.87,20.61,25.21,18.68,20.71,4.20
"RY1","123538","CARLSON, ROBERT","","C","full",0,0,0,0,0,0,0,0,0,0,0,0,0,0
"RY1","185340","CATLIN, REECE","","H","full",0,47.58,32.64,45.94,32.07,32.97,43.91,33.43,37.50,38.88,34.16,17.86,0,0
"RY1","124101","CHAMPAGNE, LESLIE","","H","full",0,37.96,46.57,47.06,46.67,48.31,43.51,40.86,41.63,31.15,43.52,44.28,42.84,16.62
"RY1","135987","CLARK, ADAM","","H","part",0,0,0,0,0,0,0,0,0,0,0,0,0,0
"RY1","165980","CLASEMAN, JAMIE","","H","full",0,41.29,34.81,35.27,35.06,29.60,39.32,21.60,38.42,30.02,40.39,39.34,40.52,12.22
"RY1","162983","CLOSE, PRESTON","","C","full",0,0,0,0,0,0,0,0,0,0,0,0,0,0
"RY1","126200","COCHRAN, MICHELLE C","","S","full",0,0,0,0,0,0,0,0,0,0,0,0,0,0
"RY1","158963","COOK, MATTHEW","","H","full",0,37.41,33.09,14.62,43.62,41.71,43.96,42.79,40.57,41.85,43.07,39.85,37.69,15.55
"RY1","186724","CORY, CLAIRE","","H","part",0,16.99,17.47,17.80,12.07,19.20,15.48,16.66,11.57,17.74,18.12,26.47,16.67,5.85
"RY1","126250","COULTER, DONALD R","","H","part",0,23.05,7.81,22.76,8.41,25.39,28.45,35.61,30.99,0,5.41,0,0,0
"RY1","128530","CROAKER, CRAIG R","","C","full",0,0,0,0,0,0,0,0,0,0,0,0,0,0
"RY1","143298","DAHLEY, SHELBY","","H","full",0,0,15.30,22.75,18.62,18.59,11.28,13.91,10.96,3.59,28.71,25.82,35.01,0
"RY1","145369","DAKU, ALTIN","2020-01-22","H","full",0,17.25,16.59,10.25,0,0,0,0,0,0,0,0,0,0
"RY1","131370","DAVID, GORDON","","C","full",0,41.49,43.82,44.39,42.75,48.97,40.97,41.77,46.07,42.28,50.39,38.87,38.57,15.88
"RY1","131315","DAVIS, ERIC A","","C","full",0,39.65,38.90,36.57,35.61,36.20,27.26,27.54,35.77,36.46,37.42,35.52,35.91,14.71
"RY1","15552","DECOUTEAU, FRANK A","","C","full",0,0,0,0.00,0,0,0,0,0,0,0,0.00,0.00,0.00
"RY1","132500","DELOHERY, MICHAEL J","","S","full",0,0,0,0,0,0,0,0,0,0,0,0,0,0
"RY1","154983","DEVIER, RYLIE","","H","part",0,3.07,3.21,7.19,9.33,6.71,4.70,5.61,3.54,4.12,4.17,3.98,2.69,1.50
"RY1","154225","DEZIEL, DYLAN","","H","full",0,49.30,47.45,39.21,47.34,48.32,42.99,45.71,41.58,43.43,42.53,32.02,39.44,16.68
"RY1","15648","DIBI, ANDREW","","*","full",0,35.32,43.68,49.00,49.85,43.48,43.94,45.14,33.69,43.14,50.40,42.17,33.83,16.16
"RY1","133017","DOCKENDORF, NATE J","","C","full",0,0,0,0,0,0,0.00,0.00,0,0.00,0,0,0.00,0
"RY1","135770","DRISCOLL, TERRANCE","","C","full",0,49.33,45.87,46.49,47.16,47.12,46.95,47.76,47.23,45.64,47.89,40.93,46.07,18.92
"RY1","136170","DUCKSTAD, JARED J","","C","full",0,40.73,38.14,43.08,51.63,40.42,34.40,42.39,46.44,50.51,42.50,33.64,40.11,16.01
"RY1","145732","DUNN, CORY","","H","full",0,49.47,33.50,48.78,41.60,36.15,13.15,41.88,29.35,7.45,15.73,0,0,0
"RY1","136510","DUSEK, TIMOTHY R","","H","part",0,0,0,0,0,0,0,0,0,0,0,0,0,0
"RY1","137101","EBERLE, MARCUS M","","C","full",0,51.44,42.65,43.65,43.84,34.27,43.83,49.22,43.43,41.48,38.87,38.90,21.07,0.00
"RY1","138380","EICHHORST, NOEL E","","H","full",0,33.52,36.73,45.07,33.25,35.29,37.54,32.08,32.76,33.36,32.53,38.85,31.29,13.74
"RY1","132963","ERICKSON, DENNIS","","H","part",0,0,0,0,0,0,0,0,0,0,0,0,0,0
"RY1","175393","ERICKSON, JUSTIN","","*","part",0,30.51,25.35,27.52,30.00,7.46,22.88,17.00,28.39,17.73,28.51,37.54,44.75,14.95
"RY1","140500","ERICKSON, RONALD J","","C","full",0,0,0,0,0,0,0,0,0,0,0,0,0,0
"RY1","140790","ESPELUND, KENNETH M","","S","full",0,0,0,0,0,0,0,0,0,0,0,0,0,0
"RY1","141060","EULISS, NED","","H","full",0,42.26,55.58,44.85,59.04,45.30,0.00,46.32,48.60,57.01,43.79,44.41,42.53,15.80
"RY1","141069","EVAVOLD, DANIEL J","","H","full",0,53.78,43.39,37.54,48.91,48.20,47.04,37.33,47.82,37.19,35.99,44.58,45.57,18.13
"RY1","195628","EVENSON, JOSHUA","","H","full",0,51.99,39.96,7.84,43.01,53.05,44.58,35.81,41.88,42.45,40.65,49.45,20.87,8.05
"RY1","187325","FAULHABER, DAVID","","H","part",0,39.83,16.93,18.26,15.72,17.25,17.55,16.18,11.43,13.12,16.75,0,0,0
"RY1","159863","FERRY, CARTER","","*","full",0,41.26,36.95,42.43,40.09,41.81,43.91,51.58,39.00,47.70,49.19,40.34,48.64,17.18
"RY1","145801","FLAAT, GAVIN","","C","full",0,43.15,56.05,44.98,33.78,42.89,45.14,51.75,43.21,35.04,32.28,40.71,51.66,17.59
"RY1","145840","FLAAT, STEPHEN C","","C","full",0,0,0,0,0,0,0,0,0,0,0,0,0,0
"RY1","183923","FLORES, JOSHUA","","H","part",0,13.39,8.18,5.39,0,5.37,8.02,7.66,0,6.36,0,0,0,0
"RY1","148050","FOSTER, BENJAMIN F","","S","full",0,0,0,0,0,0,0,0,0,0,0,0,0,0
"RY1","148075","FOSTER, KEVIN B","","S","full",0,0,0,0,0,0,0,0,0,0,0,0,0,0
"RY1","148080","FOSTER, SAMUEL T","","C","full",0,0,0,0,0,0,0,0,0,0,0,0,0,0
"RY1","165783","FREITAG, TALON","","H","full",0,39.65,39.06,20.58,32.57,18.57,44.38,36.13,34.59,35.21,26.75,37.56,38.14,14.89
"RY1","154328","FREKING, NICOLAS","","H","part",0,46.55,41.95,45.08,39.56,42.62,42.24,45.01,32.15,40.41,21.46,41.44,36.59,14.98
"RY1","198563","FRIERSON, LUTHER","2020-01-09","H","full",0,22.83,0,0,0,0,0,0,0,0,0,0,0,0
"RY1","186753","FRIERSON, MONICA","2020-01-09","H","full",0,21.42,0,0,0,0,0,0,0,0,0,0,0,0
"RY1","155214","GAGNON, ANASTASIA","","H","full",0,27.60,37.47,35.07,33.31,26.74,37.68,35.64,34.03,37.05,32.38,36.90,27.52,12.62
"RY1","157995","GAGNON, JUNE","","S","full",0,0,0,0,0,0,0,0,0,0,0,0,0,0
"RY1","149878","GAGNON, TRACI L","","H","full",0,39.38,25.05,40.36,41.58,40.48,40.13,40.25,24.28,39.99,31.73,40.33,42.05,16.10
"RY1","157394","GAJMER, JOHN","","H","part",0,25.41,20.76,23.27,28.92,20.47,29.36,20.76,33.09,21.88,30.64,29.11,25.10,5.80
"RY1","159823","GALLETTA, ALEXIUS","","H","part",0,7.82,9.81,12.27,1.91,16.55,5.72,6.42,10.48,0,10.85,16.49,4.50,0
"RY1","150105","GARDNER, CHAD A","","C","full",0,43.50,49.63,44.32,44.75,48.99,44.17,43.70,44.19,8.86,43.83,42.96,39.34,0.00
"RY1","150120","GARDNER, JOHN T","","S","full",0,0,0,0,0,0,0,0,0,0,0,0,0,0
"RY1","150126","GEHRTZ, CLAYTON J","","C","full",0,58.72,59.51,66.92,56.94,56.80,48.62,65.21,57.33,48.54,63.50,54.74,62.40,20.01
"RY1","132584","GERSZEWSKI, JOSEPH","","H","full",0,28.19,28.63,21.43,41.06,36.93,30.01,30.43,28.91,27.55,33.59,19.40,16.56,0
"RY1","174123","GEST, ALEXIS","","H","part",0,0,23.06,23.19,23.35,25.12,23.90,37.26,19.20,24.41,15.29,0,0,0
"RY1","156988","GIESLER, MEGAN","","H","full",0,0,15.78,27.80,27.83,27.02,26.53,22.74,29.93,22.42,27.37,12.79,0,0.50
"RY1","152235","GIRODAT, JEFF S","","C","full",0,35.13,46.46,56.48,46.28,46.40,44.87,24.17,52.01,46.21,45.60,44.45,43.67,16.64
"RY1","152480","GOETZ, DUANE E","","C","part",0,0,0,0,0,0,0,0,0,0,0,0,0,0
"RY1","152490","GONZALEZ, ANTHONY J","","H","full",0,19.39,36.40,36.11,25.57,33.39,31.23,31.77,19.47,30.68,20.72,28.38,22.86,8.60
"RY1","159857","GONZALEZ, DANIEL","","H","full",0,40.95,49.76,40.49,40.62,45.55,39.51,49.51,40.06,32.90,36.78,46.98,30.34,7.90
"RY1","153865","GOODOIEN, DEREK","","H","part",0,33.31,42.71,31.25,50.02,38.08,41.32,41.19,34.72,41.99,48.76,32.40,38.57,8.53
"RY1","152499","GOTHBERG, CONNER J","","H","full",0,51.77,52.73,46.77,49.73,60.66,53.20,49.10,53.55,59.58,50.81,45.85,38.50,12.72
"RY1","175342","GOULET, JENNIFER","","H","full",0,42.42,40.89,34.66,40.53,40.27,40.13,41.46,40.53,40.32,39.62,33.45,34.58,17.57
"RY1","152510","GOULET, SHANE A","","H","full",0,31.52,34.59,38.65,39.50,39.30,32.35,39.26,39.06,31.36,38.66,24.59,39.90,18.97
"RY1","152525","GRANT, DESIREE L","","C","full",0,37.78,47.03,46.05,46.41,47.19,34.44,45.89,50.51,37.98,43.50,13.84,16.39,16.57
"RY1","152410","GRAY, NATHAN J","","C","full",0,35.33,37.09,46.41,46.14,44.37,37.63,45.39,49.08,49.50,45.55,23.47,45.48,16.68
"RY1","152432","GREEN, HARRISON","","H","full",0,0,3.80,8.62,9.23,0,7.90,19.71,10.37,18.28,16.94,0,0,0
"RY1","122558","GRYSKIEWICZ, JONATHAN","","C","full",0,54.43,44.74,44.21,50.11,45.16,52.14,50.94,31.91,44.72,32.53,42.06,44.45,16.90
"RY1","137837","GULLEKSON, ASHLEY","","H","full",0,41.13,32.31,41.14,41.31,41.33,40.99,43.38,41.45,33.99,40.36,42.91,40.88,16.48
"RY1","157385","GUNN, ERIN","2020-03-09","H","full",0,40.70,39.19,40.82,41.88,24.28,40.68,32.93,40.83,0,0,0,0,0
"RY1","173843","GUST, CHARLES","2020-01-06","H","full",0,1.91,0,0,0,0,0,0,0,0,0,0,0,0
"RY1","165327","GUST, MICAH","","H","part",0,36.57,0,0,0,0,0,0,0,0,0,0,38.92,15.00
"RY1","145982","HAARSTAD, BRITTANY","","H","full",0,39.45,40.22,40.68,42.64,41.40,42.07,46.25,44.10,50.65,39.59,42.11,40.57,22.67
"RY1","161010","HAGA, MASON C","","H","part",0,23.53,15.27,18.91,9.12,9.55,13.43,4.13,18.50,8.98,9.33,14.73,11.39,0
"RY1","195975","HAGEN, TYLER","","H","full",0,22.54,43.28,32.72,39.20,34.35,43.63,42.40,44.23,43.28,42.72,35.09,42.54,16.58
"RY1","164328","HAHN, BRIDGER","","H","part",0,41.58,13.27,17.23,25.81,14.04,10.17,14.07,9.69,20.52,14.48,0,0,0
"RY1","163700","HALEY, DYLANGER","","C","full",0,0,0,0,0,0,0,0,0,0,0,0,0,0
"RY1","198521","HALL, MICHAEL","","C","full",0,0,0,0,0,0,0,0,0,0,0,0,0,0
"RY1","198521","HALL, MICHAEL A","","C","full",0,0,0,0,0,0,0,0,0,0,0,0,0,0
"RY1","178323","HANSON, ADAM","","H","part",0,12.79,22.20,13.01,17.82,13.20,8.46,13.90,23.32,13.28,22.27,0,0.29,0
"RY1","132854","HANSON, EMILY","","H","part",0,18.56,4.68,8.20,8.28,6.53,6.57,4.27,6.14,0,5.73,5.21,0,0
"RY1","162428","HARMON, TERRENCE J","","H","full",0,34.56,52.53,39.54,39.43,38.62,40.97,51.03,31.02,10.13,0,0,0.00,0
"RY1","175839","HARREN, ZACHARY","","H","part",0,0,0,16.81,10.93,11.66,21.20,16.95,22.24,5.99,17.15,15.71,34.97,12.08
"RY1","162800","HARRIS, SHERIDAN","","H","part",0,0,0,0,0,0,0,0,0,0,0,0,0,0
"RY1","163096","HASTINGS, DAWN","","H","full",0,44.33,43.44,38.93,47.86,42.80,44.71,36.24,45.46,41.17,44.66,42.06,39.91,20.82
"RY1","154760","HATLOY, CHARTON","","H","part",0,30.88,14.13,14.14,12.29,14.59,16.36,12.80,5.52,7.75,7.64,7.59,4.76,3.74
"RY1","165789","HECK, SETH","","C","full",0,0,0,0,0,0,0,0,0,0,0,0,0,0
"RY1","164015","HEFFERNAN, JOSH","","C","full",0,60.47,52.49,47.89,46.88,48.28,56.85,50.41,31.56,47.29,48.20,58.90,48.28,16.62
"RY1","164202","HELGESON, HERB","","H","part",0,0,0,0,0,0,0,0,0,0,0,0,0,0
"RY1","175838","HELLYER, HENRY","","H","part",0,0,0,0,0,0,0,0,0,0,0,0,0,0
"RY1","181876","HENRY, JUDY","","S","full",0,0,0,0,0,0,0,0,0,0,0,0,0,0
"RY1","164920","HEPOLA, JAMES W","","C","part",0,18.80,2.96,9.89,10.80,2.77,6.26,8.36,10.89,11.68,7.71,13.12,3.10,4.20
"RY1","185600","HIBMA, MORGAN E","","S","full",0,0,0,0,0,0,0,0,0,0,0,0,0,0
"RY1","165275","HICKS, EMILY","","H","full",0,45.08,39.48,44.20,35.50,43.72,30.83,42.15,33.31,41.81,39.62,33.19,37.12,15.15
"RY1","165357","HILL, BRIAN","","H","full",0,46.86,45.47,50.83,35.60,47.12,43.00,42.89,42.57,45.94,44.02,50.99,43.52,12.48
"RY1","165400","HILLEBRAND, BROCK D","","H","full",0,0,0,0,0,0,0,0,0,0,0,0,0,0
"RY1","164329","HINTZ, MATTHEW","","H","part",0,1.98,1.73,1.55,1.45,1.74,3.23,1.85,1.95,1.62,3.66,0,0,0
"RY1","142589","HLAVAC, TERRI","","H","full",0,44.04,42.27,32.89,43.14,42.67,41.94,40.27,36.09,42.36,42.47,45.38,41.47,16.06
"RY1","159873","HOLUM, JACOB","","H","part",0,34.13,38.63,35.77,41.20,28.55,38.90,33.33,44.01,36.53,52.08,23.25,31.35,10.31
"RY1","167812","HOLWEGER, AMANDA J","","H","part",0,10.10,7.57,7.59,10.83,5.06,10.47,5.92,9.52,4.93,6.90,6.64,6.69,4.80
"RY1","167580","HOLWERDA, KIRBY W","","C","full",0,46.01,45.83,35.64,36.12,44.04,42.75,45.29,60.08,47.11,44.32,46.14,41.94,16.07
"RY1","167906","HULL, DAVID","","H","full",0,47.50,42.88,46.68,43.47,43.86,45.07,47.68,38.94,41.00,40.45,42.34,39.57,14.70
"RY1","168815","HUNTER, JASON W","","H","part",0,10.19,3.85,2.75,11.41,8.85,9.61,0,8.77,16.28,0,4.50,0,0
"RY1","170150","IVERSON, ARNOLD W","","H","part",0,11.00,8.50,11.50,17.00,0,8.00,14.00,11.00,0,0,10.50,0,0
"RY1","171055","JACOBSON, PETER A","","C","full",0,44.84,46.98,47.89,55.16,34.26,45.44,56.86,52.76,52.23,48.12,45.69,47.72,17.31
"RY1","172308","JANKOWSKI, GARRETT","","H","full",0,48.17,48.09,60.06,50.86,49.26,51.29,56.64,49.99,49.90,49.42,48.31,45.28,9.28
"RY1","172077","JERSTAD, KENNETH","","H","full",0,41.63,40.22,40.74,50.46,41.14,32.77,41.14,25.85,41.04,40.46,40.96,40.63,16.13
"RY1","184620","JOHNSON, BENJAMIN R","","*","full",0,37.95,39.55,39.73,40.42,30.82,23.69,48.98,48.34,48.77,47.74,47.05,48.29,18.95
"RY1","156844","JOHNSON, DAVID","","H","full",0,39.47,36.92,40.46,40.41,40.23,40.25,40.10,31.16,40.22,40.01,40.12,40.23,16.10
"RY1","164286","JOHNSON, LOGAN","","H","part",0,6.63,16.42,25.83,24.08,23.09,23.11,23.41,22.86,24.06,17.91,0,0,0
"RY1","178050","KIEFER, LUCAS M","","C","full",0,42.58,40.92,47.87,42.09,41.17,44.40,39.40,40.95,46.24,40.76,40.86,40.13,12.60
"RY1","178060","KILEY, COLTON","","H","part",0,38.62,36.23,29.18,18.14,26.17,16.21,26.18,18.69,18.71,23.85,26.21,28.79,18.99
"RY1","178079","KILMER, JUSTIN","","H","full",0,44.60,40.85,42.41,43.10,43.24,41.92,41.56,43.41,41.92,30.46,43.23,41.66,16.82
"RY1","165732","KLOETY, HALEY","","H","full",0,46.94,47.39,32.12,48.59,48.29,47.76,47.89,48.92,47.84,38.07,51.37,40.24,13.99
"RY1","132987","KNOWLES, MAYHAYLA","","H","full",0,41.85,35.44,41.13,41.00,40.19,24.42,16.97,40.42,40.46,40.72,41.07,41.19,13.24
"RY1","154219","KOBAYASHI-DYER, NARUMI","","C","full",0,0,0,0,0,0,0,0,0,0,0,0,0,0
"RY1","179693","KOENEN, DEBRA M","","H","full",0,41.39,31.61,37.58,38.59,37.41,37.32,35.62,37.65,29.96,38.66,39.15,32.07,12.65
"RY1","167834","KOHLS, ADAM","","C","*",0,0,0,0,0,0,0,0,0,0,0,0,0,0
"RY1","179775","KOLSTAD, KIRK R","","H","full",0,43.92,32.64,40.76,40.99,40.81,42.14,43.07,25.72,41.96,41.00,42.01,41.25,16.31
"RY1","179790","KOWALSKI, JASON","","H","full",0,58.89,42.42,55.00,48.28,58.36,47.90,56.87,57.84,56.14,57.64,53.98,50.56,17.41
"RY1","198543","KROGSTAD, LARRY","","H","part",0,0,2.00,0,0,0,0,0,0,0,0,0,0,0
"RY1","184605","LABELLE, KODI L","","H","full",0,46.25,43.62,43.57,48.51,42.01,41.11,35.76,40.91,43.94,41.55,35.66,40.23,13.06
"RY1","184614","LAMONT, BRANDON","","*","full",0,52.41,34.45,40.02,49.16,42.49,43.90,46.79,51.23,32.60,41.67,43.30,35.43,16.85
"RY1","182713","LARSON, CODY J","","H","full",0,39.42,49.86,42.96,23.91,39.22,34.68,30.78,37.89,39.55,39.32,30.81,36.78,7.92
"RY1","189596","LARSON, TYLER","","H","part",0,10.34,12.76,8.14,8.81,6.30,13.17,3.56,0,9.12,0,0,4.91,0
"RY1","175738","LARSON, WYATT","","H","part",0,5.50,10.94,13.62,12.36,16.54,10.83,6.32,11.49,18.41,11.99,0,0,0
"RY1","184610","LAUGHLIN, LARRY J","","H","full",0,56.71,52.49,51.15,52.18,47.61,49.67,45.36,44.88,42.60,30.08,49.43,43.31,19.06
"RY1","184806","LEAVY, PAUL M","","C","full",0,39.65,36.48,30.96,37.48,38.87,33.15,37.19,29.46,30.43,37.54,31.38,28.43,10.00
"RY1","165972","LECLAIR, AUSTIN","","H","full",0,50.44,39.13,31.92,41.60,36.02,31.01,36.04,35.58,37.12,33.98,54.17,35.51,13.55
"RY1","140882","LEEDAHL, GLENNA","","H","part",0,16.50,0,0,0,0,0,3.50,0,0,15.00,8.00,0,0
"RY1","198435","LEHR, CARLY","","H","part",0,8.11,22.23,17.44,21.86,8.23,12.53,13.23,21.96,17.68,8.36,0,0,0
"RY1","176239","LEMBCKE, CURTIS","2020-02-16","H","part",0,4.11,2.66,0,2.17,3.95,5.11,1.52,0,0,0,0,0,0
"RY1","184920","LENE, RYAN","","C","full",0,41.05,40.89,27.60,45.95,46.12,42.14,45.50,45.53,45.53,52.15,45.55,44.85,17.22
"RY1","15668","LINDEMANN, TASHA","","H","full",0,24.93,0.00,38.68,51.06,41.24,41.98,41.34,52.04,39.93,53.35,40.26,39.92,16.30
"RY1","186100","LIND, KATHERINE","","S","full",0,0,0,0,0,0,0,0,0,0,0,0,0,0
"RY1","185801","LINDQUIST, ADAM J","","H","part",0,0,0,0,0,0,0,0,0,0,0,0,0,0
"RY1","187675","LONGORIA, BEVERLEY A","","S","full",0,51.12,0.00,40.18,50.54,50.05,49.90,48.51,50.08,40.61,49.07,48.27,46.62,16.20
"RY1","189100","LOVEN, ARDEN","","C","full",0,0,0,0,0,0.00,0,0,0,0,0,0,0,0
"RY1","188338","LUEKER, DAVID C","","H","full",0,46.64,45.11,20.02,0.00,47.05,54.19,46.91,41.76,46.70,44.31,34.96,47.64,18.25
"RY1","190600","MAGNUSON, TYLER D","","H","full",0,45.58,55.46,49.04,40.40,47.41,44.88,44.53,44.78,47.50,46.19,47.23,43.68,16.56
"RY1","190892","MANGAN, RICHARD","","H","full",0,62.36,68.29,54.92,65.99,61.45,57.78,56.25,56.24,54.70,50.64,19.53,40.39,16.42
"RY1","190918","MARCOTTE, THOMAS H","","H","full",0,50.05,56.25,45.67,40.54,40.77,38.58,41.41,28.00,51.00,48.50,0.00,47.61,17.99
"RY1","190910","MAREK, DAYTON C","","S","full",0,0,0,0,0,0,0,0,0,0,0,0,0,0
"RY1","168351","MARESCA, ROMAO","","S","full",0,0,0,0,0,0,0,0,0,0,0,0,0,0
"RY1","191060","MARO, NICHOLAS","","H","full",0,47.22,38.95,59.67,48.72,39.14,38.27,57.88,48.37,47.90,46.98,45.43,40.16,20.02
"RY1","191350","MAVITY, ROBERT","","C","full",0,42.42,42.22,41.38,43.24,38.59,40.10,46.03,50.33,44.55,38.35,41.79,34.19,16.52
"RY1","129874","MCCOY, KYLER","","C","part",0,0,0,0,0,0,0,0,0,0,0,0,0,0
"RY1","159298","MCKAY, CLINTON","","H","full",0,0,0,0,0,0,0,0,0,0,0,0,0,0
"RY1","18574","MCLAUGHLIN, JOHN","","S","full",0,0,0,0,0,0,0,0,0,0,0,0,0,0
"RY1","198542","MCMILLIAN, TARA","","H","full",0,53.40,45.83,37.90,45.40,33.13,36.46,45.53,45.32,45.29,45.00,44.10,40.13,13.94
"RY1","194675","MCVEIGH, DENNIS","","C","full",0,45.97,48.05,60.52,48.46,46.39,48.01,47.19,61.62,46.85,49.16,46.36,34.27,17.36
"RY1","198234","MELBY, BAILEY","","H","full",0,45.85,45.53,38.29,45.39,44.95,39.91,44.73,6.75,43.76,45.29,4.13,39.91,13.41
"RY1","165983","MENARD, MICHAEL","","C","full",0,0,0,0,0,0,0,0,0,0,0,0,0,0
"RY1","195401","METZGER, JUSTIN","","H","full",0,43.58,41.33,45.50,39.26,33.67,47.34,45.08,43.75,44.74,42.83,40.25,40.75,0
"RY1","181520","METZGER, KAYLE M","","H","full",0,33.27,39.62,39.89,43.27,32.91,32.71,39.45,34.81,40.13,40.64,39.51,32.04,17.97
"RY1","195460","MICHAEL, ANTHONY E","","C","full",0,0,0,0,0,0,0,0,0,0.00,0.00,0,0,0
"RY1","196341","MILLER, KIM M","","H","full",0,48.63,45.44,44.35,45.99,41.64,41.32,41.49,41.67,23.83,26.50,41.08,40.00,19.08
"RY1","134795","MOE, BRYCE","","H","part",0,11.35,12.09,9.59,5.74,6.91,11.51,11.08,5.66,5.93,11.19,3.22,5.32,6.36
"RY1","174384","MOGAVERO, MICHAEL","","*","full",0,54.39,46.05,54.92,46.88,47.78,47.46,47.64,48.82,47.90,47.10,55.64,42.83,19.31
"RY1","118030","MONSON, TAYLOR","","S","full",0,0,0,0,0,0,0,0,0,0,0,0,0,0
"RY1","118746","MONTGOMERY, CODY","","H","full",0,44.82,45.54,37.81,34.99,50.07,40.84,43.10,42.51,40.57,41.39,41.52,40.45,16.25
"RY1","115444","MOORE, LANNY","","H","part",0,0,0,0,0,0,0,0,0,0,0,0,0,0
"RY1","185965","MORGAN, DEVIN","","H","part",0,28.97,19.96,29.55,8.94,28.21,8.31,30.09,12.40,24.34,12.08,0,0,0
"RY1","173286","MORGAN, SPENCER","","H","full",0,45.44,38.99,29.89,43.27,49.76,15.44,51.70,14.25,16.84,25.54,18.22,0,0
"RY1","113011","MORLOCK, BRUCE A","","H","part",0,10.00,3.50,7.50,2.00,4.50,10.00,0,0,8.00,5.00,8.00,0,0
"RY1","113020","MORRIS, GREG","","S","full",0,0,0,0,0,0,0,0,0,0,0,0,0,0
"RY1","195826","MUCKENHIRN, BENJAMIN","","H","part",0,21.50,12.41,12.07,17.42,8.14,21.45,11.61,11.96,12.10,21.41,9.37,11.97,3.59
"RY1","151702","MULHERN, ALAN","","H","full",0,44.22,48.61,48.40,41.21,46.19,45.01,49.51,44.54,46.14,32.02,24.10,32.32,15.80
"RY1","198532","NAVARRO, ALEXANDER","","H","part",0,27.71,16.26,7.02,16.48,17.26,10.94,17.05,15.87,17.36,23.39,21.73,32.01,6.61
"RY1","1100710","NEFS, GERALD F","","H","part",0,0,0,0,0,0,0,0,0,0,0,0,0,0
"RY1","158997","NELP, LANCE","","H","part",0,22.60,12.40,17.46,16.31,16.90,16.86,10.91,0,0,16.91,10.43,0,0
"RY1","1102195","NEUMANN, ANDREW D","","S","full",0,0,0,0,0,0,0,0,0,0,0,0,0,0
"RY1","1102198","NEUMANN, NICKOLAS J","","S","full",0,0,0,0,0,0,0.00,0,0,0,0,0,0.00,0
"RY1","1103050","NOKELBY, RONALD J","","S","full",0,0,0,0,0,0,0,0,0,0,0,0,0,0
"RY1","187651","NOREIKIS, TIFFANY","","C","full",0,0,0,0,0,0,0,0,0,0,0,0,0,0
"RY1","168753","NORTHAGEN, JOSHUA","","C","full",0,46.16,44.91,45.83,46.37,34.73,38.63,44.92,37.66,46.16,44.16,37.00,38.06,16.88
"RY1","1103065","NYGAARD, KENT A","","H","full",0,38.53,39.17,46.97,47.31,47.03,46.44,36.38,42.09,9.09,11.51,40.26,45.55,17.87
"RY1","103053","OBREGON, JASON","2020-02-13","H","full",0,44.58,48.10,53.51,54.75,45.86,19.68,0,0,0,0,0,0,0
"RY1","1106225","OLDERBAK, JOHN","","C","full",0,0,0,0,0,0,0,0,0.00,0.00,0,0,0,0
"RY1","173209","O'LEARY, MATTHEW","","H","full",0,9.02,46.44,53.70,49.55,49.41,52.62,48.03,46.79,48.24,45.59,36.79,45.17,14.90
"RY1","1100625","OLSON, CODEY","","C","full",0,47.91,41.42,37.73,45.43,54.07,35.29,45.34,31.01,44.04,43.73,26.82,44.35,0
"RY1","1106399","OLSON, JAY P","","C","full",0,0.00,46.83,45.76,46.31,47.22,55.96,46.33,50.65,36.19,46.09,44.95,47.90,16.31
"RY1","1106400","OLSON, JUSTIN S","","C","full",0,47.82,48.07,45.73,54.41,47.54,50.12,47.50,47.83,46.09,19.94,0.00,0,0
"RY1","164732","OLSON, RACHEL","","H","full",0,39.46,40.56,39.23,46.31,41.27,32.01,40.73,43.16,41.13,39.84,40.55,41.22,17.71
"RY1","144788","OLSON, WYATT","","S","full",0,0,0,0,0,0,0,0,0,0,0,0.00,0.00,0.00
"RY1","1106421","O'NEIL, TIMOTHY J","","C","full",0,44.38,45.47,47.24,47.45,45.81,49.25,45.58,60.11,49.48,48.90,37.74,47.75,18.01
"RY1","1107950","ORTIZ, GUADALUPE","","H","full",0,46.77,37.79,45.10,45.55,35.62,27.04,45.24,42.98,35.22,26.81,41.66,32.52,5.08
"RY1","1108200","OSTLUND, ANNE B","","H","full",0,45.85,34.70,47.22,45.36,44.58,37.87,46.77,46.15,53.60,46.44,47.06,44.74,17.18
"RY1","157493","OTTO, ALYSSA","","H","full",0,42.86,40.45,46.25,32.38,45.82,36.65,0,48.90,45.98,42.77,11.37,20.94,15.87
"RY1","157445","PACHL, JONATHON","","H","full",0,0,0,0,0,0,0,0,0,0,0,0,0,0
"RY1","139846","PARKER, JOSHUA","","H","full",0,38.01,18.66,35.85,32.55,30.68,35.92,41.25,34.11,36.08,32.02,30.58,35.05,14.46
"RY1","1109700","PASCHKE, MATTHEW G","","H","full",0,47.56,46.40,56.58,48.48,57.04,46.87,36.60,27.80,46.66,50.38,34.91,42.07,16.92
"RY1","186547","PEDERSON, CHRISTIAN","","H","part",0,0,0,0,0,0,0,0,0,0,0,0,0,0
"RY1","185647","PERALES, LIL CHRIS","","H","part",0,22.19,16.99,17.61,16.51,8.17,14.88,16.30,16.44,23.31,5.28,0,0,0
"RY1","123564","PESEK, BENJAMIN","","H","part",0,0,0,0,0,0,0,0,0,0,0,0,0,0
"RY1","1110425","PETERSON, BRIAN D","","C","full",0,51.95,46.76,51.09,39.73,48.28,42.41,45.73,48.47,45.81,24.50,45.45,47.81,18.07
"RY1","1110542","PETERSON, DOUG","","S","full",0,0,0,0,0,0,0,0,0,0,0,0,0,0
"RY1","1110660","PETERSON, TYLER","","H","full",0,42.49,51.49,43.07,37.85,44.78,39.76,47.06,52.89,28.79,41.70,52.75,41.47,16.63
"RY1","167934","PFAFF, JONATHAN","","H","full",0,51.38,48.39,50.22,47.54,47.67,47.36,45.92,47.01,46.72,32.91,49.47,41.41,15.97
"RY1","1110800","PICHE, STACEY","","H","full",0,25.25,0,9.42,9.93,9.17,0,9.15,9.40,9.09,0,0,0,0
"RY1","108345","PIERCE, NICOLE","2020-02-17","H","part",0,20.46,8.21,7.96,7.88,16.56,13.01,3.98,0,0,0,0,0,0
"RY1","187526","POKHREL, CHANDRA","","H","full",0,31.01,38.68,38.56,39.45,39.06,39.55,39.28,37.93,39.36,39.71,39.70,40.17,15.92
"RY1","165478","POLUM, MAXWELL","","H","part",0,21.82,14.14,23.95,0,24.01,14.50,23.13,13.18,23.57,14.42,21.31,9.52,6.07
"RY1","1111325","POWELL, GAYLA R","","*","full",0,49.95,47.78,46.64,47.88,46.30,47.64,43.37,46.00,0,0,0,0,0
"RY1","1112410","PRESTON, ALLEN E","2020-02-07","C","full",0,0,0,0,0,0,0,0,0,0,0,0,0,0
"RY1","1112411","PRESTON, APRIL","","C","full",0,18.12,11.46,20.95,13.10,0,5.07,16.35,12.39,17.96,18.62,14.29,0,0
"RY1","1112425","PRICE, JAMES J","","C","part",0,0,0,0,0,0,0,0,0,0,0,0,0,0
"RY1","1113940","RADKE, DUANE","","H","full",0,43.56,40.97,40.82,38.74,40.64,41.46,40.92,40.73,40.02,42.49,37.31,40.00,16.00
"RY1","165473","RAI, SANTI","","H","full",0,26.48,32.83,19.03,39.46,27.97,32.14,35.01,45.40,29.06,12.90,29.15,39.38,8.68
"RY1","1588879","RAUNER, VALERIE","","H","full",0,31.76,39.57,39.92,42.59,40.46,41.07,42.34,0,23.40,40.19,41.34,19.82,9.78
"RY1","1114831","REED, DALE","","H","part",0,23.26,0,0,21.09,18.11,21.95,24.48,21.51,21.36,16.77,21.66,21.33,8.47
"RY1","1114921","REUTER, TIMOTHY J","","H","full",0,49.97,36.97,49.28,49.79,48.59,51.18,49.82,48.88,49.81,49.82,49.42,42.49,15.97
"RY1","1116800","RICHARDSON, DARRICK J","","C","full",0,32.23,23.34,23.87,14.42,20.73,14.29,18.34,21.17,32.42,27.99,23.17,0.00,0
"RY1","158582","RISKEY, CALEB","","H","part",0,18.82,7.16,8.34,9.04,6.48,4.78,4.53,4.74,12.98,0.93,0,0,0
"RY1","195123","RIVERA, ROLANDO","","H","full",0,31.23,38.81,36.63,41.11,41.17,33.58,43.45,35.16,34.53,34.22,39.78,38.71,15.45
"RY1","122332","ROBINSON, AARON","","H","full",0,40.91,54.52,46.34,44.18,32.90,42.21,49.32,40.12,40.65,44.49,49.52,48.31,16.37
"RY1","192348","ROBINSON, CARSON","","C","full",0,0,0,0,0.00,0.00,0,0,0,0,0,0,0,0
"RY1","1117600","ROBLES, RUDOLPH","","H","full",0,62.24,53.36,58.38,55.02,50.46,58.60,61.75,47.19,35.67,47.13,36.75,49.85,16.45
"RY1","1117842","RODRIGUEZ, JUSTIN","","H","full",0,57.71,48.26,49.72,47.11,47.18,30.36,47.48,58.66,48.10,45.01,41.97,45.18,18.27
"RY1","1117901","ROGERS, MITCH A","","*","full",0,0,26.00,0,0,0,0,0,0,0,0,0,17.19,8.74
"RY1","165780","ROGERS, SARA","","H","part",0,50.45,30.21,35.22,40.96,31.79,32.14,30.14,28.73,30.88,30.12,33.70,39.97,16.55
"RY1","158393","ROGERS, TIMOTHY","","H","part",0,0,0,0,0,3.00,9.00,0,0,0,0,0,0,0
"RY1","1117960","ROGNE, CRAIG A","","S","full",0,40.20,51.39,50.38,25.88,40.16,41.06,40.92,30.44,50.64,50.93,30.34,0.00,0.00
"RY1","175323","ROLIGHED, CODY","","C","part",0,0,9.53,15.04,1.72,8.42,3.75,11.89,9.00,8.77,9.10,0,0,0
"RY1","159875","ROSE, BRITTANY","","H","part",0,29.69,14.79,27.88,21.27,34.38,13.66,33.41,20.69,33.60,34.25,20.43,22.74,0
"RY1","1118722","ROSE, CORY","","C","full",0,32.04,34.72,52.39,44.24,45.19,26.34,0,0,0,0.00,0,0,0
"RY1","12236","ROTH, LAURA","","S","full",0,0,0,0,0,0,0,0,0,0,0,0,0,0
"RY1","141082","RUMEN, ROBERT","","C","full",0,0,0,0,0,0,0,0,0,0,0,0,0,0
"RY1","1120110","RYAN, ANTONIO R","","S","full",0,0,0,0,0,0,0,0,0,0,0,0,0,0
"RY1","1120225","RYDELL, BRIAN L","","S","full",0,0,0,0,0,0,0,0,0,0,0,0,0,0
"RY1","1120800","RYDELL, WESLEY D","","C","full",0,0,0,0,0,0,0,0,0,0,0,0,0,0
"RY1","1120120","RYGG, KEN C","","H","full",0,39.39,33.65,49.18,33.96,40.53,37.76,40.44,42.10,38.64,22.89,37.66,33.48,6.44
"RY1","1121240","SALBERG, GAYLEN K","","H","part",0,15.00,0,14.50,24.00,20.00,12.00,27.00,14.50,33.50,17.50,7.00,5.00,0
"RY1","1122110","SANCHEZ, ROGELIO","","S","full",0,0,0,0,0,0,0,0,0,0,0,0,0,0
"RY1","1122246","SAPP, CORDEAU I","2020-01-14","H","full",0,17.37,4.54,0,0,0,0,0,0,0,0,0,0,0
"RY1","1122342","SATTLER, RANDY J","","C","full",0,0,0,0,0,0,0,0,0,0,0,0,0,0
"RY1","1122352","SAULS, THOMAS R","","C","full",0,0.00,38.10,27.69,38.77,20.61,27.37,34.37,33.58,41.54,37.91,28.97,15.48,0
"RY1","198431","SCHADT, MICHAEL","","C","part",0,21.78,14.17,11.45,15.50,10.57,6.95,10.37,19.65,9.48,13.85,0,0,0
"RY1","175943","SCHILTZ, JARED","","H","part",0,0,24.81,15.36,17.51,14.87,18.75,15.45,19.62,13.73,6.67,0,0,0
"RY1","1123340","SCHMIESS PENAS, JERI L","","S","full",0,0,0,0,0,0,0,0,0,0,0,0,0,0
"RY1","137854","SCHNEIDER, AMANDA","","H","full",0,27.17,35.58,23.64,38.87,32.59,29.89,0,39.17,41.41,38.60,31.79,40.40,16.25
"RY1","1566882","SCHNEIDER, BRIAN","","C","full",0,25.09,42.03,43.45,36.20,35.62,28.41,41.73,41.29,21.13,50.96,47.73,43.39,18.24
"RY1","1124400","SCHUPPERT, KODEY","","H","full",0,40.36,38.46,42.32,50.83,37.87,31.17,42.08,47.66,22.26,0.00,23.70,32.27,13.00
"RY1","1124430","SCHWAN, JASON","2020-01-31","H","full",0,37.54,21.95,27.10,23.33,0,0,0,0,0,0,0,0,0
"RY1","1124436","SCHWAN, MICHAEL","","C","full",0,62.84,48.56,46.12,53.25,37.18,63.42,41.74,51.86,61.70,63.90,52.74,53.10,17.74
"RY1","1124625","SEAY, BRYN N","","C","full",0,0,0,0,0,0,0,0,0,0,0,0.00,0,0
"RY1","1124875","SEEBA, BRADLEY F","","H","full",0,42.90,38.87,39.11,39.40,39.62,38.13,38.47,39.49,38.89,40.01,43.02,43.90,17.36
"RY1","1125565","SEVIGNY, SCOTT","","C","full",0,45.17,50.90,45.10,52.05,36.11,45.70,47.10,44.05,45.46,39.77,44.07,45.07,18.01
"RY1","168243","SHADWICK, SHAY","","H","full",0,38.62,50.06,41.07,39.89,39.53,29.59,39.88,40.90,37.92,10.96,0,0,16.00
"RY1","1126040","SHERECK, LOREN","","S","full",0,43.13,46.27,44.81,44.44,47.56,48.05,38.33,49.22,49.24,44.81,47.41,19.26,19.01
"RY1","1126300","SHIREK, NICHOLAS","","C","full",0,0,0,0,0,0,0,0,0,0,0,0,0,0
"RY1","115896","SHOULTS, DANIEL","2020-01-10","H","full",0,0,0,0,0,0,0,0,0,0,0,0,0,0
"RY1","197643","SHOWER, DUSTIN","","H","full",0,33.01,39.91,39.91,39.81,39.73,41.29,39.89,40.02,40.33,40.28,40.30,40.28,15.96
"RY1","1126060","SHUMAKER, MARTIN D","","H","full",0,26.53,47.02,45.21,44.60,30.44,46.12,50.30,47.06,44.99,44.35,44.75,46.22,16.65
"RY1","167932","SLATOR, ANDREW","","H","*",0,45.98,31.55,27.08,18.18,20.70,24.75,22.42,17.77,12.84,27.37,34.04,31.97,14.35
"RY1","139475","SLOMINSKI, JOSEPH","","H","full",0,36.85,48.88,29.60,44.56,39.55,45.36,29.88,35.84,36.33,21.95,22.11,43.09,13.76
"RY1","146803","SMERER, JASON","","H","full",0,44.58,57.53,40.64,43.89,43.32,34.18,42.83,37.26,51.00,48.50,42.82,40.41,16.54
"RY1","176430","SMITH, TANER","","H","full",0,48.55,33.80,43.85,43.42,46.01,44.12,41.10,39.56,42.45,41.40,40.94,40.55,16.75
"RY1","152964","SOBERG, NICHOLAS","","H","*",0,42.09,54.75,51.71,57.67,50.50,17.63,37.23,61.93,65.63,51.41,50.59,39.31,11.43
"RY1","1129560","SOENKSEN, LINDSEY","","H","full",0,33.10,25.58,31.32,30.19,4.63,27.96,24.40,25.35,22.82,30.34,29.94,34.66,11.83
"RY1","1130090","SOLEM, BEN G","","H","full",0,30.77,33.98,32.53,49.77,39.74,43.17,43.20,39.49,41.34,54.23,40.55,39.04,15.97
"RY1","165428","SOLHEIM, ARIK","","S","full",0,0,0,0,0,0,0,0,0,0,0,0,0,0
"RY1","154474","SORENSON, THOMAS","","H","part",0,6.12,4.08,6.27,6.21,6.36,2.14,5.93,5.98,6.03,3.84,6.29,6.27,1.94
"RY1","1130420","SORUM, ABIGAIL","","H","full",0,35.02,38.34,34.74,52.21,45.30,39.03,41.35,39.60,35.52,35.88,39.83,41.44,14.30
"RY1","1130426","SORUM, GREG","","S","full",0,0,0,0,0,0,0,0,0,0,0,0,0,0
"RY1","154783","SORUM, JACOB","","S","full",0,0,0,0,0,0,0,0,0,0,0,0,0,0
"RY1","1130430","SORUM, MICHAEL J","","S","full",0,0,0,0,0,0,0,0,0,0,0,0,0,0
"RY1","198567","SPIVA, NOLAN","","H","full",0,45.35,43.47,48.43,38.47,46.04,41.70,39.98,37.11,43.36,45.25,29.01,30.87,16.23
"RY1","1130690","STADSTAD, LARRY O","","C","*",0,0,0,0,0,0,0,0,0,0,0,0,0,0
"RY1","1130700","STALLMO, RICHARD D","","H","full",0,38.10,42.10,41.69,41.10,42.19,40.47,39.69,41.09,24.51,0.00,5.33,0.00,0
"RY1","174836","STEFFL, SIMON","","H","part",0,14.44,12.10,19.91,17.95,27.82,12.74,19.72,15.45,17.94,15.71,30.70,30.90,11.17
"RY1","1132205","STEIN, DONALD W","","H","full",0,42.77,39.66,34.87,34.82,51.53,42.63,42.21,40.91,51.38,42.50,34.12,41.86,16.80
"RY1","154893","STEWART, ROGER","2020-01-28","H","full",0,48.36,16.24,25.86,15.00,0,0,0,0,0,0,0,0,0
"RY1","1132595","STINAR, DANIEL M","2020-03-04","S","full",0,0,0,0,0,0,0,0,0,0,0,0,0,0
"RY1","1132600","STOLEY, BETHANY","","H","part",0,0,0,0,0,0,0,0,0,0,0,0,0,0
"RY1","1132700","STOUT, RICK","","C","full",0,0,0,0,0,0,0,0,0,0,0,0,0,0
"RY1","143659","STRAUS, TYLER","","C","part",0,7.08,19.30,0,21.11,23.50,12.96,18.70,18.66,24.73,29.03,34.90,32.00,13.42
"RY1","1133727","STREETER, TIMOTHY","","H","full",0,60.18,58.87,64.93,52.96,56.41,65.20,61.80,51.90,61.94,57.93,57.43,25.16,21.86
"RY1","16250","STREITZ, DANIELLE M","","H","full",0,31.09,40.80,33.36,18.48,39.84,41.25,39.96,37.76,38.91,40.11,39.69,31.63,15.59
"RY1","143769","SUNDBY, AMANDA","","H","full",0,23.96,32.70,43.82,39.59,39.55,39.92,32.41,39.91,38.51,32.55,35.97,40.33,17.68
"RY1","145972","SVENSON, JAMES","2020-02-25","C","full",0,0,0,0,0,0,0,0,0,0,0,0,0,0
"RY1","128945","SWANSON, ZACHARY","","H","full",0,48.72,47.60,54.65,56.22,48.41,46.17,35.71,48.54,48.53,0.00,39.05,29.72,7.10
"RY1","1135265","SYMONS, ELIZABETH R","","S","full",0,0,0,0,0,0,0,0,0,0,0,0,0,0
"RY1","1135260","SYMONS, STEVEN","","S","full",0,0,0,0,0,0,0,0,0,0,0,0,0,0
"RY1","1135410","SYVERSON, JOSHUA L","","C","full",0,55.52,38.39,48.53,46.99,47.27,57.75,48.34,50.45,47.54,47.89,58.07,47.26,16.75
"RY1","175843","TANGREN, ALEX","","H","part",0,0,4.91,10.03,11.25,21.32,5.54,9.76,15.91,10.70,10.39,0,0,0
"RY1","157374","TAPPARO, GREGORY","","H","part",0,2.00,18.17,13.22,8.35,12.32,12.20,7.64,5.84,11.16,6.44,20.44,17.89,8.83
"RY1","1135518","TARR, JEFF D","","C","full",0,0,0,0,0,0,0,0,0,0.00,0.00,0,0,0
"RY1","1135710","TELKEN, WYATT","","C","part",0,0,0,0,0,0,0,0,0,0,0,0,0,0
"RY1","157392","THOMPSON, COLE","","H","full",0,40.90,40.50,25.32,40.38,43.63,43.56,43.50,46.25,35.15,40.14,48.08,31.83,18.91
"RY1","1137590","THOMPSON, WYATT","","C","full",0,49.84,48.76,47.54,47.84,58.42,49.81,50.65,50.70,48.39,47.69,46.34,45.00,17.48
"RY1","197560","TISI, CATHERINE","","H","part",0,30.72,20.95,29.78,21.00,30.56,16.88,22.00,16.68,21.90,15.98,26.78,11.90,4.39
"RY1","165287","TOMLIN, LUNDEAN","2020-03-06","H","full",0,53.77,44.32,48.37,42.33,48.89,44.86,47.66,41.19,43.62,0,0,0,0
"RY1","134956","TORGERSON, JOSEPH","","C","part",0,40.67,25.76,22.53,25.41,8.89,21.24,11.08,22.62,17.85,5.74,0,0,0
"RY1","1140870","TROFTGRUBEN, RODNEY","","H","full",0,38.12,55.17,44.33,46.15,48.71,60.53,48.42,49.72,29.29,57.74,47.65,34.34,17.97
"RY1","1143575","TROST, SETH","2020-01-03","H","part",0,0,0,0,0,0,0,0,0,0,0,0,0,0
"RY1","184755","TRUJILLO, CASLYNNE","2020-03-11","H","full",0,38.81,38.87,31.67,39.27,29.42,7.90,34.89,28.83,7.89,0,0,0,0
"RY1","195231","TURNER, RICHARD J","","C","full",0,0,0,0,0,0,0,0,0.00,0,0,0,0,0
"RY1","175642","VANCAMP, KEVIN S","","S","full",0,0,0,0,0,0,0,0,0,0,0,0,0,0
"RY1","1144265","VAN HESTE II, FRED E","","H","full",0,51.76,42.18,39.42,51.00,45.58,24.53,43.00,42.52,23.93,49.25,40.77,40.07,16.12
"RY1","178543","VANYO, DAVID","","C","full",0,0,0,0.00,0,0,0,0,0,0,0,0,0,0
"RY1","185393","VARBERG, WILLIAM","","H","part",0,23.93,12.04,24.49,12.97,19.56,11.05,23.26,8.13,13.02,10.96,4.90,0,0
"RY1","15646","VELA, JUAN CARLOS","","H","full",0,43.25,39.83,50.17,42.59,40.21,40.94,43.26,44.88,39.49,19.74,38.86,38.95,16.52
"RY1","1145660","VIEN, NORMAN A","","H","full",0,30.67,37.40,49.38,30.48,37.48,43.37,46.77,45.75,54.55,27.17,0,0.00,16.00
"RY1","174934","VITTERS, JAKE","","H","part",0,23.31,19.91,21.94,12.06,20.17,19.24,21.89,21.03,23.11,14.03,0,0,0
"RY1","1146751","WAGENER, SAMUEL L","","S","full",0,0,0,0,0,0,0,0,0,0,0,0,0,0
"RY1","1146989","WALDBAUER, ALEX","","C","full",0,42.69,47.90,34.64,42.49,26.17,40.97,41.68,48.24,37.98,34.42,33.35,38.46,13.03
"RY1","165989","WALDECK, JAMES A","","C","full",0,0,0,0,0,0,0,0,0,0,0,0,0,0
"RY1","1146991","WALDEN, CHRIS W","","C","full",0,43.35,42.75,33.97,42.66,44.02,42.73,45.19,43.84,45.30,43.08,43.55,43.31,15.04
"RY1","1147062","WALIOR, SUSAN E","","S","full",0,48.93,44.87,26.87,49.40,49.60,48.86,54.88,9.79,0,0,0,0.00,0
"RY1","1147061","WALTON, JOSHUA","","C","full",0,47.85,43.48,42.41,42.36,35.74,43.24,49.44,41.78,43.36,33.42,40.45,39.94,16.69
"RY1","1147250","WARMACK, JAMES H","","C","full",0,0,0,0.00,0,0,0.00,0,0,0,0,0.00,0,0
"RY1","197530","WATSON, BRYCE","","H","part",0,16.51,5.97,9.75,16.35,6.22,16.49,16.94,9.82,14.08,13.05,16.15,17.56,13.44
"RY1","169542","WEBER, BRANDON","","H","part",0,0,0,0,0,0,0,0,0,0,0,0,0,0
"RY1","1147810","WEBER, JAMES A","","C","full",0,0.00,0.00,0,0,0,0,0,0,0,0,0,0,0
"RY1","162984","WIKSTROM, ABIGAIL","","H","full",0,43.40,42.29,43.05,43.30,40.20,42.72,42.28,43.56,41.85,37.42,0,0,0
"RY1","163278","WILDE, HUNTER","","*","full",0,33.97,31.94,18.81,15.98,22.72,19.22,32.79,11.99,26.96,30.94,35.53,6.98,1.89
"RY1","1149160","WILKENING, RONALD","","H","part",0,23.00,7.00,8.00,0,20.00,8.00,18.50,21.00,9.50,19.00,7.00,0,0
"RY1","1149180","WILKIE, DAVID","","C","full",0,0,0,0,0,0,0,0,0,0,0,0,0,0
"RY1","1149300","WINKLER, ZACHARY S","","C","full",0,57.62,51.35,50.16,50.94,65.09,54.57,43.40,53.81,51.01,58.33,41.84,0,0
"RY1","1149636","WINZER, CHRISTOPHER L","","H","full",0,38.12,44.87,49.04,42.20,42.08,41.43,42.02,41.39,44.81,43.91,44.15,40.40,16.02
"RY1","165982","WOHLGAMUTH, ALEX","","H","part",0,17.60,23.53,12.00,17.04,22.16,20.10,12.37,22.79,23.29,18.26,30.16,25.01,7.13
"RY1","1149710","WOINAROWICZ, EMILEE M","","H","full",0,44.79,41.48,36.93,4.00,48.43,41.80,33.48,40.31,39.35,39.24,39.30,40.14,18.03
"RY1","115021","WOODS, SCOTT","","H","full",0,41.01,35.70,41.98,40.80,40.24,40.77,41.16,32.96,42.30,41.06,38.52,41.05,16.56
"RY1","1150510","YEM, RITHY M","","S","full",0,0,0,0,0,0,0,0,0,0,0,0,0,0
"RY1","157938","YORBA, TAVIN","","H","part",0,0,0,0,0,0,0,0,0,0,0,0,0,0
"RY1","1151450","YUNKER, GEORGE P","","C","full",0,0,0,0,0,0,0,0,0,0,0.00,0,0,0
"RY1","1150920","ZACHA, CHARLES J","","*","full",0,27.64,19.05,32.36,23.25,31.13,22.98,26.36,11.47,16.56,30.29,25.72,26.70,10.33
"RY1","1160100","ZOELLICK, STEVE","","S","full",0,0,0,0,0,0,0,0,0,0,0,0,0,0
"RY2","210123","BARTA, PATRICK","","H","full",0,41.29,38.24,34.12,41.87,50.28,38.66,42.76,43.71,39.47,35.16,45.61,38.57,18.39
"RY2","24665","BATZER, CORY","","H","full",0,42.18,49.66,53.68,51.10,40.31,47.33,42.82,52.96,39.78,53.70,55.22,37.60,16.88
"RY2","246783","BEAUVAIS, ELLIOT","","H","full",0,51.54,33.07,50.53,33.54,37.81,41.91,33.13,52.44,40.39,47.18,33.20,24.17,0
"RY2","254976","BINA, BENJAMIN","","C","full",0,39.05,44.79,43.57,44.23,43.62,28.29,26.62,46.56,44.60,35.72,45.03,44.87,17.20
"RY2","213520","BINA, NOAH P","","H","part",0,50.06,17.07,20.94,12.77,2.17,15.80,1.84,3.98,3.27,0,4.06,14.01,2.45
"RY2","257935","BOGER, DYLAN","","H","part",0,19.62,11.08,25.28,12.03,20.52,10.84,19.71,20.82,19.64,11.20,20.17,8.59,4.16
"RY2","275934","BOHL, SHERYL","2020-01-31","H","part",0,8.93,4.72,17.60,10.74,0,0,0,0,0,0,0,0,0
"RY2","269843","BOOKER, JEREMIAH","2020-01-19","H","full",0,34.84,35.18,40.83,40.88,16.34,0,0,0,0,0,0,0,0
"RY2","24551","BUCKHOLZ, TYLER","","H","full",0,43.28,48.16,42.95,52.74,49.57,49.75,36.50,49.92,41.53,56.66,31.91,40.68,9.20
"RY2","230601","DANGERFIELD, JOEL","","S","full",0,0,0,0,0,0,0,0,0,0,0,0,0,0
"RY2","230810","DOERR, ROY","","H","part",0,14.84,36.73,0,28.32,0,14.70,0,27.28,0,36.99,0,27.36,0
"RY2","294387","DUNHAM, DEXTER","","C","*",0,0,0,0,0,0,0,0,0,0,0,0,0,0
"RY2","276431","ENGEBRETSON, ERIK","","C","full",0,39.49,40.45,41.11,40.46,48.84,37.45,46.40,37.09,43.96,44.59,37.79,41.22,16.60
"RY2","295435","ERICKSON, ANTHONY","","H","full",0,36.18,52.62,36.50,42.12,50.62,53.09,54.06,47.03,52.45,51.98,31.78,32.37,8.55
"RY2","241085","EVENSON, GARRETT","","C","full",0,34.86,29.62,45.53,40.02,31.06,33.49,37.72,44.54,27.58,38.59,46.27,38.70,11.17
"RY2","243180","FEIST, LUDWIG","","H","full",0,16.75,15.66,45.53,41.48,24.11,41.90,42.68,42.05,41.79,24.29,1.13,42.60,16.36
"RY2","247000","FRASER, BRADEN","","H","full",0,39.85,41.45,39.59,35.40,50.99,41.52,42.51,51.87,41.41,41.13,51.22,37.43,16.69
"RY2","249750","GABRIELSON, JAMES","","C","full",0,0,0.00,0,0,0,0,0,0,0,0,0,0,0
"RY2","254327","GROLLIMUND, TYLER","","C","full",0,0,0,0.00,0,0,0,0,0,0,0,0,0,0
"RY2","263095","HAGER, DELWYN D","","H","part",0,0,0,0,0,0,0,0,0,0,0,0,0,0
"RY2","264110","HEAZLETT, CURTIS F","","H","part",0,24.00,36.00,14.50,21.50,14.00,14.00,28.50,17.50,33.00,30.00,0,0,0
"RY2","264220","HELGESON, JEFFREY S","","H","full",0,42.85,44.36,34.61,44.07,44.39,44.54,43.84,43.09,34.02,26.11,45.10,9.71,0.00
"RY2","211232","HOLLAND, NIKOLAI","","C","full",0,0,0,0,0,0,0,0,0,0,0,0,0,0
"RY2","268753","HUEWE, LUCAS","2020-01-15","H","full",0,43.31,21.53,0,0,0,0,0,0,0,0,0,0,0
"RY2","256879","JENSON, MARK A","","H","part",0,34.27,27.98,16.85,0,26.09,33.54,17.24,36.80,16.90,0,5.59,7.89,0
"RY2","268523","JEROME, TRISTAN","","H","full",0,0,0,0,0,0,0,0,0,0,0,0,0,0
"RY2","232874","JOHNSON, ALLYN","","H","part",0,15.29,0,20.66,0,11.39,0,20.62,0,11.22,5.30,24.93,11.45,0
"RY2","273315","JOHNSON, BRANDON J","","C","full",0,41.81,42.14,34.58,41.11,42.48,45.88,44.08,53.78,41.72,39.93,48.99,41.72,17.60
"RY2","243876","JOHNSON, CHRISTIE","","C","full",0,0,0,0,0,0,0,0,0,0,0,0,0,0
"RY2","274225","JOHNSON, DUSTIN A","","H","full",0,42.99,44.14,41.60,39.92,28.28,40.46,44.63,41.83,42.50,40.60,42.82,39.55,16.04
"RY2","295148","KELLER, JOSIAH","","C","full",0,46.37,34.16,38.98,46.59,38.19,38.06,45.23,37.55,37.96,41.44,35.01,0.00,0
"RY2","279380","KNUDSON, BENJAMIN","","C","full",0,0,0,0,0,0,0,0,0,0,0,0,0,0
"RY2","279630","KNUDSON, KENNETH","","C","full",0,46.07,39.25,37.96,50.28,31.50,34.64,45.62,38.29,36.47,41.60,40.43,38.48,15.87
"RY2","268574","LARA III, REYES","","H","full",0,40.33,50.89,36.43,41.86,39.11,34.24,0,33.92,33.60,7.88,0,0,0
"RY2","265328","LONGORIA, MICHAEL","","C","full",0,0,0,0,0,0,0,0,0,0,0,0,0,0
"RY2","275342","LOUDEN, ZAKERY","","H","part",0,39.73,10.12,17.14,0,15.15,10.34,13.95,9.85,7.99,26.08,39.18,34.96,15.40
"RY2","249315","LOUGEE, THOMAS","","H","full",0,49.79,37.51,40.66,49.45,40.37,40.69,49.89,36.51,49.97,36.86,47.51,8.11,0
"RY2","298432","MASON, MYRON","","H","full",0,41.82,41.11,43.32,40.41,37.78,38.45,39.94,40.83,40.32,40.49,41.26,38.93,15.83
"RY2","291582","MATHISEN, GARY","","H","part",0,0,3.00,0,25.91,9.50,23.61,4.00,0,10.50,26.62,0,0,0
"RY2","275849","MAXWELL, WYATT","","H","part",0,0,12.88,15.94,26.53,25.89,13.44,22.52,25.60,16.26,9.90,0,0,0
"RY2","215883","MONREAL, JESSIE","","C","full",0,0,0,0,0,0,0,0,0,0,0,0.00,0.00,0.00
"RY2","2100750","NELSON, NICHOLAS","","C","full",0,0,0,0,0,0,0,0,0,0,0,0,0,0
"RY2","289563","NEUMANN, NANCY","","H","full",0,41.14,49.20,40.86,40.99,50.89,39.76,49.37,39.71,49.19,41.29,40.27,38.79,16.33
"RY2","2106350","OLSON, CHAD","","S","full",0,0,0,0,0,0,0,0,0,0,0,0,0,0
"RY2","296347","OLSON, JAMIE","","H","full",0,45.40,46.18,44.71,35.92,43.08,41.43,42.02,44.83,44.96,43.83,44.26,39.91,15.83
"RY2","264387","OLVERA, CHRISTIAN","","H","full",0,49.57,49.33,41.03,30.69,43.98,29.82,40.21,40.66,42.72,8.64,0,0,0
"RY2","2106410","PEDERSON, DAVID A","","H","full",0,55.86,44.64,46.30,55.40,47.45,47.76,49.32,27.95,45.90,55.21,44.48,43.62,8.15
"RY2","211201","PROIS, JUSTIN","","C","full",0,24.31,32.49,37.24,35.99,35.40,20.58,35.20,28.07,42.73,31.83,39.10,28.49,15.55
"RY2","2114160","RAMBERG, GARY","","H","full",0,43.75,40.52,51.51,38.34,31.29,59.60,49.54,32.80,55.75,45.41,39.58,38.68,15.15
"RY2","267531","RAMON JR, MICHAEL","","C","*",0,0,0,0,0,0,0,0,0,0,0,0,0,0
"RY2","267843","ROMIG, THOMAS","","C","full",0,0,0,0,0,0,0,0,0,0,0,0,0,0
"RY2","242539","SALDANA, DEION","","C","full",0,0,0,0,0,0,0,0,0,0,0,0,0,0
"RY2","2126055","SHROYER, RYAN","","S","full",0,0,0,0,0,0,0,0,0,0,0,0,0,0
"RY2","2130150","SOBOLIK, PAUL A","","C","full",0,36.26,45.43,22.82,34.62,45.78,38.43,38.18,38.85,48.46,38.47,51.03,51.26,15.81
"RY2","2130678","SPENCER, FRED C","","C","full",0,0,0,0,0,0,0,0,0,0,0.00,0.00,0,0
"RY2","264852","SUMMERS, SAMANATHA G","","H","full",0,39.74,39.22,46.75,36.00,32.46,43.42,36.11,40.33,32.49,37.77,42.27,35.81,14.99
"RY2","264852","SUMMERS, SAMANTHA","","H","full",0,39.74,39.22,46.75,36.00,32.46,43.42,36.11,40.33,32.49,37.77,42.27,35.81,14.99
"RY2","256845","SUTHERLAND, BROOKE","","*","full",0,0,0,0,0,0,0,0,16.36,15.90,0.00,41.64,41.57,16.45
"RY2","2135031","SYVERSON, AMANDA","","C","full",0,0,0,0,0,0,0,0,0,0,0,0,0,0
"RY2","2141225","TANDESKI, JADE L","","H","full",0,40.54,43.92,45.07,48.88,23.18,45.06,43.98,41.86,43.93,43.73,39.97,40.00,16.00
"RY2","298567","TANDESKI, JEROME","","H","part",0,29.00,10.50,0,14.00,21.00,22.00,20.00,0,0,0,0,0,0
"RY2","247583","VOELKER, JUSTIN","","H","full",0,0,0,0,0,0,0,0,0,24.08,32.53,20.90,24.57,5.17
"RY2","2150210","WILDE, COREY R","","C","full",0,0,0,0,0,0,0,0,0,0,0,0,0,0
"RY2","256984","ZAPZALKA, WYATT","","C","full",0,39.16,45.82,41.77,42.02,42.05,47.62,44.14,42.31,42.28,50.70,25.78,40.33,16.71
"RY2","211568","ZEMAN, HUNTER","","H","full",0,49.29,45.85,30.19,41.43,49.00,31.42,49.44,41.13,39.69,42.71,43.93,41.85,16.35
"RY2","2126053","ZIDON, STEPHEN","","H","part",0,0,0,27.72,9.10,27.90,5.59,28.81,0,37.38,0,28.20,16.53,0
