store_code|batch|employee_number|ssn|name|address_1|address_2|city|state|zip|div_loc|employee_type|birth_date|orig_hire_date|eligible_date|rehire_date|term_date|hours|gross|excluded_compensation|expected_annual_salary|employee_deferral|roth_deferral|after_tax|employer_match|employer_discretionary|safe_harbor|safe_harbor_match|pension|loan_number|loan_payments|payroll_frequency
RY1|115180|145840|474-78-3324|FLAAT, STEPHEN C|23821 STATE HWY 220 SW||FISHER|MN|567239319|    |1|1957-03-19|2005-02-01|2006-02-01|||80.00|5796.05|    |    |579.61|0.00|    |115.92|    |    |    |    |    |    |S
RY1|115180|1130690|502-64-0339|STADSTAD, LARRY O|1304 WESTERN AVE||MANVEL|ND|582564308|    |1|1953-12-07|2007-08-20|2008-08-20|2015-01-01||80.00|895.54|    |    |89.55|0.00|    |17.91|    |    |    |    |    |    |S
RY1|115180|110052|247-85-7134|BARKER, JOSHUA D|425 GOODWIN AVE||THOMPSON|ND|582784104|    |1|1984-10-05|2010-11-01|2011-11-01|||80.00|2213.42|    |    |0.00|0.00|    |0.00|    |    |    |    |    |    |S
RY1|115180|151702|502-08-5815|MULHERN, ALAN|1115 19TH AVE SE||EAST GRAND FORKS|MN|56721|    |1|1977-11-04|2017-01-05|2018-01-05|||80.00|500.00|    |    |0.00|0.00|    |0.00|    |    |    |    |    |    |S
RY1|115180|187594|474-29-7102|LONGORIA, BRANDON|1801 CONTINENTAL DRIVE|APT. 6|GRAND FORKS|ND|58201|    |1|1995-04-03|2018-01-03|2019-01-03|||80.00|500.00|    |    |0.00|0.00|    |0.00|    |    |    |    |    |    |S
RY1|115180|124120|633-38-7087|CHAVEZ, JESSE|5218 CIRCLE DR N||GRAND FORKS|ND|582032651|    |1|1993-09-12|2014-06-30|2015-06-30|||80.00|850.00|    |    |25.50|0.00|    |12.75|    |    |    |    |    |    |S
RY1|115180|17534|502-70-6010|AUBOL, THOMAS B|2402 SO 23RD ST||GRAND FORKS|ND|582016433|    |1|1964-06-17|1998-11-09|1999-11-09|||0.00|1000.00|    |    |80.00|0.00|    |20.00|    |    |    |    |    |    |S
RY1|115180|12654|768-75-8232|ANNAN, PAPA KWESI|851 UNIVERSITY AVE APT 215||GRAND FORKS|ND|58203|    |1|1995-04-16|2017-11-20|2018-11-20|||80.00|712.00|    |    |0.00|0.00|    |0.00|    |    |    |    |    |    |S
RY1|115180|128530|501-72-7632|CROAKER, CRAIG R|40972 130TH ST SW||EAST GRAND FORKS|MN|567219117|    |1|1956-09-03|2007-01-30|2008-01-30|||80.00|5041.45|    |    |201.66|0.00|    |100.83|    |    |    |    |    |    |S
RY1|115180|152480|502-64-4066|GOETZ, DUANE E|2377 KEYSTONE CT||GRAND FORKS|ND|582018870|    |2|1952-09-15|2012-10-01|2013-10-01|||80.00|4500.00|    |    |0.00|0.00|    |0.00|    |    |    |    |    |    |S
RY1|115180|140500|502-04-6384|ERICKSON, RONALD J|4602 HOMESTEAD CIR||GRAND FORKS|ND|582017265|    |1|1975-02-12|2009-10-12|2010-10-12|||80.00|800.00|    |    |0.00|0.00|    |0.00|    |    |    |    |    |    |S
RY1|115180|1566882|539-17-2276|SCHNEIDER, BRIAN|301 WINDWARD HILLS AVE||GRAND FORKS|ND|58201|    |1|1987-07-10|2017-06-05|2018-06-05|||80.00|1472.90|    |    |0.00|0.00|    |0.00|    |    |    |    |    |    |S
RY1|115180|112589|589-43-0723|BEDNEY, TYLER|2961 24TH AVE S APT 309||GRAND FORKS|ND|58201|    |1|1994-05-23|2017-06-05|2018-06-05|||80.00|2154.43|    |    |0.00|0.00|    |0.00|    |    |    |    |    |    |S
RY1|115180|189100|501-76-4373|LOVEN, ARDEN|628 10TH AVE S||GRAND FORKS|ND|582014320|    |1|1960-03-01|2010-03-08|2011-03-08|||80.00|700.00|    |    |28.00|0.00|    |14.00|    |    |    |    |    |    |S
RY1|115180|1149180|501-68-9008|WILKIE, DAVID|3917 SIMONVIEW CRT||GRAND FORKS|ND|582017672|    |1|1954-09-28|1978-05-17|1979-05-17|||80.00|1100.00|    |    |66.00|0.00|    |22.00|    |    |    |    |    |    |S
RY1|115180|148080|376-11-1011|FOSTER, SAMUEL T|1260 55TH AVE SOUTH APT 102||GRAND FORKS|ND|582019273|    |1|1990-07-17|2014-11-17|2015-11-17|||80.00|2052.56|    |    |61.58|0.00|    |30.79|    |    |    |    |    |    |S
RY1|115180|147741|501-06-7799|BJARNASON, JUSTIN|918 PARK DR||GRAND FORKS|ND|58201|    |1|1985-04-13|2017-06-05|2018-06-05|||80.00|1837.28|    |    |0.00|0.00|    |0.00|    |    |    |    |    |    |S
RY1|115180|1112410|474-17-3594|PRESTON, ALLEN E|1103 CAMPBELL DR UNIT 4||GRAND FORKS|ND|582016907|    |1|1988-06-22|2014-02-10|2015-02-10|||80.00|600.00|    |    |0.00|0.00|    |0.00|    |    |    |    |    |    |S
RY1|115180|1106225|502-84-5420|OLDERBAK, JOHN|525 15TH AVE S||GRAND FORKS|ND|582015604|    |1|1972-10-22|2005-02-07|2006-02-07|2016-02-16||80.00|1300.00|    |    |52.00|0.00|    |26.00|    |    |    |    |    |    |S
RY1|115180|1124625|502-15-5362|SEAY, BRYN N|2814 S 10TH ST||GRAND FORKS|ND|58201|    |1|1990-02-08|2014-08-25|2015-08-25|||80.00|3337.12|    |    |0.00|266.97|    |0.00|    |    |    |    |    |    |S
RY1|115180|1135518|516-80-4778|TARR, JEFF D|1706 8TH AVE SO||GRAND FORKS|ND|582014216|    |1|1962-09-14|1993-11-01|1994-11-01|||80.00|1576.50|    |    |94.59|0.00|    |31.53|    |    |    |    |    |    |S
RY1|115180|156884|502-13-5631|ENTZEL, KYLE|906 ALMONTE AVE||GRAND FORKS|ND|58201|    | |1989-01-11|2017-07-10|||2017-12-31|80.00|500.00|    |    |0.00|0.00|    |0.00|    |    |    |    |    |    |S
RY1|115180|179380|501-15-4984|KNUDSON, BENJAMIN L|5370 MAC DRIVE||GRAND FORKS|ND|582013005|    |1|1989-08-10|2009-08-12|2010-08-12|||80.00|3200.00|    |    |256.00|0.00|    |64.00|    |    |    |    |    |    |S
RY1|115180|1147250|476-82-4704|WARMACK, JAMES H|813 23RD AVE SE||EAST GRAND FORKS|MN|567213011|    |1|1961-10-03|1985-03-01|1986-03-01|2011-04-02||80.00|2803.85|    |    |280.39|0.00|    |56.08|    |    |    |    |    |    |S
RY1|115180|195460|468-02-5696|MICHAEL, ANTHONY E|2128 41ST AVE S||GRAND FORKS|ND|582013469|    |1|1980-04-09|2010-10-25|2011-10-25|||80.00|700.00|    |    |49.00|0.00|    |14.00|    |    |    |    |    |    |S
RY1|115180|133017|475-02-9722|DOCKENDORF, NATE J|2144 5TH AVE NW||EAST GRAND FORKS|MN|567211219|    |1|1976-08-17|2015-05-18|2016-05-18|||80.00|2500.00|    |    |200.00|0.00|    |0.00|    |    |    |    |    |    |S
RY1|115180|15552|502-25-7461|DECOUTEAU, FRANK A|1518 S 19TH ST||GRAND FORKS|ND|58201|    |1|1990-03-04|2017-09-25|2018-09-25|||80.00|3069.00|    |    |0.00|0.00|    |0.00|    |    |    |    |    |    |S
RY1|115180|178543|501-15-1751|VANYO, DAVID|4 VAIL CIRCLE||GRAND FORKS|ND|58201|    |1|1989-06-02|2017-12-18|2018-12-18|||80.00|500.00|    |    |0.00|0.00|    |0.00|    |    |    |    |    |    |S
RY1|115180|123538|468-92-4980|CARLSON, ROBERT|3913 21ST ST S||FARGO|ND|581046804|    |1|1965-03-18|1997-04-01|1998-04-01|||80.00|5000.00|    |    |750.00|0.00|    |100.00|    |    |    |    |    |    |S
RY1|115180|137220|637-22-4561|EDEN, COREY|3700 30TH AVE SO APT 308||GRAND FORKS|ND|58201|    |1|1991-04-12|2016-02-01|2017-02-01|||80.00|700.00|    |    |3.00|0.00|    |1.50|    |    |    |    |    |    |S
RY1|115180|1132700|482-96-6319|STOUT, RICK|2950 36TH AVE S APT B13||GRAND FORKS|ND|582013546|    |1|1974-05-25|2016-08-29|2017-08-29|||80.00|3500.00|    |    |3.00|0.00|    |1.50|    |    |    |    |    |    |S
RY1|115180|1212688|501-04-5710|EASTMAN, DONOVAN|2441 GLEN CIRCLE||GRAND FORKS|ND|58201|    |1|1974-12-23|2017-04-10|2018-04-10|||80.00|608.03|    |    |0.00|0.00|    |0.00|    |    |    |    |    |    |S
RY1|115180|186593|227-61-9486|HILL DEFENDER, RYAN C|3500 RUEMMELE RD APT 209||GRAND FORKS|ND|58201|    |1|1991-04-15|2018-01-03|2019-01-03|||80.00|500.00|    |    |0.00|0.00|    |0.00|    |    |    |    |    |    |S
RY1|115180|12242|501-21-2773|BELGARDE, ROSS|4000 GARDEN VIEW DR APT 205||GRAND FORKS|ND|58201|    |1|1994-04-13|2017-06-19|2018-06-19|||80.00|600.00|    |    |0.00|0.00|    |0.00|    |    |    |    |    |    |S
RY1|115180|111232|472-35-8048|HOLLAND, NIKOLAI|4000 GARDENVIEW DR|APT. 404|GRAND FORKS|ND|58201|    |1|1994-06-09|2017-03-27|2018-03-27|||80.00|2350.06|    |    |0.00|0.00|    |0.00|    |    |    |    |    |    |S
RY1|115180|163700|502-19-1450|HALEY, DYLANGER|104 RIVERS EDGE DR||GRAND FORKS|ND|58201|    |1|1993-02-09|2016-09-26|2017-09-26|||80.00|1957.06|    |    |58.71|0.00|    |29.36|    |    |    |    |    |    |S
RY1|115180|171150|501-21-1681|JANZEN, AUSTIN|615 1ST AVE N APT 208||GRAND FORKS|ND|582033616|    | |1994-02-19|2016-05-23|||2018-02-02|80.00|1185.71|    |    |0.00|0.00|    |0.00|    |    |    |    |    |    |S
RY1|115180|1122342|502-86-4527|SATTLER, RANDY J|815 SO. 22ND ST.||GRAND FORKS|ND|582014139|    |1|1958-09-24|2002-08-26|2003-08-26|||80.00|700.00|    |    |28.00|0.00|    |14.00|    |    |    |    |    |    |S
RY1|115180|1147810|502-98-2402|WEBER, JAMES A|610 7TH ST N.||THOMPSON|ND|58278|    |1|1982-02-19|2011-10-10|2012-10-10|||80.00|2263.80|    |    |67.91|0.00|    |33.96|    |    |    |    |    |    |S
