store_code|batch|employee_number|ssn|name|address_1|address_2|city|state|zip|div_loc|employee_type|birth_date|orig_hire_date|eligible_date|rehire_date|term_date|hours|gross|excluded_compensation|expected_annual_salary|employee_deferral|roth_deferral|after_tax|employer_match|employer_discretionary|safe_harbor|safe_harbor_match|pension|loan_number|loan_payments|payroll_frequency
RY2|112180|223050|502-23-5975|CARLSTROM, NATHAN T|1018 23RD AVE S||GRAND FORKS|ND|582016952|    |2|1997-08-01|2013-10-24|2014-10-24|||71.46|1000.44|    |    |0.00|0.00|    |0.00|    |    |    |    |    |    |B
RY2|112180|230601|502-94-3827|DANGERFIELD, JOEL|3025 QUEENS COURT||GRAND FORKS|ND|582013520|    |1|1966-02-26|2001-11-29|2002-11-29|||80.00|3133.95|    |    |0.00|0.00|    |0.00|    |    |    |    |    |    |B
RY2|112180|230810|501-42-1274|DOERR, ROY|2951 24TH AVE S #108||GRAND FORKS|ND|582016158|    |2|1941-06-26|2013-04-29||||22.91|229.10|    |    |0.00|0.00|    |0.00|    |    |    |    |    |    |B
RY2|112180|243180|501-70-9498|FEIST, LUDWIG|1423 9TH AVE N||GRAND FORKS|ND|582010707|    |1|1965-12-21|1995-01-23|1996-01-23|2017-10-09||70.13|1378.08|    |    |0.00|0.00|    |0.00|    |    |    |    |    |    |B
RY2|112180|264220|502-15-5658|HELGESON, JEFFREY S|1625 20TH AVE S APT 104||GRAND FORKS|ND|582016374|    |1|1989-09-10|2009-11-24|2010-11-24|||80.00|1678.40|    |    |0.00|0.00|    |0.00|    |    |    |    |    |    |B
RY2|112180|273315|502-04-8472|JOHNSON, BRANDON J|1121 19TH ST NE||GRAND FORKS|ND|582019510|    |1|1985-06-04|2004-07-20|2006-06-04|2011-03-07||73.33|2218.87|    |    |88.75|0.00|    |44.38|    |    |    |    |    |    |B
RY2|112180|274225|502-04-1550|JOHNSON, DUSTIN A|3655 RUEMMELE RD APT 215||GRAND FORKS|ND|582016199|    |1|1982-12-02|2007-12-17|2008-12-17|2014-02-10||38.49|1849.80|    |    |0.00|0.00|    |0.00|    |    |    |    |    |    |B
RY2|112180|279630|502-82-5414|KNUDSON, KENNETH|2405 SO 18TH ST||GRAND FORKS|ND|582015624|    |1|1957-03-13|1980-10-06|1981-10-06|2013-01-02||75.96|2610.18|    |    |0.00|0.00|    |0.00|    |    |    |    |    |    |B
RY2|112180|291600|502-64-0406|MATHISEN, LAURIE S|2304 45TH AVE S||GRAND FORKS|ND|582013435|    |1|1953-07-18|2003-04-01|2004-04-01|||48.88|1035.56|    |    |41.42|0.00|    |20.71|    |    |    |    |    |    |B
RY2|112180|2106350|469-08-4543|OLSON, CHAD|15590 470TH AVE NW||OSLO|MN|567449435|    |1|1971-02-15|2002-09-09|2003-09-09|2010-01-01||80.00|3084.62|    |    |0.00|0.00|    |0.00|    |    |    |    |    |    |B
RY2|112180|2106410|475-80-9816|PEDERSON, DAVID A|1528 12TH AVE SE||EAST GRAND FORKS|MN|567213227|    |1|1960-01-09|2011-12-16|2012-12-16|||78.26|2722.96|    |    |0.00|0.00|    |0.00|    |    |    |    |    |    |B
RY2|112180|2130150|502-82-5209|SOBOLIK, PAUL A|1118 ALMONTE AVE||GRAND FORKS|ND|582015642|    |1|1972-03-04|1992-03-23|1993-03-23|||32.60|2195.09|    |    |131.71|0.00|    |43.90|    |    |    |    |    |    |B
RY2|112180|241085|502-06-7037|EVENSON, GARRETT|507 27TH AVE SO||GRAND FORKS|ND|58201|    |1|1986-11-04|2007-05-14|2008-05-14|2014-06-15||61.21|1448.57|    |    |43.46|0.00|    |21.73|    |    |    |    |    |    |B
RY2|112180|213520|502-23-1440|BINA, NOAH P|3971 DAKOTA DR||GRAND FORKS|ND|582013544|    |2|1997-02-24|2014-05-19||2014-07-27||71.56|957.89|    |    |0.00|0.00|    |0.00|    |    |    |    |    |    |B
RY2|112180|2141225|501-98-6558|TANDESKI, JADE L|1502 S 15TH ST||GRAND FORKS|ND|58201|    |1|1980-06-02|2014-10-08|2015-10-08|||46.01|1073.12|    |    |32.19|0.00|    |16.10|    |    |    |    |    |    |B
RY2|112180|264110|501-56-7428|HEAZLETT, CURTIS F|2202 BELMONT RD||GRAND FORKS|ND|582017502|    |2|1950-07-04|2014-11-17||||2.50|30.00|    |    |0.00|0.00|    |0.00|    |    |    |    |    |    |B
RY2|112180|241120|392-06-8443|EDWARDS, MICAH|2024 30TH AVE S APT 11||GRAND FORKS|ND|582016586|    |1|1990-03-19|2014-12-29|2015-12-29|||72.30|1473.00|    |    |44.19|0.00|    |22.10|    |    |    |    |    |    |B
RY2|112180|213406|501-21-9913|BISENIUS, MICHELLE A|415 23RD AVE S||GRAND FORKS|ND|582015969|    |1|1994-12-02|2015-05-26|2016-05-26|2016-08-23||47.54|635.40|    |    |19.06|0.00|    |9.53|    |    |    |    |    |    |B
RY2|112180|291582|470-56-4858|MATHISEN, GARY|2304 45TH AVE S||GRAND FORKS|ND|582013435|    |2|1947-05-18|2015-11-09|2016-11-09|||33.25|365.75|    |    |0.00|0.00|    |0.00|    |    |    |    |    |    |B
RY2|112180|2126053|501-64-2617|ZIDON, STEPHEN|2702 S 35TH ST||GRAND FORKS|ND|582015931|    |2|1953-03-30|2015-12-21||||31.66|316.60|    |    |0.00|0.00|    |0.00|    |    |    |    |    |    |B
RY2|112180|210073|469-06-7067|BARON, CORY|1524 4TH AVE N||GRAND FORKS|ND|58203|    |1|1985-04-18|2015-08-31||2016-06-26||65.70|1424.63|    |    |0.00|0.00|    |0.00|    |    |    |    |    |    |B
RY2|112180|282713|471-29-7546|LARSON, CODY J|1405 15TH AVE S||GRAND FORKS|ND|58201|    |1|1994-10-31|2016-08-15|2017-08-15|||70.72|1214.08|    |    |36.42|0.00|    |0.00|    |    |    |    |    |    |B
RY2|112180|247000|502-23-1034|FRASER, BRADEN|1613 10TH AVE NORTH||GRAND FORKS|ND|58203|    |1|1997-02-04|2017-01-05|2018-01-05|||61.92|1012.96|    |    |0.00|0.00|    |0.00|    |    |    |    |    |    |B
RY2|112180|211260|502-25-1142|ENOCKSON, ZACHARY|1899 28TH AVE S APT 104||GRAND FORKS|ND|58201|    |1|1999-03-19|2017-01-31|2018-01-31|2017-06-01||71.84|1193.21|    |    |0.00|0.00|    |0.00|    |    |    |    |    |    |B
RY2|112180|2130510|621-26-3981|STAFFORD, MITCH|2225 10TH AVE N||GRAND FORKS|ND|582032215|    |1|1989-05-11|2013-12-23||2017-02-13||49.85|1950.33|    |    |58.51|0.00|    |29.26|    |    |    |    |    |    |B
RY2|112180|256879|502-66-6597|JENSON, MARK A|529 14TH ST NW||EAST GRAND FORKS|MN|56721|    |2|1952-02-13|2017-02-13||||22.24|222.40|    |    |0.00|0.00|    |0.00|    |    |    |    |    |    |B
RY2|112180|256689|468-31-5128|HALGRIMSON, JARED|1306 S. 11TH ST|APT. 3|GRAND FORKS|ND|58201|    |1|1995-08-18|2017-04-10|2018-04-10|||71.42|1136.46|    |    |0.00|0.00|    |0.00|    |    |    |    |    |    |B
RY2|112180|22358|501-23-7630|HUGHES, KAITLYN|2911 CHESTNUT ST||GRAND FORKS|ND|58201|    |2|1996-10-01|2017-07-31||||28.37|283.70|    |    |0.00|0.00|    |0.00|    |    |    |    |    |    |B
RY2|112180|256845|469-23-0486|SABIN, BROOKE|824 S 10TH APT 4||GRAND FORKS|ND|58201|    |1|1991-02-15|2017-03-27|2018-03-27|2017-07-23||50.66|1264.75|    |    |0.00|0.00|    |0.00|    |    |    |    |    |    |B
RY2|112180|295148|498-92-3564|KELLER, JOSIAH|2493 27TH AVE S APT 720||GRAND FORKS|ND|58201|    |1|1986-11-29|2017-09-11||||75.64|1570.33|    |    |0.00|0.00|    |0.00|    |    |    |    |    |    |B
RY2|112180|26442|502-25-4719|GJESTVANG, GRIFFIN|1118 27TH AVE S APT. 16||GRAND FORKS|ND|58201|    |1|1999-07-17|2017-10-23||||72.85|1206.70|    |    |0.00|0.00|    |0.00|    |    |    |    |    |    |B
RY2|112180|24551|502-27-3651|BUCKHOLZ, TYLER|5281 4TH AVE N||GRAND FORKS|ND|58201|    |2|2001-08-08|2017-10-23||||19.74|236.88|    |    |0.00|0.00|    |0.00|    |    |    |    |    |    |B
RY2|112180|24665|502-25-4077|BATZER, CORY|1017 CHERRY ST||GRAND FORKS|ND|58201|    |1|1999-06-28|2017-11-06||2017-11-20||62.28|984.90|    |    |0.00|0.00|    |0.00|    |    |    |    |    |    |B
RY2|112180|211201|475-23-3186|PROIS, JUSTIN|3451 24TH AVE S APT 114||GRAND FORKS|ND|58201|    |1|1991-08-15|2017-11-20||||64.68|1911.52|    |    |0.00|0.00|    |0.00|    |    |    |    |    |    |B
RY2|112180|20541|477-31-3218|ELLIOT, JOHN|601 PRINCETON ST||GRAND FORKS|ND|58203|    |2|1996-11-14|2017-11-20||||32.34|388.08|    |    |0.00|0.00|    |0.00|    |    |    |    |    |    |B
RY2|112180|298567|501-50-0787|TANDESKI, JEROME|1900 19TH ST NE||GRAND FORKS|ND|58203|    |2|1946-09-29|2017-12-28||||6.00|60.00|    |    |0.00|0.00|    |0.00|    |    |    |    |    |    |B
RY2|112180|245879|502-23-2753|HOUSKA, ETHAN|504 HILL AVE|APT. 2|GRAFTON|ND|58237|    | |1997-04-01|2018-01-03|||2018-01-03|2.00|24.00|    |    |0.00|0.00|    |0.00|    |    |    |    |    |    |B
