~input_row_num~,~passthru_id~,~avail_style_ids~,~install_cause~,~install_cause_detail~,~color_code~,~color_name~,~rgb_value~
~1~,,~406524~,,,~AEV~,~Jet Black/Brandy~,
~1~,,~406524~,,,~AFR~,~Jet Black/Brandy~,
~1~,,~406524~,,,~AET~,~Jet Black/Light Ash Gray~,
~1~,,~406524~,,,~AFQ~,~Jet Black/Light Ash Gray~,
~1~,,~406524~,,,~AES~,~Jet Black~,
~1~,,~406524~,,,~AEW~,~Jet Black~,
~1~,,~406524~,,,~AFP~,~Jet Black~,